log/32byteFrame02.csv

#Digilent WaveForms Oscilloscope Acquisition
#Device Name: ADP5250-323F81C
#Serial Number: SN:323F81C
#Date Time: 2023-03-15 14:23:08.807.887.399
#Sample rate: 515464Hz
#Samples: 32768
#Trigger: Source: Channel 1 Type: Edge Condition: Rising Level: 0 V Hyst.: Auto
#Channel 1: Range: 2 V/div Offset: 0 V Attenuation: 1 X Coupling: DC Bandwidth: Full Sample Mode: Average
#Channel 2: Range: 200 mV/div Offset: 0 V Attenuation: 1 X Coupling: DC Bandwidth: Full

Time (s),Channel 1 (V),Channel 2 (V)
-0.031784196923,-3.6213991769547325,0
-0.031782256923,2.2222222222222223,0
-0.031780316923,-0.5761316872427984,0
-0.031778376923,-2.7983539094609786,0
-0.031776436922999994,2.0576131687185906,0
-0.031774496922999995,-1.0699588477336313,0
-0.031772556922999996,0.5761316872427984,0
-0.031770616923,-0.9876543209876543,0
-0.031768676923,-1.2345679012345678,0
-0.031766736923,1.646090534974184,0
-0.031764796922999994,0.08230452674837235,0
-0.031762856922999995,-0.24691358024496732,0
-0.031760916922999996,0.823045267489712,0
-0.031758976923,-0.9053497942386831,0
-0.031757036923,2.551440329218107,0
-0.031755096923,-3.9506172839387896,0
-0.031753156923,1.2345679012251365,0
-0.031751216922999995,0.32921810699184256,0
-0.031749276922999996,-1.8930041152263375,0
-0.031747336923,2.2222222222222223,0
-0.031745396923,0.411522633744856,0
-0.031743456923,-0.9053497942362877,0
-0.031741516923,3.4567901234488554,0
-0.031739576922999994,-3.9506172839398377,0
-0.031737636922999996,1.9753086419753085,0
-0.031735696923,0.49382716049382713,0
-0.031733756923,-3.8683127572016462,0
-0.031731816923,2.633744855967078,0
-0.031729876923,-0.4938271604881379,0
-0.031727936922999994,-0.246913580246165,0
-0.031725996922999995,0.16460905349330135,0
-0.031724056922999996,-2.3868312757201644,0
-0.031722116923,1.728395061728395,0
-0.031720176923,0.9053497942386831,0
-0.031718236923,-1.48148148147714,0
-0.031716296922999994,1.728395061723754,0
-0.031714356922999995,-0.8230452674852207,0
-0.031712416922999996,1.646090534979424,0
-0.031710476923,-4.032921810699588,0
-0.031708536923,0.49382716049382713,0
-0.031706596923,0.987654320986756,0
-0.031704656923,-0.6584362139887754,0
-0.031702716922999995,0.8230452674892629,0
-0.031700776922999996,0.5761316872427984,0
-0.031698836923,-0.5761316872427984,0
-0.031696896923,3.045267489711934,0
-0.031694956923,-3.5390946501937846,0
-0.031693016923,0.9053497942305992,0
-0.031691076922999994,1.1522633744781112,0
-0.031689136922999996,-2.962962962962963,0
-0.031687196923,1.2345679012345678,0
-0.031685256923,0.24691358024691357,0
-0.031683316923,0,0
-0.031681376923,-1.728395061725251,0
-0.031679436922999994,-0.9053497942350901,0
-0.031677496922999995,1.0699588477361763,0
-0.031675556922999996,0.823045267489712,0
-0.031673616923,-0.411522633744856,0
-0.031671676923,0.411522633744856,0
-0.031669736923,7.485678743535118e-13,0
-0.031667796922999994,1.9753086419643797,0
-0.031665856922999995,-4.032921810689109,0
-0.031663916922999996,1.728395061728395,0
-0.031661976923,0.6584362139917695,0
-0.031660036923,-1.316872427983539,0
-0.031658096923,2.1399176954669636,0
-0.031656156923,-0.5761316872378579,0
-0.031654216922999995,0.08230452675555848,0
-0.031652276922999996,3.7037037037037037,0
-0.031650336923,-4.032921810699588,0
-0.031648396923,2.3868312757201644,0
-0.031646456923,0.2469135802508058,0
-0.031644516923,-3.8683127571941602,0
-0.031642576922999995,2.6337448559621377,0
-0.031640636922999996,-0.0823045267489712,0
-0.031638696923,-0.3292181069958848,0
-0.031636756923,1.1522633744855968,0
-0.031634816923,-2.6337448559601917,0
-0.031632876923,1.4814814814739958,0
-0.031630936922999994,1.31687242797785,0
-0.031628996922999995,-1.8106995884709287,0
-0.031627056922999996,1.728395061728395,0
-0.031625116923,-0.24691358024691357,0
-0.031623176923,0.9053497942386831,0
-0.031621236923,-3.4567901234488554,0
-0.031619296922999994,0.9053497942379346,0
-0.031617356922999995,0.4938271604924797,0
-0.031615416922999996,-0.24691358024691357,0
-0.031613476923,0.7407407407407407,0
-0.031611536923,0.9053497942386831,0
-0.031609596923,-0.32921810699363896,0
-0.031607656922999994,2.4691358024577577,0
-0.031605716922999995,-3.786008230443243,0
-0.031603776922999996,1.3991769547325104,0
-0.031601836923,0.0823045267489712,0
-0.031599896923,-3.045267489711934,0
-0.031597956923,1.3991769547244264,0
-0.031596016923,0.08230452675136668,0
-0.031594076922999995,0.16460905349644528,0
-0.031592136922999996,-0.6584362139917695,0
-0.031590196923,-1.0699588477366255,0
-0.031588256923,1.2345679012345678,0
-0.031586316923,0.6584362139928175,0
-0.031584376923,-0.5761316872405527,0
-0.031582436922999994,0.740740740738495,0
-0.031580496922999995,-0.49382716049382713,0
-0.031578556923,1.728395061728395,0
-0.031576616923,-4.11522633744856,0
-0.031574676923,1.8106995884773662,0
-0.031572736923,0.8230452674915085,0
-0.031570796922999994,-1.5637860082238653,0
-0.031568856922999995,2.0576131687196386,0
-0.031566916922999996,-0.49382716049382713,0
-0.031564976923,0.0823045267489712,0
-0.031563036923,3.45679012345679,0
-0.031561096923,-3.868312757188322,0
-0.031559156922999994,2.386831275716272,0
-0.031557216922999995,0.24691358023942803,0
-0.031555276922999996,-3.8683127572016462,0
-0.031553336923,2.7983539094650207,0
-0.031551396923,-0.1646090534979424,0
-0.031549456923,-0.24691358024676385,0
-0.031547516923,0.8230452674877657,0
-0.031545576922999995,-2.798353909456188,0
-0.031543636922999996,2.05761316872428,0
-0.031541696923,1.0699588477366255,0
-0.031539756923,-1.9753086419753085,0
-0.031537816923,1.8106995884704795,0
-0.031535876923,-0.4938271604896356,0
-0.031533936922999994,1.0699588477277926,0
-0.031531996922999996,-3.786008230452675,0
-0.031530056923,0.411522633744856,0
-0.031528116923,1.1522633744855968,0
-0.031526176923,-0.1646090534979424,0
-0.031524236923,0.6584362139902724,0
-0.031522296922999994,0.9053497942359883,0
-0.031520356922999995,-0.5761316872365105,0
-0.031518416922999996,2.880658436213992,0
-0.031516476923,-3.786008230452675,0
-0.031514536923,1.2345679012345678,0
-0.031512596923,0.4115226337463531,0
-0.031510656922999994,-2.7160493827087135,0
-0.031508716922999995,1.3168724279811437,0
-0.031506776922999996,0,0
-0.031504836923,-0.3292181069958848,0
-0.031502896923,0.1646090534979424,0
-0.031500956923,-1.4814814814784871,0
-0.031499016923,1.152263374480806,0
-0.031497076922999995,0.8230452674864183,0
-0.031495136922999996,-0.9876543209876543,0
-0.031493196923,0.7407407407407407,0
-0.031491256923,-1.1522633744855968,0
-0.031489316923,1.728395061723155,0
-0.031487376923,-3.8683127571914664,0
-0.031485436922999994,1.2345679012332205,1.497110620202351e-14
-0.031483496922999996,0.49382716049382713,0.00823045267489712
-0.031481556923,-0.411522633744856,0.00823045267489712
-0.031479616923,1.9753086419753085,0
-0.031477676923,-0.6584362139917695,0
-0.031475736923,0.24691358024526677,0
-0.031473796922999994,3.456790123443166,0
-0.031471856922999995,-4.032921810688061,0
-0.031469916922999996,2.3045267489711936,0
-0.031467976923,0.0823045267489712,0
-0.031466036923,-3.6213991769547325,0
-0.031464096923,2.6337448559556997,0
-0.031462156922999994,-1.3991769547293664,0
-0.031460216922999995,0.32921810699663334,0
-0.031458276922999996,0.7407407407407407,0
-0.031456336923,-2.7983539094650207,0
-0.031454396923,2.2222222222222223,0
-0.031452456923,0.823045267492257,0
-0.031450516923,-2.1399176954678616,0
-0.031448576922999995,2.1399176954680112,0
-0.031446636922999996,-0.7407407407407407,0
-0.031444696923,0.9876543209876543,0.00823045267489712
-0.031442756923,-2.633744855967078,0.00823045267489712
-0.031440816923,-0.8230452674930056,1.4970663597679845e-14
-0.031438876923,1.3168724279796467,0
-0.031436936922999995,1.1976884961618808e-12,0
-0.031434996922999996,0.6584362139917695,0
-0.031433056923,0.7407407407407407,0
-0.031431116923,-0.3292181069958848,0
-0.031429176923,2.9629629629569743,0
-0.031427236923,-3.786008230440399,0
-0.031425296922999994,0.7407407407407407,0
-0.031423356922999995,0.7407407407331055,0
-0.031421416922999997,-3.45679012345679,0
-0.031419476923,1.8930041152263375,0
-0.031417536923,0.24691358024691357,0
-0.031415596923,-0.9053497942365873,0
-0.031413656922999994,1.23456790122828,0
-0.031411716922999995,-2.222222222216833,0
-0.031409776922999996,0.7407407407407407,0
-0.031407836923,1.3991769547325104,0
-0.031405896923,-1.4814814814814814,0
-0.031403956923,0.9053497942343416,0
-0.031402016922999994,0.08230452674986946,0
-0.031400076922999995,0.5761316872365105,0
-0.031398136922999996,-2.880658436213992,0
-0.031396196923,0.6584362139917695,0
-0.031394256923,0.24691358024691357,0
-0.031392316923,0.1646090534980921,0
-0.031390376923,1.810699588474372,0
-0.031388436922999995,-0.411522633743808,0
-0.031386496922999996,0.1646090534979424,0
-0.031384556923,3.292181069958848,0
-0.031382616923,-4.032921810699588,0
-0.031380676923,2.386831275708487,0
-0.031378736923,0.08230452675316302,0
-0.031376796922999994,-3.292181069947919,0
-0.031374856922999995,2.7160493827160495,0
-0.031372916923,-1.1522633744855968,0
-0.031370976923,0.7407407407407407,0
-0.031369036923,1.3991769547325104,0
-0.031367096923,-3.127572016452671,0
-0.031365156922999994,2.1399176954704067,0
-0.031363216922999995,0.576131687239355,0
-0.031361276922999996,-1.316872427983539,0
-0.031359336923,1.8930041152263375,0
-0.031357396923,-1.316872427983539,0
-0.031355456923,1.481481481476391,0
-0.031353516922999994,-3.786008230444591,0
-0.031351576922999995,0.6584362139931169,0
-0.031349636922999996,1.3991769547325104,0
-0.031347696923,-1.0699588477366255,0
-0.031345756923,1.8106995884773662,0
-0.031343816923,0.49382716049622255,0
-0.031341876923,-1.069958847733781,0
-0.031339936922999995,3.950617283936245,0
-0.031337996922999996,-3.950617283950617,0
-0.031336056923,1.1522633744855968,0
-0.031334116923,0.823045267489712,0
-0.031332176923,-3.5390946501978267,0
-0.031330236923,1.9753086419652788,0
-0.031328296922999994,0.16460905349599614,0
-0.031326356922999996,-0.9053497942386831,0
-0.031324416923,1.728395061728395,0
-0.031322476923,-2.551440329218107,0
-0.031320536923,1.0699588477366255,0
-0.031318596923,0.9876543209878039,0
-0.031316656922999994,-1.481481481477589,0
-0.031314716922999995,0.6584362139908713,0
-0.031312776922999996,0.1646090534979424,0
-0.031310836923,0.7407407407407407,0
-0.031308896923,-3.8683127572016462,0
-0.031306956923,1.069958847727643,0
-0.031305016922999994,0.5761316872417505,0
-0.031303076922999995,1.7965327442428211e-12,0
-0.031301136922999996,0.9876543209876543,0
-0.031299196923,0.823045267489712,0
-0.031297256923,-3.786008230452675,0
-0.031295316923,2.469135802457757,0
-0.031293376923,-3.456790123446011,0
-0.031291436922999995,1.7283950617265984,0
-0.031289496922999996,0.7407407407407407,0
-0.031287556923,-1.9753086419753085,0
-0.031285616923,2.05761316872428,0
-0.031283676923,-1.152263374479758,0
-0.031281736923,0.49382716049083286,0
-0.031279796922999994,2.4691358024577577,0
-0.031277856922999996,-3.786008230452675,0
-0.031275916923,2.05761316872428,0
-0.031273976923,-1.4814814814814814,0
-0.031272036923,1.481481481476092,0
-0.031270096923,0.905349794239731,0
-0.031268156922999994,-1.1522633744820037,0
-0.031266216922999995,0.8230452674864183,0
-0.031264276922999996,-0.9876543209876543,0
-0.031262336923,-1.5637860082304527,0
-0.031260396923,1.8930041152263375,0
-0.031258456923,-3.868312757191167,0
-0.031256516922999994,2.304526748967301,0
-0.031254576922999995,0.16460905349599614,0
-0.031252636922999996,-0.9053497942386831,0
-0.031250696923,2.3045267489711936,0
-0.031248756923,-3.45679012345679,0
-0.031246816922999996,0.0823045267489712,0
-0.031244876922999997,2.962962962962963,0
-0.031242936923,-2.633744855967078,0
-0.031240996922999996,2.139917695473251,0
-0.031239056922999997,0,0
-0.031237116922999998,-0.49382716049382713,0
-0.031235176922999996,2.4691358024691357,0
-0.031233236922999997,-2.880658436213992,0
-0.031231296922999998,0.6584362139917695,0
-0.031229356922999996,-0.24691358024691357,0
-0.031227416922999997,0.9053497942386831,0
-0.031225476922999998,0.24691358024691357,0
-0.031223536922999996,-0.0823045267489712,0
-0.031221596922999997,-0.24691358024691357,0
-0.031219656922999998,-0.7407407407407407,0
-0.031217716923,-0.9053497942386831,0
-0.031215776922999997,0.9053497942386831,0
-0.031213836922999998,-3.539094650205761,0
-0.031211896923,2.3868312757201644,0
-0.031209956922999996,-0.6584362139917695,0
-0.031208016922999997,0.24691358024691357,0
-0.031206076923,1.728395061728395,0
-0.031204136922999996,-3.6213991769547325,0
-0.031202196922999997,1.1522633744855968,0
-0.031200256923,1.8930041152263375,0
-0.031198316922999996,-1.8930041152263375,0
-0.031196376922999997,1.8930041152263375,0
-0.031194436923,-0.9876543209876543,0
-0.031192496922999996,0.411522633744856,0
-0.031190556922999997,1.5637860082304527,0
-0.031188616922999998,-3.2098765432098766,0
-0.031186676922999996,1.8930041152263375,0
-0.031184736922999997,-0.9053497942386831,0
-0.031182796922999998,1.1522633744855968,0
-0.031180856922999996,0.6584362139917695,0
-0.031178916922999997,-0.9053497942386831,0
-0.031176976922999998,0.6584362139917695,0
-0.031175036922999996,-0.9876543209876543,0
-0.031173096922999997,-1.5637860082304527,0
-0.031171156922999998,1.646090534979424,0
-0.031169216922999995,-3.8683127572016462,0
-0.031167276922999997,2.2222222222222223,0
-0.031165336922999998,0.24691358024691357,0
-0.031163396923,-0.823045267489712,0
-0.031161456922999996,2.3868312757201644,0
-0.031159516922999998,-3.292181069958848,0
-0.031157576923,0.3292181069958848,0
-0.031155636922999996,2.7983539094650207,0
-0.031153696922999997,-3.2098765432098766,0
-0.031151756923,2.05761316872428,0
-0.031149816922999996,-0.1646090534979424,0
-0.031147876922999997,-0.823045267489712,0
-0.031145936923,2.880658436213992,0
-0.031143996922999996,-3.6213991769547325,0
-0.031142056922999997,1.646090534979424,0
-0.031140116923,0.3292181069958848,0
-0.031138176922999996,-0.1646090534979424,0
-0.031136236922999997,1.2345679012345678,0
-0.031134296922999998,-0.3292181069958848,0
-0.031132356922999996,-0.5761316872427984,0
-0.031130416922999997,-0.1646090534979424,0
-0.031128476922999998,-1.3991769547325104,0
-0.031126536922999996,0.9053497942386831,0
-0.031124596922999997,-3.2098765432098766,0
-0.031122656922999998,1.8106995884773662,0
-0.031120716922999996,-0.5761316872427984,0
-0.031118776922999997,0.0823045267489712,0
-0.031116836922999998,1.5637860082304527,0
-0.031114896923,-3.2098765432098766,0
-0.031112956922999997,0.9053497942386831,0
-0.031111016922999998,1.9753086419753085,0
-0.031109076923,-2.2222222222222223,0
-0.031107136922999996,1.646090534979424,0
-0.031105196922999997,-0.5761316872427984,0.00823045267489712
-0.031103256923,0.3292181069958848,0
-0.031101316922999996,2.633744855967078,0
-0.031099376922999997,-3.1275720164609053,0
-0.031097436923,1.8930041152263375,0
-0.031095496922999996,-0.49382716049382713,0
-0.031093556922999997,0.9876543209876543,0
-0.031091616923,0.9876543209876543,0
-0.031089676922999996,-1.0699588477366255,0
-0.031087736922999997,0.7407407407407407,0
-0.031085796922999998,-1.0699588477366255,0
-0.031083856922999996,-0.9053497942386831,0
-0.031081916922999997,1.5637860082304527,0
-0.031079976922999998,-3.8683127572016462,0
-0.031078036922999996,2.551440329218107,0
-0.031076096922999997,-0.411522633744856,0
-0.031074156922999998,-0.1646090534979424,0
-0.031072216922999996,2.3868312757201644,0
-0.031070276922999997,-3.8683127572016462,0
-0.031068336922999998,1.0699588477366255,0
-0.031066396922999995,2.3868312757201644,0
-0.031064456922999997,-3.45679012345679,0
-0.031062516922999998,2.3045267489711936,0
-0.031060576923,0.1646090534979424,0
-0.031058636922999996,-1.0699588477366255,0
-0.031056696922999998,3.045267489711934,0
-0.031054756923,-3.539094650205761,0
-0.031052816922999996,1.2345679012345678,0
-0.031050876922999997,1.0699588477366255,0
-0.031048936923,-0.0823045267489712,0
-0.031046996922999996,1.0699588477366255,0
-0.031045056922999997,-0.24691358024691357,0
-0.031043116923,-0.411522633744856,0
-0.031041176922999996,-0.411522633744856,0
-0.031039236922999997,-1.3991769547325104,0
-0.031037296923,0.9053497942386831,0
-0.031035356922999996,-2.962962962962963,0
-0.031033416922999997,1.728395061728395,0
-0.031031476922999998,0.24691358024691357,0
-0.031029536922999996,-0.1646090534979424,0
-0.031027596922999997,1.3991769547325104,0
-0.031025656922999998,-3.2098765432098766,0
-0.031023716922999996,0.49382716049382713,0
-0.031021776922999997,2.3045267489711936,0
-0.031019836922999998,-2.7983539094650207,0
-0.031017896922999996,1.316872427983539,0
-0.031015956922999997,0.0823045267489712,0
-0.031014016922999998,-0.0823045267489712,0
-0.031012076923,1.9753086419753085,0
-0.031010136922999997,-2.7983539094650207,0
-0.031008196922999998,1.3991769547325104,0
-0.031006256923,0.3292181069958848,0
-0.031004316922999996,0.49382716049382713,0
-0.031002376922999998,0.5761316872427984,0
-0.031000436923,-0.49382716049382713,0
-0.030998496922999996,0.49382716049382713,0
-0.030996556922999997,-1.2345679012345678,0
-0.030994616923,-0.7407407407407407,0
-0.030992676922999996,1.316872427983539,0
-0.030990736922999997,-3.786008230452675,0
-0.030988796923,2.7160493827160495,0
-0.030986856922999996,-0.24691358024691357,0
-0.030984916922999997,-0.7407407407407407,0
-0.030982976922999998,2.3868312757201644,0.00823045267489712
-0.030981036922999996,-4.032921810699588,0
-0.030979096922999997,0.823045267489712,0
-0.030977156922999998,2.3045267489711936,0
-0.030975216922999996,-3.7037037037037037,0
-0.030973276922999997,2.4691358024691357,0
-0.030971336922999998,-0.3292181069958848,0
-0.030969396922999996,-0.7407407407407407,0
-0.030967456922999997,3.045267489711934,0
-0.030965516922999998,-3.7037037037037037,0
-0.030963576922999995,1.3991769547325104,0
-0.030961636922999997,1.316872427983539,0
-0.030959696922999998,-0.49382716049382713,0
-0.030957756923,1.1522633744855968,0
-0.030955816922999996,-0.24691358024691357,0
-0.030953876922999998,-0.5761316872427984,0
-0.030951936923,0.1646090534979424,0
-0.030949996922999996,-1.646090534979424,0
-0.030948056922999997,1.0699588477366255,0
-0.030946116923,-2.880658436213992,0.00823045267489712
-0.030944176922999996,1.5637860082304527,0
-0.030942236922999997,0.0823045267489712,0
-0.030940296923,0.0823045267489712,0
-0.030938356922999996,1.1522633744855968,0
-0.030936416922999997,-2.880658436213992,0.00823045267489712
-0.030934476923,0.3292181069958848,0
-0.030932536922999996,2.05761316872428,0
-0.030930596922999997,-3.539094650205761,0
-0.030928656922999998,1.646090534979424,0
-0.030926716922999996,0.1646090534979424,0
-0.030924776922999997,-0.3292181069958848,0
-0.030922836922999998,2.2222222222222223,0
-0.030920896922999996,-2.880658436213992,0
-0.030918956922999997,1.1522633744855968,0
-0.030917016922999998,1.3991769547325104,0
-0.030915076922999996,-0.0823045267489712,0
-0.030913136922999997,0.24691358024691357,0
-0.030911196922999998,0.3292181069958848,0
-0.030909256922999995,0.0823045267489712,0
-0.030907316922999997,-0.5761316872427984,0
-0.030905376922999998,-0.9053497942386831,0
-0.030903436923,0.9876543209876543,0
-0.030901496922999996,-3.2098765432098766,0
-0.030899556922999998,2.633744855967078,0
-0.030897616923,-4.11522633744856,0
-0.030895676922999996,4.362139917695473,0
-0.030893736922999997,-4.032921810699588,0
-0.030891796923,0.9876543209876543,0
-0.030889856922999996,0.3292181069958848,0
-0.030887916922999997,-0.24691358024691357,0
-0.030885976923,0,0
-0.030884036922999996,0.0823045267489712,0
-0.030882096922999997,0,0
-0.030880156922999998,-0.1646090534979424,0
-0.030878216922999996,0,0
-0.030876276922999997,0,0
-0.030874336922999998,0,0
-0.030872396922999996,0,0
-0.030870456922999997,0.0823045267489712,0
-0.030868516922999998,-0.0823045267489712,0
-0.030866576922999996,0,0
-0.030864636922999997,0,0
-0.030862696922999998,0,0
-0.030860756922999995,2.880658436213992,0
-0.030858816922999997,-2.2222222222222223,0
-0.030856876922999998,2.3868312757201644,0
