log/32byteFrame07.csv

#Digilent WaveForms Oscilloscope Acquisition
#Device Name: ADP5250-323F81C
#Serial Number: SN:323F81C
#Date Time: 2023-03-15 14:23:09.701.048.899
#Sample rate: 515464Hz
#Samples: 32768
#Trigger: Source: Channel 1 Type: Edge Condition: Rising Level: 0 V Hyst.: Auto
#Channel 1: Range: 2 V/div Offset: 0 V Attenuation: 1 X Coupling: DC Bandwidth: Full Sample Mode: Average
#Channel 2: Range: 200 mV/div Offset: 0 V Attenuation: 1 X Coupling: DC Bandwidth: Full

Time (s),Channel 1 (V),Channel 2 (V)
-0.031784077233,-2.139917695473251,0
-0.031782137233,-0.7407407407407407,0
-0.031780197233000004,0.823045267489712,0
-0.031778257233000005,1.9753086419732127,0
-0.031776317233,-3.8683127571932623,0
-0.031774377233,0.7407407407435852,0
-0.031772437233,2.3045267489711936,0
-0.031770497233,-0.1646090534979424,0
-0.031768557233000004,0.24691358024691357,0
-0.031766617233000005,-0.9053497942365873,0
-0.031764677233,-1.3168724279790478,0
-0.031762737233,1.1522633744879922,0
-0.031760797233,2.4691358024691357,0
-0.031758857233,-3.292181069958848,0
-0.031756917233000004,1.2345679012345678,0
-0.031754977233000005,2.1399176954716044,0
-0.031753037233000006,-0.7407407407355007,0
-0.031751097233,0.5761316872402533,0
-0.031749157233,-0.823045267489712,0
-0.031747217233,-1.316872427983539,0
-0.031745277233000004,1.5637860082304527,0
-0.031743337233000005,2.304526748969846,0
-0.031741397233000006,-4.032921810688061,0
-0.031739457233,1.152263374486495,0
-0.031737517233,1.646090534979424,0
-0.031735577233,0.1646090534979424,0
-0.031733637233,-0.7407407407407407,0
-0.031731697233000004,-0.3292181069958848,0
-0.031729757233000006,-5.988542994828094e-13,0
-0.031727817233,0.7407407407440344,0
-0.031725877233,2.55144032920628,0
-0.031723937233,-3.950617283950617,0
-0.031721997233,-1.728395061728395,0.00823045267489712
-0.031720057233000004,2.962962962962963,0
-0.031718117233000005,3.3744855967070704,0
-0.031716177233,-3.950617283941335,0
-0.031714237233,1.152263374483351,0
-0.031712297233,-0.0823045267489712,0
-0.031710357233,0.0823045267489712,0
-0.031708417233000004,-0.0823045267489712,0
-0.031706477233000005,-0.0823045267489712,0
-0.031704537233000006,-1.4971357487070236e-13,0
-0.031702597233,0,0
-0.031700657233,0,0
-0.031698717233,-0.1646090534979424,0
-0.031696777233000004,-0.24691358024691357,0
-0.031694837233000005,-4.491407246121071e-13,0
-0.031692897233000006,0,0
-0.031690957233,2.994221240404702e-13,0
-0.031689017233,0.1646090534979424,0
-0.031687077233,0,0
-0.031685137233,0,0
-0.031683197233000004,0,0
-0.031681257233000006,-2.304526748967002,0
-0.031679317233,-1.5637860082280572,0
-0.031677377233,-0.24691358024421878,0
-0.031675437233,1.2345679012345678,0
-0.031673497233,1.9753086419753085,0
-0.031671557233000004,-3.45679012345679,0
-0.031669617233000005,0.7407407407331053,0
-0.031667677233,1.8106995884775159,0
-0.031665737233,1.8930041152154087,0
-0.031663797233,-4.11522633744856,0
-0.031661857233,2.3868312757201644,0
-0.031659917233000004,-1.3991769547325104,0
-0.031657977233000005,0.9053497942344915,0
-0.031656037233000006,2.716049382712756,0
-0.031654097233,-3.9506172839420834,0
-0.031652157233,0.7407407407407407,0
-0.031650217233,1.8106995884773662,0
-0.031648277233000004,-0.7407407407407407,0
-0.031646337233000005,3.1275720164538683,0
-0.031644397233000006,-3.7037037036912777,0
-0.031642457233,0.9876543209870554,0
-0.031640517233,0.6584362139917695,0
-0.031638577233,-3.2098765432098766,0
-0.031636637233,1.3991769547325104,0
-0.031634697233000005,0.16460905350018806,0
-0.031632757233000006,-0.32921810699498644,0
-0.031630817233,-0.7407407407410401,0
-0.031628877233,-0.9053497942355392,0
-0.031626937233,0.823045267489712,0
-0.031624997233,1.316872427983539,0
-0.031623057233000004,-0.9053497942386831,0
-0.031621117233000005,0.49382716049128195,0
-0.031619177233,0.16460905350063718,0
-0.031617237233,1.6460905349696926,0
-0.031615297233,-3.7037037037037037,0
-0.031613357233,1.316872427983539,0
-0.031611417233000004,0,0
-0.031609477233000005,0.24691358024646443,0
-0.031607537233,1.8930041152218462,0
-0.031605597233,-0.5761316872413013,0
-0.031603657233,0.24691358024691357,0
-0.031601717233,3.045267489711934,0
-0.031599777233000004,-4.773662551440329,0
-0.031597837233000005,2.3868312757071397,0
-0.031595897233000006,0.16460905350198463,0
-0.031593957233,-3.7037037036923257,0
-0.031592017233,2.551440329218107,0
-0.031590077233,-0.9053497942386831,0
-0.031588137233000003,0.1646090534979424,0
-0.031586197233000005,0.1646090534979424,0
-0.031584257233000006,-2.469135802464345,0
-0.031582317233,2.0576131687217347,0
-0.031580377233,0.6584362139917695,0
-0.031578437233,-1.3991769547325104,0
-0.031576497233,1.8106995884773662,0
-0.031574557233000004,-1.2345679012345678,0
-0.031572617233000005,2.304526748964756,0
-0.031570677233,-3.4567901234499034,0
-0.031568737233,0.32921810699842985,0
-0.031566797233,1.728395061728395,0
-0.031564857233,-0.823045267489712,0
-0.031562917233000004,1.0699588477366255,0
-0.031560977233000005,0.9053497942389825,0
-0.031559037233,-0.16460905349255278,0
-0.031557097233,2.7983539094531937,0
-0.031555157233,-3.7037037037037037,0
-0.031553217233,0.9876543209876543,0
-0.031551277233000004,0.823045267489712,0
-0.031549337233000005,-3.6213991769466487,0
-0.031547397233000006,1.3991769547233779,0
-0.031545457233,0.32921810699453735,0
-0.031543517233,-0.411522633744856,0
-0.031541577233,-0.3292181069958848,0
-0.031539637233000004,-0.823045267489712,0
-0.031537697233000005,0.9876543209843607,0
-0.031535757233000006,0.7407407407411899,0
-0.031533817233,-0.8230452674873165,0
-0.031531877233,0.49382716049382713,0
-0.031529937233,0.0823045267489712,0
-0.031527997233,1.8106995884773662,0
-0.031526057233000004,-3.950617283950617,0
-0.031524117233000006,1.3991769547227797,0
-0.031522177233,0.4115226337436583,0
-0.031520237233,-0.24691358024302107,0
-0.031518297233,1.8930041152263375,0
-0.031516357233,-0.5761316872427984,0
-0.031514417233000004,0.24691358024691357,0
-0.031512477233000005,2.8806584362092016,0
-0.031510537233,-3.950617283939988,0
-0.031508597233,1.8930041152221455,0
-0.031506657233,-0.411522633744856,0
-0.031504717233,-2.880658436213992,0
-0.031502777233000004,2.2222222222222223,0
-0.031500837233000005,-0.8230452674841726,0
-0.031498897233000006,0.4938271604914317,0
-0.031496957233,-0.1646090535009366,0
-0.031495017233,-1.8106995884773662,0
-0.031493077233,1.9753086419753085,0
-0.031491137233000004,0,0
-0.031489197233000005,-0.9053497942370363,0
-0.031487257233000006,1.3168724279794972,0
-0.031485317233,-1.1522633744797581,0
-0.031483377233,2.05761316872428,0
-0.031481437233,-3.8683127572016462,0
-0.031479497233,0.9876543209876543,0
-0.031477557233000004,1.3991769547325104,0
-0.031475617233000006,-1.3168724279785986,0
-0.031473677233,1.9753086419727635,0
-0.031471737233,0.5761316872396545,0
-0.031469797233,-1.1522633744855968,0
-0.031467857233,4.032921810699588,0
-0.031465917233000004,-3.950617283950617,0
-0.031463977233000005,1.1522633744763144,0
-0.031462037233,0.8230452674817773,0
-0.031460097233,-3.53909465019603,0
-0.031458157233,1.8106995884773662,0
-0.031456217233,0.1646090534979424,0
-0.031454277233000004,-0.9053497942386831,0
-0.031452337233000005,1.0699588477330324,0
-0.031450397233000006,-1.9753086419697694,0
-0.031448457233,0.6584362139928175,0
-0.031446517233,1.2345679012345678,0
-0.031444577233,-1.8106995884773662,0
-0.031442637233000004,1.4814814814814814,0
-0.031440697233000005,2.69473332537018e-12,0
-0.031438757233000006,0.24691358024646443,0
-0.031436817233,-3.2098765432026903,0
-0.031434877233,0.7407407407407407,0
-0.031432937233,0.0823045267489712,0
-0.031430997233,0.24691358024691357,0
-0.031429057233000005,1.9753086419721646,0
-0.031427117233000006,-0.08230452674522848,0
-0.031425177233,0.2469135802514049,0
-0.031423237233,2.7160493827040724,0
-0.031421297233,-3.8683127572016462,0
-0.031419357233,1.728395061728395,0
-0.031417417233000004,-0.49382716049382713,0
-0.031415477233000005,-2.798353909460829,0
-0.031413537233,1.975308641970368,0
-0.031411597233,-0.7407407407393933,0
-0.031409657233,0,0
-0.031407717233,0.5761316872427984,0
-0.031405777233000004,-2.05761316872428,0
-0.031403837233000005,2.1399176954656154,0
-0.031401897233,0.1646090534952476,0
-0.031399957233,-1.3168724279777004,0
-0.031398017233,1.8930041152263375,0
-0.031396077233,-1.3991769547325104,0
-0.031394137233000004,1.9753086419753085,0
-0.031392197233000005,-3.786008230442195,0
-0.031390257233000006,-0.0823045267557081,0
-0.031388317233,1.5637860082267099,0
-0.031386377233,-0.49382716049382713,0
-0.031384437233,1.2345679012345678,0
-0.031382497233000003,0.9053497942386831,0
-0.031380557233000005,-1.0699588477330324,0
-0.031378617233000006,3.950617283941485,0
-0.031376677233,-3.868312757192514,0
-0.031374737233,1.1522633744855968,0
-0.031372797233,0.7407407407407407,0
-0.031370857233,-3.786008230452675,0
-0.031368917233000004,2.139917695473251,0
-0.031366977233000005,0.16460905350153543,0
-0.031365037233,-0.987654320983612,0
-0.031363097233,1.234567901227232,0
-0.031361157233,-2.7983539094650207,0
-0.031359217233,0.9876543209876543,0
-0.031357277233000004,1.316872427983539,0
-0.031355337233000005,-2.5514403292110703,0
-0.031353397233,1.9753086419711166,0
-0.031351457233,-0.32921810699274084,0
-0.031349517233,1.3991769547325104,0
-0.031347577233,-3.045267489711934,0
-0.031345637233000004,0.3292181069958848,0
-0.031343697233000005,0.4938271604935277,0
-0.031341757233000006,0.4115226337450057,0
-0.031339817233,0.9053497942376352,0
-0.031337877233,0.3292181069958848,0
-0.031335937233,0.0823045267489712,0
-0.031333997233000004,2.551440329218107,0
-0.031332057233000005,-3.7860082304411473,0
-0.031330117233000006,1.8930041152160073,0
-0.031328177233,-0.5761316872469903,0
-0.031326237233,-2.880658436213992,0
-0.031324297233,2.139917695473251,0
-0.031322357233,-0.7407407407407407,0
-0.031320417233000004,0.24691358024691357,0
-0.031318477233000006,0.6584362139910209,0
-0.031316537233,-2.5514403292095733,0
-0.031314597233,2.1399176954693586,0
-0.031312657233,0,0
-0.031310717233,-1.2345679012345678,0
-0.031308777233000004,2.2222222222222223,0
-0.031306837233000005,-0.8230452674841726,0
-0.031304897233,1.7283950617183643,0
-0.031302957233,-3.7860082304450398,0
-0.031301017233,0.411522633744856,0
-0.031299077233,1.9753086419753085,0
-0.031297137233000004,-0.9053497942386831,0
-0.031295197233000005,1.810699588472426,0
-0.031293257233000006,0.6584362139938653,0
-0.031291317233,-0.9876543209786716,0
-0.031289377233,3.950617283950617,0
-0.031287437233,-4.032921810699588,0
-0.031285497233000004,1.9753086419753085,0
-0.031283557233000005,0.6584362139941651,0
-0.031281617233000006,-3.868312757193412,0
-0.031279677233,3.0452674897054965,0
-0.031277737233,-0.49382716049382713,0
-0.031275797233,-0.7407407407407407,0
-0.031273857233,1.5637860082304527,0
-0.031271917233000004,-3.209876543201194,0
-0.031269977233000006,1.8106995884682338,0
-0.031268037233,1.2345679012270823,0
-0.031266097233,-2.8806584362050094,0
-0.031264157233,2.05761316872428,0
-0.031262217233,-0.3292181069958848,0
-0.031260277233000004,0.411522633744856,0
-0.031258337233000005,-2.304526748966253,0
-0.031256397233,-0.16460905349614585,0
-0.031254457233,0.8230452674892629,0
-0.031252517233,0.5761316872427984,0
-0.031250577233,0.823045267489712,0
-0.031248637233000004,-0.0823045267489712,0
-0.031246697233,0.1646090534979424,0
-0.031244757233000003,2.4691358024691357,0
-0.031242817233000004,-3.8683127572016462,0
-0.031240877233,1.9753086419753085,0
-0.031238937233000003,-0.0823045267489712,0
-0.031236997233000004,-2.7160493827160495,0
-0.031235057233,1.8930041152263375,0
-0.031233117233000002,-0.0823045267489712,0
-0.031231177233000004,0.24691358024691357,0
-0.031229237233,0.9053497942386831,0
-0.031227297233000002,-1.9753086419753085,0
-0.031225357233000003,1.0699588477366255,0
-0.031223417233,0.9053497942386831,0
-0.031221477233000002,-1.5637860082304527,0
-0.031219537233000003,-0.24691358024691357,0
-0.031217597233000004,0.3292181069958848,0
-0.031215657233000002,1.0699588477366255,0
-0.031213717233000003,-3.45679012345679,0
-0.031211777233000004,0.6584362139917695,0
-0.031209837233000002,0.7407407407407407,0
-0.031207897233000003,0.0823045267489712,0
-0.031205957233000004,1.5637860082304527,0
-0.031204017233000002,-0.24691358024691357,0
-0.031202077233000003,0.0823045267489712,0
-0.031200137233000004,3.2098765432098766,0
-0.031198197233,-4.032921810699588,0
-0.031196257233000003,2.2222222222222223,0
-0.031194317233000004,0.3292181069958848,0
-0.031192377233,-3.786008230452675,0
-0.031190437233000003,3.045267489711934,0
-0.031188497233000004,-0.49382716049382713,0
-0.031186557233,-0.5761316872427984,0
-0.031184617233000003,2.05761316872428,0
-0.031182677233000004,-3.374485596707819,0
-0.031180737233,1.8106995884773662,0
-0.031178797233000002,1.1522633744855968,0
-0.031176857233000003,-2.880658436213992,0
-0.031174917233,1.8930041152263375,0
-0.031172977233000002,-0.0823045267489712,0
-0.031171037233000003,0.0823045267489712,0
-0.031169097233,-2.880658436213992,0
-0.031167157233000002,-0.24691358024691357,0
-0.031165217233000003,0.7407407407407407,0
-0.031163277233000004,0.6584362139917695,0
-0.031161337233000002,0.49382716049382713,0
-0.031159397233000003,1.0699588477366255,0
-0.031157457233000004,-0.0823045267489712,0
-0.031155517233000002,2.2222222222222223,0
-0.031153577233000003,-3.786008230452675,0
-0.031151637233000004,1.316872427983539,0
-0.031149697233,0.0823045267489712,0
-0.031147757233000003,-2.7160493827160495,0
-0.031145817233000004,1.3991769547325104,0
-0.031143877233,0.24691358024691357,0
-0.031141937233000003,-0.0823045267489712,0
-0.031139997233000004,0.9053497942386831,0
-0.031138057233,-2.139917695473251,0
-0.031136117233000003,1.4814814814814814,0
-0.031134177233000004,0.6584362139917695,0
-0.031132237233,-1.728395061728395,0
-0.031130297233000002,0.7407407407407407,0
-0.031128357233000004,0.0823045267489712,0
-0.031126417233,0.823045267489712,0
-0.031124477233000002,-3.7037037037037037,0
-0.031122537233000003,0.9053497942386831,0
-0.031120597233,0.7407407407407407,0
-0.031118657233000002,0.3292181069958848,0
-0.031116717233000003,1.646090534979424,0
-0.031114777233000004,0.0823045267489712,0
-0.031112837233000002,-0.6584362139917695,0
-0.031110897233000003,3.539094650205761,0
-0.031108957233000004,-4.609053497942387,0
-0.031107017233000002,1.8930041152263375,0
-0.031105077233000003,0.7407407407407407,0
-0.031103137233000004,-3.8683127572016462,0
-0.031101197233000002,2.7160493827160495,0
-0.031099257233000003,-0.3292181069958848,0
-0.031097317233000004,-0.0823045267489712,0
-0.031095377233,2.3045267489711936,0
-0.031093437233000003,-3.7037037037037037,0
-0.031091497233000004,2.3045267489711936,0
-0.031089557233,0.5761316872427984,0
-0.031087617233000003,-2.7983539094650207,0
-0.031085677233000004,2.139917695473251,0
-0.031083737233,-0.7407407407407407,0
-0.031081797233000003,0.411522633744856,0
-0.031079857233000004,1.646090534979424,0
-0.031077917233,-4.11522633744856,0
-0.031075977233000002,2.139917695473251,0
-0.031074037233000004,-0.5761316872427984,0
-0.031072097233,0.823045267489712,0
-0.031070157233000002,0.823045267489712,0
-0.031068217233000003,-0.411522633744856,0
-0.031066277233,1.646090534979424,0
-0.031064337233000002,-3.2098765432098766,0
-0.031062397233000003,0.411522633744856,0
-0.031060457233000004,2.3045267489711936,0
-0.031058517233000002,-2.139917695473251,0
-0.031056577233000003,1.316872427983539,0
-0.031054637233000004,-0.3292181069958848,0
-0.031052697233000002,0.3292181069958848,0
-0.031050757233000003,1.9753086419753085,0
-0.031048817233000004,-3.2098765432098766,0
-0.031046877233000002,2.05761316872428,0
-0.031044937233000003,-0.9053497942386831,0
-0.031042997233000004,0.9876543209876543,0
-0.031041057233,0.3292181069958848,0
-0.031039117233000003,-0.7407407407407407,0
-0.031037177233000004,0.49382716049382713,0
-0.031035237233,-0.9053497942386831,0
-0.031033297233000003,-0.9053497942386831,0
-0.031031357233000004,1.5637860082304527,0
-0.031029417233,-4.279835390946502,0
-0.031027477233000002,2.7983539094650207,0
-0.031025537233000004,-0.5761316872427984,0
-0.031023597233,0.0823045267489712,0
-0.031021657233000002,2.05761316872428,0
-0.031019717233000003,-3.8683127572016462,0
-0.031017777233,1.1522633744855968,0
-0.031015837233000002,2.139917695473251,0
-0.031013897233000003,-2.880658436213992,0
-0.031011957233000004,2.3045267489711936,0
-0.031010017233000002,-1.0699588477366255,0
-0.031008077233000003,0.411522633744856,0
-0.031006137233000004,2.880658436213992,0
-0.031004197233000002,-3.8683127572016462,0
-0.031002257233000003,2.2222222222222223,0
-0.031000317233000004,0,0
-0.030998377233000002,0.1646090534979424,0
-0.030996437233000003,1.316872427983539,0
-0.030994497233000004,-0.9876543209876543,0
-0.030992557233,0.3292181069958848,0
-0.030990617233000003,-0.0823045267489712,0
-0.030988677233000004,-2.3045267489711936,0
-0.030986737233,1.8930041152263375,0
-0.030984797233000003,-3.539094650205761,0
-0.030982857233000004,1.646090534979424,0
-0.030980917233,0.411522633744856,0
-0.030978977233000003,-0.49382716049382713,0
-0.030977037233000004,1.4814814814814814,0
-0.030975097233,-2.962962962962963,0
-0.030973157233000002,0.24691358024691357,0
-0.030971217233000004,2.7160493827160495,0
-0.030969277233,-2.4691358024691357,0
-0.030967337233000002,1.4814814814814814,0
-0.030965397233000003,0,0
-0.030963457233,-0.411522633744856,0
-0.030961517233000002,2.551440329218107,0
-0.030959577233000003,-3.2098765432098766,0
-0.030957637233000004,1.2345679012345678,0
-0.030955697233000002,0.6584362139917695,0
-0.030953757233000003,0.411522633744856,0
-0.030951817233000004,0.24691358024691357,0
-0.030949877233000002,0.0823045267489712,0
-0.030947937233000003,0.1646090534979424,0
-0.030945997233000004,-0.823045267489712,0
-0.030944057233000002,-0.9876543209876543,0
-0.030942117233000003,1.1522633744855968,0
-0.030940177233000004,-3.7037037037037037,0
-0.030938237233,2.633744855967078,0
-0.030936297233000003,-0.7407407407407407,0
-0.030934357233000004,0.1646090534979424,0
-0.030932417233,1.5637860082304527,0
-0.030930477233000003,-3.2098765432098766,0
-0.030928537233000004,1.1522633744855968,0
-0.030926597233,1.5637860082304527,0
-0.030924657233000002,-2.7160493827160495,0
-0.030922717233000004,2.139917695473251,0
-0.030920777233,-1.0699588477366255,0
-0.030918837233000002,-0.0823045267489712,0
-0.030916897233000003,2.3868312757201644,0
-0.030914957233,-3.786008230452675,0
-0.030913017233000002,2.05761316872428,0
-0.030911077233000003,0.24691358024691357,0
-0.030909137233,0.411522633744856,0
-0.030907197233000002,1.2345679012345678,0
-0.030905257233000003,-1.1522633744855968,0
-0.030903317233000004,0.5761316872427984,0
-0.030901377233000002,-0.1646090534979424,0
-0.030899437233000003,-2.3868312757201644,0
-0.030897497233000004,1.8106995884773662,0
-0.030895557233000002,-3.539094650205761,0
-0.030893617233000003,1.8106995884773662,0
-0.030891677233000004,0.49382716049382713,0
-0.030889737233,-0.7407407407407407,0
-0.030887797233000003,1.9753086419753085,0
-0.030885857233000004,-3.1275720164609053,0
-0.030883917233,0,0
-0.030881977233000003,2.551440329218107,0
-0.030880037233000004,-3.374485596707819,0
-0.030878097233,1.8930041152263375,0
-0.030876157233000003,-0.0823045267489712,0
-0.030874217233000004,-0.6584362139917695,0
-0.030872277233,3.045267489711934,0
-0.030870337233000002,-3.374485596707819,0
-0.030868397233000004,0.9876543209876543,0
-0.030866457233,1.2345679012345678,0
-0.030864517233000002,0,0
-0.030862577233000003,0.6584362139917695,0
-0.030860637233,-0.0823045267489712,0
-0.030858697233000002,-0.24691358024691357,0
-0.030856757233000003,0.24691358024691357,0
-0.030854817233000004,-1.646090534979424,0
-0.030852877233000002,0.7407407407407407,0
-0.030850937233000003,-2.7983539094650207,0
-0.030848997233000004,1.316872427983539,0
-0.030847057233000002,-0.1646090534979424,0
-0.030845117233000003,0.0823045267489712,0
