log/32byteFrame01.csv

#Digilent WaveForms Oscilloscope Acquisition
#Device Name: ADP5250-323F81C
#Serial Number: SN:323F81C
#Date Time: 2023-03-15 14:23:08.726.299.299
#Sample rate: 515464Hz
#Samples: 32768
#Trigger: Source: Channel 1 Type: Edge Condition: Rising Level: 0 V Hyst.: Auto
#Channel 1: Range: 2 V/div Offset: 0 V Attenuation: 1 X Coupling: DC Bandwidth: Full Sample Mode: Average
#Channel 2: Range: 200 mV/div Offset: 0 V Attenuation: 1 X Coupling: DC Bandwidth: Full

Time (s),Channel 1 (V),Channel 2 (V)
-0.031784648527,0.49382716049382713,0
-0.031782708527,0.1646090534979424,0
-0.031780768527,0,0
-0.031778828527,0.7407407407393933,0
-0.031776888526999995,-0.9053497942358386,0
-0.031774948526999997,0.6584362139896736,0
-0.031773008527,-0.49382716049382713,0
-0.031771068527,-0.0823045267489712,0
-0.031769128527,0.7407407407407407,0
-0.031767188527,-0.8230452674868673,0
-0.031765248526999995,0.16460905349854124,0
-0.031763308526999996,0.4938271604915815,0
-0.031761368527,-0.7407407407407407,0
-0.031759428527,0.3292181069958848,0
-0.031757488527,0.411522633744856,0
-0.031755548527,-0.9053497942362877,0
-0.031753608527,0.8230452674865681,0
-0.031751668526999996,-0.41152263374455655,0
-0.031749728527,-0.24691358024691357,0
-0.031747788527,0.6584362139917695,0
-0.031745848527,-0.7407407407407407,0
-0.031743908527,0.4115226337427602,0
-0.031741968527,0.246913580247213,0
-0.031740028526999996,-0.6584362139893741,0
-0.031738088527,0.6584362139917695,0
-0.031736148527,-0.7407407407407407,0
-0.031734208527,0.3292181069958848,0
-0.031732268527,0.3292181069958848,0
-0.031730328527,-0.8230452674876161,0
-0.031728388526999995,0.32921810699558535,0
-0.031726448527,0.16460905349614585,0
-0.031724508527,-0.823045267489712,0
-0.031722568527,0.5761316872427984,0
-0.031720628527,-0.3292181069958848,0
-0.031718688527,0.32921810699468707,0
-0.031716748526999995,0.49382716049128206,0
-0.031714808526999996,-0.9053497942358386,0
-0.031712868527,0.6584362139917695,0
-0.031710928527,-0.0823045267489712,0
-0.031708988527,-0.411522633744856,0
-0.031707048527,0.49382716049218034,0
-0.031705108527,-0.6584362139896738,0
-0.031703168526999996,0.41152263374455655,0
-0.031701228527,0.24691358024691357,0
-0.031699288527,-1.2345679012345678,0
-0.031697348527,0.5761316872427984,0
-0.031695408527,-0.6584362139895239,0
-0.031693468527,0.24691358024526677,0
-0.031691528526999996,0.49382716049128206,0
-0.031689588527,-0.9053497942386831,0
-0.031687648527,0.5761316872427984,0
-0.031685708527,-0.1646090534979424,0
-0.031683768527,-0.3292181069958848,0
-0.031681828527,0.9876543209852588,0
-0.031679888526999996,-0.8230452674874663,0
-0.031677948527,0.41152263374470627,0
-0.031676008527,0.3292181069958848,0
-0.031674068527,-0.823045267489712,0
-0.031672128527,0.5761316872427984,0
-0.031670188527,-0.4938271604918809,0
-0.031668248526999995,0.411522633744856,0
-0.031666308526999996,0.41152263374276005,0
-0.031664368527,-0.7407407407407407,0
-0.031662428527,0.5761316872427984,0
-0.031660488527,-0.1646090534979424,0
-0.031658548527,-1.0699588477349786,0
-0.031656608527,0.5761316872398041,0
-0.031654668526999996,-0.3292181069961842,0
-0.031652728527,-0.49382716049382713,0
-0.031650788527,0.49382716049382713,0
-0.031648848527,-1.2345679012345678,0
-0.031646908527,0.5761316872395048,0
-0.031644968527,0.24691358024751242,0
-0.031643028526999996,-0.6584362139893741,0
-0.031641088527,0.6584362139917695,0
-0.031639148527,0.49382716049382713,0
-0.031637208527,0.24691358024691357,0
-0.031635268527,0.41152263374455655,0
-0.031633328527,-0.9053497942362877,0
-0.031631388526999996,0.5761316872416007,0
-0.031629448527,-0.08230452674927062,0
-0.031627508527,-0.24691358024691357,0
-0.031625568527,0.5761316872427984,0
-0.031623628527,-0.9876543209876543,0
-0.031621688527,0.4938271604911324,0
-0.031619748526999995,0.41152263374261033,0
-0.031617808526999996,-0.8230452674873165,0
-0.031615868527,0.49382716049382713,0
-0.031613928527,0.0823045267489712,0
-0.031611988527,-0.3292181069958848,0
-0.031610048527,0.5761316872411517,0
-0.031608108526999995,-0.9053497942359883,0
-0.031606168526999996,0.5761316872419001,0
-0.031604228527,0.0823045267489712,0
-0.031602288527,-0.5761316872427984,0
-0.031600348527,0.6584362139917695,0
-0.031598408527,0.1646090534988407,0
-0.031596468527,2.994271497414047e-13,0
-0.031594528526999996,0.740740740738495,0
-0.031592588527,-0.49382716049382713,0
-0.031590648527,0.24691358024691357,0
-0.031588708527,0.9053497942386831,0
-0.031586768527,-0.9053497942353895,0
-0.031584828527,0.5761316872401036,0
-0.031582888526999996,-0.5761316872411516,0
-0.031580948527,0.3292181069958848,0
-0.031579008527,-0.24691358024691357,0
-0.031577068527,-0.823045267489712,0
-0.031575128527,0.6584362139917695,0
-0.031573188527,-0.24691358024526677,0
-0.031571248526999995,-0.3292181069936391,0
-0.031569308526999997,0.9053497942356888,0
-0.031567368527,-0.7407407407407407,0
-0.031565428527,0.6584362139917695,0
-0.031563488527,0.1646090534979424,0
-0.031561548527,-0.9053497942367369,0
-0.031559608526999995,0.6584362139902724,0
-0.031557668526999996,-0.16460905349824181,0
-0.031555728527,-0.3292181069958848,0
-0.031553788527,0.5761316872427984,0
-0.031551848527,-0.9876543209876543,0
-0.031549908527,0.4938271604911324,0
-0.031547968527,0.4115226337450057,0
-0.031546028526999996,-0.8230452674870171,0
-0.031544088527,0.6584362139917695,0
-0.031542148527,-0.411522633744856,0
-0.031540208527,0,0
-0.031538268527,0.3292181069952859,0
-0.031536328527,-1.152263374482902,0
-0.031534388526999996,0.4115226337442571,0
-0.031532448527,0.0823045267489712,0
-0.031530508527,-0.411522633744856,0
-0.031528568527,1.1522633744855968,0
-0.031526628527,-0.7407407407407407,0.00823045267489712
-0.031524688527,0.4938271604915814,1.4970663597679845e-14
-0.031522748526999995,0.32921810699438764,0
-0.031520808527,-0.49382716049233,0
-0.031518868527,0.3292181069958848,0
-0.031516928527,-0.7407407407407407,0
-0.031514988527,0.3292181069958848,0
-0.031513048527,0.41152263374470627,0
-0.031511108526999995,-0.7407407407387945,0
-0.031509168526999996,0.32921810699558535,0
-0.031507228527,0.1646090534979424,0
-0.031505288527,-0.9053497942386831,0
-0.031503348527,0.6584362139917695,0
-0.031501408527,-0.08230452674762379,0
-0.031499468527,-0.24691358024661414,0
-0.031497528526999996,0.5761316872399539,0
-0.031495588527,-0.9876543209876543,0
-0.031493648527,0.7407407407407407,0
-0.031491708527,-0.5761316872427984,0
-0.031489768527,0.16460905349659505,0
-0.031487828527,0.4938271604932283,0
-0.031485888526999996,-0.9053497942359883,0
-0.031483948527,0.5761316872427984,0
-0.031482008527,0.1646090534979424,0
-0.031480068527,-0.7407407407407407,0
-0.031478128527,0.823045267489712,0
-0.031476188527,-0.32921810699378895,0
-0.031474248526999996,-0.08230452674792321,0
-0.031472308527,0.49382716049143177,0
-0.031470368527,-0.823045267489712,0
-0.031468428527,0.3292181069958848,0
-0.031466488527,0.0823045267489712,0
-0.031464548527,-0.8230452674880652,0
-0.031462608526999995,0.49382716049233,0
-0.031460668526999996,-0.32921810699408827,0
-0.031458728527,0.6584362139917695,0
-0.031456788527,0.49382716049382713,0
-0.031454848527,-0.9876543209876543,0
-0.031452908527,0.6584362139887754,0
-0.031450968527,-0.41152263374290976,0
-0.031449028526999996,0.7407407407401418,0
-0.031447088527,0.411522633744856,0
-0.031445148527,-0.9053497942386831,0
-0.031443208527,0.5761316872427984,0
-0.031441268527,0.24691358024751242,0
-0.031439328527,-1.6460905349759807,0
-0.031437388526999996,0.658436213989973,0
-0.031435448527,-0.3292181069958848,0
-0.031433508527,-0.24691358024691357,0
-0.031431568527,0.49382716049382713,0
-0.031429628527,-0.7407407407384949,0
-0.031427688527,0.4115226337427602,0
-0.031425748526999996,0.32921810699378884,0
-0.031423808527,-0.8230452674868675,0
-0.031421868527,0.7407407407407407,0
-0.031419928527,-0.1646090534979424,0
-0.031417988527,-0.24691358024691357,0
-0.031416048527,0.6584362139901228,0
-0.031414108526999995,-0.9053497942359883,0
-0.031412168526999996,0.5761316872421995,0
-0.031410228527,0.24691358024691357,0
-0.031408288527,-0.6584362139917695,0
-0.031406348527,0.6584362139917695,0
-0.031404408527,-0.24691358024526677,0
-0.031402468526999995,0.08230452674971975,0
-0.031400528526999996,0.4938271604908329,0
-0.031398588527,-1.1522633744855968,0
-0.031396648527,0.7407407407407407,0
-0.031394708527,-0.24691358024691357,0
-0.031392768527,-0.493827160493378,0
-0.031390828527,0.3292181069943877,0
-0.031388888526999996,-1.3991769547289172,0
-0.031386948527,0.5761316872427984,0
-0.031385008527,0.1646090534979424,0
-0.031383068527,-0.6584362139917695,0
-0.031381128527,0.5761316872405527,0
-0.031379188527,0.7407407407404413,0
-0.031377248526999996,-0.41152263374276005,0
-0.031375308527,0.7407407407407407,0
-0.031373368527,-0.5761316872427984,0
-0.031371428527,0.24691358024691357,0
-0.031369488527,0.3292181069958848,0
-0.031367548527,-0.7407407407387945,0
-0.031365608526999995,0.32921810699453735,0
-0.031363668526999997,-0.411522633743808,0
-0.031361728527,0.1646090534979424,0
-0.031359788527,0.49382716049382713,0
-0.031357848527,-0.9876543209876543,0
-0.031355908527,0.5761316872399538,0
-0.031353968526999995,-0.16460905349839153,0
-0.031352028526999996,-0.41152263374320913,0
-0.031350088527,0.49382716049382713,0
-0.031348148527,-0.5761316872427984,0
-0.031346208527,0.3292181069958848,0
-0.031344268527,0.24691358024706328,0
-0.031342328527,-0.6584362139901228,0
-0.031340388526999996,0.411522633744856,0
-0.031338448527,0.411522633744856,0
-0.031336508527,-0.411522633744856,0
-0.031334568527,0.9876543209876543,0
-0.031332628527,-0.9053497942352398,0
-0.031330688527,0.7407407407377465,0
-0.031328748526999996,-0.08230452674971975,0
-0.031326808527,-0.49382716049382713,0
-0.031324868527,0.49382716049382713,0
-0.031322928527,-0.1646090534979424,0
-0.031320988527,-0.3292181069958848,0
-0.031319048527,0.41152263374350856,0
-0.031317108526999995,-0.6584362139898233,0
-0.031315168527,0.41152263374455655,0
-0.031313228527,0.24691358024691357,0
-0.031311288527,-0.7407407407407407,0.00823045267489712
-0.031309348527,0.823045267489712,0
-0.031307408527,0.08230452675031852,0
-0.031305468526999995,-0.1646090534967447,0
-0.031303528526999996,0.49382716049143177,0
-0.031301588527,-0.823045267489712,0
-0.031299648527,0.49382716049382713,0
-0.031297708527,0.3292181069958848,0
-0.031295768527,-0.7407407407387945,0
-0.031293828527,0.576131687240403,0
-0.031291888526999996,-0.41152263374455655,0
-0.031289948527,-0.24691358024691357,0
-0.031288008527,0.5761316872427984,0
-0.031286068527,-0.6584362139917695,0
-0.031284128527,0.24691358024526677,0
-0.031282188527,0.32921810699573506,0
-0.031280248526999996,-0.8230452674877657,0
-0.031278308527,0.24691358024691357,0
-0.031276368527,-0.5761316872427984,0
-0.031274428527,0.24691358024691357,0.00823045267489712
-0.031272488527,0.24691358024691357,1.4970663597679845e-14
-0.031270548527,-0.3292181069948369,0
-0.031268608526999996,0.8230452674870171,0
-0.031266668527,-0.658436213989973,0
-0.031264728527,0.3292181069958848,0
-0.031262788527,0.3292181069958848,0
-0.031260848527,-0.7407407407407407,0
-0.031258908527,0.16460905349629562,0
-0.031256968526999995,-0.49382716048843756,0
-0.031255028526999996,2.469135802457608,0
-0.031253088527,-3.8683127572016462,0
-0.031251148527,0.1646090534979424,0
-0.031249208527,0.0823045267489712,0
-0.031247268526999997,0.1646090534979424,0
-0.031245328527,-0.5761316872427984,0
-0.031243388527,0.5761316872427984,0
-0.031241448526999997,0.24691358024691357,0
-0.031239508527,-0.6584362139917695,0
-0.031237568527,0.5761316872427984,0
-0.031235628526999997,-0.1646090534979424,0
-0.031233688526999998,0,0
-0.031231748527,0.1646090534979424,0
-0.031229808526999997,-0.5761316872427984,0
-0.031227868526999998,0.24691358024691357,0
-0.031225928527,0,0
-0.031223988526999997,-0.24691358024691357,0
-0.031222048526999998,0.49382716049382713,0
-0.031220108527,-0.9876543209876543,0
-0.031218168527,0.9053497942386831,0
-0.031216228526999998,-0.24691358024691357,0
-0.031214288527,-0.24691358024691357,0
-0.031212348527,0.3292181069958848,0
-0.031210408526999998,0,0
-0.031208468527,0.0823045267489712,0
-0.031206528527,0.5761316872427984,0
-0.031204588526999998,-0.49382716049382713,0
-0.031202648527,0.0823045267489712,0
-0.031200708527,0.24691358024691357,0
-0.031198768526999997,-0.6584362139917695,0
-0.031196828527,0.49382716049382713,0
-0.031194888527,-0.1646090534979424,0
-0.031192948526999997,0.0823045267489712,0
-0.031191008527,0.24691358024691357,0
-0.031189068527,0.0823045267489712,0
-0.031187128526999997,0.3292181069958848,0
-0.031185188527,-0.49382716049382713,0
-0.031183248527,0.411522633744856,0
-0.031181308526999997,0.0823045267489712,0
-0.031179368526999998,-0.411522633744856,0
-0.031177428527,0.411522633744856,0
-0.031175488526999997,-0.7407407407407407,0
-0.031173548526999998,0.49382716049382713,0
-0.031171608527,0.0823045267489712,0
-0.031169668526999997,-0.49382716049382713,0
-0.031167728526999998,0.49382716049382713,0
-0.031165788527,-0.24691358024691357,0
-0.031163848527,-0.24691358024691357,0
-0.031161908526999998,0.7407407407407407,0
-0.031159968527,-0.49382716049382713,0
-0.031158028527,0,0
-0.031156088526999998,0.3292181069958848,0
-0.031154148527,-0.6584362139917695,0
-0.031152208527,0.49382716049382713,0
-0.031150268526999998,0,0
-0.031148328527,-0.411522633744856,0
-0.031146388527,0.49382716049382713,0
-0.031144448526999997,-0.1646090534979424,0
-0.031142508527,-0.24691358024691357,0
-0.031140568527,0.411522633744856,0
-0.031138628526999997,-0.0823045267489712,0
-0.031136688527,0.411522633744856,0
-0.031134748527,0.1646090534979424,0
-0.031132808526999997,-0.823045267489712,0
-0.031130868526999998,0.3292181069958848,0
-0.031128928527,-0.49382716049382713,0
-0.031126988526999997,0.1646090534979424,0
-0.031125048526999998,0.24691358024691357,0
-0.031123108527,-0.6584362139917695,0
-0.031121168526999997,0.5761316872427984,0
-0.031119228526999998,0.1646090534979424,0
-0.031117288527,-0.24691358024691357,0
-0.031115348527,0.411522633744856,0
-0.031113408526999998,-0.3292181069958848,0
-0.031111468527,0.0823045267489712,0
-0.031109528527,0.24691358024691357,0
-0.031107588526999998,-0.6584362139917695,0
-0.031105648527,0.49382716049382713,0
-0.031103708527,-0.3292181069958848,0
-0.031101768526999998,-0.3292181069958848,0
-0.031099828527,0.49382716049382713,0
-0.031097888527,-0.411522633744856,0
-0.031095948526999997,0.1646090534979424,0
-0.031094008527,0.24691358024691357,0
-0.031092068527,-0.6584362139917695,0
-0.031090128526999997,0.49382716049382713,0
-0.031088188527,-0.1646090534979424,0
-0.031086248527,0,0
-0.031084308526999997,0.24691358024691357,0
-0.031082368527,-0.6584362139917695,0
-0.031080428527,0.49382716049382713,0
-0.031078488526999997,0.411522633744856,0
-0.031076548526999998,-0.3292181069958848,0
-0.031074608527,0.5761316872427984,0
-0.031072668526999997,-0.3292181069958848,0
-0.031070728526999998,0.3292181069958848,0
-0.031068788527,-0.3292181069958848,0
-0.031066848526999997,-0.49382716049382713,0
-0.031064908526999998,0.49382716049382713,0
-0.031062968527,-0.411522633744856,0
-0.031061028527,0.24691358024691357,0
-0.031059088526999998,0.5761316872427984,0
-0.031057148527,-0.5761316872427984,0
-0.031055208527,0.49382716049382713,0
-0.031053268526999998,0,0
-0.031051328527,-0.49382716049382713,0
-0.031049388527,-0.0823045267489712,0
-0.031047448526999998,-0.411522633744856,0
-0.031045508527,0.49382716049382713,0
-0.031043568527,0.1646090534979424,0
-0.031041628526999997,-0.7407407407407407,0
-0.031039688527,0.49382716049382713,0
-0.031037748527,-0.1646090534979424,0
-0.031035808526999997,-0.1646090534979424,0
-0.031033868527,0.411522633744856,0
-0.031031928527,-0.823045267489712,0
-0.031029988526999997,0.3292181069958848,0
-0.031028048526999998,0.3292181069958848,0
-0.031026108527,-0.7407407407407407,0
-0.031024168526999997,0.49382716049382713,0
-0.031022228526999998,0,0
-0.031020288527,-0.411522633744856,0
-0.031018348526999997,0.411522633744856,0.00823045267489712
-0.031016408526999998,-0.6584362139917695,0
-0.031014468527,0.24691358024691357,0
-0.031012528527,0.24691358024691357,0
-0.031010588526999998,-0.6584362139917695,0
-0.031008648527,0.823045267489712,0
-0.031006708527,-0.411522633744856,0
-0.031004768526999998,0.1646090534979424,0
-0.031002828527,0.411522633744856,0
-0.031000888527,-0.5761316872427984,0
-0.030998948526999998,0.49382716049382713,0
-0.030997008527,-0.411522633744856,0
-0.030995068527,-0.1646090534979424,0
-0.030993128526999997,0.24691358024691357,0
-0.030991188527,-0.1646090534979424,0
-0.030989248527,-0.24691358024691357,0
-0.030987308526999997,0.411522633744856,0
-0.030985368527,-0.7407407407407407,0
-0.030983428527,0.6584362139917695,0
-0.030981488526999997,0.0823045267489712,0
-0.030979548527,-0.5761316872427984,0
-0.030977608527,0.49382716049382713,0
-0.030975668526999997,-0.411522633744856,0
-0.030973728526999998,0.3292181069958848,0
-0.030971788527,0.0823045267489712,0
-0.030969848526999997,-0.411522633744856,0
-0.030967908526999998,0.24691358024691357,0
-0.030965968527,0.24691358024691357,0
-0.030964028526999997,-0.6584362139917695,0
-0.030962088526999998,0.5761316872427984,0
-0.030960148527,-0.5761316872427984,0
-0.030958208527,0.411522633744856,0
-0.030956268526999998,0.24691358024691357,0
-0.030954328527,-0.5761316872427984,0
-0.030952388527,0.49382716049382713,0
-0.030950448526999998,-0.1646090534979424,0
-0.030948508527,-0.411522633744856,0
-0.030946568527,0.3292181069958848,0
-0.030944628526999998,-0.7407407407407407,0
-0.030942688527,0.411522633744856,0
-0.030940748527,0.0823045267489712,0
-0.030938808526999997,-0.9053497942386831,0
-0.030936868527,0.3292181069958848,0
-0.030934928527,-0.49382716049382713,0
-0.030932988526999997,0.3292181069958848,0
-0.030931048527,0.24691358024691357,0
-0.030929108527,-0.5761316872427984,0
-0.030927168526999997,0.3292181069958848,0
-0.030925228526999998,-0.24691358024691357,0
-0.030923288527,-0.1646090534979424,0
-0.030921348526999997,0.3292181069958848,0
-0.030919408526999998,-0.49382716049382713,0
-0.030917468527,0.3292181069958848,0
-0.030915528526999997,0,0
-0.030913588526999998,-0.49382716049382713,0
-0.030911648527,0.3292181069958848,0
-0.030909708526999997,-0.24691358024691357,0
-0.030907768526999998,0.0823045267489712,0
-0.030905828527,0.3292181069958848,0
-0.030903888527,-0.7407407407407407,0
-0.030901948526999998,0.9876543209876543,0
-0.030900008527,-0.24691358024691357,0
-0.030898068527,-0.411522633744856,0
-0.030896128526999998,0.24691358024691357,0
-0.030894188527,-0.3292181069958848,0
-0.030892248527,0.1646090534979424,0
-0.030890308526999997,0.1646090534979424,0
-0.030888368527,-0.9053497942386831,0
-0.030886428527,0.49382716049382713,0
-0.030884488526999997,-0.0823045267489712,0.00823045267489712
-0.030882548527,-0.24691358024691357,0
-0.030880608527,0.411522633744856,0
-0.030878668526999997,-0.24691358024691357,0
-0.030876728527,0.49382716049382713,0
-0.030874788527,0,0
-0.030872848526999997,-0.6584362139917695,0
-0.030870908526999998,0.1646090534979424,0
-0.030868968527,0.411522633744856,0
-0.030867028526999997,-0.0823045267489712,0
-0.030865088526999998,0.411522633744856,0
-0.030863148527,-0.6584362139917695,0
-0.030861208526999997,0.49382716049382713,0.00823045267489712
-0.030859268526999998,-0.1646090534979424,0
-0.030857328527,-0.1646090534979424,0
-0.030855388527,0.3292181069958848,0
-0.030853448526999998,-3.950617283950617,0
-0.030851508527,4.362139917695473,0
-0.030849568527,-3.950617283950617,0
-0.030847628526999998,0.9876543209876543,0
-0.030845688527,0,0
-0.030843748527,-0.411522633744856,0
-0.030841808526999998,0.1646090534979424,0
-0.030839868527,0.0823045267489712,0
-0.030837928527,0,0
-0.030835988526999997,0,0
-0.030834048527,0,0
-0.030832108527,0,0
-0.030830168526999997,0,0
-0.030828228527,0.0823045267489712,0
-0.030826288527,-0.0823045267489712,0
-0.030824348526999997,0,0
-0.030822408526999998,0,0
-0.030820468527,0,0
-0.030818528526999997,0.1646090534979424,0
