log/3freq.csv

#Digilent WaveForms Oscilloscope Acquisition
#Device Name: ADP5250-323F81C
#Serial Number: SN:323F81C
#Date Time: 2023-02-17 13:38:05.230.786.899
#Sample rate: 2.97619e+06Hz
#Samples: 32768
#Trigger: Source: Channel 1 Type: Edge Condition: Rising Level: 10 mV Hyst.: Auto
#Channel 1: Range: 2 V/div Offset: 0 V Attenuation: 1 X Coupling: DC Bandwidth: Full Sample Mode: Average

Time (s),Channel 1 (V)
-0.005504836914,-2.880658436213992
-0.005504500914,-4.11522633744856
-0.005504164914,-4.197530864197531
-0.0055038289139999995,-4.11522633744826
-0.005503492914,-3.9506172839509164
-0.005503156914,-2.4691358024718304
-0.005502820914,-0.411522633744856
-0.005502484914,0.7407407407407407
-0.005502148914,1.1522633744855968
-0.005501812914,1.1522633744855968
-0.005501476914,0.9876543209876543
-0.005501140914,0.823045267489712
-0.005500804914,0.5761316872427984
-0.0055004689139999995,0.32921810699543563
-0.005500132914,0.08230452674942035
-0.005499796914,-0.08230452674867177
-0.005499460914,-0.24691358024691357
-0.005499124914,-0.411522633744856
-0.005498788914,-0.3292181069958848
-0.005498452914,-0.0823045267489712
-0.005498116914,-0.411522633744856
-0.005497780914,-0.0823045267489712
-0.005497444914,-0.24691358024691357
-0.0054971089139999995,-0.08230452674867177
-0.005496772914,0.08230452674867177
-0.005496436914,-0.16460905349749322
-0.005496100914,0.0823045267489712
-0.005495764914,-0.0823045267489712
-0.005495428914,4.362139917695473
-0.005495092914,4.362139917695473
-0.005494756914,4.362139917695473
-0.005494420914,1.728395061728395
-0.005494084914,-0.823045267489712
-0.0054937489139999995,-0.987654320986756
-0.005493412914,-0.4938271604947254
-0.005493076914,-4.032921810693151
-0.005492740914,-4.11522633744856
-0.005492404914,-4.197530864197531
-0.005492068914,-4.197530864197531
-0.005491732914,-2.633744855967078
-0.005491396914,0.0823045267489712
-0.005491060914,0.9876543209876543
-0.005490724914,0.411522633744856
-0.0054903889139999995,-0.1646090534980921
-0.005490052913999999,-0.2469135802460153
-0.005489716914,0.24691358024601529
-0.005489380914,2.2222222222222223
-0.005489044914,4.362139917695473
-0.005488708914,4.362139917695473
-0.005488372914,4.362139917695473
-0.005488036914,3.292181069958848
-0.005487700914,1.5637860082304527
-0.005487364914,0.5761316872427984
-0.0054870289139999995,0.24691358024661414
-0.005486692913999999,0.08230452674957003
-0.005486356914,0.4115226337442571
-0.005486020914,4.362139917695473
-0.005485684914,4.11522633744856
-0.005485348914,1.0699588477366255
-0.005485012914,-0.9876543209876543
-0.005484676914,-1.728395061728395
-0.005484340914,-4.032921810699588
-0.005484004914,-4.279835390946502
-0.0054836689139999995,-4.032921810697492
-0.005483332913999999,-2.880658436208752
-0.005482996914,-5.239808587020889e-12
-0.005482660914,2.139917695473251
-0.005482324914,4.279835390946502
-0.005481988914,4.444444444444445
-0.005481652914,4.279835390946502
-0.005481316914,4.444444444444445
-0.005480980914,1.316872427983539
-0.005480644914,-3.2098765432098766
-0.0054803089139999995,-4.11522633744856
-0.0054799729139999994,-4.11522633744856
-0.005479636914,-4.11522633744856
-0.005479300914,-3.950617283950617
-0.005478964914,-2.3045267489711936
-0.005478628914,-0.3292181069958848
-0.005478292914,0.823045267489712
-0.005477956914,1.1522633744855968
-0.005477620914,1.0699588477366255
-0.005477284914,0.9876543209876543
-0.0054769489139999995,0.8230452674892629
-0.0054766129139999994,0.5761316872423493
-0.005476276914,0.3292181069963339
-0.005475940914,0.0823045267489712
-0.005475604914,-0.0823045267489712
-0.005475268914,-0.1646090534979424
-0.005474932914,-0.3292181069958848
-0.005474596914,-0.24691358024691357
-0.005474260914,-0.24691358024691357
-0.005473924914,-0.24691358024691357
-0.0054735889139999995,-0.16460905349779267
-0.0054732529139999994,-0.0823045267489712
-0.005472916914,-0.0823045267489712
-0.005472580914,0
-0.005472244914,0
-0.005471908914,0
-0.005471572914,0
-0.005471236914,3.045267489711934
-0.005470900914,4.362139917695473
-0.005470564914,4.444444444444445
-0.0054702289139999995,2.2222222222169825
-0.0054698929139999995,-0.658436213992069
-0.005469556914,-0.8230452674894125
-0.005469220914,-0.7407407407407407
-0.005468884914,-3.8683127572016462
-0.005468548914,-4.197530864197531
-0.005468212914,-4.197530864197531
-0.005467876914,-4.032921810699588
-0.005467540914,-2.7160493827160495
-0.005467204914,0.1646090534979424
-0.0054668689139999995,0.9053497942376352
-0.0054665329139999995,0.3292181069949865
-0.005466196914,-0.16460905349704408
-0.005465860914,-0.3292181069958848
-0.005465524914,0.1646090534979424
-0.005465188914,1.316872427983539
-0.005464852914,3.786008230452675
-0.005464516914,4.362139917695473
-0.005464180914,4.362139917695473
-0.005463844914,4.362139917695473
-0.0054635089139999996,4.032921810699588
-0.0054631729139999995,2.304526748967002
-0.005462836914,4.191758051774741e-12
-0.005462500914,-1.8930041152228942
-0.005462164914,-2.4691358024691357
-0.005461828914,4.362139917695473
-0.005461492914,4.362139917695473
-0.005461156914,2.3045267489711936
-0.005460820914,-0.49382716049382713
-0.005460484914,-1.3991769547325104
-0.0054601489139999996,-4.11522633744856
-0.0054598129139999995,-4.11522633744856
-0.005459476914,-4.11522633744856
-0.005459140914,-3.127572016462702
-0.005458804914,-0.24691358024691357
-0.005458468914,2.551440329218107
-0.005458132914,4.362139917695473
-0.005457796914,4.362139917695473
-0.005457460914,4.362139917695473
-0.005457124914,4.362139917695473
-0.0054567889139999996,0.9876543209876543
-0.0054564529139999995,-3.9506172839509164
-0.005456116914,-4.11522633744826
-0.005455780914,-4.197530864197381
-0.005455444914,-3.950617283950617
-0.005455108914,-3.8683127572016462
-0.005454772914,-1.8106995884773662
-0.005454436914,-0.0823045267489712
-0.005454100914,0.9053497942386831
-0.005453764914,1.2345679012345678
-0.0054534289139999996,0.9876543209876543
-0.0054530929139999995,0.9876543209872052
-0.005452756914,0.7407407407411899
-0.005452420914,0.4938271604942763
-0.005452084914,0.24691358024691357
-0.005451748914,0
-0.005451412914,-0.0823045267489712
-0.005451076914,-0.24691358024691357
-0.005450740914,-0.3292181069958848
-0.005450404914,-0.3292181069958848
-0.005450068914,-0.24691358024691357
-0.0054497329139999995,-0.1646090534979424
-0.005449396914,-0.1646090534979424
-0.005449060914,-0.08230452674912091
-0.005448724914,-0.0823045267489712
-0.005448388914,0
-0.005448052914,0
-0.005447716914,0
-0.005447380914,0
-0.005447044914,2.880658436213992
-0.005446708914,4.362139917695473
-0.0054463729139999995,4.362139917691881
-0.005446036914,2.3868312757237575
-0.005445700914,-0.4938271604885873
-0.005445364914,-1.1522633744855968
-0.005445028914,-0.49382716049382713
-0.005444692914,-3.1275720164609053
-0.005444356914,-4.11522633744856
-0.005444020914,-4.11522633744856
-0.005443684914,-4.11522633744856
-0.005443348914,-3.2098765432098766
-0.0054430129139999995,-0.3292181069936391
-0.005442676914,0.9053497942364372
-0.005442340914,0.5761316872433973
-0.005442004914,-0.0823045267489712
-0.005441668914,-0.24691358024691357
-0.005441332914,0.411522633744856
-0.005440996914,1.5637860082304527
-0.005440660914,4.444444444444445
-0.005440324914,4.11522633744856
-0.005439988914,4.279835390946502
-0.0054396529139999995,3.7037037037022067
-0.005439316914,2.880658436215489
-0.005438980914,2.1399176954745984
-0.005438644914,0.9053497942386831
-0.005438308914,0.1646090534979424
-0.005437972914,-0.1646090534979424
-0.005437636914,4.279835390946502
-0.005437300914,4.11522633744856
-0.005436964914,0.823045267489712
-0.005436628914,-0.9876543209876543
-0.0054362929139999995,-0.9053497942445219
-0.005435956914,-4.115226337442721
-0.005435620914,-4.11522633744856
-0.005435284914,-4.11522633744856
-0.005434948914,-3.45679012345679
-0.005434612914,-0.5761316872427984
-0.005434276914,1.646090534979424
-0.005433940914,4.362139917695473
-0.005433604914,4.362139917695473
-0.005433268914,4.362139917695473
-0.0054329329139999995,4.3621399176906825
-0.005432596913999999,1.7283950617197117
-0.005432260914,-3.0452674897032512
-0.005431924914,-4.11522633744856
-0.005431588914,-4.11522633744856
-0.005431252914,-4.11522633744856
-0.005430916914,-3.8683127572016462
-0.005430580914,-2.3045267489711936
-0.005430244914,-0.411522633744856
-0.005429908914,0.823045267489712
-0.0054295729139999995,1.1522633744854471
-0.005429236913999999,1.0699588477364759
-0.005428900914,0.9876543209878039
-0.005428564914,0.823045267489712
-0.005428228914,0.5761316872427984
-0.005427892914,0.3292181069958848
-0.005427556914,0.0823045267489712
-0.005427220914,-0.0823045267489712
-0.005426884914,-0.411522633744856
-0.005426548914,-0.0823045267489712
-0.0054262129139999995,-0.4938271604932283
-0.005425876913999999,-0.1646090534979424
-0.005425540914,-0.1646090534979424
-0.005425204914,-0.1646090534979424
-0.005424868914,-0.0823045267489712
-0.005424532914,-0.1646090534979424
-0.005424196914,0
-0.005423860914,0
-0.005423524914,0
-0.005423188914,0
-0.0054228529139999995,1.069958847742614
-0.0054225169139999994,4.362139917695473
-0.005422180914,4.362139917695473
-0.005421844914,3.1275720164609053
-0.005421508914,0
-0.005421172914,-1.1522633744855968
-0.005420836914,-0.6584362139917695
-0.005420500914,-3.1275720164609053
-0.005420164914,-4.11522633744856
-0.005419828914,-4.11522633744856
-0.0054194929139999995,-4.115226337446913
-0.0054191569139999994,-3.209876543204637
-0.005418820914,-0.3292181070011244
-0.005418484914,0.9053497942386831
-0.005418148914,0.49382716049382713
-0.005417812914,-0.0823045267489712
-0.005417476914,-0.24691358024691357
-0.005417140914,0.0823045267489712
-0.005416804914,1.316872427983539
-0.005416468914,4.032921810699588
-0.0054161329139999995,4.279835390946652
-0.0054157969139999994,4.362139917695473
-0.005415460914,4.362139917695473
-0.005415124914,2.7160493827160495
-0.005414788914,0.5761316872427984
-0.005414452914,-0.49382716049382713
-0.005414116914,-0.5761316872427984
-0.005413780914,-0.24691358024691357
-0.005413444914,4.362139917695473
-0.005413108914,4.444444444444445
-0.0054127729139999995,2.304526748966702
-0.0054124369139999995,-0.16460905350033778
-0.005412100914,-1.481481481479086
-0.005411764914,-3.8683127572016462
-0.005411428914,-4.279835390946502
-0.005411092914,-4.197530864197531
-0.005410756914,-3.45679012345679
-0.005410420914,-0.7407407407407407
-0.005410084914,2.139917695473251
-0.005409748914,4.279835390946502
-0.0054094129139999995,4.3621399176956235
-0.0054090769139999995,4.4444444444442945
-0.005408740914,4.3621399176956235
-0.005408404914,1.4814814814814814
-0.005408068914,-3.7037037037037037
-0.005407732914,-4.11522633744856
-0.005407396914,-4.11522633744856
-0.005407060914,-4.11522633744856
-0.005406724914,-3.786008230452675
-0.005406388914,-2.05761316872428
-0.0054060529139999995,-0.1646090534979424
-0.0054057169139999995,0.9053497942391322
-0.005405380914,1.1522633744851476
-0.005405044914,1.0699588477367752
-0.005404708914,0.9053497942386831
-0.005404372914,0.7407407407407407
-0.005404036914,0.5761316872427984
-0.005403700914,0.24691358024691357
-0.005403364914,0.0823045267489712
-0.005403028914,-0.1646090534979424
-0.0054026929139999996,-0.24691358024691357
-0.0054023569139999995,-0.24691358024691357
-0.005402020914,-0.24691358024691357
-0.005401684914,-0.24691358024691357
-0.005401348914,-0.24691358024691357
-0.005401012914,-0.1646090534979424
-0.005400676914,-0.0823045267489712
-0.005400340914,-0.0823045267489712
-0.005400004914,0
-0.005399668914,0
-0.0053993329139999996,0
-0.0053989969139999995,1.7965327442428211e-12
-0.005398660914,0.9876543209858577
-0.005398324914,4.362139917689335
-0.005397988914,4.197530864197531
-0.005397652914,3.374485596707819
-0.005397316914,-0.0823045267489712
-0.005396980914,-1.1522633744855968
-0.005396644914,-0.5761316872427984
-0.005396308914,-1.8930041152263375
-0.0053959729139999996,-4.032921810699588
-0.0053956369139999995,-4.197530864197381
-0.005395300914,-4.11522633744871
-0.005394964914,-3.786008230453274
-0.005394628914,-0.9053497942386831
-0.005394292914,0.9053497942386831
-0.005393956914,0.6584362139917695
-0.005393620914,0.0823045267489712
-0.005393284914,-0.3292181069958848
-0.005392948914,0
-0.005392612914,0.823045267489712
-0.0053922769139999995,2.7160493827190435
-0.005391940914,4.362139917692479
-0.005391604914,4.362139917695473
-0.005391268914,4.362139917695473
-0.005390932914,3.950617283950617
-0.005390596914,2.4691358024691357
-0.005390260914,1.2345679012345678
-0.005389924914,0.1646090534979424
-0.005389588914,-1.0699588477366255
-0.005389252914,2.7160493827160495
-0.0053889169139999995,4.362139917691431
-0.005388580914,2.139917695477293
-0.005388244914,-0.5761316872378579
-0.005387908914,-1.0699588477366255
-0.005387572914,-4.11522633744856
-0.005387236914,-4.11522633744856
-0.005386900914,-4.11522633744856
-0.005386564914,-3.8683127572016462
-0.005386228914,-0.9053497942386831
-0.005385892914,0.9876543209876543
-0.0053855569139999995,4.362139917695473
-0.005385220914,4.362139917695473
-0.005384884914,4.362139917695473
-0.005384548914,4.362139917695473
-0.005384212914,2.633744855967078
-0.005383876914,-1.646090534979424
-0.005383540914,-3.7037037037037037
-0.005383204914,-4.444444444444445
-0.005382868914,-3.950617283950617
-0.005382532914,-4.032921810699588
-0.0053821969139999995,-3.1275720164567136
-0.005381860914,-0.8230452674939035
-0.005381524914,0.41152263374261033
-0.005381188914,1.1522633744855968
-0.005380852914,1.1522633744855968
-0.005380516914,0.9876543209876543
-0.005380180914,0.9876543209876543
-0.005379844914,0.5761316872427984
-0.005379508914,0.49382716049382713
-0.005379172914,0.0823045267489712
-0.0053788369139999995,-0.08230452674912091
-0.005378500914,-0.16460905349779267
-0.005378164914,-0.32921810699558535
-0.005377828914,-0.24691358024691357
-0.005377492914,-0.24691358024691357
-0.005377156914,-0.24691358024691357
-0.005376820914,-0.1646090534979424
-0.005376484914,-0.1646090534979424
-0.005376148914,-0.0823045267489712
-0.005375812914,-0.0823045267489712
-0.0053754769139999995,0
-0.005375140913999999,0
-0.005374804914,0
-0.005374468914,0.49382716049382713
-0.005374132914,4.362139917695473
-0.005373796914,4.362139917695473
-0.005373460914,3.6213991769547325
-0.005373124914,0.411522633744856
-0.005372788914,-1.0699588477366255
-0.005372452914,-0.7407407407407407
-0.0053721169139999995,-1.3168724279886292
-0.005371780913999999,-4.11522633744856
-0.005371444914,-4.11522633744856
-0.005371108914,-4.11522633744856
-0.005370772914,-3.950617283950617
-0.005370436914,-1.316872427983539
-0.005370100914,0.7407407407407407
-0.005369764914,0.823045267489712
-0.005369428914,0.0823045267489712
-0.005369092914,-0.49382716049382713
-0.0053687569139999995,0.0823045267504683
-0.005368420913999999,0.9053497942430248
-0.005368084914,3.2921810699545064
-0.005367748914,4.444444444444445
-0.005367412914,4.279835390946502
-0.005367076914,3.8683127572016462
-0.005366740914,2.7983539094650207
-0.005366404914,1.9753086419753085
-0.005366068914,1.316872427983539
-0.005365732914,0.5761316872427984
-0.0053653969139999995,0.08230452675495964
-0.0053650609139999994,3.3744855967096155
-0.005364724914,4.362139917693677
-0.005364388914,1.9753086419753085
-0.005364052914,-0.6584362139917695
-0.005363716914,-1.0699588477366255
-0.005363380914,-4.11522633744856
-0.005363044914,-4.11522633744856
-0.005362708914,-4.11522633744856
-0.005362372914,-3.950617283950617
-0.0053620369139999995,-1.3168724279797963
-0.0053617009139999994,0.740740740747328
-0.005361364914,4.362139917688887
-0.005361028914,4.362139917695473
-0.005360692914,4.362139917695473
-0.005360356914,4.362139917695473
-0.005360020914,3.1275720164609053
-0.005359684914,-1.0699588477366255
-0.005359348914,-4.11522633744856
-0.005359012914,-4.11522633744856
-0.0053586769139999995,-4.1152263374484095
-0.0053583409139999994,-4.032921810698091
-0.005358004914,-3.2098765432113736
-0.005357668914,-1.1522633744855968
-0.005357332914,0.411522633744856
-0.005356996914,1.0699588477366255
-0.005356660914,1.1522633744855968
-0.005356324914,0.9876543209876543
-0.005355988914,0.823045267489712
-0.005355652914,0.6584362139917695
-0.0053553169139999995,0.41152263374440684
-0.0053549809139999995,0.16460905349764296
-0.005354644914,2.994271497414047e-13
-0.005354308914,-0.411522633744856
-0.005353972914,-0.24691358024691357
-0.005353636914,-0.1646090534979424
-0.005353300914,-0.411522633744856
-0.005352964914,-0.1646090534979424
-0.005352628914,-0.3292181069958848
-0.005352292914,-0.0823045267489712
-0.0053519569139999995,-2.994221240404702e-13
-0.0053516209139999995,-0.16460905349749325
-0.005351284914,0.08230452674852204
-0.005350948914,-0.0823045267489712
-0.005350612914,0
-0.005350276914,0.24691358024691357
-0.005349940914,4.362139917695473
-0.005349604914,4.444444444444445
-0.005349268914,3.7037037037037037
-0.005348932914,0.5761316872427984
-0.0053485969139999995,-1.0699588477366255
-0.0053482609139999995,-0.8230452674904605
-0.005347924914,-1.2345679012338193
-0.005347588914,-4.11522633744856
-0.005347252914,-4.11522633744856
-0.005346916914,-4.11522633744856
-0.005346580914,-3.950617283950617
-0.005346244914,-1.2345679012345678
-0.005345908914,0.7407407407407407
-0.005345572914,0.823045267489712
-0.0053452369139999996,0.0823045267489712
-0.0053449009139999995,-0.32921810699543563
-0.005344564914,-0.08230452674942035
-0.005344228914,0.5761316872416007
-0.005343892914,2.3045267489711936
-0.005343556914,4.279835390946502
-0.005343220914,4.362139917695473
-0.005342884914,4.362139917695473
-0.005342548914,4.279835390946502
-0.005342212914,3.292181069958848
-0.0053418769139999996,1.728395061728395
-0.0053415409139999995,-0.24691358024990778
-0.005341204914,-1.8930041152233432
-0.005340868914,0.16460905349419952
-0.005340532914,4.362139917695473
-0.005340196914,3.539094650205761
-0.005339860914,0.3292181069958848
-0.005339524914,-1.0699588477366255
-0.005339188914,-4.362139917695473
-0.005338852914,-4.032921810699588
-0.0053385169139999996,-4.197530864197531
-0.0053381809139999995,-4.032921810695097
-0.005337844914,-1.5637860082349442
-0.005337508914,0.576131687238906
-0.005337172914,4.279835390946502
-0.005336836914,4.279835390946502
-0.005336500914,4.362139917695473
-0.005336164914,4.362139917695473
-0.005335828914,3.292181069958848
-0.005335492914,-0.7407407407407407
-0.005335156914,-4.11522633744856
-0.0053348209139999995,-4.11522633744856
-0.005334484914,-4.11522633744856
-0.005334148914,-4.032921810699738
-0.005333812914,-3.292181069958848
-0.005333476914,-1.316872427983539
-0.005333140914,0.3292181069958848
-0.005332804914,0.9876543209876543
-0.005332468914,1.0699588477366255
-0.005332132914,1.0699588477366255
-0.005331796914,0.9053497942386831
-0.0053314609139999995,0.6584362139914701
-0.005331124914,0.49382716049412656
-0.005330788914,0.16460905349854127
-0.005330452914,0
-0.005330116914,-0.1646090534979424
-0.005329780914,-0.24691358024691357
-0.005329444914,-0.24691358024691357
-0.005329108914,-0.24691358024691357
-0.005328772914,-0.24691358024691357
-0.005328436914,-0.1646090534979424
-0.0053281009139999995,-0.16460905349779267
-0.005327764914,-0.08230452674912091
-0.005327428914,-1.4971357487070236e-13
-0.005327092914,0
-0.005326756914,0
-0.005326420914,0
-0.005326084914,1.8930041152263375
-0.005325748914,4.362139917695473
-0.005325412914,4.362139917695473
-0.005325076914,2.633744855967078
-0.0053247409139999995,-2.545088054343997e-12
-0.005324404914,-1.3991769547299653
-0.005324068914,-0.4938271604954739
-0.005323732914,-1.646090534979424
-0.005323396914,-4.11522633744856
-0.005323060914,-4.032921810699588
-0.005322724914,-4.279835390946502
-0.005322388914,-3.950617283950617
-0.005322052914,-1.5637860082304527
-0.005321716914,0.6584362139917695
-0.0053213809139999995,0.905349794237186
-0.005321044914,0.08230452675046829
-0.005320708914,-0.2469135802463147
-0.005320372914,-0.1646090534979424
-0.005320036914,0.823045267489712
-0.005319700914,3.045267489711934
