log/elapsedTest06.csv

#Digilent WaveForms Oscilloscope Acquisition
#Device Name: ADP5250-323F81C
#Serial Number: SN:323F81C
#Date Time: 2023-03-17 14:20:01.689.715.399
#Sample rate: 519751Hz
#Samples: 32768
#Trigger: Source: Channel 1 Type: Edge Condition: Rising Level: 0 V Hyst.: Auto
#Channel 1: Range: 1 V/div Offset: 0 V Attenuation: 1 X Coupling: DC Bandwidth: Full Sample Mode: Average
#Channel 2: Range: 200 mV/div Offset: 0 V Attenuation: 1 X Coupling: DC Bandwidth: Full

Time (s),Channel 1 (V),Channel 2 (V)
-0.031523710247,1.02880658436214,0
-0.031521786247,-1.5226337448513259,0
-0.031519862247,-0.32921810699805554,0
-0.031517938247,-0.08230452674942035,0
-0.031516014247,0.2469135802463147,0
-0.031514090247,-1.646090534979424,0
-0.031512166247,0.8641975308641975,0
-0.031510242247,0.5761316872427984,0
-0.031508318247,-0.45267489711934156,0
-0.031506394247,1.728395061728395,0
-0.031504470247,-1.728395061728395,0
-0.031502546246999996,-0.7818930041152263,0
-0.031500622246999996,1.1934156378600822,0
-0.031498698246999995,-0.49382716049382713,0
-0.031496774246999995,-1.0699588477330324,0
-0.031494850246999995,0.9053497942364375,0
-0.031492926246999994,-0.3292181069940134,0
-0.031491002246999994,0.6995884773670037,0
-0.031489078246999994,1.1111111111051977,0
-0.031487154247,-2.1399176954673376,0
-0.031485230247,-0.16460905350153543,0
-0.031483306247,0.28806584362057586,0
-0.031481382247,0.37037037037022064,0
-0.031479458247,-1.1934156378572376,0
-0.031477534247,0.5761316872427984,0
-0.031475610247,0.45267489711934156,0
-0.031473686247,-0.2880658436213992,0
-0.031471762247,1.646090534979424,0
-0.031469838247,-2.3045267489711936,0
-0.031467914246999996,0.0411522633744856,0
-0.031465990246999996,0.7407407407407407,0
-0.031464066246999996,-0.3292181069958848,0
-0.031462142246999995,-0.6584362139917695,0
-0.031460218246999995,0.16460905349816696,0
-0.031458294246999995,0.2880658436215489,0
-0.031456370246999994,0.37037037037104403,0
-0.031454446246999994,0.7407407407368483,0
-0.031452522246999993,-1.3991769547305641,0
-0.031450598247,-0.32921810699783105,0
-0.031448674247,0.37037037036909776,0
-0.031446750247,0.2880658436215489,0
-0.031444826247,-1.0288065843597445,0
-0.031442902247,0.576131687239879,0
-0.031440978247,0.2880658436213992,0
-0.031439054247,-0.37037037037037035,0
-0.031437130247,1.646090534979424,0
-0.031435206247,-2.2222222222222223,0
-0.031433282247,0,0
-0.031431358246999996,1.1934156378600822,0
-0.031429434246999996,-0.7818930041152263,0
-0.031427510246999996,-0.37037037037037035,0
-0.031425586246999995,-0.0411522633744856,0
-0.031423662246999995,0.20576131687287713,0
-0.031421738246999995,0.452674897119641,0
-0.031419814246999994,0.6172839506134663,0
-0.031417890246999994,-1.4814814814791608,0
-0.03141596624699999,-0.20576131687100574,0
-0.031414042247,0.576131687241376,0
-0.031412118247,0.16460905349869098,0
-0.031410194247,-1.0699588477343798,0
-0.031408270247,0.6995884773630365,0
-0.031406346247,-0.0823045267489712,0
-0.031404422247,-0.0823045267489712,0
-0.031402498247,1.8930041152263375,0
-0.031400574247,-2.42798353909465,0
-0.031398650247,-0.0823045267489712,0
-0.031396726247,1.1111111111111112,0
-0.031394802246999996,-0.6995884773662552,0
-0.031392878246999996,0.1646090534979424,0
-0.031390954246999996,-0.1646090534979424,0
-0.031389030246999995,-0.0823045267489712,0
-0.031387106246999995,0.5349794238683876,0
-0.031385182246999994,0.5761316872389808,0
-0.031383258246999994,-1.5226337448532723,0
-0.031381334246999994,-0.04115226337306334,0
-0.031379410247,0.7407407407393184,0
-0.031377486247,0.12345679012457966,0
-0.031375562247,-0.8230452674879903,0
-0.031373638247,0.8230452674867177,0
-0.031371714247,-0.6172839506146639,0
-0.031369790247,0.5761316872427984,0
-0.031367866247,1.1522633744855968,0
-0.031365942247,-2.3868312757201644,0
-0.031364018247,0.411522633744856,0
-0.031362094247,0.2880658436213992,0
-0.031360170247,0.37037037037037035,0
-0.031358246246999996,-0.24691358024691357,0
-0.031356322246999996,-0.45267489711934156,0
-0.031354398246999995,0.0411522633744856,0
-0.031352474246999995,0.04115226337635698,0
-0.031350550246999995,1.069958847731311,0
-0.031348626246999994,-1.8518518518488576,0
-0.031346702246999994,-0.2057613168690595,0
-0.031344778246999994,1.6460905349764297,0
-0.031342854247,2.994271497414047e-12,0
-0.031340930247,-0.5349794238673397,0
-0.031339006247,0.16460905349666988,0
-0.031337082247,-0.6995884773646832,0
-0.031335158247,0.6172839506148885,0
-0.031333234247,1.0699588477366255,0
-0.031331310247,-2.633744855967078,0
-0.031329386247,0.6584362139917695,0
-0.031327462247,0.5349794238683128,0
-0.031325538247,0.0411522633744856,0
-0.031323614246999996,0.45267489711934156,0
-0.031321690246999996,-0.9876543209876543,0
-0.031319766246999996,0.0411522633744856,0
-0.031317842246999995,0.3292181069958848,0
-0.031315918246999995,1.0288065843570497,0
-0.031313994246999995,-1.7695473250999612,1.497110620202351e-14
-0.031312070246999994,-0.1646090534953973,0.00823045267488215
-0.031310146246999994,1.2345679012322472,0
-0.031308222246999994,-0.04115226337463531,0
-0.031306298247,-0.12345679012330707,0
-0.031304374247,-0.12345679012345678,0
-0.031302450247,-1.0288065843604932,0
-0.031300526247,0.6172839506142898,0
-0.031298602247,0.9053497942381592,0
-0.031296678247,-2.674897119341564,0
-0.031294754247,1.0699588477366255,0
-0.031292830247,0.49382716049382713,0
-0.031290906247,-0.0823045267489712,0
-0.031288982247,0.6995884773662552,0
-0.031287058246999996,-1.1934156378600822,0
-0.031285134246999996,-0.0823045267489712,0
-0.031283210246999996,0.37037037037037035,0
-0.031281286246999995,0.5761316872427984,0
-0.031279362246999995,-1.8518518518482587,0
-0.031277438246999995,0.12345679012525332,0
-0.031275514246999994,1.111111111108566,0
-0.031273590246999994,-0.28806584361990206,0
-0.03127166624699999,0.5349794238662917,0
-0.031269742247,-0.5761316872407773,0
-0.031267818247,-1.1522633744845487,0
-0.031265894247,0.9876543209837618,0
-0.031263970247,0.6584362139923684,0
-0.031262046247,-2.551440329218107,0
-0.031260122247,1.1522633744855968,0
-0.031258198247,0.24691358024691357,0
-0.031256274247,0.37037037037037035,0
-0.031254350247,0.7407407407407407,0
-0.031252426247,-2.263374485596708,0
-0.031250502246999996,2.139917695473251,0
-0.031248578246999996,4.320987654320987,0
-0.031246654246999996,-4.032921810699588,0
-0.031244730246999995,1.1111111111111112,0
-0.031242806247,-0.12345679012345678,0
-0.031240882246999998,-0.24691358024691357,0
-0.031238958246999998,0.0411522633744856,0
-0.031237034246999997,-0.0411522633744856,0
-0.031235110246999997,-0.0823045267489712,0
-0.031233186246999996,-0.0411522633744856,0
-0.031231262246999996,-0.0411522633744856,0
-0.031229338246999996,-0.0411522633744856,0
-0.031227414246999995,0.0411522633744856,0
-0.031225490247,-0.0411522633744856,0
-0.031223566246999998,-0.0823045267489712,0
-0.031221642246999998,-0.0411522633744856,0
-0.031219718246999997,-0.0411522633744856,0
-0.031217794246999997,-0.0411522633744856,0
-0.031215870246999997,-0.0411522633744856,0
-0.031213946246999996,-0.1646090534979424,0
-0.031212022246999996,-0.0823045267489712,0
-0.031210098246999995,-0.0411522633744856,0
-0.031208174247,-0.0411522633744856,0
-0.031206250246999998,-0.0823045267489712,0
-0.031204326246999998,-0.0411522633744856,0
-0.031202402246999997,-0.0411522633744856,0
-0.031200478246999997,-0.0411522633744856,0
-0.031198554246999997,0.0411522633744856,0
-0.031196630246999996,-0.0411522633744856,0
-0.031194706246999996,-0.0823045267489712,0
-0.031192782246999996,-0.0411522633744856,0
-0.031190858246999995,-0.0411522633744856,0
-0.031188934247,-2.05761316872428,0
-0.031187010246999998,0.9053497942386831,0
-0.031185086246999998,0.0823045267489712,0
-0.031183162246999997,-0.6172839506172839,0
-0.031181238246999997,0.5349794238683128,0
-0.031179314246999996,0.0411522633744856,0
-0.031177390246999996,1.3580246913580247,0
-0.031175466246999996,-2.757201646090535,0
-0.031173542246999995,0.7407407407407407,0
-0.031171618247,-0.2880658436213992,0
-0.031169694246999998,-0.12345679012345678,0
-0.031167770246999998,1.3580246913580247,0
-0.031165846246999997,-1.0699588477366255,0
-0.031163922246999997,-0.0411522633744856,0
-0.031161998246999997,1.0699588477366255,0
-0.031160074246999996,0.24691358024691357,0
-0.031158150246999996,-1.9341563786008231,0
-0.031156226246999996,0.9465020576131687,0
-0.031154302246999995,-1.4814814814814814,0
-0.031152378246999998,1.0699588477366255,0
-0.031150454246999998,0.6172839506172839,0
-0.031148530246999998,-1.1111111111111112,0
-0.031146606246999997,0.9465020576131687,0
-0.031144682246999997,-0.24691358024691357,0
-0.031142758246999996,1.2345679012345678,0
-0.031140834246999996,-2.7983539094650207,0
-0.031138910246999996,0.9053497942386831,0
-0.031136986246999995,-0.45267489711934156,0
-0.031135062247,-0.24691358024691357,0
-0.031133138246999998,1.6049382716049383,0
-0.031131214246999998,-1.6872427983539096,0
-0.031129290246999997,0.9876543209876543,0
-0.031127366246999997,0.9053497942386831,0
-0.031125442246999997,-0.24691358024691357,0
-0.031123518246999996,-1.6049382716049383,0
-0.031121594246999996,0.0411522633744856,0
-0.031119670246999995,-0.5761316872427984,0
-0.031117746247,0.9465020576131687,0
-0.031115822246999998,0.411522633744856,0
-0.031113898246999998,-1.0699588477366255,0
-0.031111974246999997,0.823045267489712,0
-0.031110050246999997,0.12345679012345678,0
-0.031108126246999997,1.0699588477366255,0
-0.031106202246999996,-2.8395061728395063,0
-0.031104278246999996,0.9465020576131687,0
-0.031102354246999996,-0.823045267489712,0
-0.031100430246999995,0.37037037037037035,0
-0.031098506247,1.9341563786008231,0
-0.031096582246999998,-2.5925925925925926,0
-0.031094658246999998,1.4814814814814814,0
-0.031092734246999997,0.37037037037037035,0
-0.031090810246999997,0.205761316872428,0
-0.031088886246999996,-1.4814814814814814,0
-0.031086962246999996,-0.2880658436213992,0
-0.031085038246999996,-0.37037037037037035,0
-0.031083114246999995,0.6995884773662552,0
-0.031081190247,0.823045267489712,0
-0.031079266246999998,-1.3991769547325104,0
-0.031077342246999998,0.8641975308641975,0
-0.031075418246999997,0.205761316872428,0
-0.031073494246999997,0.8641975308641975,0
-0.031071570246999997,-2.551440329218107,0
-0.031069646246999996,1.02880658436214,0
-0.031067722246999996,-0.7818930041152263,0
-0.031065798246999995,0.2880658436213992,0
-0.031063874246999995,1.9341563786008231,0
-0.031061950246999998,-2.757201646090535,0
-0.031060026246999998,1.728395061728395,0
-0.031058102246999997,0.0823045267489712,0
-0.031056178246999997,0.411522633744856,0
-0.031054254246999997,-1.3580246913580247,0
-0.031052330246999996,-0.5349794238683128,0
-0.031050406246999996,-0.12345679012345678,0
-0.031048482246999996,0.0411522633744856,0
-0.031046558246999995,1.6872427983539096,0
-0.031044634247,-1.728395061728395,0
-0.031042710246999998,0.5349794238683128,0
-0.031040786246999998,0.9053497942386831,0
-0.031038862246999997,0.45267489711934156,0
-0.031036938246999997,-2.0987654320987654,0
-0.031035014246999997,0.6172839506172839,0
-0.031033090246999996,-0.8641975308641975,0
-0.031031166246999996,0.3292181069958848,0
-0.031029242246999995,1.9753086419753085,0
-0.031027318247,-2.757201646090535,0
-0.031025394246999998,1.440329218106996,0
-0.031023470246999998,0.411522633744856,0
-0.031021546246999997,-0.2880658436213992,0
-0.031019622246999997,-0.7407407407407407,0
-0.031017698246999997,-0.6172839506172839,0
-0.031015774246999996,-0.24691358024691357,0
-0.031013850246999996,0.8641975308641975,0
-0.031011926246999996,0.9465020576131687,0
-0.031010002246999995,-1.646090534979424,0
-0.031008078246999998,0.9053497942386831,0
-0.031006154246999998,0.3292181069958848,0
-0.031004230246999998,0.5349794238683128,0
-0.031002306246999997,-1.6049382716049383,0
-0.031000382246999997,0.3292181069958848,0
-0.030998458246999996,-1.4814814814814814,0
-0.030996534246999996,0.8641975308641975,0
-0.030994610246999996,1.4814814814814814,0
-0.030992686246999995,-2.633744855967078,0
-0.030990762247,1.7695473251028806,0
-0.030988838246999998,-0.5761316872427984,0.00823045267489712
-0.030986914246999998,0.6995884773662552,0
-0.030984990246999997,-0.823045267489712,0
-0.030983066246999997,-0.45267489711934156,0
-0.030981142246999997,0.0411522633744856,0
-0.030979218246999996,0.12345679012345678,0
-0.030977294246999996,1.7695473251028806,0
-0.030975370246999995,-1.9753086419753085,0
-0.030973446247,0.49382716049382713,0
-0.030971522246999998,0.5761316872427984,0
-0.030969598246999998,0.0823045267489712,0
-0.030967674246999997,-1.2757201646090535,0
-0.030965750246999997,0.205761316872428,0
-0.030963826246999997,-1.1934156378600822,0
-0.030961902246999996,1.1111111111111112,0
-0.030959978246999996,1.646090534979424,0
-0.030958054246999996,-3.045267489711934,0
-0.030956130246999995,1.7695473251028806,0
-0.030954206247,-0.6995884773662552,0
-0.030952282246999998,0.8641975308641975,0
-0.030950358246999998,-0.5761316872427984,0
-0.030948434246999997,-0.411522633744856,0
-0.030946510246999997,-0.0823045267489712,0
-0.030944586246999996,-0.1646090534979424,0
-0.030942662246999996,1.9753086419753085,0
-0.030940738246999996,-2.674897119341564,0
-0.030938814246999995,1.0699588477366255,0
-0.030936890247,0.1646090534979424,0
-0.030934966246999998,-0.5349794238683128,0
-0.030933042246999998,0.12345679012345678,0
-0.030931118246999997,-0.49382716049382713,0
-0.030929194246999997,-0.6172839506172839,0
-0.030927270246999997,1.0699588477366255,0
-0.030925346246999996,0.6172839506172839,0
-0.030923422246999996,-1.8930041152263375,0
-0.030921498246999995,1.3991769547325104,0
-0.030919574246999995,-0.823045267489712,0
-0.030917650246999998,0.8641975308641975,0
-0.030915726246999998,-0.6584362139917695,0
-0.030913802246999997,-0.45267489711934156,0
-0.030911878246999997,0.12345679012345678,0
-0.030909954246999997,-0.37037037037037035,0
-0.030908030246999996,1.8106995884773662,0
-0.030906106246999996,-2.3045267489711936,0
-0.030904182246999996,0.7818930041152263,0
-0.030902258246999995,0.24691358024691357,0
-0.030900334247,-0.45267489711934156,0
-0.030898410246999998,0.5349794238683128,0
-0.030896486246999998,-0.6584362139917695,0
-0.030894562246999997,-0.7407407407407407,0
-0.030892638246999997,1.1934156378600822,0
-0.030890714246999997,0.9053497942386831,0
-0.030888790246999996,-2.3868312757201644,0
-0.030886866246999996,1.4814814814814814,0
-0.030884942246999995,-1.02880658436214,0
-0.030883018247,0.823045267489712,0
-0.030881094246999998,0.1646090534979424,0
-0.030879170246999998,-1.1111111111111112,0
-0.030877246246999997,0.37037037037037035,0
-0.030875322246999997,-0.12345679012345678,0
-0.030873398246999997,1.5637860082304527,0
-0.030871474246999996,-3.1275720164609053,0
-0.030869550246999996,1.522633744855967,0
-0.030867626246999996,-0.411522633744856,0
-0.030865702246999995,-0.12345679012345678,0
-0.030863778247,0.8641975308641975,0
-0.030861854246999998,-1.2345679012345678,0
-0.030859930246999998,0.12345679012345678,0
-0.030858006246999997,1.0699588477366255,0
-0.030856082246999997,0.24691358024691357,0
-0.030854158246999996,-1.9341563786008231,0
-0.030852234246999996,1.0699588477366255,0
-0.030850310246999996,-0.823045267489712,0
-0.030848386246999995,0.8641975308641975,0
-0.030846462247,-0.3292181069958848,0
-0.030844538246999998,-0.49382716049382713,0
-0.030842614246999998,-0.12345679012345678,0
-0.030840690246999997,0.6584362139917695,0
-0.030838766246999997,1.1934156378600822,0
-0.030836842246999997,-3.168724279835391,0
-0.030834918246999996,1.3991769547325104,0
-0.030832994246999996,-0.1646090534979424,0
-0.030831070246999995,-0.3292181069958848,0
-0.030829146247,1.2345679012345678,0
-0.030827222246999998,-1.02880658436214,0
-0.030825298246999998,-0.2880658436213992,0
-0.030823374246999997,1.1522633744855968,0
-0.030821450246999997,0.0823045267489712,0
-0.030819526246999997,-2.05761316872428,0.00823045267489712
-0.030817602246999996,0.8641975308641975,0
-0.030815678246999996,-0.37037037037037035,0
-0.030813754246999996,0.7407407407407407,0
-0.030811830246999995,0.0823045267489712,0
-0.030809906247,-0.823045267489712,0
-0.030807982246999998,0.2880658436213992,0
-0.030806058246999998,0.1646090534979424,0
-0.030804134246999997,1.316872427983539,0
-0.030802210246999997,-2.8395061728395063,0
-0.030800286246999996,1.1522633744855968,0
-0.030798362246999996,-0.3292181069958848,0
-0.030796438246999996,-0.1646090534979424,0
-0.030794514246999995,1.646090534979424,0
-0.030792590247,-2.139917695473251,0
-0.030790666246999998,0.9465020576131687,0
-0.030788742246999998,0.6172839506172839,0
-0.030786818246999997,0.45267489711934156,0
-0.030784894246999997,-1.8106995884773662,0
-0.030782970246999997,-0.205761316872428,0
-0.030781046246999996,-0.0823045267489712,0
-0.030779122246999996,0.205761316872428,0
-0.030777198246999996,0.9465020576131687,0
-0.030775274246999995,-1.1111111111111112,0
-0.030773350246999998,0.24691358024691357,0
-0.030771426246999998,0.5349794238683128,0
-0.030769502246999998,1.02880658436214,0
-0.030767578246999997,-2.880658436213992,0
-0.030765654246999997,1.316872427983539,0
-0.030763730246999996,-0.6584362139917695,0
-0.030761806246999996,-0.0411522633744856,0
-0.030759882246999996,1.646090534979424,0
-0.030757958246999995,-2.1810699588477367,0
-0.030756034247,1.1522633744855968,0
-0.030754110246999998,0.6584362139917695,0
-0.030752186246999998,-0.0411522633744856,0
-0.030750262246999997,-1.6049382716049383,0
-0.030748338246999997,-0.24691358024691357,0
-0.030746414246999997,-0.205761316872428,0
-0.030744490246999996,0.37037037037037035,0
-0.030742566246999996,1.1522633744855968,0.00823045267489712
-0.030740642246999995,-1.1522633744855968,0
-0.030738718247,0,0
-0.030736794246999998,1.2757201646090535,0
-0.030734870246999998,0.1646090534979424,0
-0.030732946246999997,-1.8518518518518519,0
-0.030731022246999997,0.7818930041152263,0
-0.030729098246999997,-1.522633744855967,0
-0.030727174246999996,1.1111111111111112,0
-0.030725250246999996,1.316872427983539,0
-0.030723326246999996,-2.2222222222222223,0
-0.030721402246999995,1.3580246913580247,0
-0.030719478247,0.12345679012345678,0
-0.030717554246999998,0.45267489711934156,0
-0.030715630246999998,-1.4814814814814814,0
-0.030713706246999997,-0.411522633744856,0
-0.030711782246999997,-0.24691358024691357,0
-0.030709858246999996,0.2880658436213992,0
-0.030707934246999996,1.7695473251028806,0
-0.030706010246999996,-1.440329218106996,0
-0.030704086246999995,0.205761316872428,0
-0.030702162247,0.9465020576131687,0
-0.030700238246999998,0.45267489711934156,0
-0.030698314246999998,-2.263374485596708,0
-0.030696390246999997,0.7407407407407407,0
-0.030694466246999997,-1.1522633744855968,0
-0.030692542246999997,0.6584362139917695,0
-0.030690618246999996,1.8930041152263375,0
-0.030688694246999996,-2.7983539094650207,0
-0.030686770246999995,2.0987654320987654,0
-0.030684846247,-0.823045267489712,0
-0.030682922246999998,0.37037037037037035,0
-0.030680998246999998,0.24691358024691357,0
-0.030679074246999997,-0.2880658436213992,0
-0.030677150246999997,-0.823045267489712,0
-0.030675226246999997,-0.37037037037037035,0
-0.030673302246999996,0.7407407407407407,0
-0.030671378246999996,0.6995884773662552,0
-0.030669454246999996,-0.7407407407407407,0
-0.030667530246999995,0.9876543209876543,0
-0.030665606247,-0.6584362139917695,0
-0.030663682246999998,1.0699588477366255,0
-0.030661758246999998,-1.522633744855967,0
-0.030659834246999997,-0.205761316872428,0
-0.030657910246999997,0.6995884773662552,0
-0.030655986246999996,-0.823045267489712,0
-0.030654062246999996,0.7407407407407407,0
-0.030652138246999996,0.45267489711934156,0
-0.030650214246999995,-0.7818930041152263,0
-0.030648290247,1.8106995884773662,0
-0.030646366246999998,-1.9341563786008231,0
-0.030644442246999998,0.6584362139917695,0
-0.030642518246999997,0.411522633744856,0
-0.030640594246999997,-2.3045267489711936,0
-0.030638670246999997,1.3580246913580247,0
-0.030636746246999996,-0.2880658436213992,0
