log/elapsedTest07.csv

#Digilent WaveForms Oscilloscope Acquisition
#Device Name: ADP5250-323F81C
#Serial Number: SN:323F81C
#Date Time: 2023-03-17 14:20:01.771.193.899
#Sample rate: 519751Hz
#Samples: 32768
#Trigger: Source: Channel 1 Type: Edge Condition: Rising Level: 0 V Hyst.: Auto
#Channel 1: Range: 1 V/div Offset: 0 V Attenuation: 1 X Coupling: DC Bandwidth: Full Sample Mode: Average
#Channel 2: Range: 200 mV/div Offset: 0 V Attenuation: 1 X Coupling: DC Bandwidth: Full

Time (s),Channel 1 (V),Channel 2 (V)
-0.031523909669,0.5349794238683128,0
-0.031521985669,-0.658436213989599,0
-0.031520061668999996,0.2880658436196776,0
-0.031518137668999996,0.24691358024698842,0
-0.031516213668999996,-0.7818930041133549,0
-0.031514289668999995,0.49382716049382713,0
-0.031512365668999995,-0.12345679012345678,0
-0.031510441668999994,-0.37037037037037035,0
-0.031508517668999994,0.45267489711934156,0
-0.031506593668999994,-0.6995884773662552,0
-0.03150466966899999,0.411522633744856,0
-0.03150274566899999,0.205761316872428,0
-0.03150082166899999,-0.45267489711934156,0
-0.03149889766899999,0.3292181069958848,0
-0.03149697366899999,-0.905349794236138,0
-0.03149504966899999,0.4938271604925546,0
-0.03149312566899999,-0.205761316872428,0
-0.03149120166899999,-0.20576131687115545,0
-0.03148927766899999,0.49382716049128206,1.497110620202351e-14
-0.031487353669,-0.9053497942361379,0.00823045267488215
-0.031485429669,0.5761316872401036,1.4970663597679845e-14
-0.031483505668999996,0.04115226337545874,0
-0.031481581668999996,-0.4526748971184433,0
-0.031479657668999995,0.49382716049210545,0
-0.031477733668999995,-0.7407407407407407,0
-0.031475809668999995,0.45267489711934156,0
-0.031473885668999994,0.205761316872428,0
-0.031471961668999994,-0.6995884773662552,0
-0.031470037668999994,0.411522633744856,0
-0.03146811366899999,-0.823045267489712,0
-0.03146618966899999,0.49382716049382713,0
-0.03146426566899999,0.0411522633744856,0
-0.03146234166899999,-0.45267489711934156,0
-0.03146041766899999,0.45267489711717074,0
-0.03145849366899999,-0.7407407407385699,0
-0.03145656966899999,0.4526748971188176,0
-0.03145464566899999,0.16460905349644528,0
-0.03145272166899999,-0.6584362139896736,0
-0.031450797669,0.49382716049173137,0
-0.031448873668999996,-0.3292181069943877,0
-0.031446949668999996,-0.041152263375009546,0
-0.031445025668999996,0.3703703703696218,0
-0.031443101668999995,-0.8230452674875414,0
-0.031441177668999995,0.45267489711934156,0
-0.031439253668999995,-0.0823045267489712,0
-0.031437329668999994,-0.45267489711934156,0
-0.031435405668999994,0.49382716049382713,0
-0.031433481668999994,-0.5761316872427984,0
-0.03143155766899999,0.1646090534979424,0
-0.03142963366899999,0.411522633744856,0
-0.03142770966899999,-0.9053497942386831,0
-0.03142578566899999,0.6172839506172839,0
-0.03142386166899999,-0.28806584362080034,0
-0.03142193766899999,0.04115226337500959,0
-0.03142001366899999,0.3292181069940134,0
-0.03141808966899999,-0.6995884773640844,0
-0.03141616566899999,0.4938271604912072,0
-0.031414241669,-0.9465020576105487,0
-0.031412317668999996,0.5761316872400287,0
-0.031410393668999996,-0.32921810699423804,0
-0.031408469668999996,-0.16460905349824181,0
-0.031406545668999995,0.45267489711934156,0
-0.031404621668999995,-0.7407407407407407,0
-0.031402697668999995,0.45267489711934156,0
-0.031400773668999994,0.12345679012345678,0
-0.031398849668999994,-0.6995884773662552,0
-0.03139692566899999,0.5349794238683128,0
-0.03139500166899999,-0.3292181069958848,0
-0.03139307766899999,0.12345679012345678,0
-0.03139115366899999,0.3292181069958848,0
-0.03138922966899999,-0.7407407407407407,0
-0.03138730566899999,0.4526748971186679,0
-0.03138538166899999,0.08230452674822264,0
-0.03138345766899999,-0.32921810699438764,0
-0.03138153366899999,0.4938271604913569,0
-0.031379609669,-0.8641975308617271,0
-0.031377685669,0.5349794238657676,0
-0.031375761668999996,9.731104810839497e-13,0
-0.031373837668999996,-0.37037037036969667,0
-0.031371913668999996,0.4526748971178445,0
-0.031369989668999995,-0.6995884773662552,0
-0.031368065668999995,0.205761316872428,0
-0.031366141668999994,0.45267489711934156,0
-0.031364217668999994,-0.9465020576131687,0
-0.031362293668999994,0.6172839506172839,0
-0.03136036966899999,-0.12345679012345678,0
-0.03135844566899999,-0.49382716049382713,0
-0.03135652166899999,0.45267489711934156,0
-0.03135459766899999,-0.6172839506172839,0
-0.03135267366899999,0.41152263374358344,0
-0.03135074966899999,-0.2880658436207255,0
-0.03134882566899999,0.08230452674942032,0
-0.03134690166899999,0.32921810699393855,0
-0.03134497766899999,-0.7407407407384202,0
-0.031343053669,0.5349794238659922,0
-0.031341129669,-0.04115226337343769,0
-0.031339205668999996,-0.6584362139906467,0
-0.031337281668999996,0.6172839506149633,0
-0.031335357668999995,-0.4526748971173954,0
-0.031333433668999995,0.2880658436213992,0
-0.031331509668999995,0.1646090534979424,0
-0.031329585668999994,-0.5761316872427984,0
-0.031327661668999994,0.3292181069958848,0
-0.031325737668999994,-0.45267489711934156,0
-0.03132381366899999,0.2880658436213992,0
-0.03132188966899999,0.0823045267489712,0
-0.03131996566899999,-0.45267489711934156,0
-0.03131804166899999,0.5349794238683128,0
-0.03131611766899999,-0.6172839506160114,0
-0.03131419366899999,0.08230452674949518,0
-0.03131226966899999,0.370370370367975,0
-0.03131034566899999,-0.9465020576103991,0
-0.03130842166899999,0.5761316872418253,0
-0.031306497669,0.04115226337545874,0
-0.031304573668999996,-0.4526748971184433,0
-0.031302649668999996,0.49382716049210545,0
-0.031300725668999996,-0.7818930041129057,0
-0.031298801668999995,0.49382716049150654,0
-0.031296877668999995,-0.0823045267489712,0
-0.031294953668999995,0.205761316872428,0
-0.031293029668999994,0.205761316872428,0
-0.031291105668999994,-0.5761316872427984,0
-0.031289181668999994,0.5761316872427984,0
-0.03128725766899999,-0.6584362139917695,0
-0.03128533366899999,0.2880658436213992,0
-0.03128340966899999,0.2880658436213992,0
-0.03128148566899999,-0.9053497942386831,0
-0.03127956166899999,0.5349794238674893,0
-0.03127763766899999,0.08230452674769866,1.497110620202351e-14
-0.03127571366899999,-0.6172839506153377,0.00823045267488215
-0.03127378966899999,0.45267489711799413,0
-0.03127186566899999,-0.28806584362065063,0
-0.031269941669,0.12345679012270822,0
-0.031268017668999996,0.49382716049315345,0
-0.031266093668999996,-0.6995884773640846,0
-0.031264169668999996,0.45267489711724573,0
-0.031262245668999995,-0.37037037037037035,0
-0.031260321668999995,0.205761316872428,0
-0.031258397668999995,0.2880658436213992,0
-0.031256473668999994,-0.7818930041152263,0.00823045267489712
-0.031254549668999994,0.49382716049382713,0
-0.03125262566899999,-0.411522633744856,0
-0.03125070166899999,-0.2880658436213992,0.00823045267489712
-0.031248777668999993,0.45267489711934156,0
-0.031246853668999992,-0.7407407407407407,0
-0.031244929668999992,0.411522633744856,0
-0.031243005668999995,0.0823045267489712,0
-0.031241081668999995,-0.6172839506172839,0
-0.031239157668999994,0.7407407407407407,0
-0.031237233668999994,-0.823045267489712,0
-0.031235309668999994,0.5761316872427984,0
-0.031233385668999993,-0.0411522633744856,0
-0.031231461668999993,-0.37037037037037035,0
-0.031229537668999992,0.3292181069958848,0
-0.031227613668999992,-0.7407407407407407,0
-0.031225689668999995,0.49382716049382713,0
-0.031223765668999995,-0.24691358024691357,0
-0.031221841668999994,-0.49382716049382713,0
-0.031219917668999994,0.45267489711934156,0
-0.031217993668999994,-0.6995884773662552,0
-0.031216069668999993,0.45267489711934156,0
-0.031214145668999993,-0.0411522633744856,0
-0.031212221668999993,-0.411522633744856,0
-0.031210297668999992,0.5349794238683128,0
-0.031208373668999995,-0.6172839506172839,0
-0.031206449668999995,0.411522633744856,0
-0.031204525668999995,0.1646090534979424,0
-0.031202601668999994,-0.5761316872427984,0
-0.031200677668999994,0.49382716049382713,0
-0.031198753668999993,-0.49382716049382713,0
-0.031196829668999993,0.2880658436213992,0
-0.031194905668999993,0.0411522633744856,0
-0.031192981668999992,-0.8641975308641975,0
-0.031191057668999992,0.5349794238683128,0
-0.031189133668999995,-0.205761316872428,0
-0.031187209668999995,0,0
-0.031185285668999994,0.411522633744856,0
-0.031183361668999994,-0.8641975308641975,0
-0.031181437668999994,0.49382716049382713,0
-0.031179513668999993,-0.37037037037037035,0.00823045267489712
-0.031177589668999993,0.12345679012345678,0
-0.031175665668999993,0.3292181069958848,0
-0.031173741668999992,-0.8641975308641975,0
-0.031171817668999995,0.5761316872427984,0
-0.031169893668999995,-0.3292181069958848,0
-0.031167969668999995,-0.0823045267489712,0
-0.031166045668999994,0.205761316872428,0
-0.031164121668999994,-0.8641975308641975,0
-0.031162197668999993,0.5349794238683128,0
-0.031160273668999993,0,0
-0.031158349668999993,-0.411522633744856,0
-0.031156425668999992,0.45267489711934156,0
-0.031154501668999992,-0.823045267489712,0
-0.031152577668999995,0.45267489711934156,0
-0.031150653668999995,0.0411522633744856,0
-0.031148729668999994,-0.49382716049382713,0
-0.031146805668999994,0.49382716049382713,0
-0.031144881668999994,-0.37037037037037035,0
-0.031142957668999993,-0.0823045267489712,0
-0.031141033668999993,0.411522633744856,0
-0.031139109668999992,-0.823045267489712,0
-0.031137185668999992,0.37037037037037035,0
-0.031135261668999995,-0.45267489711934156,0
-0.031133337668999995,0.0823045267489712,0
-0.031131413668999994,0.411522633744856,0
-0.031129489668999994,-0.9053497942386831,0
-0.031127565668999994,0.6172839506172839,0
-0.031125641668999993,-0.1646090534979424,0
-0.031123717668999993,-0.5761316872427984,0
-0.031121793668999993,0.5349794238683128,0
-0.031119869668999992,-0.7407407407407407,0
-0.031117945668999995,0.49382716049382713,0
-0.031116021668999995,0.12345679012345678,0
-0.031114097668999995,-0.49382716049382713,0
-0.031112173668999994,0.9465020576131687,0
-0.031110249668999994,-3.7448559670781894,0
-0.031108325668999993,-0.0823045267489712,0
-0.031106401668999993,0.6172839506172839,0
-0.031104477668999993,-0.45267489711934156,0
-0.031102553668999992,0.5349794238683128,0
-0.031100629668999992,-0.5349794238683128,0
-0.031098705668999995,0.411522633744856,0
-0.031096781668999995,0.12345679012345678,0
-0.031094857668999994,-0.6995884773662552,0
-0.031092933668999994,0.45267489711934156,0
-0.031091009668999994,-0.49382716049382713,0
-0.031089085668999993,0.3292181069958848,0
-0.031087161668999993,0.1646090534979424,0
-0.031085237668999992,-0.6584362139917695,0
-0.031083313668999992,0.45267489711934156,0
-0.031081389668999995,-0.411522633744856,0
-0.031079465668999995,0.3292181069958848,0
-0.031077541668999994,0.0411522633744856,0
-0.031075617668999994,-0.6584362139917695,0
-0.031073693668999994,0.37037037037037035,0
-0.031071769668999993,-0.5761316872427984,0
-0.031069845668999993,0.3292181069958848,0
-0.031067921668999993,0.12345679012345678,0
-0.031065997668999992,-0.7818930041152263,0
-0.031064073668999992,0.37037037037037035,0
-0.031062149668999995,-0.411522633744856,0
-0.031060225668999995,0.1646090534979424,0
-0.031058301668999994,0.205761316872428,0
-0.031056377668999994,-0.6995884773662552,0
-0.031054453668999994,0.45267489711934156,0
-0.031052529668999993,-0.0823045267489712,0
-0.031050605668999993,-0.12345679012345678,0
-0.031048681668999992,0.24691358024691357,0
-0.031046757668999992,-0.5761316872427984,0
-0.031044833668999995,0.3292181069958848,0
-0.031042909668999995,0.0823045267489712,0
-0.031040985668999994,-0.5761316872427984,0
-0.031039061668999994,0.37037037037037035,0
-0.031037137668999994,-0.7818930041152263,0
-0.031035213668999993,0.3292181069958848,0
-0.031033289668999993,0.205761316872428,0
-0.031031365668999993,-0.5761316872427984,0
-0.031029441668999992,0.411522633744856,0
-0.031027517668999995,-0.37037037037037035,0
-0.031025593668999995,0.0823045267489712,0
-0.031023669668999995,0.205761316872428,0
-0.031021745668999994,-0.411522633744856,0
-0.031019821668999994,0.411522633744856,0
-0.031017897668999993,-0.0411522633744856,0
-0.031015973668999993,-0.5349794238683128,0
-0.031014049668999993,0.37037037037037035,0
-0.031012125668999992,-0.45267489711934156,0
-0.031010201668999992,0.3292181069958848,0
-0.031008277668999995,-0.12345679012345678,0
-0.031006353668999995,-0.3292181069958848,0
-0.031004429668999994,0.3292181069958848,0
-0.031002505668999994,-0.6584362139917695,0
-0.031000581668999994,0.45267489711934156,0
-0.030998657668999993,-0.12345679012345678,0
-0.030996733668999993,-0.37037037037037035,0
-0.030994809668999992,0.37037037037037035,0
-0.030992885668999992,-0.12345679012345678,0
-0.030990961668999995,0.0823045267489712,0
-0.030989037668999995,0.1646090534979424,0
-0.030987113668999994,-0.6172839506172839,0
-0.030985189668999994,0.45267489711934156,0
-0.030983265668999994,-0.205761316872428,0
-0.030981341668999993,-0.1646090534979424,0
-0.030979417668999993,0.205761316872428,0
-0.030977493668999993,-0.5761316872427984,0
-0.030975569668999992,0.37037037037037035,0
-0.030973645668999995,-0.12345679012345678,0
-0.030971721668999995,0.12345679012345678,0
-0.030969797668999995,0.1646090534979424,0
-0.030967873668999994,-0.6584362139917695,0
-0.030965949668999994,0.5349794238683128,0
-0.030964025668999993,-0.0411522633744856,0
-0.030962101668999993,0.12345679012345678,0
-0.030960177668999993,0.12345679012345678,0
-0.030958253668999992,-0.5761316872427984,0
-0.030956329668999992,0.49382716049382713,0
-0.030954405668999995,-0.0823045267489712,0
-0.030952481668999995,-0.2880658436213992,0
-0.030950557668999994,0.2880658436213992,0
-0.030948633668999994,-0.5349794238683128,0
-0.030946709668999994,0.37037037037037035,0
-0.030944785668999993,0.0823045267489712,0
-0.030942861668999993,-0.5761316872427984,0
-0.030940937668999993,0.45267489711934156,0
-0.030939013668999992,-0.3292181069958848,0
-0.030937089668999995,0.205761316872428,0
-0.030935165668999995,0.37037037037037035,0
-0.030933241668999995,-0.411522633744856,0
-0.030931317668999994,0.205761316872428,0
-0.030929393668999994,-0.5761316872427984,0
-0.030927469668999993,0.45267489711934156,0
-0.030925545668999993,-0.12345679012345678,0
-0.030923621668999993,-0.37037037037037035,0
-0.030921697668999992,0.37037037037037035,0
-0.030919773668999992,-0.411522633744856,0
-0.030917849668999995,0.12345679012345678,0
-0.030915925668999995,0.205761316872428,0
-0.030914001668999994,-0.6172839506172839,0
-0.030912077668999994,0.45267489711934156,0
-0.030910153668999994,-0.1646090534979424,0
-0.030908229668999993,-0.24691358024691357,0
-0.030906305668999993,0.49382716049382713,0.00823045267489712
-0.030904381668999992,-0.37037037037037035,0
-0.030902457668999992,0.3292181069958848,0
-0.030900533668999995,0.0411522633744856,0
-0.030898609668999995,-0.49382716049382713,0
-0.030896685668999994,0.3292181069958848,0
-0.030894761668999994,-0.3292181069958848,0
-0.030892837668999994,0.24691358024691357,0
-0.030890913668999993,0.0823045267489712,0
-0.030888989668999993,-0.5761316872427984,0
-0.030887065668999993,0.411522633744856,0
-0.030885141668999992,-0.45267489711934156,0
-0.030883217668999995,0.24691358024691357,0
-0.030881293668999995,0.0823045267489712,0
-0.030879369668999995,-0.5349794238683128,0
-0.030877445668999994,0.45267489711934156,0
-0.030875521668999994,-0.3292181069958848,0
-0.030873597668999993,0.1646090534979424,0
-0.030871673668999993,0.0823045267489712,0
-0.030869749668999993,-0.5349794238683128,0
-0.030867825668999992,0.411522633744856,0
-0.030865901668999992,-0.12345679012345678,0
-0.030863977668999995,0.0823045267489712,0
-0.030862053668999995,0.205761316872428,0
-0.030860129668999994,-0.6172839506172839,0
-0.030858205668999994,0.49382716049382713,0
-0.030856281668999994,-0.3292181069958848,0
-0.030854357668999993,0.0823045267489712,0
-0.030852433668999993,0.12345679012345678,0
-0.030850509668999992,-0.5761316872427984,0
-0.030848585668999992,0.411522633744856,0
-0.030846661668999995,0.0411522633744856,0
-0.030844737668999995,-0.37037037037037035,0
-0.030842813668999994,0.3292181069958848,0
-0.030840889668999994,-0.45267489711934156,0
-0.030838965668999994,0.24691358024691357,0
-0.030837041668999993,0.0823045267489712,0
-0.030835117668999993,-0.6172839506172839,0
-0.030833193668999993,0.411522633744856,0
-0.030831269668999992,-0.45267489711934156,0
-0.030829345668999995,0.24691358024691357,0
-0.030827421668999995,0.12345679012345678,0
-0.030825497668999995,-0.5761316872427984,0
-0.030823573668999994,0.411522633744856,0
-0.030821649668999994,-0.12345679012345678,0
-0.030819725668999993,-0.205761316872428,0
-0.030817801668999993,0.37037037037037035,0
-0.030815877668999993,-0.6172839506172839,0
-0.030813953668999992,0.37037037037037035,0
-0.030812029668999992,-0.5349794238683128,0
-0.030810105668999995,0.45267489711934156,0
-0.030808181668999995,-0.0823045267489712,0
-0.030806257668999994,-0.37037037037037035,0
-0.030804333668999994,0.3292181069958848,0
-0.030802409668999994,-0.5349794238683128,0
-0.030800485668999993,0.37037037037037035,0
-0.030798561668999993,0.0823045267489712,0
-0.030796637668999993,-0.5761316872427984,0
-0.030794713668999992,0.45267489711934156,0
-0.030792789668999995,-0.12345679012345678,0
-0.030790865668999995,-0.6584362139917695,0
-0.030788941668999995,0.49382716049382713,0
-0.030787017668999994,-0.37037037037037035,0
-0.030785093668999994,0.2880658436213992,0
-0.030783169668999993,0.0411522633744856,0
-0.030781245668999993,-0.45267489711934156,0
-0.030779321668999993,0.2880658436213992,0
-0.030777397668999992,-0.5761316872427984,0
-0.030775473668999992,0.49382716049382713,0
-0.030773549668999995,-0.0411522633744856,0
-0.030771625668999995,-0.3292181069958848,0
-0.030769701668999994,0.24691358024691357,0
-0.030767777668999994,-0.6584362139917695,0
-0.030765853668999994,0.37037037037037035,0
-0.030763929668999993,-0.3292181069958848,0
-0.030762005668999993,-0.2880658436213992,0
-0.030760081668999992,0.2880658436213992,0
-0.030758157668999992,-0.5761316872427984,0
-0.030756233668999995,0.37037037037037035,0
-0.030754309668999995,0.0823045267489712,0
-0.030752385668999994,-0.5761316872427984,0
-0.030750461668999994,0.45267489711934156,0
-0.030748537668999994,-0.1646090534979424,0
-0.030746613668999993,0,0
-0.030744689668999993,0.205761316872428,0
-0.030742765668999993,-0.6584362139917695,0
-0.030740841668999992,0.49382716049382713,0
-0.030738917668999995,-0.205761316872428,0
-0.030736993668999995,-0.1646090534979424,0
-0.030735069668999995,0.3292181069958848,0
-0.030733145668999994,-0.8641975308641975,0.00823045267489712
-0.030731221668999994,0.205761316872428,0
-0.030729297668999993,0.24691358024691357,0
-0.030727373668999993,-0.6172839506172839,0
-0.030725449668999993,0.411522633744856,0
-0.030723525668999992,-0.1646090534979424,0
-0.030721601668999992,0,0
-0.030719677668999995,0.205761316872428,0
-0.030717753668999995,-0.45267489711934156,0
-0.030715829668999994,0.2880658436213992,0
-0.030713905668999994,-0.6584362139917695,0
-0.030711981668999994,0.49382716049382713,0
-0.030710057668999993,-0.1646090534979424,0
-0.030708133668999993,-1.440329218106996,0
-0.030706209668999992,4.320987654320987,0
-0.030704285668999992,-4.403292181069959,0
-0.030702361668999995,0.9053497942386831,0
-0.030700437668999995,0.24691358024691357,0
-0.030698513668999994,-0.24691358024691357,0
-0.030696589668999994,0,0
-0.030694665668999994,-0.0411522633744856,0.00823045267489712
-0.030692741668999993,-0.0411522633744856,0
-0.030690817668999993,-0.0411522633744856,0
-0.030688893668999993,0.0823045267489712,0
-0.030686969668999992,-0.0823045267489712,0
-0.030685045668999995,-0.0411522633744856,0
-0.030683121668999995,-0.0411522633744856,0
-0.030681197668999995,-0.0411522633744856,0
-0.030679273668999994,-0.0411522633744856,0
-0.030677349668999994,-0.0411522633744856,0
-0.030675425668999994,-0.3292181069958848,0
-0.030673501668999993,-0.1646090534979424,0
-0.030671577668999993,0,0
-0.030669653668999992,-0.0411522633744856,0
-0.030667729668999992,-0.0411522633744856,0
-0.030665805668999995,-0.0411522633744856,0
