log/elapsedTest10.csv

#Digilent WaveForms Oscilloscope Acquisition
#Device Name: ADP5250-323F81C
#Serial Number: SN:323F81C
#Date Time: 2023-03-17 14:20:02.041.701.699
#Sample rate: 519751Hz
#Samples: 32768
#Trigger: Source: Channel 1 Type: Edge Condition: Rising Level: 0 V Hyst.: Auto
#Channel 1: Range: 1 V/div Offset: 0 V Attenuation: 1 X Coupling: DC Bandwidth: Full Sample Mode: Average
#Channel 2: Range: 200 mV/div Offset: 0 V Attenuation: 1 X Coupling: DC Bandwidth: Full

Time (s),Channel 1 (V),Channel 2 (V)
-0.03152451533,0.37037037037037035,0
-0.03152259133,-0.7818930041131306,0
-0.03152066733,2.6748971193352764,0
-0.03151874333,-1.7283950617203852,0
-0.03151681933,0.5761316872386069,0
-0.03151489533,-0.1646090534979424,0
-0.03151297133,-1.316872427983539,0
-0.03151104733,-1.6049382716049383,0
-0.03150912333,-0.411522633744856,0
-0.03150719933,3.045267489711934,0
-0.03150527533,0.3292181069958848,0
-0.03150335133,-0.9465020576131687,0
-0.03150142733,0.411522633744856,0
-0.03149950333,1.4814814814814814,0
-0.03149757933,-3.909465020568796,1.497110620202351e-14
-0.03149565533,0.1234567901168695,0.00823045267488215
-0.03149373133,-3.497942386817053,0
-0.031491807329999996,4.320987654310807,0
-0.031489883329999996,-1.2757201646065084,0
-0.03148795933,0.1234567901209116,0
-0.03148603533,-0.49382716049270425,0
-0.03148411133,4.32098765431223,0
-0.03148218733,-3.991769547309982,0
-0.03148026333,0.3292181069880251,0
-0.03147833933,-3.8271604938271606,0
-0.03147641533,4.197530864197531,0
-0.03147449133,-1.6872427983539096,0.00823045267489712
-0.03147256733,0.2880658436213992,0
-0.03147064333,-0.5349794238683128,0
-0.03146871933,3.168724279835391,0
-0.03146679533,-3.8271604938271606,0
-0.03146487133,0.8641975308641975,0
-0.03146294733,0.24691358024691357,0
-0.03146102333,1.5637860082269344,0
-0.03145909933,-0.3703703703698464,0
-0.031457175329999996,-0.08230452674919576,0
-0.031455251329999996,-0.2057613168759462,0
-0.031453327329999996,-2.1399176954725774,0
-0.03145140333,-1.7695473251035543,0
-0.03144947933,0.041152263371192044,0
-0.03144755533,3.7448559670714525,0
-0.03144563133,-0.5349794238605279,0
-0.03144370733,-0.24691358024743754,0
-0.03144178333,-0.24691358024691357,0
-0.03143985933,3.4156378600823047,0
-0.03143793533,-3.9917695473251027,0
-0.03143601133,0.1646090534979424,0
-0.03143408733,-3.8271604938271606,0
-0.03143216333,4.238683127572016,0
-0.03143023933,-0.24691358024691357,0
-0.03142831533,-0.3292181069958848,0
-0.03142639133,-0.5349794238683128,0
-0.03142446733,4.3209876543057915,0
-0.03142254333,-4.032921810689707,0
-0.031420619329999996,1.3991769547251744,0
-0.031418695329999996,-2.6337448559571226,1.497110620202351e-14
-0.031416771329999996,2.8395061728332935,0.00823045267488215
-0.03141484733,-0.5761316872365856,1.4970663597679845e-14
-0.03141292333,-0.3292181069963339,0
-0.03141099933,-5.988542994828094e-13,0
-0.03140907533,1.563786008227608,0
-0.03140715133,-3.539094650205761,0
-0.03140522733,1.5637860082304527,0
-0.03140330333,0.5349794238683128,0
-0.03140137933,1.6049382716049383,0
-0.03139945533,-0.5349794238683128,0
-0.03139753133,-0.7818930041152263,0
-0.03139560733,1.1522633744855968,0
-0.03139368333,-3.662551440329218,0
-0.03139175933,-0.6995884773662552,0
-0.03138983533,-0.3292181069958848,0
-0.03138791133,3.703703703697416,0
-0.03138598733,0.24691358024564103,1.497110620202351e-14
-0.031384063329999996,-0.452674897119641,0.00823045267488215
-0.031382139329999996,-0.617283950608451,0
-0.03138021533,4.238683127563183,0
-0.03137829133,-4.074074074058953,0
-0.03137636733,1.1111111111016791,0
-0.03137444333,-4.032921810690231,0
-0.03137251933,3.9506172839360953,0
-0.03137059533,-0.45267489711934156,0
-0.03136867133,-0.6172839506172839,0
-0.03136674733,0.3292181069958848,0
-0.03136482333,4.279835390946502,0
-0.03136289933,-3.9917695473251027,0
-0.03136097533,2.1810699588477367,0
-0.03135905133,-2.633744855967078,0
-0.03135712733,2.880658436213992,0
-0.03135520333,-0.6584362139917695,0
-0.03135327933,-0.6995884773640844,0
-0.03135135533,0.4938271604926294,0
-0.03134943133,-0.16460905350176003,0
-0.031347507329999996,-2.26337448559042,0
-0.031345583329999996,1.1934156378600822,0
-0.03134365933,1.1934156378600822,0
-0.03134173533,1.6049382716041898,0
-0.03133981133,-1.2345679012294029,0
-0.03133788733,1.5637860082253623,0
-0.03133596333,-3.8683127571917653,0
-0.03133403933,-3.8683127572016462,0
-0.03133211533,4.609053497942387,0
-0.03133019133,-1.1111111111111112,0
-0.03132826733,3.786008230452675,0
-0.03132634333,-3.7037037037037037,0
-0.03132441933,1.316872427983539,0
-0.03132249533,2.139917695473251,0
-0.03132057133,0.0411522633744856,0
-0.03131864733,-3.950617283950617,0
-0.03131672333,-3.991769547309982,0
-0.03131479933,4.320987654311406,0
-0.031312875329999997,-0.9465020576035872,0
-0.031310951329999996,4.3209876543057915,0
-0.031309027329999996,-4.032921810689558,0
-0.03130710333,1.4814814814714516,0
-0.03130517933,1.39917695473266,0
-0.03130325533,-0.08230452674627653,0
-0.03130133133,-3.292181069953009,0
-0.03129940733,-4.074074074072652,0
-0.03129748333,4.279835390946502,0
-0.03129555933,-1.1522633744855968,0
-0.03129363533,4.320987654320987,0
-0.03129171133,-3.8683127572016462,0
-0.03128978733,1.1522633744855968,0
-0.03128786333,2.42798353909465,0
-0.03128593933,-0.5761316872427984,0
-0.03128401533,-3.4979423868312756,0
-0.03128209133,-3.950617283950617,0
-0.03128016733,4.156378600815036,0
-0.03127824333,-0.24691358023867946,0
-0.031276319329999996,4.279835390931531,0
-0.031274395329999996,-3.950617283940961,0
-0.031272471329999996,1.3580246913581744,0
-0.03127054733,1.4403292181068463,0
-0.03126862333,-0.20576131686943366,0
-0.03126669933,-2.8806584362091265,0
-0.03126477533,-4.074074074071904,0
-0.03126285133,4.279835390946502,0
-0.03126092733,-1.0699588477366255,0
-0.03125900333,4.197530864197531,0
-0.03125707933,-3.950617283950617,0
-0.03125515533,0.9876543209876543,0
-0.03125323133,3.0041152263374484,0
-0.03125130733,-0.9876543209876543,0
-0.031249383329999998,-2.551440329218107,0
-0.031247459329999998,-4.032921810699588,0
-0.031245535329999997,3.950617283950617,0
-0.03124361133,0.12345679012345678,0
-0.03124168733,4.320987654320987,0
-0.03123976333,-3.9917695473251027,0
-0.03123783933,1.1111111111111112,0
-0.03123591533,1.8930041152263375,0
-0.03123399133,-0.5761316872427984,0
-0.03123206733,-2.05761316872428,0
-0.031230143329999998,-4.197530864197531,0
-0.031228219329999998,4.238683127572016,0
-0.03122629533,-0.6584362139917695,0
-0.03122437133,4.320987654320987,0
-0.03122244733,-3.909465020576132,0
-0.03122052333,0.6995884773662552,0
-0.03121859933,3.292181069958848,0
-0.03121667533,-1.2345679012345678,0
-0.03121475133,-1.522633744855967,0
-0.031212827329999998,-4.032921810699588,0
-0.031210903329999998,3.7448559670781894,0
-0.03120897933,0.0823045267489712,0
-0.03120705533,3.8271604938271606,0
-0.03120513133,-3.8683127572016462,0
-0.03120320733,0.6584362139917695,0
-0.03120128333,2.674897119341564,0
-0.03119935933,-0.6584362139917695,0
-0.03119743533,-2.05761316872428,0
-0.031195511329999998,-3.950617283950617,0
-0.031193587329999998,3.8683127572016462,0
-0.031191663329999997,-0.7818930041152263,0
-0.03118973933,4.320987654320987,0
-0.03118781533,-4.074074074074074,0
-0.03118589133,0.7818930041152263,0
-0.03118396733,3.045267489711934,0
-0.03118204333,-1.6049382716049383,0
-0.03118011933,-0.5349794238683128,0
-0.03117819533,-4.11522633744856,0
-0.031176271329999998,4.156378600823046,0
-0.031174347329999998,-0.0411522633744856,0
-0.03117242333,3.662551440329218,0
-0.03117049933,-3.950617283950617,0
-0.03116857533,0.0411522633744856,0
-0.03116665133,3.7037037037037037,0
-0.03116472733,-0.8641975308641975,0.00823045267489712
-0.03116280333,-1.02880658436214,0
-0.03116087933,-3.950617283950617,0
-0.031158955329999998,3.3333333333333335,0
-0.031157031329999998,-0.12345679012345678,0
-0.031155107329999997,4.238683127572016,0
-0.03115318333,-4.074074074074074,0
-0.03115125933,0.205761316872428,0
-0.03114933533,3.374485596707819,0
-0.03114741133,-1.3991769547325104,0
-0.03114548733,0.3292181069958848,0
-0.03114356333,-3.9917695473251027,0
-0.03114163933,3.6213991769547325,0
-0.031139715329999998,-0.0823045267489712,0
-0.031137791329999998,3.292181069958848,0
-0.03113586733,-3.8683127572016462,0
-0.03113394333,-0.5349794238683128,0
-0.03113201933,3.8683127572016462,0
-0.03113009533,-0.6995884773662552,0
-0.03112817133,-0.37037037037037035,0
-0.03112624733,-3.786008230452675,0
-0.03112432333,2.880658436213992,0
-0.031122399329999998,0.45267489711934156,0
-0.031120475329999998,3.4156378600823047,0
-0.03111855133,-4.074074074074074,0
-0.03111662733,-0.3292181069958848,0
-0.03111470333,3.292181069958848,0
-0.03111277933,-0.7407407407407407,0
-0.03111085533,0.8641975308641975,0
-0.03110893133,-4.032921810699588,0
-0.03110700733,3.3333333333333335,0
-0.031105083329999998,0.0411522633744856,0
-0.031103159329999998,2.880658436213992,0
-0.031101235329999997,-3.950617283950617,0
-0.03109931133,-1.4814814814814814,0
-0.03109738733,4.320987654320987,0
-0.03109546333,-0.8641975308641975,0
-0.03109353933,0.9053497942386831,0
-0.03109161533,-3.8683127572016462,0
-0.03108969133,2.4691358024691357,0
-0.03108776733,0.6995884773662552,0
-0.031085843329999998,2.962962962962963,0
-0.031083919329999998,-4.074074074074074,0
-0.03108199533,-0.9876543209876543,0
-0.03108007133,3.374485596707819,0
-0.03107814733,-0.49382716049382713,0
-0.03107622333,1.6872427983539096,0
-0.03107429933,-3.9917695473251027,0
-0.03107237533,2.7160493827160495,0
-0.03107045133,-0.1646090534979424,0
-0.031068527329999998,2.5102880658436213,0
-0.031066603329999998,-3.950617283950617,0
-0.031064679329999997,-2.0987654320987654,0
-0.03106275533,4.279835390946502,0
-0.03106083133,-1.1934156378600822,0
-0.03105890733,2.3045267489711936,0
-0.03105698333,-3.662551440329218,0
-0.03105505933,2.05761316872428,0
-0.03105313533,0.9053497942386831,0
-0.031051211329999998,1.2757201646090535,0
-0.031049287329999998,-3.909465020576132,0
-0.031047363329999998,-1.9341563786008231,0
-0.03104543933,3.786008230452675,0
-0.03104351533,-0.411522633744856,0
-0.03104159133,1.522633744855967,0
-0.03103966733,-3.4156378600823047,0
-0.03103774333,2.1810699588477367,0
-0.03103581933,0.0823045267489712,0
-0.03103389533,1.8930041152263375,0
-0.031031971329999998,-3.950617283950617,0
-0.031030047329999998,-2.921810699588477,0
-0.03102812333,4.526748971193416,0
-0.03102619933,-1.5637860082304527,0
-0.03102427533,3.3333333333333335,0
-0.03102235133,-3.909465020576132,0
-0.03102042733,2.139917695473251,0
-0.03101850333,1.0699588477366255,0
-0.03101657933,0.45267489711934156,0
-0.031014655329999998,-3.8683127572016462,0
-0.031012731329999998,-3.045267489711934,0
-0.031010807329999997,4.11522633744856,0
-0.03100888333,-0.45267489711934156,0
-0.03100695933,2.5925925925925926,0.00823045267489712
-0.03100503533,-3.45679012345679,0
-0.03100311133,1.9341563786008231,0
-0.03100118733,0.2880658436213992,0
-0.03099926333,1.522633744855967,0
-0.03099733933,-3.8683127572016462,0
-0.030995415329999998,-3.4979423868312756,0
-0.030993491329999998,4.320987654320987,0
-0.03099156733,-1.6872427983539096,0
-0.03098964333,3.8683127572016462,0
-0.03098771933,-3.950617283950617,0
-0.03098579533,1.8518518518518519,0
-0.03098387133,1.1111111111111112,0
-0.03098194733,-0.24691358024691357,0
-0.03098002333,-3.6213991769547325,0
-0.030978099329999998,-3.45679012345679,0
-0.030976175329999998,4.197530864197531,0
-0.03097425133,-0.45267489711934156,0
-0.03097232733,3.0041152263374484,0
-0.03097040333,-3.2098765432098766,0
-0.03096847933,1.6049382716049383,0
-0.03096655533,0.9465020576131687,0
-0.03096463133,0.823045267489712,0
-0.03096270733,-3.9917695473251027,0
-0.030960783329999998,-3.580246913580247,0
-0.030958859329999998,4.320987654320987,0
-0.030956935329999997,-1.2757201646090535,0
-0.03095501133,3.950617283950617,0
-0.03095308733,-4.032921810699588,0
-0.03095116333,1.5637860082304527,0
-0.03094923933,1.6872427983539096,0
-0.03094731533,-0.7407407407407407,0
-0.03094539133,-3.374485596707819,0
-0.03094346733,-3.950617283950617,0
-0.030941543329999998,4.320987654320987,0
-0.030939619329999998,-0.49382716049382713,0
-0.03093769533,3.539094650205761,0
-0.03093577133,-3.662551440329218,0
-0.03093384733,1.2757201646090535,0
-0.03093192333,2.0987654320987654,0
-0.03092999933,0.0411522633744856,0
-0.03092807533,-3.909465020576132,0
-0.03092615133,-4.032921810699588,0
-0.030924227329999998,4.197530864197531,0
-0.030922303329999998,-1.1111111111111112,0
-0.030920379329999997,4.320987654320987,0
-0.03091845533,-4.032921810699588,0
-0.03091653133,1.3991769547325104,0
-0.03091460733,1.728395061728395,0
-0.03091268333,-0.6584362139917695,0
-0.03091075933,-2.921810699588477,0
-0.03090883533,-4.032921810699588,0
-0.03090691133,4.320987654320987,0
-0.030904987329999998,-0.49382716049382713,0
-0.030903063329999998,3.950617283950617,0
-0.03090113933,-3.8271604938271606,0
-0.03089921533,1.0699588477366255,0
-0.03089729133,2.674897119341564,0
-0.03089536733,-0.49382716049382713,0
-0.03089344333,-3.4979423868312756,0
-0.03089151933,-3.950617283950617,0
-0.03088959533,4.238683127572016,0
-0.030887671329999998,-0.411522633744856,0
-0.030885747329999998,4.320987654320987,0
-0.03088382333,-4.197530864197531,0
-0.03088189933,1.2757201646090535,0
-0.03087997533,2.05761316872428,0
-0.03087805133,-0.5349794238683128,0
-0.03087612733,-2.345679012345679,0
-0.03087420333,-4.11522633744856,0
-0.03087227933,4.279835390946502,0
-0.030870355329999998,-0.9876543209876543,0
-0.030868431329999998,4.320987654320987,0
-0.030866507329999997,-4.074074074074074,0
-0.03086458333,0.8641975308641975,0
-0.03086265933,3.374485596707819,0
-0.03086073533,-0.8641975308641975,0
-0.03085881133,-2.42798353909465,0
-0.03085688733,-4.032921810699588,0
-0.03085496333,3.662551440329218,0
-0.03085303933,-0.0823045267489712,0
-0.030851115329999998,4.362139917695473,0
-0.030849191329999998,-4.032921810699588,0
-0.03084726733,0.9465020576131687,0
-0.03084534333,2.1810699588477367,0
-0.03084341933,-0.45267489711934156,0
-0.03084149533,-1.8106995884773662,0
-0.03083957133,-4.032921810699588,0
-0.03083764733,3.9917695473251027,0
-0.03083572333,-1.1522633744855968,0
-0.030833799329999998,4.362139917695473,0
-0.030831875329999998,-3.9917695473251027,0
-0.03082995133,0.6172839506172839,0
-0.03082802733,3.6213991769547325,0
-0.03082610333,-1.8930041152263375,0
-0.03082417933,-0.6995884773662552,0
-0.03082225533,-4.032921810699588,0
-0.03082033133,3.580246913580247,0
-0.03081840733,0.205761316872428,0
-0.030816483329999998,4.156378600823046,0
-0.030814559329999998,-3.9917695473251027,0
-0.030812635329999997,0.5761316872427984,0
-0.03081071133,2.7160493827160495,0
-0.03080878733,-0.6172839506172839,0
-0.03080686333,-1.2345679012345678,0
-0.03080493933,-4.032921810699588,0
-0.03080301533,3.7448559670781894,0
-0.03080109133,-0.8641975308641975,0
-0.03079916733,4.320987654320987,0
-0.030797243329999998,-4.197530864197531,0
-0.030795319329999998,0.12345679012345678,0
-0.03079339533,3.950617283950617,0
-0.03079147133,-1.6872427983539096,0
-0.03078954733,0.12345679012345678,0
-0.03078762333,-4.032921810699588,0
-0.03078569933,3.1275720164609053,0
-0.03078377533,0.37037037037037035,0
-0.03078185133,3.7448559670781894,0.00823045267489712
-0.030779927329999998,-4.032921810699588,0
-0.030778003329999998,0.0823045267489712,0
-0.030776079329999997,3.0041152263374484,0
-0.03077415533,-0.6172839506172839,0
-0.03077223133,-0.6584362139917695,0
-0.03077030733,-3.950617283950617,0
-0.03076838333,2.880658436213992,0
-0.03076645933,-0.6172839506172839,0.00823045267489712
-0.03076453533,4.197530864197531,0
-0.03076261133,-4.032921810699588,0
-0.030760687329999998,-0.205761316872428,0
-0.030758763329999998,4.032921810699588,0
-0.03075683933,-1.9341563786008231,0
-0.03075491533,1.1934156378600822,0
-0.03075299133,-3.786008230452675,0
-0.03075106733,3.2098765432098766,0
-0.03074914333,0.45267489711934156,0
-0.03074721933,2.5925925925925926,0
-0.03074529533,-3.909465020576132,0
-0.030743371329999998,-0.7407407407407407,0
-0.030741447329999998,3.662551440329218,0
-0.03073952333,-0.5349794238683128,0
-0.03073759933,0.2880658436213992,0
-0.03073567533,-3.8271604938271606,0
-0.03073375133,2.674897119341564,0
-0.03073182733,-0.0823045267489712,0
-0.03072990333,3.45679012345679,0
-0.03072797933,-4.074074074074074,0
-0.030726055329999998,-0.6172839506172839,0
-0.030724131329999998,4.156378600823046,0
-0.030722207329999997,-1.0699588477366255,0
-0.03072028333,1.6872427983539096,0
-0.03071835933,-4.032921810699588,0
-0.03071643533,2.921810699588477,0
-0.03071451133,0.45267489711934156,0
-0.03071258733,2.263374485596708,0
-0.03071066333,-3.909465020576132,0
-0.03070873933,-1.7695473251028806,0
-0.030706815329999998,4.320987654320987,0
-0.030704891329999998,-0.9876543209876543,0
-0.03070296733,1.5637860082304527,0
-0.03070104333,-3.8683127572016462,0
-0.03069911933,1.9753086419753085,0
-0.03069719533,0.9876543209876543,0
-0.03069527133,2.7160493827160495,0
-0.03069334733,-3.9917695473251027,0
-0.03069142333,-1.3991769547325104,0
-0.030689499329999998,3.8683127572016462,0
-0.030687575329999998,-0.823045267489712,0
-0.03068565133,2.5102880658436213,0
-0.03068372733,-3.9917695473251027,0
-0.03068180333,2.42798353909465,0
-0.03067987933,0.6995884773662552,0
-0.03067795533,1.3580246913580247,0
-0.03067603133,-3.909465020576132,0
-0.03067410733,-2.3045267489711936,0
-0.030672183329999998,4.320987654320987,0
-0.030670259329999998,-0.7407407407407407,0
-0.030668335329999998,2.1810699588477367,0
-0.03066641133,-3.6213991769547325,0
-0.03066448733,1.7695473251028806,0
-0.03066256333,1.3580246913580247,0
-0.03066063933,1.3991769547325104,0
-0.03065871533,-4.032921810699588,0
-0.03065679133,-2.139917695473251,0
-0.03065486733,3.8271604938271606,0
-0.030652943329999998,-0.5349794238683128,0
-0.030651019329999998,3.0041152263374484,0
-0.03064909533,-3.950617283950617,0
-0.03064717133,1.9753086419753085,0
-0.03064524733,0.6995884773662552,0
-0.03064332333,1.0699588477366255,0
-0.03064139933,-3.909465020576132,0
-0.03063947533,-3.2098765432098766,0
-0.03063755133,4.403292181069959,0
-0.030635627329999998,-0.8641975308641975,0
-0.030633703329999998,3.251028806584362,0
-0.030631779329999997,-3.8683127572016462,0
-0.03062985533,1.3991769547325104,0
-0.03062793133,1.6872427983539096,0
-0.03062600733,0.411522633744856,0
-0.03062408333,-3.950617283950617,0
-0.03062215933,-2.921810699588477,0
-0.03062023533,4.032921810699588,0
-0.03061831133,-0.411522633744856,0
-0.030616387329999998,3.3333333333333335,0
-0.030614463329999998,-3.786008230452675,0
-0.03061253933,1.5637860082304527,0
-0.03061061533,0.823045267489712,0
-0.03060869133,0.9465020576131687,0
-0.03060676733,-3.8683127572016462,0
-0.03060484333,-3.4979423868312756,0
-0.03060291933,4.279835390946502,0
-0.03060099533,-1.6872427983539096,0
-0.030599071329999998,4.238683127572016,0
-0.030597147329999998,-3.9917695473251027,0
-0.03059522333,1.2757201646090535,0
-0.03059329933,2.05761316872428,0
-0.03059137533,-0.2880658436213992,0
-0.03058945133,-3.786008230452675,0
-0.03058752733,-3.580246913580247,0
-0.03058560333,4.11522633744856,0
-0.03058367933,-0.2880658436213992,0
-0.030581755329999998,4.11522633744856,0
-0.030579831329999998,-4.11522633744856,0
-0.030577907329999997,1.5637860082304527,0
-0.03057598333,1.02880658436214,0
-0.03057405933,0.411522633744856,0
-0.03057213533,-3.8271604938271606,0
-0.03057021133,-3.950617283950617,0
-0.03056828733,4.279835390946502,0
-0.03056636333,-1.4814814814814814,0
-0.03056443933,4.403292181069959,0
-0.030562515329999998,-4.032921810699588,0
-0.030560591329999998,1.2757201646090535,0
-0.03055866733,2.2222222222222223,0
-0.03055674333,-1.2345679012345678,0
-0.03055481933,-2.921810699588477,0
-0.03055289533,-3.950617283950617,0
-0.03055097133,3.9917695473251027,0
-0.03054904733,-0.0823045267489712,0
-0.03054712333,3.8683127572016462,0
-0.030545199329999998,-3.786008230452675,0
-0.030543275329999998,1.2345679012345678,0
