log/fastG.csv

#Digilent WaveForms Oscilloscope Acquisition
#Device Name: ADP5250-323F81C
#Serial Number: SN:323F81C
#Date Time: 2023-02-24 13:16:37.224.982.699
#Sample rate: 504032Hz
#Samples: 32768
#Trigger: Source: Channel 1 Type: Edge Condition: Rising Level: 0 V Hyst.: Auto
#Channel 1: Range: 2 V/div Offset: 0 V Attenuation: 1 X Coupling: DC Bandwidth: Full Sample Mode: Average
#Channel 2: Range: 200 mV/div Offset: 0 V Attenuation: 1 X Coupling: DC Bandwidth: Full

Time (s),Channel 1 (V),Channel 2 (V)
-0.032504815479,4.032921810699588,0
-0.032502831479,-4.444444444429025,0
-0.032500847479,-0.3292181069958848,0
-0.032498863479,4.36213991768694,0
-0.032496879479,-3.950617283950617,0
-0.032494895479,4.444444444429173,0
-0.032492911479,-3.045267489711934,0
-0.032490927479,1.1522633744779611,0
-0.032488943479,-0.0823045267489712,0
-0.032486959479,-0.740740740739543,0
-0.032484975479,-3.950617283950617,0
-0.032482991479,-0.4115226337512934,0
-0.032481007479,4.444444444444445,0
-0.032479023479,-3.9506172839353457,0
-0.032477039479,4.444444444444445,0
-0.032475055479,-4.032921810684169,0
-0.032473071479,1.9753086419753085,0
-0.032471087479,0.08230452675241451,0
-0.032469103479,-0.24691358024691357,0
-0.032467119479,0.16460905349719385,0
-0.032465135479,0,0
-0.032463151479,-1.234567901232322,0
-0.032461167479,-4.11522633744856,0
-0.032459183479,-0.16460905350512878,0
-0.032457199479,4.609053497942387,0
-0.032455215479,3.045267489714779,0
-0.032453231479,0.823045267489712,0
-0.032451247479,-4.032921810690755,0
-0.032449263479,4.444444444444445,0
-0.032447279479,-4.032921810684169,0
-0.032445295479,1.2345679012345678,0
-0.032443311479,-0.4938271604906832,0
-0.032441327479,-0.1646090534979424,0
-0.032439343479,-2.994271497414047e-13,0
-0.032437359479,0.0823045267489712,0
-0.032435375479,1.6460905349765793,0
-0.032433391479,-3.374485596707819,0
-0.032431407479,0.164609053491505,0
-0.032429423479,4.444444444444445,0
-0.032427439479,-1.7283950617171664,0.00823045267488215
-0.032425455479,-0.9053497942386831,0
-0.032423471479,-4.855967078182114,0
-0.032421487479,4.444444444444445,0
-0.032419503479,-4.032921810684169,0
-0.032417519479,0.411522633744856,0
-0.032415535479,0.576131687242499,0
-0.032413551479,0.1646090534979424,0
-0.032411567479,0.08230452674912091,0
-0.032409583479,0,0
-0.032407599479,4.44444444443636,0
-0.032405615479,-4.11522633744856,0
-0.032403631479,0.9053497942295508,0
-0.032401647479,2.633744855967078,0
-0.032399663479,2.057613168725328,0
-0.032397679479,1.3991769547325104,0
-0.032395695479,-4.032921810689707,0
-0.032393711479,2.633744855967078,0
-0.032391727479,-3.539094650194533,0
-0.032389743479,-0.24691358024691357,0
-0.032387759479,0.6584362139901228,0
-0.032385775479,-0.1646090534979424,0
-0.032383791479,0.1646090534979424,0
-0.032381807479,0.0823045267489712,0
-0.032379823479,4.362139917695473,0
-0.032377839479,-1.2345679012345678,0
-0.032375855479,0.411522633744856,0
-0.032373871479,0.823045267489712,0
-0.032371887479,3.45679012345679,0
-0.032369903479,4.362139917695473,0
-0.032367919479,-3.950617283950617,0
-0.032365935479,4.444444444444445,0
-0.032363951479,-4.032921810699588,0
-0.032361967479,1.234567901232472,0
-0.032359983479,0.0823045267489712,0
-0.032357999479,-0.08230452674927062,0
-0.032356015479,-0.24691358024691357,0
-0.032354031479,0.41152263373677156,0
-0.032352047479,-4.032921810699588,0
-0.032350063479,-0.24691358023972743,0
-0.032348079479,3.7037037037037037,0
-0.032346095479,0.9876543209785219,0
-0.032344111479,-4.032921810699588,0
-0.032342127479,4.444444444429024,0
-0.032340143479,-4.032921810699588,0
-0.032338159479,1.0699588477354278,0
-0.032336175479,0.411522633744856,0
-0.032334191479,-0.16460905349749325,0
-0.032332207479,0.0823045267489712,0
-0.032330223479,3.703703703689631,0
-0.032328239479,-4.032921810699588,0
-0.032326255479,0.08230452675705559,0
-0.032324271479,4.526748971193416,0
-0.032322287479,-0.9053497942388328,0
-0.032320303479,-0.9876543209876543,0
-0.032318319479,0.9876543209845103,0
-0.032316335479,-0.7407407407407407,0
-0.032314351479,-1.3991769547289172,0
-0.032312367479,0.5761316872427984,0
-0.032310383479,-0.2469135802463147,0
-0.032308399479,0.0823045267489712,0
-0.032306415479,4.444444444429174,0
-0.032304431479,-3.950617283950617,0
-0.032302447479,1.1522633744893396,0
-0.032300463479,3.2098765432098766,0
-0.032298479479,1.3991769547292168,0
-0.032296495479,-0.411522633744856,0
-0.032294511479,-1.7283950617186636,0
-0.032292527479,3.6213991769547325,0
-0.032290543479,-3.4567901234487057,0
-0.032288559479,0.9876543209876543,0
-0.032286575479,-0.16460905349764296,0
-0.032284591479,0,0
-0.032282607479,4.855967078179569,0
-0.032280623479,-0.49382716049382713,0
-0.032278639479,-0.4938271604920306,0
-0.032276655479,0.49382716049382713,0
-0.032274671479,3.20987654320793,0
-0.032272687479,2.139917695473251,0
-0.032270703479,-4.032921810684019,0
-0.032268719479,4.526748971193416,0
-0.032266735479,-4.115226337438978,0
-0.032264751479,1.1522633744855968,0
-0.032262767479,0.08230452675121686,0
-0.032260783479,1.316872427983539,0
-0.032258799479,-4.032921810692552,0
-0.032256815479,-0.1646090534979424,0
-0.032254831479,4.609053497926368,0
-0.032252847479,-4.197530864197531,0
-0.032250863479,3.539094650192287,0
-0.032248879479,-3.8683127572016462,0
-0.032246895479,1.0699588477345296,0
-0.032244911479,-0.0823045267489712,0
-0.032242927479,-1.3168724279844373,0
-0.032240943479,-1.8106995884773662,0
-0.032238959479,0.8230452674919576,0
-0.032236975479,2.05761316872428,0
-0.032234991479,0.9053497942338924,0
-0.032233007479,-1.728395061728395,0
-0.032231023479,-1.563786008226111,0
-0.032229039479,0.823045267489712,0
-0.032227055479,4.526748971178295,0
-0.032225071479,-3.786008230452675,0
-0.032223087479,0.905349794244971,0
-0.032221103479,4.362139917695473,0
-0.032219119479,-4.032921810684168,0
-0.032217135479,4.444444444444445,0
-0.032215151479,-4.032921810690605,0
-0.032213167479,0.9053497942386831,0
-0.032211183479,0.4938271605013127,0
-0.032209199479,4.609053497942387,0
-0.032207215479,-4.197530864188997,0
-0.032205231479,0.49382716049382713,0
-0.032203247479,4.855967078173132,0
-0.032201263479,-4.032921810699588,0
-0.032199279479,4.444444444428576,0
-0.032197295479,-4.279835390946502,0
-0.032195311479,1.234567901231873,0
-0.032193327479,-0.24691358024691357,0
-0.032191343479,1.646090534969094,0
-0.032189359479,-4.032921810699588,0
-0.032187375479,-0.16460905348955857,0
-0.032185391479,4.444444444444445,0
-0.032183407479,-3.2098765431976,0
-0.032181423479,3.539094650205761,0
-0.032179439479,-3.70370370369517,0
-0.032177455479,0.9876543209876543,0
-0.032175471479,-0.08230452675061802,0
-0.032173487479,-0.9876543209876543,0
-0.032171503478999997,-2.304526748965205,0
-0.032169519479,0.9876543209876543,0
-0.032167535478999996,2.551440329215113,0
-0.032165551479,0.9053497942386831,0
-0.032163567478999996,-1.0699588477375237,0
-0.032161583479,-1.5637860082304527,0
-0.032159599478999996,0.8230452674877657,0
-0.032157615479,-0.24691358024691357,0
-0.032155631478999996,4.042198674546348e-12,0
-0.032153647479,2.2222222222222223,0
-0.032151663478999996,-4.032921810692103,0
-0.032149679479,0.0823045267489712,0
-0.032147695478999996,4.444444444444445,0
-0.032145711479,4.444444444444445,0
-0.032143727478999996,-4.115226337433139,0
-0.032141743479,4.362139917695473,0
-0.032139759478999996,-4.032921810691504,0
-0.032137775479,0.411522633744856,0
-0.032135791478999996,0.576131687241451,0
-0.032133807479,-0.1646090534979424,0
-0.032131823478999996,0.08230452675690587,0
-0.032129839479,4.444444444444445,0
-0.032127855478999996,-4.032921810690755,0
-0.032125871479,0.823045267489712,0
-0.032123887478999996,4.115226337440775,0
-0.032121903479,-0.1646090534979424,0
-0.032119919478999996,-0.8230452674888137,0
-0.032117935479,-0.3292181069958848,0
-0.032115951479,2.4691358024640455,0
-0.032113967479,-2.7160493827160495,0
-0.032111983479,0.9053497942320958,0
-0.032109999479,-0.1646090534979424,0
-0.032108015479,-0.08230452674912091,0
-0.032106031479,4.444444444444445,0
-0.032104047479,-1.2345679012242377,0
-0.032102063479,0.7407407407407407,0
-0.032100079479,2.8806584362100995,0
-0.032098095479,0.7407407407407407,0
-0.032096111479,1.7283950617265984,0
-0.032094127479,-3.7037037037037037,0
-0.032092143479,4.362139917680802,0
-0.032090159479,-3.8683127572016462,0
-0.032088175479,1.069958847727643,0
-0.032086191479,-0.0823045267489712,0
-0.032084207479,-0.0823045267489712,0
-0.032082223479,0.823045267489712,0
-0.032080239479,-0.5761316872402533,0
-0.032078255479,-2.551440329218107,0
-0.032076271479,0.08230452674418043,0
-0.032074287479,4.362139917695473,0
-0.032072303479,4.4444444444442945,0
-0.032070319479,-4.032921810699588,0
-0.032068335479,4.444444444429025,0
-0.032066351479,-3.7037037037037037,0
-0.032064367479,1.1522633744767634,0
-0.032062383479,0.0823045267489712,0
-0.032060399479,-0.16460905349749322,0
-0.032058415479,0.0823045267489712,0
-0.032056431479,-0.8230452674880652,0
-0.032054447479,-4.032921810699588,0
-0.032052463479,0.0823045267414857,0
-0.032050479479,4.197530864197531,0
-0.032048495479,0.5761316872493856,0
-0.032046511479,-4.032921810699588,0
-0.032044527479,4.444444444429025,0
-0.032042543479,-4.11522633744856,0
-0.032040559479,1.069958847727194,0
-0.032038575479,0.3292181069958848,0
-0.032036591479,5.988542994828094e-13,0
-0.032034607479,0,0
-0.032032623479,3.456790123450502,0
-0.032030639479,-4.032921810699588,0
-0.032028655479,0.0823045267414857,0
-0.032026671479,4.444444444444445,0
-0.032024687479,0.1646090535057274,0
-0.032022703479,-1.3991769547325104,0
-0.032020719479,3.04526748970385,0
-0.032018735479,-3.7037037037037037,0
-0.032016751479,-0.16460905350438004,0
-0.032014767479,0.6584362139917695,0
-0.032012783479,-1.1522633744823034,0
-0.032010799479,0,0
-0.032008815479,4.197530864189895,0
-0.032006831479,-3.8683127572016462,0
-0.032004847479,0.9053497942300006,0
-0.032002863479,4.691358024691358,0
-0.032000879479,0.5761316872502844,0
-0.031998895479,-0.411522633744856,0
-0.031996911479,-0.9053497942377848,0
-0.031994927479,2.962962962962963,0
-0.031992943479,-4.197530864184506,0
-0.031990959479,0.9876543209876543,0
-0.031988975479,-0.16460905349584642,0
-0.031986991479,0,0
-0.031985007479,4.362139917687538,0
-0.031983023479,0.24691358024691357,0
-0.031981039479,0.1646090534980921,0
-0.031979055479,1.9753086419753085,0
-0.031977071479,1.7283950617288442,0
-0.031975087479,1.8106995884773662,0
-0.031973103479,-4.938271604925995,0
-0.031971119479,4.444444444444445,0
-0.031969135479,-4.032921810684169,0
-0.031967151479,1.1522633744855968,0
-0.031965167479,-0.1646090534955469,0
-0.031963183479,0.6584362139917695,0
-0.031961199479,0.24691358024766213,0
-0.031959215479,-0.9053497942386831,0
-0.031957231479,-3.2921810699545064,0
-0.031955247479,0,0
-0.031953263479,2.880658436208752,0
-0.031951279479,4.279835390946502,0
-0.031949295479,-4.197530864182111,0
-0.031947311479,4.526748971193416,0
-0.031945327479,-4.032921810684019,0
-0.031943343479,2.05761316872428,0
-0.031941359479,0.32921810699902876,0
-0.031939375479,-0.1646090534979424,0
-0.031937391479,0.08230452674852204,0
-0.031935407479,0.24691358024691357,0
-0.031933423479,-4.115226337440625,0
-0.031931439479,-0.1646090534979424,0
-0.031929455479,4.032921810691953,0
-0.031927471479,0.24691358024691357,0
-0.031925487479,-4.032921810691803,0
-0.031923503479,4.362139917695473,0
-0.031921519479,-4.032921810684317,0
-0.031919535479,0.49382716049382713,0
-0.031917551479,0.5761316872426487,0
-0.031915567479,-0.1646090534979424,0
-0.031913583479,0.08230452674852204,0
-0.031911599479,3.045267489711934,0
-0.031909615479,-4.032921810686713,0
-0.031907631479,0.49382716049382713,0
-0.031905647479,4.279835390939615,0
-0.031903663479,-0.49382716049382713,0
-0.031901679479,-0.987654320986756,0
-0.031899695479,0.823045267489712,0
-0.031897711479,1.4971357487070236e-12,0
-0.031895727479,-1.8106995884773662,0
-0.031893743479,1.0699588477313855,0
-0.031891759479,-0.24691358024691357,0
-0.031889775479,-0.08230452674927063,0
-0.031887791479,4.444444444444445,0
-0.031885807479,-4.11522633743299,0
-0.031883823479,0.9876543209876543,0
-0.031881839479,3.6213991769499416,0
-0.031879855479,0.9053497942386831,0
-0.031877871479,0.08230452675046829,0
-0.031875887479,-1.8930041152263375,0
-0.031873903479,4.279835390946502,0
-0.031871919479,-3.786008230452675,0
-0.031869935479,1.0699588477366255,0
-0.031867951479,-0.1646090534979424,0
-0.031865967479,0,0
-0.031863983479,3.539094650205761,0
-0.031861999479,-0.411522633744856,0
-0.031860015479,-0.3292181069958848,0
-0.031858031479,1.4814814814814814,0
-0.031856047479,1.2345679012345678,0
-0.031854063479,2.962962962962963,0
-0.031852079479,-4.032921810684318,0
-0.031850095479,4.362139917695473,0
-0.031848111479,-3.950617283941485,0
-0.031846127479,1.0699588477366255,0
-0.031844143479,8.084397349092696e-12,0
-0.031842159479,4.444444444444445,0
-0.031840175479,-4.032921810690755,0
-0.031838191479,0.823045267489712,0
-0.031836207479,4.444444444429174,0
-0.031834223479,-3.950617283950617,0
-0.031832239479,4.444444444428875,0
-0.031830255479,-4.11522633744856,0
-0.031828271479,1.0699588477352782,0
-0.031826287479,0.3292181069958848,0
-0.031824303479,3.1275720164477305,1.497110620202351e-14
-0.031822319479,-4.11522633744856,0.00823045267489712
-0.031820335479,-0.08230452674058737,0
-0.031818351479,4.526748971193416,0
-0.031816367479,-4.032921810684168,0
-0.031814383479,4.444444444444445,0
-0.031812399479,-3.950617283941335,0
-0.031810415479,1.1522633744855968,0
-0.031808431479,-1.646821682222586e-12,0
-0.031806447479,-0.9053497942386831,0
-0.031804463479,-3.7037037036968172,0
-0.031802479479,0.0823045267489712,0
-0.031800495479,4.444444444434264,0
-0.031798511479,-1.1522633744855968,0
-0.031796527479,0.8230452674831247,0
-0.031794543479,-2.7983539094650207,0
-0.031792559479,0.9876543209870554,0
-0.031790575479,0.6584362139917695,0
-0.031788591479,-1.1522633744821535,0
-0.031786607479,0.7407407407407407,0
-0.031784623479,4.4444444444303715,0
-0.031782639479,-3.292181069958848,0
-0.031780655479,4.444444444429024,0
-0.031778671479,-4.032921810699588,0
-0.031776687479,0.4115226337451554,0
-0.031774703479,0.5761316872427984,0
-0.031772719479,4.19753086418241,0
-0.031770735479,-4.11522633744856,0
-0.031768751479,0.9053497942451207,0
-0.031766767479,4.444444444444445,0
-0.031764783479,-4.032921810684767,0
-0.031762799479,4.11522633744856,0
-0.031760815479,-4.115226337438829,0
-0.031758831479,1.2345679012345678,0
-0.031756847479,0.246913580252902,0
-0.031754863479,3.539094650205761,0
-0.031752879479,-4.526748971185332,0
-0.031750895479,-0.0823045267489712,0
-0.031748911479,4.69135802467504,0
-0.031746927479,-4.279835390946502,0
-0.031744943479,4.444444444429323,0
-0.031742959479,-3.8683127572016462,0
-0.031740975479,1.152263374483501,0
-0.031738991479,0,0
-0.031737007479,-0.41152263375114384,0
-0.031735023479,-3.8683127572016462,0
-0.031733039479,-0.49382716048544334,0
-0.031731055479,4.11522633744856,0
-0.031729071479,-1.152263374481854,0
-0.031727087479,0.9053497942386831,0
-0.031725103479,-2.6337448559612393,0
-0.031723119479,0.5761316872427984,0
-0.031721135479,0.16460905349644528,0
-0.031719151479,-0.6584362139917695,0
-0.031717167479,0.41152263374949705,0
-0.031715183479,2.962962962962963,0
-0.031713199479,-4.197530864181811,0
-0.031711215479,4.444444444444445,0
-0.031709231479,-4.032921810690755,0
-0.031707247479,0.823045267489712,0
-0.031705263479,0.6584362139980574,0
-0.031703279479,4.11522633744856,0
-0.031701295479,-4.032921810690456,0
-0.031699311479,0.9876543209876543,0
-0.031697327479,4.444444444428875,0
-0.031695343479,-4.11522633744856,0
-0.031693359479,4.691358024675489,0
-0.031691375479,-4.032921810699588,0
-0.031689391479,1.2345679012326216,0
-0.031687407479,0.1646090534979424,0
-0.031685423479,3.8683127571859264,0
-0.031683439479,-4.773662551440329,0
-0.031681455479,-0.08230452674073709,0
-0.031679471479,4.444444444444445,0
-0.031677487479,-4.0329218106838685,0
-0.031675503479,4.609053497942387,0
-0.031673519479,-3.950617283941485,0
-0.031671535479,1.0699588477366255,0
-0.031669551479,-5.988442480809404e-13,0
-0.031667567479,-0.3292181069958848,0
-0.031665583479,-3.7860082304451894,0
-0.031663599479,0.3292181069958848,0
-0.031661615478999997,4.1152263374395766,0
-0.031659631479,-0.823045267489712,0
-0.031657647478999996,0.24691358024257196,0
-0.031655663479,-2.139917695473251,0
-0.031653679478999996,0.9053497942374854,0
-0.031651695479,0.24691358024691357,0
-0.031649711478999996,-0.7407407407389441,0
-0.031647727479,0.24691358024691357,0
-0.031645743478999996,4.444444444429024,0
-0.031643759479,-4.032921810699588,0
-0.031641775478999996,4.362139917680203,0
-0.031639791479,-4.032921810699588,0
-0.031637807478999996,0.8230452674891131,0
-0.031635823479,0.49382716049382713,0
-0.031633839478999996,4.444444444428875,0
-0.031631855479,-4.11522633744856,0
-0.031629871478999996,0.740740740747328,0
-0.031627887479,4.362139917695473,0
-0.031625903478999996,-4.032921810684168,0
-0.031623919479,4.444444444444445,0
-0.031621935478999996,-4.115226337438978,0
-0.031619951479,1.1522633744855968,0
-0.031617967478999996,6.287864604849874e-12,0
-0.031615983479,3.45679012345679,0
-0.031613999478999996,-4.032921810692402,0
-0.031612015479,-0.0823045267489712,0
-0.031610031478999996,4.444444444428875,0.00823045267488215
-0.031608047479,-4.11522633744856,0
-0.031606063479,4.444444444428875,0
-0.031604079479,-4.362139917695473,0
-0.031602095479,1.0699588477267445,0
-0.031600111479,0.1646090534979424,0
-0.031598127479,-0.41152263374380804,0
-0.031596143479,-3.292181069958848,0
-0.031594159479,0.41152263373811904,0
-0.031592175479,4.362139917695473,0
-0.031590191479,-1.1522633744755666,0
-0.031588207479,0.9053497942386831,0
-0.031586223479,-2.386831275714176,0
-0.031584239479,0.9053497942386831,0
-0.031582255479,0.6584362139922186,0
-0.031580271479,-0.6584362139917695,0
-0.031578287479,0.32921810699408816,0
-0.031576303479,3.539094650205761,0
-0.031574319479,-4.3621399176811,0
-0.031572335479,4.362139917695473,0
-0.031570351479,-3.8683127571866747,0
-0.031568367479,-0.0823045267489712,0
-0.031566383479,0.6584362139904222,0
-0.031564399479,4.444444444444445,0
-0.031562415479,-3.9506172839353457,0
-0.031560431479,0.9053497942386831,0
-0.031558447479,4.362139917689186,0
-0.031556463479,-4.032921810699588,0
-0.031554479479,4.444444444429025,0
-0.031552495479,-4.11522633744856,0
-0.031550511479,1.069958847727194,0
-0.031548527479,0.3292181069958848,0
-0.031546543479,4.197530864190495,0
-0.031544559479,-4.197530864197531,0
-0.031542575479,0.49382716048529307,0
-0.031540591479,4.526748971193416,0
-0.031538607479,-4.032921810684019,0
-0.031536623479,4.444444444444445,0
-0.031534639479,-4.032921810684169,0
-0.031532655479,0.3292181069958848,0
-0.031530671479,0.16460905349824181,0
-0.031528687479,-0.1646090534979424,0
-0.031526703479,2.1399176954690593,0
-0.031524719479,-4.032921810699588,0
-0.031522735479,-0.6584362139979079,0
-0.031520751479,4.444444444444445,0
-0.031518767479,3.7860082304538727,0
-0.031516783479,-3.6213991769547325,0
-0.031514799479,-4.115226337447662,0
-0.031512815479,5.020576131687243,0
-0.031510831479,-4.032921810683119,0
-0.031508847479,1.1522633744855968,0
-0.031506863479,0.08230452675091748,0
-0.031504879479,-0.0823045267489712,0
-0.031502895479,-0.8230452674883646,0
-0.031500911479,0.0823045267489712,0
-0.031498927479,4.3621399176876885,0
-0.031496943479,-4.032921810699588,0
-0.031494959479,0.987654320978522,0
-0.031492975479,3.539094650205761,0
-0.031490991479,1.8106995884805102,0
-0.031489007479,-0.7407407407407407,0
-0.031487023479,-3.868312757195957,0
-0.031485039479,2.3045267489711936,0
-0.031483055479,-4.6090534979298114,0
-0.031481071479,-0.1646090534979424,0
-0.031479087479,0.6584362139902724,0
-0.031477103479,-0.24691358024691357,0
-0.031475119479,-4.491407246121071e-13,0
-0.031473135479,0.411522633744856,0
-0.031471151479,4.52674897118593,0
-0.031469167479,-1.3991769547325104,0
