log/g.csv

#Digilent WaveForms Oscilloscope Acquisition
#Device Name: ADP5250-323F81C
#Serial Number: SN:323F81C
#Date Time: 2023-02-22 13:58:58.074.059.099
#Sample rate: 299760Hz
#Samples: 32768
#Trigger: Source: Channel 1 Type: Edge Condition: Rising Level: 0 V Hyst.: Auto
#Channel 1: Range: 2 V/div Offset: 0 V Attenuation: 1 X Coupling: DC Bandwidth: Full Sample Mode: Average
#Channel 2: Range: 200 mV/div Offset: 0 V Attenuation: 1 X Coupling: DC Bandwidth: Full

Time (s),Channel 1 (V),Channel 2 (V)
-0.054656844349,-3.950617283950617,0
-0.054653508349,0.3292181069958848,0
-0.054650172349,-4.032921810699588,0
-0.054646836349,1.1522633744855968,0
-0.054643500349,-2.3045267489711936,0
-0.054640164349,-4.032921810699588,0
-0.054636828349,0.7407407407407407,0.00823045267489712
-0.054633492349,-1.1522633744821535,1.4970663597679845e-14
-0.054630156348999995,-7.1861309769712844e-12,0
-0.054626820348999995,-3.950617283950617,0
-0.054623484348999995,-3.950617283950617,0
-0.054620148348999996,0.9876543209876543,0
-0.054616812348999996,1.3991769547325104,0
-0.054613476349,0.49382716049382713,0
-0.054610140349,-2.7160493827160495,0
-0.054606804349,3.950617283950617,0
-0.054603468349,1.2345679012345678,0
-0.054600132349,4.526748971193416,0
-0.054596796349,-0.24691358024691357,0
-0.054593460349,4.444444444444445,0
-0.054590124349,4.609053497942387,0
-0.054586788349,-1.0699588477366255,0
-0.054583452349,-0.0823045267489712,0
-0.054580116349,-4.032921810699588,0
-0.054576780349,3.292181069958848,0
-0.054573444349,0.4115226337500957,0
-0.054570108348999995,4.444444444433965,0
-0.054566772348999995,-1.316872427983539,0
-0.054563436348999995,-0.0823045267489712,0
-0.054560100348999996,0.1646090534979424,0
-0.054556764348999996,-0.7407407407407407,0
-0.054553428349,-0.0823045267489712,0
-0.054550092349,-0.411522633744856,0
-0.054546756349,-1.646090534979424,0
-0.054543420349,-4.11522633744856,0
-0.054540084349,0.6584362139917695,0
-0.054536748349,0,0
-0.054533412349,-0.1646090534979424,0
-0.054530076349,0.6584362139917695,0
-0.054526740349,3.374485596707819,0
-0.054523404349,-4.032921810699588,0
-0.054520068349,2.2222222222222223,0
-0.054516732349,1.1522633744855968,0
-0.054513396349,-0.1646090534955469,0
-0.054510060348999995,4.44444444443112,0
-0.054506724348999995,-2.880658436213992,0
-0.054503388348999995,4.11522633744856,0
-0.054500052348999996,0.3292181069958848,0
-0.054496716348999996,4.444444444444445,0
-0.054493380349,-0.24691358024691357,0
-0.054490044349,-0.0823045267489712,0
-0.054486708349,0.0823045267489712,0
-0.054483372349,-4.032921810699588,0
-0.054480036349,1.728395061728395,0
-0.054476700349,-0.823045267489712,0
-0.054473364349,2.05761316872428,0
-0.054470028349,-3.786008230452675,0
-0.054466692349,0.24691358024691357,0
-0.054463356349,0.0823045267489712,0
-0.054460020349,-0.24691358024691357,0
-0.054456684349,-0.0823045267489712,0
-0.054453348349,2.6337448559621377,0
-0.054450012348999995,-3.292181069960195,0
-0.054446676348999995,-4.032921810699588,0
-0.054443340348999995,0.9053497942386831,0
-0.054440004348999996,-0.1646090534979424,0
-0.054436668348999996,1.646090534979424,0
-0.054433332348999997,1.0699588477366255,0
-0.054429996349,4.444444444444445,0
-0.054426660349,-4.032921810699588,0.00823045267489712
-0.054423324349,2.962962962962963,0
-0.054419988349,1.2345679012345678,0
-0.054416652349,-0.24691358024691357,0
-0.054413316349,4.362139917695473,0
-0.054409980349,-3.8683127572016462,0
-0.054406644349,4.444444444444445,0
-0.054403308349,0.0823045267489712,0
-0.054399972349,4.362139917695473,0
-0.054396636349,-1.316872427983539,0
-0.054393300349,-2.3954171979312378e-12,0
-0.054389964348999995,0.08230452674103651,0
-0.054386628348999995,-4.279835390946502,0
-0.054383292348999995,0.9876543209876543,0
-0.054379956348999996,-0.411522633744856,0
-0.054376620348999996,0.9876543209876543,0
-0.054373284348999996,-4.11522633744856,0
-0.054369948349,0.5761316872427984,0
-0.054366612349,0.0823045267489712,0
-0.054363276349,-0.5761316872427984,0
-0.054359940349,-0.1646090534979424,0
-0.054356604349,3.2098765432098766,0
-0.054353268349,-4.032921810699588,0
-0.054349932349,-3.8683127572016462,0
-0.054346596349,1.0699588477366255,0
-0.054343260349,0.0823045267489712,0
-0.054339924349,1.728395061728395,0
-0.054336588349,0.9876543209876543,0
-0.054333252349,3.6213991769499416,0
-0.054329916348999995,-3.7037037036888822,0
-0.054326580348999995,4.4444444444384565,0
-0.054323244348999995,1.1522633744855968,0
-0.054319908348999996,-0.1646090534979424,0
-0.054316572348999996,4.279835390946502,0
-0.054313236348999996,-4.11522633744856,0
-0.054309900349,4.444444444444445,0
-0.054306564349,0.24691358024691357,0
-0.054303228349,4.444444444444445,0
-0.054299892349,-1.316872427983539,0
-0.054296556349,-0.1646090534979424,0
-0.054293220349,0.0823045267489712,0
-0.054289884349,-4.032921810699588,0
-0.054286548349,0.411522633744856,0
-0.054283212349,0.0823045267489712,0
-0.054279876349,0.6584362139917695,0
-0.054276540349,-4.032921810699588,0
-0.054273204349,0.5761316872344153,0
-0.054269868349,1.0479395129436853e-12,0
-0.054266532348999995,-0.8230452674885143,0
-0.054263196348999995,-0.1646090534979424,0
-0.054259860348999996,-4.032921810699588,0
-0.054256524348999996,1.3991769547325104,0
-0.054253188348999996,1.2345679012345678,0
-0.054249852349,3.292181069958848,0
-0.054246516349,0.9876543209876543,0
-0.054243180349,1.646090534979424,0
-0.054239844349,4.609053497942387,0
-0.054236508349,0.24691358024691357,0
-0.054233172349,4.444444444444445,0
-0.054229836349,-2.551440329218107,0
-0.054226500349,4.609053497942387,0
-0.054223164349,4.444444444444445,0
-0.054219828349,-1.9753086419753085,0
-0.054216492349,0,0
-0.054213156349,-3.7037037037037037,0
-0.054209820349,4.362139917680802,0
-0.054206484348999995,0.2469135802392783,0
-0.054203148348999995,-3.950617283950617,0
-0.054199812348999996,0.411522633744856,0
-0.054196476348999996,-4.032921810699588,0
-0.054193140348999996,0.3292181069958848,0
-0.054189804349,-4.032921810699588,0
-0.054186468349,-4.032921810699588,0
-0.054183132349,0.6584362139917695,0
-0.054179796349,-0.823045267489712,0
-0.054176460349,-0.0823045267489712,0
-0.054173124349,-4.032921810699588,0
-0.054169788349,-0.6584362139917695,0
-0.054166452349,1.0699588477366255,0
-0.054163116349,4.444444444444445,0
-0.054159780349,1.0699588477366255,0
-0.054156444349,1.8106995884773662,0
-0.054153108349,4.362139917695473,0
-0.054149772349,0.9053497942449709,0
-0.054146436348999995,4.362139917682,0
-0.054143100348999995,-3.045267489711934,0
-0.054139764348999996,4.444444444444445,0
-0.054136428348999996,4.444444444444445,0
-0.054133092348999996,-2.3868312757201644,0
-0.054129756349,0,0
-0.054126420349,-3.8683127572016462,0
-0.054123084349,4.526748971193416,0
-0.054119748349,-0.24691358024691357,0
-0.054116412349,-4.032921810699588,0
-0.054113076349,0.411522633744856,0
-0.054109740349,-3.950617283950617,0
-0.054106404349,0.5761316872427984,0
-0.054103068349,-4.032921810699588,0
-0.054099732349,-4.032921810699588,0
-0.054096396349,0.9876543209876543,0
-0.054093060349,-0.823045267489712,0
-0.054089724349,0.08230452674732436,0
-0.054086388348999995,-4.032921810688659,0
-0.054083052348999995,1.9753086419753085,0
-0.054079716348999995,1.1522633744855968,0
-0.054076380348999996,4.444444444444445,0
-0.054073044348999996,1.0699588477366255,0
-0.054069708349,2.4691358024691357,0
-0.054066372349,4.362139917695473,0
-0.054063036349,0.7407407407407407,0
-0.054059700349,4.691358024691358,0
-0.054056364349,-3.45679012345679,0
-0.054053028349,4.362139917695473,0
-0.054049692349,4.362139917695473,0
-0.054046356349,-2.7160493827160495,0
-0.054043020349,0.0823045267489712,0
-0.054039684349,-4.362139917695473,0
-0.054036348349,2.880658436213992,0
-0.054033012349,-0.6584362139917695,0
-0.054029676349,-4.03292181069345,0
-0.054026340348999995,0.4938271604867907,0
-0.054023004348999995,-3.374485596707819,0
-0.054019668348999995,0.411522633744856,0
-0.054016332348999996,-4.032921810699588,0
-0.054012996348999996,-4.032921810699588,0
-0.054009660349,1.1522633744855968,0
-0.054006324349,-0.3292181069958848,0
-0.054002988349,0.0823045267489712,0
-0.053999652349,-3.950617283950617,0
-0.053996316349,1.8106995884773662,0
-0.053992980349,1.2345679012345678,0
-0.053989644349,4.444444444444445,0
-0.053986308349,0.9053497942386831,0
-0.053982972349,3.2098765432098766,0
-0.053979636349,4.526748971193416,0
-0.053976300349,0.49382716049382713,0
-0.053972964349,1.9753086419753085,0
-0.053969628349,-3.868312757191017,0
-0.053966292348999995,4.4444444444442945,0
-0.053962956348999995,4.362139917695473,0
-0.053959620348999995,-3.1275720164609053,0
-0.053956284348999996,0.0823045267489712,0
-0.053952948348999996,-4.032921810699588,0
-0.053949612348999997,3.950617283950617,0
-0.053946276349,-2.880658436213992,0
-0.053942940349,4.444444444444445,0
-0.053939604349,1.2345679012345678,0
-0.053936268349,-0.3292181069958848,0
-0.053932932349,2.962962962962963,0
-0.053929596349,-4.032921810699588,0
-0.053926260349,4.197530864197531,0
-0.053922924349,0,0
-0.053919588349,4.444444444444445,0
-0.053916252349,-1.5637860082304527,0
-0.053912916349,-0.0823045267489712,0
-0.053909580349,-0.0823045267489712,0
-0.053906244348999995,-3.868312757194011,0
-0.053902908348999995,0.3292181069958848,0
-0.053899572348999995,-0.1646090534979424,0
-0.053896236348999996,0,0
-0.053892900348999996,-3.8683127572016462,0
-0.053889564348999996,0.6584362139917695,0
-0.053886228349,0,0
-0.053882892349,-0.9876543209876543,0
-0.053879556349,0.49382716049382713,0
-0.053876220349,4.444444444444445,0
-0.053872884349,-4.032921810699588,0
-0.053869548349,-0.411522633744856,0
-0.053866212349,1.4814814814814814,0
-0.053862876349,-0.1646090534979424,0
-0.053859540349,4.362139917695473,0
-0.053856204349,-0.5761316872427984,0
-0.053852868349,4.444444444444445,0
-0.053849532349,8.08419997611054e-12,0
-0.053846196348999995,4.444444444438007,0
-0.053842860348999995,0.9053497942367369,0
-0.053839524348999995,-0.1646090534979424,0
-0.053836188348999996,-4.197530864197531,0
-0.053832852348999996,4.362139917695473,0
-0.053829516348999996,0,0
-0.053826180349,-4.032921810699588,0
-0.053822844349,0.49382716049382713,0
-0.053819508349,-4.032921810699588,0
-0.053816172349,0.411522633744856,0
-0.053812836349,-4.032921810699588,0
-0.053809500349,-4.032921810699588,0
-0.053806164349,0.823045267489712,0
-0.053802828349,-0.5761316872427984,0
-0.053799492349,0.0823045267489712,0
-0.053796156349,-4.032921810699588,0
-0.053792820349,2.139917695473251,0
-0.053789484349,1.2345679012362147,0
-0.053786148349,4.526748971187427,0
-0.053782812348999995,0.9876543209896005,0
-0.053779476348999995,2.05761316872428,0
-0.053776140348999996,4.609053497942387,0
-0.053772804348999996,0.3292181069958848,0
-0.053769468348999996,4.609053497942387,0
-0.053766132349,-3.539094650205761,0
-0.053762796349,4.526748971193416,0
-0.053759460349,4.444444444444445,0
-0.053756124349,-3.45679012345679,0
-0.053752788349,0.1646090534979424,0
-0.053749452349,-3.7037037037037037,0
-0.053746116349,4.362139917695473,0
-0.053742780349,-0.6584362139917695,0
-0.053739444349,-4.032921810699588,0
-0.053736108349,0.49382716049382713,0
-0.053732772349,0,0
-0.053729436349,-4.032921810699588,0
-0.053726100349,1.3168724279738084,0
-0.053722764348999995,-0.5761316872399539,0
-0.053719428348999995,0.9876543209876543,0
-0.053716092348999996,-4.8559670781893,0
-0.053712756348999996,0.3292181069958848,0
-0.053709420348999996,0.0823045267489712,0
-0.053706084349,-0.24691358024691357,0
-0.053702748349,-0.24691358024691357,0
-0.053699412349,4.444444444444445,0
-0.053696076349,-3.045267489711934,0
-0.053692740349,-4.032921810699588,0
-0.053689404349,0.9053497942386831,0
-0.053686068349,0,0
-0.053682732349,2.633744855967078,0
-0.053679396349,0.9876543209876543,0
-0.053676060349,4.444444444444445,0
-0.053672724349,-3.950617283950617,0
-0.053669388349,3.6213991769547325,0
-0.053666052349,1.234567901238909,0
-0.053662716348999995,-0.08230452674043766,0
-0.053659380348999995,4.609053497942387,0
-0.053656044348999996,-4.032921810699588,0
-0.053652708348999996,4.444444444444445,0
-0.053649372348999996,-0.1646090534979424,0
-0.053646036349,4.11522633744856,0
-0.053642700349,-1.4814814814814814,0
-0.053639364349,-0.0823045267489712,0
-0.053636028349,-0.823045267489712,0
-0.053632692349,-3.8683127572016462,0
-0.053629356349,0.5761316872427984,0
-0.053626020349,0.24691358024691357,0
-0.053622684349,0.9876543209876543,0
-0.053619348349,-3.786008230452675,0
-0.053616012349,1.316872427983539,0
-0.053612676349,0,0
-0.053609340349,-0.9053497942386831,0
-0.053606004349,-0.6584362139922186,0
-0.053602668348999995,3.9506172839359452,0
-0.053599332348999995,-4.11522633744856,0
-0.053595996348999995,-4.11522633744856,0
-0.053592660348999996,1.0699588477366255,0
-0.053589324348999996,-0.1646090534979424,0
-0.053585988349,4.032921810699588,0
-0.053582652349,0.6584362139917695,0
-0.053579316349,4.444444444444445,0
-0.053575980349,-4.197530864197531,0
-0.053572644349,4.444444444444445,0
-0.053569308349,0.9876543209876543,0
-0.053565972349,-0.823045267489712,0
-0.053562636349,2.3868312757201644,0
-0.053559300349,-4.032921810699588,0
-0.053555964349,4.032921810699588,0
-0.053552628349,-0.49382716049382713,0
-0.053549292349,4.444444444444445,0
-0.053545956349,-0.7407407407313089,0
-0.053542620348999995,1.497110620202351e-13,0
-0.053539284348999995,0.0823045267489712,0
-0.053535948348999995,-3.45679012345679,0
-0.053532612348999996,0.49382716049382713,0
-0.053529276348999996,-0.3292181069958848,0
-0.053525940349,-1.0699588477366255,0
-0.053522604349,-4.032921810699588,0
-0.053519268349,0.5761316872427984,0
-0.053515932349,-0.49382716049382713,0
-0.053512596349,-1.0699588477366255,0
-0.053509260349,0.1646090534979424,0
-0.053505924349,4.526748971193416,0
-0.053502588349,-3.950617283950617,0
-0.053499252349,-2.551440329218107,0
-0.053495916349,1.3991769547325104,0
-0.053492580349,-0.0823045267489712,0
-0.053489244349,4.526748971193416,0
-0.053485908349,-0.6584362139823376,0
-0.053482572348999995,3.539094650197078,0
-0.053479236348999995,-1.2345679012345678,0
-0.053475900348999995,4.444444444444445,0
-0.053472564348999996,0.9053497942386831,0
-0.053469228348999996,-0.1646090534979424,0
-0.053465892349,1.1522633744855968,0
-0.053462556349,-4.032921810699588,0
-0.053459220349,3.8683127572016462,0
-0.053455884349,0.6584362139917695,0
-0.053452548349,4.362139917695473,0
-0.053449212349,-3.45679012345679,0
-0.053445876349,-1.8930041152263375,0
-0.053442540349,0.0823045267489712,0
-0.053439204349,-2.633744855967078,0
-0.053435868349,-0.1646090534979424,0
-0.053432532349,0.1646090534979424,0
-0.053429196349,-0.1646090534979424,0
-0.053425860349,-2.469135802464944,0
-0.053422524348999995,0.6584362139986563,0
-0.053419188348999995,4.444444444444445,0
-0.053415852348999995,-1.1522633744855968,0
-0.053412516348999996,4.11522633744856,0
-0.053409180348999996,4.444444444444445,0
-0.053405844348999996,-2.7983539094650207,0
-0.053402508349,0,0
-0.053399172349,-3.950617283950617,0
-0.053395836349,5.185185185185185,0
-0.053392500349,1.1522633744855968,0
-0.053389164349,-3.950617283950617,0
-0.053385828349,-0.0823045267489712,0
-0.053382492349,-4.11522633744856,0
-0.053379156349,1.1522633744855968,0
-0.053375820349,-4.362139917695473,0
-0.053372484349,-4.032921810699588,0
-0.053369148349,0.7407407407407407,0
-0.053365812349,0.5761316872430978,0
-0.053362476348999995,-0.16460905350497881,0
-0.053359140348999995,-4.032921810697343,0
-0.053355804348999995,-2.7983539094650207,0
-0.053352468348999996,1.0699588477366255,0
-0.053349132348999996,1.8930041152263375,0
-0.053345796348999996,2.880658436213992,0
-0.053342460349,-0.411522633744856,0
-0.053339124349,4.362139917695473,0
-0.053335788349,-0.6584362139917695,0
-0.053332452349,4.444444444444445,0
-0.053329116349,-0.0823045267489712,0
-0.053325780349,4.938271604938271,0
-0.053322444349,4.444444444444445,0
-0.053319108349,-0.5761316872427984,0
-0.053315772349,2.3045267489711936,0
-0.053312436349,-3.950617283950617,0
-0.053309100349,4.526748971193416,0
-0.053305764349,-0.08230452674058775,0
-0.053302428349,-4.032921810692402,0
-0.053299092348999995,0.49382716048424563,0
-0.053295756348999995,-4.773662551440329,0
-0.053292420348999996,0.6584362139917695,0
-0.053289084348999996,-3.7037037037037037,0
-0.053285748348999996,-2.3868312757201644,0
-0.053282412349,0.823045267489712,0
-0.053279076349,-1.0699588477366255,0
-0.053275740349,-0.9053497942386831,0
-0.053272404349,-4.032921810699588,0
-0.053269068349,-2.2222222222222223,0
-0.053265732349,0.1646090534979424,0
-0.053262396349,2.7983539094650207,0
-0.053259060349,0.9053497942386831,0
-0.053255724349,0.9876543209876543,0
-0.053252388349,4.362139917695473,0
-0.053249052349,1.0699588477366255,0
-0.053245716349,3.950617283950617,0
-0.053242380349,-1.4814814814716,0
-0.053239044348999995,4.362139917696971,0
-0.053235708348999995,5.185185185185185,0
-0.053232372348999996,-1.646090534979424,0
-0.053229036348999996,0,0
-0.053225700348999996,-3.7037037037037037,0
-0.053222364349,4.444444444444445,0
-0.053219028349,1.2345679012345678,0
-0.053215692349,-5.020576131687243,0
-0.053212356349,0.3292181069958848,0
-0.053209020349,-3.950617283950617,0
-0.053205684349,1.2345679012345678,0
-0.053202348349,-3.950617283950617,0
-0.053199012349,-4.11522633744856,0
-0.053195676349,1.646090534979424,0
-0.053192340349,-0.9053497942386831,0
-0.053189004349,-0.1646090534979424,0
-0.053185668349,-5.267489711934156,0
-0.053182332349,-1.5637860082371895,0
-0.053178996348999995,1.1522633744924835,0
-0.053175660348999995,4.938271604938271,0
-0.053172324348999996,0.9876543209876543,0
-0.053168988348999996,1.0699588477366255,0
-0.053165652348999996,3.786008230452675,0
-0.053162316349,0.9876543209876543,0
-0.053158980349,4.444444444444445,0
-0.053155644349,-0.3292181069958848,0
-0.053152308349,4.444444444444445,0
-0.053148972349,4.444444444444445,0
-0.053145636349,-0.411522633744856,0
-0.053142300349,-0.0823045267489712,0
-0.053138964349,-4.11522633744856,0
-0.053135628349,4.032921810699588,0
-0.053132292349,0.49382716049382713,0
-0.053128956349,-3.950617283950617,0
-0.053125620349,0.7407407407407407,0
-0.053122284349,-4.0329218106909055,0
-0.053118948348999995,0.3292181069885489,0
-0.053115612348999995,-3.7037037037037037,0
-0.053112276348999996,-4.362139917695473,0
-0.053108940348999996,0.823045267489712,0
-0.053105604348999996,4.11522633744856,0
-0.053102268349,-0.9876543209876543,0
-0.053098932349,4.444444444444445,0
-0.053095596349,0.6584362139917695,0
-0.053092260349,4.526748971193416,0
-0.053088924349,1.2345679012345678,0
-0.053085588349,0.1646090534979424,0
-0.053082252349,0.0823045267489712,0
-0.053078916349,-3.950617283950617,0
-0.053075580349,1.316872427983539,0
-0.053072244349,-0.1646090534979424,0
-0.053068908349,3.6213991769547325,0
-0.053065572349,-2.551440329218107,0
-0.053062236349,0.16460905349300203,0
-0.053058900348999995,0.08230452674747409,0
-0.053055564348999995,-0.7407407407407407,0
-0.053052228348999995,0,0
-0.053048892348999996,4.444444444444445,0
-0.053045556348999996,-3.8683127572016462,0
-0.053042220349,-4.032921810699588,0
-0.053038884349,0.9876543209876543,0
-0.053035548349,0.9053497942386831,0
-0.053032212349,0.6584362139917695,0
-0.053028876349,0.823045267489712,0
-0.053025540349,4.773662551440329,0
-0.053022204349,-4.11522633744856,0
-0.053018868349,1.728395061728395,0
-0.053015532349,0.0823045267489712,0
-0.053012196349,-0.1646090534979424,0
-0.053008860349,4.362139917695473,0
-0.053005524349,-1.8106995884773662,0
-0.053002188349,4.444444444433066,0
-0.052998852348999995,-3.78600823045522,0
-0.052995516348999995,-5.185185185185185,0
-0.052992180348999995,0.823045267489712,0
-0.052988844348999996,-0.9876543209876543,0
-0.052985508348999996,-1.0699588477366255,0
-0.052982172349,-4.197530864197531,0
-0.052978836349,0.0823045267489712,0
-0.052975500349,2.3868312757201644,0
-0.052972164349,2.551440329218107,0
-0.052968828349,0.823045267489712,0
-0.052965492349,0,0
