log/GE0.csv

#Digilent WaveForms Oscilloscope Acquisition
#Device Name: ADP5250-323F81C
#Serial Number: SN:323F81C
#Date Time: 2023-03-03 13:49:56.552.724.799
#Sample rate: 504032Hz
#Samples: 32768
#Trigger: Source: Channel 1 Type: Edge Condition: Rising Level: 0 V Hyst.: Auto
#Channel 1: Range: 1 V/div Offset: 0 V Attenuation: 1 X Coupling: DC Bandwidth: Full Sample Mode: Average
#Channel 2: Range: 200 mV/div Offset: 0 V Attenuation: 1 X Coupling: DC Bandwidth: Full

Time (s),Channel 1 (V),Channel 2 (V)
-0.032505075668,0.5349794238683128,0
-0.032503091668,-1.8106995884730992,0
-0.032501107668,0.411522633744856,0
-0.032499123668,0.2880658436216238,0
-0.032497139668,-0.8641975308641975,0
-0.032495155668,0.5761316872401784,0
-0.032493171668,0.9465020576131687,0
-0.032491187668,-0.8230452674864933,0
-0.032489203668,0.49382716049382713,0
-0.032487219668,0.37037037037059495,0
-0.032485235668,-1.2345679012345678,0
-0.032483251668,0.6995884773627368,0
-0.032481267668,0.411522633744856,0
-0.032479283668,-1.0288065843595198,0
-0.032477299668,0.5761316872427984,0
-0.032475315668,0.12345679012428018,0
-0.032473331668,-1.2757201646090535,0
-0.032471347668,0.6995884773626619,0
-0.032469363668,-0.5349794238683128,0
-0.032467379668,-0.04115226337538386,0
-0.032465395668,0.6584362139917695,0
-0.032463411668,-0.9053497942358385,0
-0.032461427668,0.45267489711934156,0
-0.032459443668,0.3292181069961093,0
-0.032457459668,-0.9876543209876543,0
-0.032455475668,0.4938271604911324,0
-0.032453491668,-0.1646090534979424,0
-0.032451507668,-0.5761316872420498,0
-0.032449523668,0.6172839506172839,0
-0.032447539668,-0.7407407407382703,0
-0.032445555667999997,0.0411522633744856,0
-0.032443571668,0.5761316872418253,0
-0.032441587667999996,-0.7407407407407407,0
-0.032439603668,0.4115226337427602,0
-0.032437619667999996,0.37037037037037035,0
-0.032435635668,-1.0288065843595948,0
-0.032433651667999996,0.6172839506172839,0
-0.032431667668,0.20576131687317656,0
-0.032429683667999996,-0.9465020576131687,0
-0.032427699668,0.6584362139888501,0
-0.032425715667999996,-0.205761316872428,0
-0.032423731668,-0.4526748971188924,0
-0.032421747667999996,0.6172839506172839,0
-0.032419763668,-0.7818930041126811,0
-0.032417779667999996,0.205761316872428,0
-0.032415795668,0.4115226337444817,0
-0.032413811667999996,-0.823045267489712,0
-0.032411827668,0.28806584361937815,0
-0.032409843667999996,0.411522633744856,0
-0.032407859668,-0.8230452674874663,0
-0.032405875667999996,0.2880658436213992,0
-0.032403891668,0.45267489711904213,0
-0.032401907667999996,-0.9465020576131687,0
-0.032399923668,0.45267489711679654,0
-0.032397939667999996,0.37037037037037035,0
-0.032395955668,-0.9465020576107733,0
-0.032393971667999996,0.6584362139917695,0
-0.032391987668,-0.041152263373213094,0
-0.032390003667999996,-0.9053497942386831,0
-0.032388019668,0.6584362139889249,0
-0.032386035667999996,-0.0411522633744856,0
-0.032384051668,-0.6584362139917695,0
-0.032382067667999996,0.6584362139917695,0
-0.032380083668,-0.5349794238683128,0
-0.032378099667999996,-0.0411522633744856,0
-0.032376115668,0.5761316872427984,0
-0.032374131667999996,-1.1111111111111112,0
-0.032372147668,0.6584362139917695,0
-0.032370163667999996,0.205761316872428,0
-0.032368179668,-0.8641975308641975,0
-0.032366195667999996,0.6584362139917695,0
-0.032364211668,-0.12345679012345678,0
-0.032362227667999996,-0.8230452674871669,0
-0.032360243668,0.5761316872427984,0
-0.032358259667999996,-0.49382716049330316,0
-0.032356275668,-0.205761316872428,0
-0.032354291667999996,0.4115226337421612,0
-0.032352307668,-1.0699588477366255,0
-0.032350323667999996,-0.2057613168710806,0
-0.032348339668,0.5349794238683128,0
-0.032346355667999996,-0.6584362139904222,0
-0.032344371668,0.0823045267489712,0
-0.032342387667999996,0.8230452674863434,0
-0.032340403668,-1.02880658436214,0
-0.032338419667999996,0.37037037037052006,0
-0.032336435668,0.45267489711934156,0
-0.032334451667999996,-0.9876543209848846,0
-0.032332467668,0.5349794238683128,0
-0.032330483667999996,-0.16460905349816696,0
-0.032328499668,-0.2880658436213992,0
-0.032326515667999996,0.5349794238655431,0
-0.032324531668,-0.9876543209876543,0
-0.032322547667999996,7.485553101011755e-13,-0.00823045267488215
-0.032320563668,0.411522633744856,0
-0.032318579667999996,-1.0288065843592953,0
-0.032316595668,0.5349794238683128,0
-0.032314611667999996,0.28806584361877924,0
-0.032312627668,-1.1522633744855968,0
-0.032310643667999996,0.49382716049330316,0
-0.032308659668,0.205761316872428,0
-0.032306675667999996,-0.9876543209847349,0
-0.032304691668,0.6172839506172839,0
-0.032302707667999996,0.32921810699371395,0
-0.032300723668,-0.8641975308641975,0
-0.032298739667999996,0.7407407407394682,0
-0.032296755668,0.0411522633744856,0
-0.032294771667999995,-0.4115226337439577,0
-0.032292787668,0.0823045267489712,0
-0.032290803667999995,-0.8641975308619518,0
-0.032288819668,0.37037037037037035,0
-0.032286835667999995,0.3703703703678253,0
-0.032284851668,-1.02880658436214,0
-0.032282867667999995,1.3580246913554797,0
-0.032280883668,-0.0411522633744856,0
-0.032278899667999995,-0.864197530861353,0
-0.032276915668,0.6995884773662552,0
-0.032274931667999995,0.04115226337223993,0
-0.032272947668,-1.1934156378600822,0
-0.032270963667999995,0.6584362139907216,0
-0.032268979668,0.0823045267489712,0
-0.032266995667999995,-0.6584362139895987,0
-0.032265011668,0.5349794238683128,0
-0.032263027667999995,0.28806584361915355,0
-0.032261043668,-0.9465020576131687,0
-0.032259059667999995,0.5349794238668156,0
-0.032257075668,-0.2880658436213992,0
-0.032255091667999995,-7.485553101011755e-14,0
-0.032253107668,-0.0411522633744856,0
-0.032251123667999995,-0.9465020576103991,0
-0.032249139668,0.5761316872427984,0
-0.032247155667999995,0.08230452674724952,0
-0.032245171668,-0.8641975308641975,0
-0.032243187667999995,0.8230452674879154,0
-0.032241203668,-0.1646090534979424,0
-0.032239219667999995,-0.5761316872404779,0
-0.032237235668,0.6995884773662552,0
-0.032235251667999995,-0.45267489711821873,0
-0.032233267668,0.1646090534979424,0
-0.032231283667999995,0.6172839506148885,0
-0.032229299668,-0.6995884773662552,0
-0.032227315667999995,0.1646090534986161,0
-0.032225331668,0.5349794238683128,0
-0.032223347667999995,-0.9465020576103991,0
-0.032221363668,0.5761316872427984,0
-0.032219379667999995,0.12345679012166025,0
-0.032217395668,-0.8641975308641975,0
-0.032215411667999995,0.6172839506163108,0
-0.032213427668,0.0823045267489712,0
-0.032211443667999995,-0.9053497942365871,0
-0.032209459668,0.24691358024691357,0
-0.032207475667999995,0.3703703703677504,0
-0.032205491668,-1.0699588477366255,0
-0.032203507667999995,0.7407407407393933,0
-0.032201523668,0,0
-0.032199539667999995,-0.6584362139894491,0
-0.032197555668,0.6172839506172839,0
-0.032195571667999995,-0.6172839506157868,0
-0.032193587668,0.205761316872428,0
-0.032191603667999995,0.5349794238654683,0
-0.032189619668,-1.02880658436214,0
-0.032187635667999995,0.5349794238678637,0
-0.032185651668,0.2880658436213992,0
-0.032183667667999995,-0.9876543209845852,0
-0.032181683668,0.6995884773662552,0
-0.032179699667999995,-0.4115226337450057,0
-0.032177715668,-0.49382716049382713,0
-0.032175731667999995,0.6172839506154125,0
-0.032173747668,-0.411522633744856,0
-0.032171763667999995,-0.2057613168710806,0
-0.032169779668,0.5349794238683128,0
-0.032167795667999995,-0.7407407407392436,0
-0.032165811668,0.0823045267489712,0
-0.032163827667999995,0.4938271604915066,0
-0.032161843668,-0.7818930041152263,0
-0.032159859667999995,0.37037037037022064,0
-0.032157875668,0.2880658436213992,0
-0.032155891667999995,-0.9876543209849594,0
-0.032153907668,0.49382716049382713,0
-0.032151923667999995,0.45267489711747017,0
-0.032149939668,-0.5761316872427984,0
-0.032147955667999994,0.6584362139890747,0
-0.032145971668,-0.823045267489712,0
-0.032143987667999994,0.37037037037037035,0
-0.032142003668,0.37037037037037035,0
-0.032140019667999994,-0.9465020576107733,0
-0.032138035668,0.37037037037037035,0
-0.032136051667999994,0.4526748971167965,0
-0.032134067668,-0.9465020576131687,0
-0.032132083667999994,0.3292181069961093,0
-0.032130099668,0.45267489711934156,0
-0.032128115667999994,-0.9465020576105488,0
-0.032126131668,0.49382716049382713,0
-0.032124147667999994,0.28806584361982723,0
-0.032122163668,-0.5761316872427984,0
-0.032120179667999994,0.5349794238672648,0
-0.032118195668,-0.0411522633744856,0
-0.032116211668,-0.6995884773650575,0
-0.032114227668,0.6584362139917695,0
-0.032112243668,-0.45267489711732056,0
-0.032110259668,-0.1646090534979424,0
-0.032108275668,0.6172839506158616,0
-0.032106291668,-0.8641975308641975,0
-0.032104307668,0.3703703703681246,0
-0.032102323668,0.1646090534979424,0
-0.032100339668,-1.0699588477343798,0
-0.032098355668,0.5349794238683128,0
-0.032096371668,0.3703703703706698,0
-0.032094387668,-0.9876543209876543,0
-0.032092403668,0.7407407407375968,0
-0.032090419668,0.0823045267489712,0
-0.032088435668,-0.6995884773648329,0
-0.032086451668,0.6584362139917695,0
-0.032084467668,-0.37037037036849896,0
-0.032082483668,-0.0411522633744856,0
-0.032080499668,0.5349794238672648,0
-0.032078515668,-0.45267489711934156,0
-0.032076531668,-0.16460905349846633,0
-0.032074547668,0.5349794238683128,0
-0.032072563668,-0.7818930041128309,0
-0.032070579668,0.1646090534979424,0
-0.032068595668,0.4526748971188176,0
-0.032066611668,-0.9465020576131687,0
-0.032064627668,0.12345679012151056,0
-0.032062643668,0.45267489711934156,0
-0.032060659668,-0.9465020576106238,0
-0.032058675668,0.6995884773662552,0
-0.032056691668,-0.12345679012195965,0
-0.032054707668,-0.6995884773662552,0
-0.032052723668,0.12345679012195965,0
-0.032050739668,-0.37037037037037035,0
-0.032048755668,-0.2880658436215489,0
-0.032046771668,0.6584362139917695,0
-0.032044787668,-0.6584362139893741,0
-0.032042803668,0.37037037037037035,0
-0.032040819668,0.6172839506168348,0
-0.032038835668,-0.9465020576131687,0
-0.032036851668,0.41152263374238574,0
-0.032034867668,0.0823045267489712,0
-0.032032883668,-1.6049382716018692,0
-0.032030899668,0.5761316872427984,0
-0.032028915668,-0.28806584361982723,0
-0.032026931668,-0.411522633744856,0
-0.032024947668,0.6172839506154125,0
-0.032022963668,-0.2880658436213992,0
-0.032020979668,-0.08230452674934549,0
-0.032018995668,0.5761316872427984,0
-0.032017011668,-0.6172839506151133,0
-0.032015027668,0,0
-0.032013043668,1.11111111110909,0
-0.032011059668,-0.7818930041152263,0
-0.032009075668,0.24691358024504217,0
-0.032007091668,0.9876543209876543,0
-0.032005107668,-1.1111111111072933,0
-0.032003123668,-0.49382716049382713,0
-0.032001139668,0.3703703703687984,0
-0.031999155668,-0.9465020576131687,0
-0.031997171668,0.5349794238656179,0
-0.031995187668,-0.0411522633744856,0
-0.031993203668,-0.6995884773650575,0
-0.031991219668,0.6172839506172839,0
-0.031989235668,-0.9876543209847349,0
-0.031987251668,0.5349794238683128,0
-0.031985267668,0.1646090534986161,0
-0.031983283668,-0.6995884773662552,0
-0.031981299668,0.6584362139892993,0
-0.031979315668,-0.0823045267489712,0
-0.031977331668,-0.4526748971186679,0
-0.031975347668,0.5349794238683128,0
-0.031973363668,-0.20576131687108057,0
-0.031971379668,-0.49382716049382713,0
-0.031969395668,0.5349794238664414,0
-0.031967411668,-0.3292181069958848,0
-0.031965427668,-0.12345679012383107,0
-0.031963443668,0.411522633744856,0
-0.031961459668,-0.9465020576106985,0
-0.031959475668,0.49382716049382713,0
-0.031957491668,0.20576131687295196,0
-0.031955507668,-0.9465020576131687,0
-0.031953523668,0.5761316872400287,0
-0.031951539668,0.12345679012345678,0
-0.031949555668,-0.9876543209856333,0
-0.031947571668,0.7407407407407407,0
-0.031945587668,0.04115226337575817,0
-0.031943603668,-0.9465020576131687,0
-0.031941619668,0.6995884773632609,0
-0.031939635668,-0.1646090534979424,0
-0.031937651668,-0.4526748971188176,0
-0.031935667667999997,0.6172839506172839,0
-0.031933683668,-0.7407407407382703,0
-0.031931699667999996,0.1646090534979424,0
-0.031929715668,0.4526748971188176,0
-0.031927731667999996,-0.9876543209876543,0
-0.031925747668,0.5761316872399538,0
-0.031923763667999996,0.205761316872428,0
-0.031921779668,-0.946502057611073,0
-0.031919795667999996,0.2880658436213992,0
-0.031917811668,0.16460905349816696,0
-0.031915827667999996,-0.9053497942386831,0
-0.031913843668,0.5761316872401036,0
-0.031911859667999996,0.1646090534979424,0
-0.031909875668,-0.9053497942367369,0
-0.031907891667999996,0.6584362139917695,0
-0.031905907668,0.04115226337560851,0
-0.031903923667999996,-0.6995884773662552,0
-0.031901939668,0.6172839506148885,0
-0.031899955667999996,-0.6584362139917695,0
-0.031897971668,0.12345679012203448,0
-0.031895987667999996,0.5349794238683128,0
-0.031894003668,-0.9053497942360631,0
-0.031892019667999996,0.45267489711934156,0
-0.031890035668,-0.1234567901224089,0
-0.031888051667999996,-0.7818930041152263,0
-0.031886067668,0.6172839506147387,0
-0.031884083667999996,-0.205761316872428,0
-0.031882099668,-0.3703703703700709,0
-0.031880115667999996,0.49382716049382713,0
-0.031878131668,-0.7407407407384949,0
-0.031876147667999996,0.2880658436213992,0
-0.031874163668,0.49382716049382713,0
-0.031872179667999996,-0.7407407407407407,0
-0.031870195668,0.45267489711934156,0
-0.031868211667999996,0.24691358024691357,0
-0.031866227668,-0.9053497942386831,0
-0.031864243667999996,0.5761316872427984,0
-0.031862259668,0.37037037037037035,0
-0.031860275667999996,-0.5349794238683128,0
-0.031858291668,0.6172839506172839,0
-0.031856307667999996,-0.411522633744856,0
-0.031854323668,-0.5761316872427984,0
-0.031852339667999996,0.9465020576109979,0
-0.031850355668,-0.24691358024691357,0
-0.031848371667999996,-0.6995884773636353,0
-0.031846387668,0.7407407407407407,0
-0.031844403667999996,-0.24691358024751242,0
-0.031842419668,-0.5761316872427984,0
-0.031840435667999996,0.4938271604916563,0
-0.031838451668,-0.6995884773662552,0
-0.031836467667999996,0.16460905349854124,0
-0.031834483668,0.49382716049382713,0
-0.031832499667999996,-0.28806584361990206,0
-0.031830515668,0.5349794238683128,0
-0.031828531667999996,-0.04115226337560843,0
-0.031826547668,-0.6584362139917695,0
-0.031824563667999996,0.576131687240403,0
-0.031822579668,-0.7407407407407407,0
-0.031820595667999996,-0.2880658436202764,0
-0.031818611668,0.3292181069958848,0
-0.031816627667999996,-0.8230452674874663,0
-0.031814643668,0.411522633744856,0
-0.031812659667999996,0.8230452674861938,0
-0.031810675668,-1.1111111111111112,0
-0.031808691667999996,0.6584362139903472,0
-0.031806707668,-0.12345679012345678,0
-0.031804723667999996,-0.5349794238662917,0
-0.031802739668,0.5761316872427984,0
-0.031800755667999996,-0.5349794238676391,0
-0.031798771668,-0.1646090534979424,0
-0.031796787667999996,0.6172839506152629,0
-0.031794803668,-0.49382716049382713,0
-0.031792819667999996,-0.45267489711747017,0
-0.031790835668,0.5761316872427984,0
-0.031788851667999996,-0.6584362139907964,0
-0.031786867668,-0.12345679012345678,0
-0.031784883667999995,0.5349794238662168,0
-0.031782899668,-0.6172839506172839,0
-0.031780915667999995,0.37037037037052006,0
-0.031778931668,0.45267489711934156,0
-0.031776947667999995,-1.0699588477339308,0
-0.031774963668,0.411522633744856,0
-0.031772979667999995,-0.12345679012502875,0
-0.031770995668,-0.9876543209876543,0
-0.031769011667999995,0.5761316872417505,0
-0.031767027668,0,0
-0.031765043667999995,-0.6995884773617639,0
-0.031763059668,1.7695473251028806,0
-0.031761075667999995,-0.4938271604936774,0
-0.031759091668,-0.411522633744856,0
-0.031757107667999995,0.6995884773640844,0
-0.031755123668,-0.49382716049382713,0
-0.031753139667999995,-0.6172839506150383,0
-0.031751155668,0.6172839506172839,0
-0.031749171667999995,-0.3292181069959596,0
-0.031747187668,-0.37037037037037035,0
-0.031745203667999995,0.49382716049023406,0
-0.031743219668,-1.4814814814814814,0
-0.031741235667999995,0.5349794238678637,0
-0.031739251668,0.2880658436213992,0
-0.031737267667999995,-0.9465020576103242,0
-0.031735283668,0.6172839506172839,0
-0.031733299667999995,-0.5349794238672648,0
-0.031731315668,0.0411522633744856,0
-0.031729331667999995,0.452674897117021,0
-0.031727347668,-0.823045267489712,0
-0.031725363667999995,0.2880658436216986,0
-0.031723379668,0.45267489711934156,0
-0.031721395667999995,-0.905349794236138,0
-0.031719411668,0.49382716049382713,0
-0.031717427667999995,0.24691358024459303,0
-0.031715443668,-1.02880658436214,0
-0.031713459667999995,0.493827160493378,0
-0.031711475668,0.24691358024691357,0
-0.031709491667999995,-0.9876543209848846,0
-0.031707507668,0.5349794238683128,0
-0.031705523667999995,0.28806584361907867,0
-0.031703539668,-0.9876543209876543,0
-0.031701555667999995,0.7818930041134298,0
-0.031699571668,-0.205761316872428,0
-0.031697587667999995,-0.6172839506150383,0
-0.031695603668,0.6172839506172839,0
-0.031693619667999995,-0.4526748971186679,0
-0.031691635668,-0.0823045267489712,0
-0.031689651667999995,0.6172839506142896,0
-0.031687667668,-1.02880658436214,0
-0.031685683667999995,0.6584362139909461,0
-0.031683699668,0.205761316872428,0
-0.031681715667999995,-0.8641975308615026,0
-0.031679731668,0.6172839506172839,0
-0.031677747667999995,-0.08230452674994432,0
-0.031675763668,-0.6172839506172839,0
-0.031673779667999995,0.37037037036939724,0
-0.031671795668,-0.1646090534979424,0
-0.031669811667999995,-0.5761316872404779,0
-0.031667827668,0.6995884773662552,0
-0.031665843667999995,-0.7407407407391687,0
-0.031663859668,0.12345679012345678,0
-0.031661875667999995,0.49382716049143177,0
-0.031659891668,-0.823045267489712,0
-0.031657907667999995,0.24691358024728785,0
-0.031655923668,0.45267489711934156,0
-0.031653939667999995,-1.0288065843591456,0
-0.031651955668,0.6172839506172839,0
-0.031649971667999995,-1.0479774341416458e-12,0
-0.031647987668,-0.5761316872427984,0
-0.031646003667999995,0.6995884773637101,0
-0.031644019668,-0.6995884773662552,0
-0.031642035667999995,-0.12345679012233395,0
-0.031640051668,0.49382716049382713,0
-0.031638067667999994,-0.5761316872418253,0
-0.031636083668,-0.0411522633744856,0
-0.031634099667999994,0.5349794238653934,0
-0.031632115668,-1.0699588477366255,0
-0.031630131667999994,0.5349794238674893,0
-0.031628147668,0.0823045267489712,0
-0.031626163667999994,-0.7818930041126813,0
-0.031624179668,0.6172839506172839,0
-0.031622195667999994,-0.4115226337449308,0
-0.031620211668,-0.45267489711934156,0
-0.031618227667999994,0.6172839506154125,0
-0.031616243668,-0.411522633744856,0
-0.031614259667999994,-0.32921810699289056,0
-0.031612275668,1.316872427983539,0
-0.031610291667999994,-0.7818930041132801,0
-0.031608307668,0.2880658436213992,0
-0.031606323668,0.4115226337446314,0
-0.031604339668,-1.02880658436214,0
-0.031602355668,0.04115226337253941,0
-0.031600371668,-0.0823045267489712,0
-0.031598387668,-0.6584362139907216,0
-0.031596403668,0.6172839506172839,0
-0.031594419668,-0.4115226337429846,0
-0.031592435668,-0.9053497942386831,0
-0.031590451668,0.6172839506145144,0
-0.031588467668,-0.7407407407407407,0
-0.031586483668,0.3292181069939386,0
-0.031584499668,0.411522633744856,0
-0.031582515668,-0.49382716049218034,0
-0.031580531668,0.12345679012345678,0
-0.031578547668,0.5349794238675643,0
-0.031576563668,-1.02880658436214,0
-0.031574579668,0.5349794238654682,0
-0.031572595668,0.37037037037037035,0
-0.031570611668,-1.1111111111084164,0
-0.031568627668,0.6172839506172839,0
-0.031566643668,-0.08230452674769861,0
-0.031564659668,-0.6995884773662552,0
-0.031562675668,0.16460905349637045,0
-0.031560691668,-0.205761316872428,0
-0.031558707668,-0.6995884773653569,0
-0.031556723668,0.823045267489712,0
-0.031554739668,-0.20576131687055654,0
-0.031552755668,-0.1646090534979424,0
-0.031550771668,0.4938271604926294,0
-0.031548787668,-0.24691358024691357,0
-0.031546803668,-0.24691358024691357,0
-0.031544819668,0.49382716049382713,0
-0.031542835668,-1.5226337448522993,0
-0.031540851668,0.5349794238683128,0
-0.031538867668,0.24691358024743754,0
-0.031536883668,-0.9053497942386831,0
-0.031534899668,0.6172839506145144,0
-0.031532915668,-0.24691358024691357,0
-0.031530931668,-0.37037037037014575,0
