log/GE1.csv

#Digilent WaveForms Oscilloscope Acquisition
#Device Name: ADP5250-323F81C
#Serial Number: SN:323F81C
#Date Time: 2023-03-03 13:43:32.735.559.199
#Sample rate: 2.97619e+06Hz
#Samples: 32768
#Trigger: Source: Channel 1 Type: Edge Condition: Rising Level: 0 V Hyst.: Auto
#Channel 1: Range: 1 V/div Offset: 0 V Attenuation: 1 X Coupling: DC Bandwidth: Full Sample Mode: Average
#Channel 2: Range: 200 mV/div Offset: 0 V Attenuation: 1 X Coupling: DC Bandwidth: Full

Time (s),Channel 1 (V),Channel 2 (V)
-0.005504782973,0.49382716049382713,0
-0.005504446973,0.5761316872427984,0
-0.005504110973,0.3292181069958848,0
-0.0055037749729999995,-0.32921810699678306,0
-0.005503438973,-0.8230452674888137,0
-0.005503102973,-0.7407407407408904,0
-0.005502766973,-0.2880658436213992,0
-0.005502430973,0.205761316872428,0
-0.005502094973,0.45267489711934156,0
-0.005501758973,0.9053497942386831,0
-0.005501422973,2.42798353909465,0
-0.005501086973,3.786008230452675,0
-0.005500750973,4.032921810699588,0
-0.0055004149729999995,2.5102880658430973,0
-0.005500078973,2.2222222222227463,0
-0.005499742973,-0.24691358024242227,0
-0.005499406973,-3.0864197530864197,0
-0.005499070973,-4.238683127572016,0
-0.005498734973,-4.156378600823046,0
-0.005498398973,-4.032921810699588,0
-0.005498062973,-4.197530864197531,0
-0.005497726973,-4.032921810699588,0
-0.005497390973,-2.263374485596708,0
-0.0054970549729999995,0.32921810699640874,0
-0.005496718973,0.61728395061676,0
-0.005496382973,2.016460905347249,0
-0.005496046973,3.2098765432098766,0
-0.005495710973,3.292181069958848,0
-0.005495374973,2.962962962962963,0
-0.005495038973,2.139917695473251,0
-0.005494702973,0.9053497942386831,0
-0.005494366973,-0.37037037037037035,0
-0.005494030973,-1.1111111111111112,0
-0.0054936949729999995,-1.0699588477357274,0
-0.005493358973,-0.5761316872436967,0
-0.005493022973,-0.08230452674986949,0
-0.005492686973,0.24691358024691357,0
-0.005492350973,1.522633744855967,0
-0.005492014973,4.032921810699588,0
-0.005491678973,3.8683127572016462,0
-0.005491342973,-0.2880658436213992,0
-0.005491006973,-4.074074074074074,0
-0.005490670973,-4.11522633744856,0
-0.0054903349729999995,-4.11522633744856,0
-0.005489998972999999,-4.11522633744579,0
-0.005489662973,-2.592592592595362,0
-0.005489326973,0.6995884773662552,0
-0.005488990973,3.539094650205761,0
-0.005488654973,4.279835390946502,0
-0.005488318973,4.032921810699588,0
-0.005487982973,2.962962962962963,0
-0.005487646973,1.9341563786008231,0
-0.005487310973,1.1934156378600822,0
-0.0054869749729999995,0.7407407407393933,0
-0.005486638972999999,-6.736997790910579e-13,0
-0.005486302973,-0.37037037036969667,0
-0.005485966973,0.205761316872428,0
-0.005485630973,-0.9465020576131687,0
-0.005485294973,-1.2345679012345678,0
-0.005484958973,-1.646090534979424,0
-0.005484622973,-1.2757201646090535,0
-0.005484286973,-0.5761316872427984,0
-0.005483950973,0.0411522633744856,0
-0.0054836149729999995,0.5761316872430978,0
-0.005483278972999999,0.7407407407406659,0
-0.005482942973,0.69958847736633,0
-0.005482606973,0.37037037037037035,0
-0.005482270973,-0.45267489711934156,0
-0.005481934973,-0.9876543209876543,0
-0.005481598973,-0.9876543209876543,0
-0.005481262973,-0.45267489711934156,0
-0.005480926973,0.49382716049382713,0
-0.005480590973,2.4691358024691357,0
-0.0054802549729999995,4.279835390946577,0
-0.0054799189729999994,4.320987654320463,0
-0.005479582973,4.032921810700112,0
-0.005479246973,2.3868312757201644,0
-0.005478910973,-0.5349794238683128,0
-0.005478574973,-3.8683127572016462,0
-0.005478238973,-4.11522633744856,0
-0.005477902973,-4.11522633744856,0
-0.005477566973,-4.11522633744856,0
-0.005477230973,-4.11522633744856,0
-0.0054768949729999995,-3.7860082304481835,0
-0.0054765589729999994,-1.3168724279792723,0
-0.005476222973,1.0288065843578729,0
-0.005475886973,1.6049382716049383,0
-0.005475550973,2.139917695473251,0
-0.005475214973,2.7160493827160495,0
-0.005474878973,3.0041152263374484,0
-0.005474542973,2.921810699588477,0
-0.005474206973,2.3868312757201644,0
-0.005473870973,1.728395061728395,0
-0.0054735349729999995,0.6995884773640844,0
-0.0054731989729999994,-0.49382716049532427,0
-0.005472862973,-1.3168724279820418,0
-0.005472526973,-1.3991769547325104,0
-0.005472190973,-0.9465020576131687,0
-0.005471854973,0.2880658436213992,0
-0.005471518973,0.6995884773662552,0
-0.005471182973,4.156378600823046,0
-0.005470846973,4.156378600823046,0
-0.005470510973,0.7407407407407407,0
-0.0054701749729999995,-4.115226337448784,0
-0.0054698389729999995,-4.238683127571642,0
-0.005469502973,-4.032921810699962,0
-0.005469166973,-4.11522633744856,0
-0.005468830973,-2.921810699588477,0
-0.005468494973,0.45267489711934156,0
-0.005468158973,3.4979423868312756,0
-0.005467822973,4.320987654320987,0
-0.005467486973,4.279835390946502,0
-0.005467150973,3.3333333333333335,0
-0.0054668149729999995,1.4403292181057983,0
-0.0054664789729999995,0.7818930041140286,0
-0.005466142973,0.12345679012465449,0
-0.005465806973,-0.12345679012345678,0
-0.005465470973,-0.0823045267489712,0
-0.005465134973,-0.205761316872428,0
-0.005464798973,-0.37037037037037035,0
-0.005464462973,-0.7818930041152263,0
-0.005464126973,-1.3580246913580247,0
-0.005463790973,-1.4814814814814814,0
-0.0054634549729999995,-1.0699588477366255,0
-0.0054631189729999995,-0.37037037036917264,0
-0.005462782973,0.2880658436202015,0
-0.005462446973,0.6584362139910959,0
-0.005462110973,0.823045267489712,0
-0.005461774973,0.6995884773662552,0
-0.005461438973,0.0823045267489712,0
-0.005461102973,-0.6584362139917695,0
-0.005460766973,-0.9465020576131687,0
-0.005460430973,-0.6995884773662552,0
-0.0054600949729999996,0.1646090534979424,0
-0.0054597589729999995,2.0576131687275736,0
-0.005459422973,3.8683127571983524,0
-0.005459086973,4.320987654320164,0
-0.005458750973,4.197530864197531,0
-0.005458414973,3.045267489711934,0
-0.005458078973,0.411522633744856,0
-0.005457742973,-3.374485596707819,0
-0.005457406973,-4.444444444444445,0
-0.005457070973,-3.8271604938271606,0
-0.0054567349729999996,-4.773662551440329,0
-0.0054563989729999995,-4.526748971192143,0
-0.005456062973,-3.8271604938284334,0
-0.005455726973,-1.6460905349833914,0
-0.005455390973,0.823045267489712,0
-0.005455054973,1.6049382716049383,0
-0.005454718973,2.345679012345679,0
-0.005454382973,2.7983539094650207,0
-0.005454046973,3.0041152263374484,0
-0.005453710973,2.8395061728395063,0
-0.0054533749729999996,2.263374485596708,0
-0.0054530389729999995,1.6049382716032166,0
-0.005452702973,0.6584362139934912,0
-0.005452366973,-0.49382716049173137,0
-0.005452030973,-1.316872427983539,0
-0.005451694973,-1.3991769547325104,0
-0.005451358973,-0.8641975308641975,0
-0.005451022973,-0.1646090534979424,0
-0.005450686973,1.2757201646090535,0
-0.005450350973,3.909465020576132,0
-0.005450014973,4.279835390946502,0
-0.0054496789729999995,0.8641975308554394,0
-0.005449342973,-3.950617283941859,0
-0.005449006973,-4.11522633744826,0
-0.005448670973,-4.11522633744856,0
-0.005448334973,-4.11522633744856,0
-0.005447998973,-2.962962962962963,0
-0.005447662973,0.37037037037037035,0
-0.005447326973,3.4156378600823047,0
-0.005446990973,4.279835390946502,0
-0.005446654973,4.362139917695473,0
-0.0054463189729999995,3.456790123453122,0
-0.005445982973,1.440329218110664,0
-0.005445646973,0.617283950618781,0
-0.005445310973,0.12345679012345678,0
-0.005444974973,-0.0411522633744856,0
-0.005444638973,-0.12345679012345678,0
-0.005444302973,-0.205761316872428,0
-0.005443966973,-0.3292181069958848,0
-0.005443630973,-0.6995884773662552,0
-0.005443294973,-1.316872427983539,0
-0.0054429589729999995,-0.8641975308653204,0
-0.005442622973,-1.4814814814803585,0
-0.005442286973,-0.20576131687474852,0
-0.005441950973,0.24691358024691357,0
-0.005441614973,0.5349794238683128,0
-0.005441278973,0.823045267489712,0
-0.005440942973,0.5761316872427984,0
-0.005440606973,0.24691358024691357,0
-0.005440270973,-0.5349794238683128,0
-0.005439934973,-1.02880658436214,0
-0.0054395989729999995,-0.7818930041137292,0
-0.005439262973,0.041152263372988496,0
-0.005438926973,2.263374485592666,0
-0.005438590973,4.032921810699588,0
-0.005438254973,4.320987654320987,0
-0.005437918973,4.156378600823046,0
-0.005437582973,2.8395061728395063,0
-0.005437246973,0.24691358024691357,0
-0.005436910973,-3.539094650205761,0
-0.005436574973,-3.786008230452675,0
-0.0054362389729999995,-3.5802469135816692,0
-0.005435902973,-4.362139917694051,0
-0.005435566973,-4.115226337449009,0
-0.005435230973,-3.9917695473251027,0
-0.005434894973,-1.4814814814814814,0
-0.005434558973,0.9876543209876543,0
-0.005434222973,2.016460905349794,0
-0.005433886973,2.2222222222222223,0
-0.005433550973,2.3045267489711936,0
-0.005433214973,2.4691358024691357,0
-0.0054328789729999995,2.4691358024686116,0
-0.005432542972999999,2.1810699588467637,0
-0.005432206973,1.646090534980397,0
-0.005431870973,1.0699588477366255,0
-0.005431534973,0.411522633744856,0
-0.005431198973,-0.49382716049382713,0
-0.005430862973,-1.3580246913580247,0
-0.005430526973,-1.5637860082304527,0
-0.005430190973,-1.0699588477366255,0
-0.005429854973,0.6584362139917695,0
-0.0054295189729999995,3.7037037037048264,0
-0.005429182972999999,4.320987654315373,0
-0.005428846973,1.2345679012401822,0
-0.005428510973,-3.662551440329218,0
-0.005428174973,-3.950617283950617,0
-0.005427838973,-4.11522633744856,0
-0.005427502973,-4.197530864197531,0
-0.005427166973,-3.374485596707819,0
-0.005426830973,0.12345679012345678,0
-0.005426494973,3.0041152263374484,0
-0.0054261589729999995,4.1152263374489335,0
-0.005425822972999999,4.320987654321062,0
-0.005425486973,4.362139917695399,0
-0.005425150973,3.2098765432098766,0
-0.005424814973,1.2757201646090535,0
-0.005424478973,-0.45267489711934156,0
-0.005424142973,-1.0699588477366255,0
-0.005423806973,-0.9876543209876543,0
-0.005423470973,-0.7407407407407407,0
-0.005423134973,-0.45267489711934156,0
-0.0054227989729999995,-0.28806584362102494,0
-0.0054224629729999994,-0.08230452674934548,0
-0.005422126973,-0.2880658436210249,0
-0.005421790973,-0.823045267489712,0
-0.005421454973,-0.9465020576131687,0
-0.005421118973,-0.6995884773662552,0
-0.005420782973,-0.0823045267489712,0
-0.005420446973,0.3292181069958848,0
-0.005420110973,0.6172839506172839,0
-0.005419774973,0.6172839506172839,0
-0.0054194389729999995,0.5349794238674145,0
-0.0054191029729999994,0.04115226337321305,0
-0.005418766973,-0.658436213990497,0
-0.005418430973,-0.6995884773662552,0
-0.005418094973,1.0699588477366255,0
-0.005417758973,3.292181069958848,0
-0.005417422973,4.320987654320987,0
-0.005417086973,4.279835390946502,0
-0.005416750973,3.374485596707819,0
-0.005416414973,0.823045267489712,0
-0.0054160789729999995,-3.333333333334756,0
-0.0054157429729999994,-4.115226337448485,0
-0.005415406973,-4.074074074074149,0
-0.005415070973,-4.11522633744856,0
-0.005414734973,-4.11522633744856,0
-0.005414398973,-4.032921810699588,0
-0.005414062973,-1.2757201646090535,0
-0.005413726973,0.7407407407407407,0
-0.005413390973,2.42798353909465,0
-0.005413054973,3.0864197530864197,0
-0.0054127189729999995,2.3045267489706696,0
-0.0054123829729999995,2.0164609053488958,0
-0.005412046973,1.5226337448568654,0
-0.005411710973,1.5637860082304527,0
-0.005411374973,1.3991769547325104,0
-0.005411038973,0.9465020576131687,0
-0.005410702973,0.6584362139917695,0
-0.005410366973,0.205761316872428,0
-0.005410030973,-0.37037037037037035,0
-0.005409694973,-1.0699588477366255,0
-0.0054093589729999995,-1.358024691355854,0
-0.0054090229729999995,-0.16460905349247792,0
-0.005408686973,2.839506172834042,0
-0.005408350973,4.11522633744856,0
-0.005408014973,1.1522633744855968,0
-0.005407678973,-3.3333333333333335,0
-0.005407342973,-4.11522633744856,0
-0.005407006973,-4.11522633744856,0
-0.005406670973,-4.773662551440329,0
-0.005406334973,-3.8271604938271606,0
-0.0054059989729999995,0.0411522633744856,0
-0.0054056629729999995,2.8395061728419764,0
-0.005405326973,4.197530864195061,0
-0.005404990973,4.320987654320763,0
-0.005404654973,4.279835390946502,0
-0.005404318973,3.3333333333333335,0
-0.005403982973,1.316872427983539,0
-0.005403646973,-0.411522633744856,0
-0.005403310973,-1.2757201646090535,0
-0.005402974973,-1.316872427983539,0
-0.0054026389729999996,-0.8641975308641975,0
-0.0054023029729999995,-0.4938271604932283,0
-0.005401966973,-0.16460905349854127,0
-0.005401630973,-2.994271497414047e-13,0
-0.005401294973,-0.12345679012345678,0
-0.005400958973,-0.6172839506172839,0
-0.005400622973,-1.0699588477366255,0
-0.005400286973,-0.9053497942386831,0
-0.005399950973,-0.3292181069958848,0
-0.005399614973,0.24691358024691357,0
-0.0053992789729999996,0.6172839506172839,0
-0.0053989429729999995,0.8641975308636735,0
-0.005398606973,0.5761316872433224,0
-0.005398270973,0.4115226337451554,0
-0.005397934973,-0.5349794238683128,0
-0.005397598973,-0.6172839506172839,0
-0.005397262973,0.9053497942386831,0
-0.005396926973,2.921810699588477,0
-0.005396590973,4.444444444444445,0
-0.005396254973,4.362139917695473,0
-0.0053959189729999996,4.197530864197531,0
-0.0053955829729999995,1.646090534972088,0
-0.005395246973,-2.386831275712829,0
-0.005394910973,-4.074074074071005,0
-0.005394574973,-4.11522633744856,0
-0.005394238973,-4.074074074074074,0
-0.005393902973,-4.11522633744856,0
-0.005393566973,-4.032921810699588,0
-0.005393230973,-1.6872427983539096,0
-0.005392894973,0.9876543209876543,0
-0.005392558973,2.5925925925925926,0
-0.0053922229729999995,3.0864197530855964,0
-0.005391886973,2.6337448559679015,0
-0.005391550973,1.9341563786020957,0
-0.005391214973,1.5637860082304527,0
-0.005390878973,1.3580246913580247,0
-0.005390542973,1.1934156378600822,0
-0.005390206973,0.9053497942386831,0
-0.005389870973,0.5761316872427984,0
-0.005389534973,0.2880658436213992,0
-0.005389198973,-0.1646090534979424,0
-0.0053888629729999995,-0.9053497942394316,0
-0.005388526973,-1.3168724279827906,0
-0.005388190973,-0.2469135802488598,0
-0.005387854973,2.757201646090535,0
-0.005387518973,4.032921810699588,0
-0.005387182973,1.1111111111111112,0
-0.005386846973,-3.7448559670781894,0
-0.005386510973,-3.580246913580247,0
-0.005386174973,-3.6213991769547325,0
-0.005385838973,-4.156378600823046,0
-0.0053855029729999995,-3.497942386825811,0
-0.005385166973,-0.49382716049929165,0
-0.005384830973,2.510288065838157,0
-0.005384494973,4.032921810699588,0
-0.005384158973,4.567901234567901,0
-0.005383822973,4.032921810699588,0
-0.005383486973,3.580246913580247,0
-0.005383150973,1.9341563786008231,0
-0.005382814973,0.2880658436213992,0
-0.005382478973,-1.02880658436214,0
-0.0053821429729999995,-1.7695473251023566,0
-0.005381806973,-1.4814814814820054,0
-0.005381470973,-0.9465020576141419,0
-0.005381134973,-0.411522633744856,0
-0.005380798973,-0.0823045267489712,0
-0.005380462973,0.12345679012345678,0
-0.005380126973,0.1646090534979424,0
-0.005379790973,-0.3292181069958848,0
-0.005379454973,-0.7818930041152263,0
-0.005379118973,-0.8641975308641975,0
-0.0053787829729999995,-0.49382716049277914,0
-0.005378446973,0.08230452674792321,0
-0.005378110973,0.49382716049307857,0
-0.005377774973,0.6584362139917695,0
-0.005377438973,0.6995884773662552,0
-0.005377102973,0.411522633744856,0
-0.005376766973,-0.45267489711934156,0
-0.005376430973,0.8641975308641975,0
-0.005376094973,3.1275720164609053,0
-0.005375758973,3.662551440329218,0
-0.0053754229729999995,3.7860082304519262,0
-0.005375086972999999,3.3744855967044507,0
-0.005374750973,1.5226337448593354,0
-0.005374414973,-2.05761316872428,0
-0.005374078973,-4.11522633744856,0
-0.005373742973,-4.074074074074074,0
-0.005373406973,-4.11522633744856,0
-0.005373070973,-4.11522633744856,0
-0.005372734973,-4.032921810699588,0
-0.005372398973,-1.728395061728395,0
-0.0053720629729999995,0.8641975308666677,0
-0.005371726972999999,2.222222222223869,0
-0.005371390973,3.1275720164592586,0
-0.005371054973,3.2098765432098766,0
-0.005370718973,2.42798353909465,0
-0.005370382973,1.316872427983539,0
-0.005370046973,1.1934156378600822,0
-0.005369710973,0.6584362139917695,0
-0.005369374973,0.9053497942386831,0
-0.005369038973,0.5761316872427984,0
-0.0053687029729999995,0.41152263374440684,0
-0.005368366972999999,0.16460905349711896,0
-0.005368030973,-0.28806584362057586,0
-0.005367694973,-0.7818930041152263,0
-0.005367358973,-0.45267489711934156,0
-0.005367022973,2.1810699588477367,0
-0.005366686973,3.2098765432098766,0
-0.005366350973,0.24691358024691357,0
-0.005366014973,-2.633744855967078,0
-0.005365678973,-4.074074074074074,0
-0.0053653429729999995,-4.074074074074074,0
-0.0053650069729999994,-4.074074074072802,0
-0.005364670973,-3.374485596709092,0
-0.005364334973,-0.5349794238683128,0
-0.005363998973,2.139917695473251,0
-0.005363662973,3.9917695473251027,0
-0.005363326973,4.279835390946502,0
-0.005362990973,4.238683127572016,0
-0.005362654973,3.539094650205761,0
-0.005362318973,2.345679012345679,0
-0.0053619829729999995,1.0699588477340805,0
-0.0053616469729999994,-0.3292181069981304,0
-0.005361310973,-1.563786008228207,0
-0.005360974973,-2.139917695473251,0
-0.005360638973,-1.8518518518518519,0
-0.005360302973,-1.1111111111111112,0
-0.005359966973,-0.37037037037037035,0
-0.005359630973,0.205761316872428,0
-0.005359294973,0.49382716049382713,0
-0.005358958973,0.5349794238683128,0
-0.0053586229729999995,-1.1976884961618808e-12,0
-0.0053582869729999994,-0.6584362139922186,0
-0.005357950973,-0.905349794238234,0
-0.005357614973,-0.5761316872427984,0
-0.005357278973,-0.0411522633744856,0
-0.005356942973,0.37037037037037035,0
-0.005356606973,0.12345679012345678,0
-0.005356270973,0.7407407407407407,0
-0.005355934973,1.2757201646090535,0
-0.005355598973,1.1522633744855968,0
-0.0053552629729999995,3.0041152263379725,0
-0.0053549269729999995,3.292181069959222,0
-0.005354590973,3.497942386830901,0
-0.005354254973,3.0864197530864197,0
-0.005353918973,1.440329218106996,0
-0.005353582973,-1.8106995884773662,0
-0.005353246973,-4.11522633744856,0
-0.005352910973,-4.11522633744856,0
-0.005352574973,-4.074074074074074,0
-0.005352238973,-4.156378600823046,0
-0.0053519029729999995,-4.074074074070406,0
-0.0053515669729999995,-2.0576131687192647,0
-0.005351230973,0.6995884773612402,0
-0.005350894973,1.8930041152263375,0
-0.005350558973,2.880658436213992,0
-0.005350222973,3.580246913580247,0
-0.005349886973,3.3333333333333335,0
-0.005349550973,2.1810699588477367,0
-0.005349214973,0.8641975308641975,0
-0.005348878973,0.1646090534979424,0
-0.0053485429729999995,0.0411522633744856,0
-0.0053482069729999995,0.1234567901236065,0
-0.005347870973,0.20576131687227828,0
-0.005347534973,0.205761316872428,0
-0.005347198973,0.205761316872428,0
-0.005346862973,0.0411522633744856,0
-0.005346526973,0.6584362139917695,0
-0.005346190973,2.5925925925925926,0
-0.005345854973,3.292181069958848,0
-0.005345518973,0.24691358024691357,0
-0.0053451829729999996,-3.786008230452675,0
-0.0053448469729999995,-4.074074074074149,0
-0.005344510973,-4.115226337448485,0
-0.005344174973,-4.032921810699738,0
-0.005343838973,-2.7160493827160495,0
-0.005343502973,0.3292181069958848,0
-0.005343166973,2.7160493827160495,0
-0.005342830973,3.7037037037037037,0
-0.005342494973,3.8271604938271606,0
-0.005342158973,3.539094650205761,0
-0.0053418229729999996,2.880658436213992,0
-0.0053414869729999995,1.728395061727871,0
-0.005341150973,1.44032921810752,0
-0.005340814973,0.1646090535002629,0
-0.005340478973,-0.6172839506172839,0
-0.005340142973,-1.6049382716049383,0
-0.005339806973,-1.9341563786008231,0
-0.005339470973,-1.5637860082304527,0
-0.005339134973,-0.9465020576131687,0
-0.005338798973,-0.1646090534979424,0
-0.0053384629729999996,0.24691358024691357,0
-0.0053381269729999995,0.49382716049397685,0
-0.005337790973,0.5761316872426487,0
-0.005337454973,0.08230452674986949,0
-0.005337118973,-0.45267489711934156,0
-0.005336782973,-0.7407407407407407,0
-0.005336446973,-0.49382716049382713,0
-0.005336110973,-0.2880658436213992,0
-0.005335774973,0.3292181069958848,0
-0.005335438973,0.49382716049382713,0
-0.005335102973,0.8641975308641975,0
-0.0053347669729999995,2.3868312757219607,0
-0.005334430973,3.3744855967060223,0
