log/GE1.csv

#Digilent WaveForms Oscilloscope Acquisition
#Device Name: ADP5250-323F81C
#Serial Number: SN:323F81C
#Date Time: 2023-03-03 13:49:56.635.520.399
#Sample rate: 504032Hz
#Samples: 32768
#Trigger: Source: Channel 1 Type: Edge Condition: Rising Level: 0 V Hyst.: Auto
#Channel 1: Range: 1 V/div Offset: 0 V Attenuation: 1 X Coupling: DC Bandwidth: Full Sample Mode: Average
#Channel 2: Range: 200 mV/div Offset: 0 V Attenuation: 1 X Coupling: DC Bandwidth: Full

Time (s),Channel 1 (V),Channel 2 (V)
-0.032505260721,4.279835390946502,0
-0.032503276721,-4.0740740740588794,0
-0.032501292721,3.374485596707819,0
-0.032499308721,1.2345679012384605,0
-0.032497324721,1.440329218106996,0
-0.032495340721,0.45267489712113806,0
-0.032493356721,-3.8683127572016462,0
-0.032491372721,3.497942386817876,0
-0.032489388721,-4.11522633744856,0
-0.032487404721,4.320987654305641,0
-0.032485420721,-3.9917695473251027,0
-0.032483436721,3.909465020561759,0
-0.032481452721,-4.032921810699588,0
-0.032479468721,4.279835390931381,0
-0.032477484721,-4.074074074074074,0
-0.032475500721,0.8230452674808042,0
-0.032473516721,4.197530864197531,0
-0.032471532721,-2.1399176954617234,0
-0.032469548721,2.7983539094650207,0
-0.032467564721,-4.115226337435985,0
-0.032465580721,3.251028806584362,0
-0.032463596721,-4.1152263374351605,0
-0.032461612721,4.320987654320987,0
-0.032459628721,-4.074074074058803,0
-0.032457644721,3.1275720164609053,0
-0.032455660721,-0.8230452674825255,0
-0.032453676721,4.279835390946502,0
-0.032451692721,-3.744855967063593,0
-0.032449708721,-0.6995884773662552,0
-0.032447724721,4.320987654311855,0
-0.032445740720999997,-4.11522633744856,0
-0.032443756721,4.320987654305641,0
-0.032441772720999996,-4.032921810699588,0
-0.032439788721,2.757201646078184,0
-0.032437804720999996,-4.11522633744856,0
-0.032435820721,4.320987654305641,0
-0.032433836720999996,-4.074074074074074,0
-0.032431852721,3.0452674896989844,0
-0.032429868720999996,2.880658436213992,0
-0.032427884721,-0.49382716048768893,0
-0.032425900720999996,0.7407407407407407,0
-0.032423916721,-3.3744855967003335,0
-0.032421932720999996,2.4691358024691357,0
-0.032419948721,-4.115226337436583,0
-0.032417964720999996,4.320987654320987,0
-0.032415980721,-4.115226337433214,0
-0.032413996720999996,3.786008230452675,0
-0.032412012721,-3.8271604938133126,0
-0.032410028720999996,4.320987654320987,0
-0.032408044721,-4.115226337433214,0
-0.032406060720999996,1.6049382716049383,0
-0.032404076721,3.086419753083725,0
-0.032402092720999996,-1.522633744855967,0
-0.032400108721,3.0041152263292137,0
-0.032398124720999996,-4.279835390946502,0
-0.032396140721,2.7572016460777347,0
-0.032394156720999996,-4.074074074074074,0
-0.032392172721,4.279835390931307,0
-0.032390188720999996,-4.074074074074074,0
-0.032388204721,4.032921810684842,0
-0.032386220720999996,-1.440329218106996,0
-0.032384236721,3.8271604938271606,0
-0.032382252720999996,-3.0864197530864197,0
-0.032380268721,-1.316872427983539,0
-0.032378284720999996,3.7037037037037037,0
-0.032376300721,-3.8271604938271606,0
-0.032374316720999996,4.279835390946502,0
-0.032372332721,-4.11522633744856,0
-0.032370348720999996,4.197530864197531,0
-0.032368364721,-4.444444444444445,0
-0.032366380720999996,4.320987654320987,0
-0.032364396721,-4.074074074074074,0
-0.032362412720999996,2.674897119340291,0
-0.032360428721,1.9753086419753085,0
-0.032358444720999996,1.1522633744840247,0
-0.032356460721,0.2880658436213992,0
-0.032354476720999996,-3.9094650205621337,0
-0.032352492721,3.786008230452675,0
-0.032350508720999996,-4.115226337432765,0
-0.032348524721,4.567901234567901,0
-0.032346540720999996,-4.115226337433663,0
-0.032344556721,4.074074074074074,0
-0.032342572720999996,-4.074074074058579,0
-0.032340588721,4.444444444444445,0
-0.032338604720999996,-3.662551440321358,0
-0.032336620721,0.6584362139917695,0
-0.032334636720999996,4.279835390934151,0
-0.032332652721,-2.5102880658436213,0
-0.032330668720999996,2.757201646077136,0
-0.032328684721,-4.609053497942387,0
-0.032326700720999996,3.374485596694345,0
-0.032324716721,-4.032921810699588,0
-0.032322732720999996,4.279835390931306,0
-0.032320748721,-4.074074074074074,0
-0.032318764720999996,3.86831275719446,0
-0.032316780721,-0.0823045267489712,0
-0.032314796720999996,3.580246913567222,0
-0.032312812721,-3.580246913580247,0
-0.032310828720999996,-0.45267489711178116,0
-0.032308844721,3.7037037037037037,0
-0.032306860720999996,-4.074074074058804,0
-0.032304876721,4.320987654320987,0
-0.032302892720999996,-4.115226337436957,0
-0.032300908721,2.263374485596708,0
-0.032298924720999996,-4.2386831275565955,0
-0.032296940721,4.238683127572016,0
-0.032294956720999995,-4.032921810685665,0
-0.032292972721,3.6213991769547325,0
-0.032290988720999995,2.839506172833593,0
-0.032289004721,-0.411522633744856,0
-0.032287020720999995,0.8230452674821516,0
-0.032285036721,-3.3333333333333335,0
-0.032283052720999995,1.8930041152155583,0
-0.032281068721,-4.032921810699588,0
-0.032279084720999995,4.320987654305717,0
-0.032277100721,-4.074074074074074,0
-0.032275116720999995,3.621399176941034,0
-0.032273132721,-3.909465020576132,0
-0.032271148720999995,4.279835390931681,0
-0.032269164721,-3.8683127572016462,0
-0.032267180720999995,1.399176954735804,0
-0.032265196721,3.2098765432098766,0
-0.032263212720999995,-1.8930041152170554,0
-0.032261228721,3.2098765432098766,0
-0.032259244720999995,-4.115226337435909,0
-0.032257260721,2.8395061728395063,0
-0.032255276720999995,-4.074074074058879,0
-0.032253292721,4.279835390946502,0
-0.032251308720999995,-4.074074074059178,0
-0.032249324721,4.11522633744856,0
-0.032247340720999995,-1.4403292180974145,0
-0.032245356721,3.8271604938271606,0
-0.032243372720999995,-2.633744855965506,0
-0.032241388721,-1.7695473251028806,0
-0.032239404720999995,3.7860082304386022,0
-0.032237420721,-3.950617283950617,0
-0.032235436720999995,4.320987654305642,0
-0.032233452721,-4.11522633744856,0
-0.032231468720999995,3.6625514403151453,0
-0.032229484721,-4.074074074074074,0
-0.032227500720999995,4.279835390931756,0
-0.032225516721,-3.8271604938271606,0
-0.032223532720999995,2.345679012346278,0
-0.032221548721,2.674897119341564,0
-0.032219564720999995,0.3703703703705949,0
-0.032217580721,0.49382716049382713,0
-0.032215596720999995,-3.868312757188247,0
-0.032213612721,3.4979423868312756,0
-0.032211628720999995,-4.074074074058879,0
-0.032209644721,4.279835390946502,0
-0.032207660720999995,-4.115226337434787,0
-0.032205676721,3.45679012345679,0
-0.032203692720999995,-4.074074074058879,0
-0.032201708721,4.279835390946502,0
-0.032199724720999995,-4.074074074065091,0
-0.032197740721,0.8641975308641975,0
-0.032195756720999995,4.444444444430297,0
-0.032193772721,-3.3333333333333335,0
-0.032191788720999995,3.209876543196552,0
-0.032189804721,-4.11522633744856,0
-0.032187820720999995,2.6748971193292874,0
-0.032185836721,-4.074074074074074,0
-0.032183852720999995,4.320987654305343,0
-0.032181868721,-4.279835390946502,0
-0.032179884720999995,3.4567901234496787,0
-0.032177900721,-0.45267489711934156,0
-0.032175916720999995,3.251028806574107,0
-0.032173932721,-2.3868312757201644,0
-0.032171948720999995,-1.069958847728167,0
-0.032169964721,3.580246913580247,0
-0.032167980720999995,-4.320987654305118,0
-0.032165996721,4.403292181069959,0
-0.032164012720999995,-4.115226337436209,0
-0.032162028721,2.674897119341564,0
-0.032160044720999995,-4.074074074058804,0
-0.032158060721,4.320987654320987,0
-0.032156076720999995,-4.1152263374341125,0
-0.032154092721,3.8271604938271606,0
-0.032152108720999995,2.181069958843919,0
-0.032150124721,0.0823045267489712,0
-0.032148140720999994,0.6584362139835355,0
-0.032146156721,-3.8683127572016462,0
-0.032144172720999994,2.5514403292060552,0
-0.032142188721,-4.074074074074074,0
-0.032140204720999994,4.320987654305492,0
-0.032138220721,-4.197530864197531,0
-0.032136236720999994,4.279835390931381,0
-0.032134252721,-4.032921810699588,0
-0.032132268720999994,4.320987654305717,0
-0.032130284721,-4.074074074074074,0
-0.032128300720999994,1.3991769547360287,0
-0.032126316721,3.3333333333333335,0
-0.032124332720999994,-1.4814814814727233,0
-0.032122348721,3.3333333333333335,0
-0.032120364720999994,-4.074074074061199,0
-0.032118380721,3.0041152263374484,0
-0.032116396721,-4.074074074061199,0
-0.032114412721,4.320987654320987,0
-0.032112428721,-4.115226337433214,0
-0.032110444721,3.580246913580247,0
-0.032108460721,-1.111111111102577,0
-0.032106476721,4.320987654320987,0
-0.032104492721,-3.045267489698535,0
-0.032102508721,-1.8106995884773662,0
-0.032100524721,4.279835390935424,0
-0.032098540721,-4.403292181069959,0
-0.032096556721,4.320987654305116,0
-0.032094572721,-3.950617283950617,0
-0.032092588721,3.621399176940959,0
-0.032090604721,-4.074074074074074,0
-0.032088620721,4.609053497926592,0
-0.032086636721,-4.074074074074074,0
-0.032084652721,2.3868312757084116,0
-0.032082668721,2.962962962962963,0
-0.032080684721,0.370370370375086,0
-0.032078700721,0.6995884773662552,0
-0.032076716721,-3.8271604938189263,0
-0.032074732721,3.580246913580247,0
-0.032072748721,-4.074074074060151,0
-0.032070764721,4.320987654320987,0
-0.032068780721,-4.485596707802911,0
-0.032066796721,3.168724279835391,0
-0.032064812721,-2.4279835390844693,0
-0.032062828721,3.0864197530864197,0
-0.032060844721,-0.41152263373849296,0
-0.032058860721,2.05761316872428,0
-0.032056876721,0.32921810699902876,0
-0.032054892721,-4.074074074074074,0
-0.032052908721,3.086419753073394,0
-0.032050924721,0.5761316872427984,0
-0.032048940721,-1.6049382716009708,0
-0.032046956721,-0.5349794238683128,0
-0.032044972721,2.9629629629566,0
-0.032042988721,-1.5637860082304527,0
-0.032041004721,2.674897119333854,0
-0.032039020721,-0.5761316872427984,0
-0.032037036721,3.703703703695919,0
-0.032035052721,-3.9917695473251027,0
-0.032033068721,1.646090534969169,0
-0.032031084721,0.37037037037037035,0
-0.032029100721,0.45267489711919184,0
-0.032027116721,0.1646090534979424,0
-0.032025132721,0.2880658436211746,0
-0.032023148721,-4.238683127572016,0
-0.032021164721,4.320987654305418,0
-0.032019180721,-0.823045267489712,0
-0.032017196721,1.7695473250981648,0
-0.032015212721,-1.02880658436214,0
-0.032013228721,-4.032921810694123,0
-0.032011244721,3.539094650205761,0
-0.032009260721,-0.8230452674817772,0
-0.032007276721,-0.49382716049382713,0
-0.032005292721,0.7407407407384949,0
-0.032003308721,1.5637860082304527,0
-0.032001324721,-1.2345679012294775,0
-0.031999340721,3.539094650205761,0
-0.031997356721,-1.2345679012258848,0
-0.031995372721,3.580246913580247,0
-0.031993388721,-4.197530864183383,0
-0.031991404721,1.440329218106996,0
-0.031989420721,1.0699588477372992,0
-0.031987436721,0.205761316872428,0
-0.031985452721,-0.45267489711814385,0
-0.031983468721,0.9053497942386831,0
-0.031981484721,-4.074074074065017,0
-0.031979500721,4.773662551440329,0
-0.031977516721,-1.1111111111004073,0
-0.031975532721,1.4814814814814814,0
-0.031973548721,-1.193415637855217,0
-0.031971564721,-3.9917695473251027,0
-0.031969580721,3.5802469135664734,0
-0.031967596721,-0.9465020576131687,0
-0.031965612721,-1.7216228442862302e-12,0
-0.031963628721,0.6172839506172839,0
-0.031961644721,0.9053497942381592,0
-0.031959660721,-0.7407407407407407,0
-0.031957676721,3.0041152263306365,0
-0.031955692721,-2.139917695473251,0
-0.031953708721,4.320987654309235,0
-0.031951724721,-4.074074074074074,0
-0.031949740721,1.8106995884666617,0
-0.031947756721,1.522633744855967,0
-0.031945772721,-0.08230452674605182,0
-0.031943788721,-0.9053497942386831,0
-0.031941804721,1.6872427983491938,0
-0.031939820720999997,-4.11522633744856,0
-0.031937836721,4.19753086418241,0
-0.031935852720999997,0,0
-0.031933868721,1.6049382716020189,0
-0.031931884720999996,-2.05761316872428,0
-0.031929900721,-3.9506172839471736,0
-0.031927916720999996,3.3333333333333335,0
-0.031925932721,-1.3168724279750799,0
-0.031923948720999996,0.49382716049382713,0
-0.031921964721,-0.08230452674792321,0
-0.031919980720999996,1.440329218106996,0
-0.031917996721,-0.7818930041111842,0
-0.031916012720999996,2.42798353909465,0
-0.031914028721,-1.4403292180999592,0
-0.031912044720999996,4.320987654320987,0
-0.031910060721,-4.074074074058803,0
-0.031908076720999996,2.016460905349794,0
-0.031906092721,1.893004115226562,0
-0.031904108720999996,-1.2345679012345678,0
-0.031902124721,0.04115226337216504,0
-0.031900140720999996,1.6872427983539096,0
-0.031898156721,-4.032921810689183,0
-0.031896172720999996,4.320987654320987,0
-0.031894188721,0.32921810700314547,0
-0.031892204720999996,-0.0823045267489712,0
-0.031890220721,-0.740740740739543,0
-0.031888236720999996,-4.279835390946502,0
-0.031886252721,2.5925925925800914,0
-0.031884268720999996,-0.37037037037037035,0
-0.031882284721,0.370370370369023,0
-0.031880300720999996,-0.6584362139917695,0
-0.031878316721,2.8395061728331434,0
-0.031876332720999996,-0.9876543209876543,0
-0.031874348721,2.016460905349794,0
-0.031872364720999996,-0.6995884773662552,0
-0.031870380721,4.320987654320987,0
-0.031868396720999996,-4.403292181069959,0
-0.031866412721,2.0987654320987654,0
-0.031864428720999996,1.7695473251028806,0
-0.031862444721,-1.6872427983539096,0
-0.031860460720999996,0.5349794238683128,0
-0.031858476721,1.5637860082304527,0
-0.031856492720999996,-4.11522633744856,0
-0.031854508721,4.279835390946502,0
-0.031852524720999996,-0.08230452674889634,0
-0.031850540721,-0.0411522633744856,0
-0.031848556720999996,0.0411522633670749,0
-0.031846572721,-4.032921810699588,0
-0.031844588720999996,2.9218106995839856,0
-0.031842604721,0.45267489711934156,0
-0.031840620720999996,-0.8641975308635238,0
-0.031838636721,-0.49382716049382713,0
-0.031836652720999996,2.7572016460835735,0
-0.031834668721,-1.0699588477366255,0
-0.031832684720999996,2.9629629629569743,0
-0.031830700721,-0.3292181069958848,0
-0.031828716720999996,3.8271604938127135,0
-0.031826732721,-4.11522633744856,0
-0.031824748720999996,2.0576131687218844,0
-0.031822764721,0.7407407407407407,0
-0.031820780720999996,-0.6995884773639347,0
-0.031818796721,0.5761316872427984,0
-0.031816812720999996,0.7407407407319826,0
-0.031814828721,-4.074074074074074,0
-0.031812844720999996,4.279835390936846,0
-0.031810860721,-1.02880658436214,0
-0.031808876720999996,0.8641975308621764,0
-0.031806892721,-0.24691358024691357,0
-0.031804908720999996,-3.6625514403165673,0
-0.031802924721,3.292181069958848,0
-0.031800940720999996,0.3292181069942379,0
-0.031798956721,-0.5761316872427984,0
-0.031796972720999996,0.7407407407432858,0
-0.031794988721,2.139917695473251,0
-0.031793004720999996,-1.3991769547237523,0
-0.031791020721,3.4156378600823047,0
-0.031789036720999996,-1.1934156378518481,0
-0.031787052721,3.3333333333333335,0
-0.031785068720999995,-4.074074074063669,0
-0.031783084721,1.646090534979424,0
-0.031781100720999995,0.3703703703699212,0
-0.031779116721,0.12345679012345678,0
-0.031777132720999995,-0.20576131687078117,0
-0.031775148721,0.6995884773662552,0
-0.031773164720999995,-4.115226337433364,0
-0.031771180721,4.238683127572016,0
-0.031769196720999995,-0.7407407407361745,1.497110620202351e-14
-0.031767212721,1.7695473251028806,0.00823045267489712
-0.031765228720999995,-0.45267489712592884,0
-0.031763244721,-4.074074074074074,0
-0.031761260720999995,3.7037037036960685,0
-0.031759276721,-0.49382716049382713,0
-0.031757292720999995,-0.6995884773637849,0
-0.031755308721,0.6584362139917695,0
-0.031753324720999995,1.6049382715998481,0
-0.031751340721,-1.1934156378600822,0
-0.031749356720999995,3.497942386820796,0
-0.031747372721,-2.263374485596708,0
-0.031745388720999995,4.362139917680053,0
-0.031743404721,-4.11522633744856,0
-0.031741420720999995,1.358024691358324,0
-0.031739436721,1.522633744855967,0
-0.031737452720999995,0.04115226337291363,0
-0.031735468721,-0.823045267489712,0
-0.031733484720999995,1.481481481471376,0
-0.031731500721,-4.074074074074074,0
-0.031729516720999995,4.115226337441448,0
-0.031727532721,0.205761316872428,0
-0.031725548720999995,1.2757201646039633,0
-0.031723564721,-1.522633744855967,0
-0.031721580720999995,-4.032921810686115,0
-0.031719596721,3.374485596707819,0
-0.031717612720999995,-1.440329218103852,0
-0.031715628721,0.2880658436213992,0
-0.031713644720999995,0.49382716049509967,0
-0.031711660721,1.1934156378600822,0
-0.031709676720999995,-0.8230452674831247,0
-0.031707692721,2.7983539094650207,0
-0.031705708720999995,-2.0576131687125274,0
-0.031703724721,4.403292181069959,0
-0.031701740720999995,-4.15637860081294,0
-0.031699756721,1.3991769547325104,0
-0.031697772720999995,1.8930041152221455,0
-0.031695788721,-0.411522633744856,0
-0.031693804720999995,-0.7407407407362494,0
-0.031691820721,1.728395061728395,0
-0.031689836720999995,-3.6213991769406597,0
-0.031687852721,4.11522633744856,0
-0.031685868720999995,0.20576131687220342,0
-0.031683884721,0.0823045267489712,0
-0.031681900720999995,-0.6172839506232723,0
-0.031679916721,-3.909465020576132,0
-0.031677932720999995,2.3045267489666275,0
-0.031675948721,-0.205761316872428,0
-0.031673964720999995,0.4938271604918809,0
-0.031671980721,-0.5761316872427984,0
-0.031669996720999995,2.263374485590645,0
-0.031668012721,-1.0699588477366255,0
-0.031666028720999995,2.222222222215785,0
-0.031664044721,-1.316872427983539,0
-0.031662060720999995,4.320987654306241,0
-0.031660076721,-3.786008230452675,0
-0.031658092720999995,2.5102880658418996,0
-0.031656108721,1.5637860082304527,0
-0.031654124720999995,-1.440329218103328,0
-0.031652140721,0.5761316872427984,0
-0.031650156720999995,1.3991769547230037,0
-0.031648172721,-3.8271604938271606,0
-0.031646188720999995,4.115226337441299,0
-0.031644204721,0.12345679012345678,0
-0.031642220720999994,0.12345679012210939,0
-0.031640236721,-0.6172839506172839,0
-0.031638252720999994,-3.8683127571906426,0
-0.031636268721,2.1810699588477367,0
-0.031634284720999994,0.411522633744332,0
-0.031632300721,0.12345679012345678,0
-0.031630316720999994,-0.781893004108639,0
-0.031628332721,2.8395061728395063,0
-0.031626348720999994,-1.358024691351662,0
-0.031624364721,2.139917695473251,0
-0.031622380720999994,-0.5349794238594798,0
-0.031620396721,4.320987654320987,0
-0.031618412720999994,-3.580246913570216,0
-0.031616428721,1.9341563786008231,0
-0.031614444720999994,1.358024691353234,0
-0.031612460721,-1.2757201646090535,0
-0.031610476720999994,0.7407407407393933,0
-0.031608492721,0,0
-0.031606508721,-4.115226337441074,0
-0.031604524721,4.279835390946502,0
-0.031602540721,-1.4814814814710013,0
-0.031600556721,1.2757201646090535,0
-0.031598572721,-0.08230452674650102,0
-0.031596588721,-4.074074074074074,0
-0.031594604721,3.168724279822217,0
-0.031592620721,0.205761316872428,0
-0.031590636721,-0.946502057611073,0
-0.031588652721,0.1646090534979424,0
-0.031586668721,2.6748971193369977,0
-0.031584684721,-1.8106995884773662,0
-0.031582700721,3.7448559670680837,0
-0.031580716721,-0.7407407407407407,0
-0.031578732721,3.045267489705047,0
-0.031576748721,-4.11522633744856,0
-0.031574764721,1.6872427983433553,0
-0.031572780721,0.0411522633744856,0
-0.031570796721,0.20576131687212856,0
-0.031568812721,0.6172839506172839,0
-0.031566828721,0.08230452674994426,0
-0.031564844721,-4.074074074074074,0
-0.031562860721,4.238683127556895,0
-0.031560876721,-1.1934156378600822,0
-0.031558892721,3.86831275719244,0
-0.031556908721,-4.197530864197531,0
-0.031554924721,2.7572016460778848,0
-0.031552940721,-4.074074074074074,0
-0.031550956721,4.279835390931307,0
-0.031548972721,-3.539094650205761,0
-0.031546988721,2.8395061728279045,0
-0.031545004721,4.074074074074074,0
-0.031543020721,-2.3045267489595913,0
-0.031541036721,2.42798353909465,0
-0.031539052721,-4.23868312755989,0
-0.031537068721,1.7695473251028806,0
-0.031535084721,-4.115226337437855,0
-0.031533100721,4.279835390946502,0
-0.031531116721,-4.0740740740588794,0
-0.031529132721,4.11522633744856,0
-0.031527148721,-2.3456790123339264,0
-0.031525164721,4.362139917695473,0
-0.031523180721,-3.6625514403146218,0
-0.031521196721,-0.37037037037037035,0
-0.031519212721,3.0452674897057213,0
-0.031517228721,-3.045267489711934,0
-0.031515244721,4.526748971179643,0
