log/GE2.csv

#Digilent WaveForms Oscilloscope Acquisition
#Device Name: ADP5250-323F81C
#Serial Number: SN:323F81C
#Date Time: 2023-03-03 13:49:56.827.683.299
#Sample rate: 504032Hz
#Samples: 32768
#Trigger: Source: Channel 1 Type: Edge Condition: Rising Level: 0 V Hyst.: Auto
#Channel 1: Range: 1 V/div Offset: 0 V Attenuation: 1 X Coupling: DC Bandwidth: Full Sample Mode: Average
#Channel 2: Range: 200 mV/div Offset: 0 V Attenuation: 1 X Coupling: DC Bandwidth: Full

Time (s),Channel 1 (V),Channel 2 (V)
-0.03250427552,-1.6049382716049383,0
-0.032502291520000004,2.0987654320920286,0
-0.03250030752,-1.1111111111111112,0
-0.032498323520000004,-3.9094650205710417,0
-0.03249633952,3.580246913580247,0
-0.032494355520000004,-0.6584362139840589,0
-0.03249237152,-0.37037037037037035,0
-0.032490387520000004,1.481481481478113,0
-0.03248840352,-4.11522633744856,0
-0.032486419520000004,4.19753086418241,0
-0.03248443552,0.2880658436213992,0
-0.032482451520000004,-0.8230452674876909,0
-0.03248046752,4.197530864197531,0
-0.032478483520000004,-4.115226337433438,0
-0.03247649952,1.4814814814814814,0
-0.032474515520000004,1.0288065843629632,0
-0.03247253152,0.0823045267489712,0
-0.032470547520000004,-0.8641975308624759,0
-0.03246856352,3.45679012345679,0
-0.032466579520000004,-1.7695473250933733,0
-0.03246459552,2.2222222222222223,0
-0.032462611520000004,-0.28806584361683285,0
-0.03246062752,1.3580246913580247,0
-0.032458643520000004,-1.193415637855441,0
-0.03245665952,-3.6213991769547325,0
-0.032454675520000004,2.9218106995765756,0
-0.03245269152,-0.9876543209876543,0
-0.032450707520000004,0.6172839506143646,0
-0.03244872352,0.37037037037037035,0
-0.032446739520000004,-3.991769547317168,0
-0.03244475552,4.238683127572016,0
-0.032442771520000004,-0.4526748971108079,0
-0.03244078752,-1.440329218106996,0
-0.032438803520000004,4.320987654310508,0
-0.03243681952,-4.11522633744856,0
-0.032434835520000004,2.386831275708337,0
-0.03243285152,-3.786008230452675,0
-0.032430867520000004,4.115226337434187,0
-0.03242888352,-2.5925925925925926,0
-0.032426899520000003,-1.069958847739395,0
-0.03242491552,3.662551440329218,0
-0.03242293152,-0.7407407407327309,0
-0.03242094752,4.279835390946502,0
-0.03241896352,-4.279835390930932,0
-0.03241697952,3.0864197530864197,0
-0.03241499552,-4.074074074061048,0
-0.03241301152,4.279835390946502,0
-0.03241102752,-4.609053497926219,0
-0.03240904352,3.292181069958848,0
-0.03240705952,-2.1810699588377815,0
-0.03240507552,3.045267489711934,0
-0.03240309152,5.539124714459831e-12,0
-0.03240110752,-3.662551440329218,0
-0.03239912352,4.032921810685591,0
-0.03239713952,-2.551440329218107,0
-0.03239515552,4.320987654308485,0
-0.03239317152,-4.11522633744856,0
-0.03239118752,4.4855967078032855,0
-0.03238920352,-4.197530864197531,0
-0.03238721952,4.320987654305493,0
-0.03238523552,-4.032921810699588,0
-0.03238325152,0.411522633744856,0
-0.03238126752,0.823045267489712,0
-0.03237928352,2.42798353909465,0
-0.03237729952,1.9341563786008231,0
-0.03237531552,-4.11522633744856,0
-0.03237333152,4.279835390946502,0
-0.03237134752,-3.580246913580247,0
-0.03236936352,4.320987654320987,0
-0.03236737952,-4.074074074074074,0
-0.03236539552,3.374485596707819,0
-0.03236341152,-4.032921810699588,0
-0.03236142752,4.238683127559216,0
-0.03235944352,-2.7983539094650207,0
-0.03235745952,-2.1399176954614987,0
-0.03235547552,4.320987654320987,0
-0.03235349152,-1.6872427983430556,0
-0.03235150752,4.279835390946502,0
-0.03234952352,-4.115226337434187,0
-0.03234753952,3.786008230452675,0
-0.03234555552,-4.074074074058804,0
-0.03234357152,4.320987654320987,0
-0.03234158752,-4.197530864184955,0
-0.03233960352,2.7160493827160495,0
-0.03233761952,-1.028806584354804,0
-0.03233563552,3.0041152263374484,0
-0.03233365152,0.08230452674081194,0
-0.03233166752,-4.403292181069959,0
-0.03232968352,4.238683127558018,0
-0.03232769952,-3.45679012345679,0
-0.03232571552,4.320987654305717,0
-0.03232373152,-4.074074074074074,0
-0.03232174752,3.703703703689556,0
-0.03231976352,-4.074074074074074,0
-0.03231777952,4.362139917680128,0
-0.03231579552,-4.074074074074074,0
-0.03231381152,1.358024691358923,0
-0.03231182752,1.8518518518518519,0
-0.03230984352,0.9876543209903491,0
-0.03230785952,2.4691358024691357,0
-0.03230587552,-4.115226337436283,0
-0.03230389152,2.633744855967078,0
-0.03230190752,-3.827160493812414,0
-0.03229992352,4.279835390946502,0
-0.03229793952,-4.115226337433739,0
-0.03229595552,4.032921810699588,0
-0.03229397152,-3.950617283936619,0
-0.03229198752,3.7448559670781894,0
-0.03229000352,-2.01646090534942,0
-0.03228801952,-1.8106995884773662,0
-0.03228603552,3.78600823044489,0
-0.03228405152,-0.49382716049382713,0
-0.03228206752,4.320987654305642,0
-0.03228008352,-4.11522633744856,0
-0.03227809952,4.19753086418241,0
-0.03227611552,-4.11522633744856,0
-0.03227413152,4.074074074059328,0
-0.03227214752,-4.032921810699588,0
-0.03227016352,2.7160493827066174,0
-0.03226817952,-2.4691358024691357,0
-0.03226619552,4.115226337440775,0
-0.03226421152,-0.1646090534979424,0
-0.03226222752,-3.991769547310057,0
-0.03226024352,4.279835390946502,0
-0.03225825952,-3.827160493812339,0
-0.03225627552,4.320987654320987,0
-0.03225429152,-4.115226337433888,0
-0.03225230752,3.950617283950617,0
-0.03225032352,-4.1152263374332145,0
-0.03224833952,4.320987654320987,0
-0.03224635552,-3.4979423868246884,0
-0.03224437152,0.12345679012345678,0
-0.03224238752,2.386831275718742,0
-0.03224040352,1.6049382716049383,0
-0.03223841952,1.7695473250921763,0
-0.03223643552,-4.11522633744856,0
-0.03223445152,4.279835390931232,0
-0.03223246752,-4.11522633744856,0
-0.03223048352,4.320987654305642,0
-0.03222849952,-4.11522633744856,0
-0.03222651552,3.1687242798225905,0
-0.03222453152,-3.8683127572016462,0
-0.03222254752,4.279835390933776,0
-0.03222056352,-2.7160493827160495,0
-0.03221857952,-1.3580246913473952,0
-0.03221659552,4.48559670781893,0
-0.03221461152,-1.6460905349684951,0
-0.03221262752,4.362139917695473,0
-0.03221064352,-4.115226337435984,0
-0.03220865952,2.7983539094650207,0
-0.03220667552,-4.074074074058804,0
-0.03220469152,4.320987654320987,0
-0.03220270752,-4.074074074060077,0
-0.03220072352,3.6213991769547325,0
-0.03219873952,-1.3580246913507636,0
-0.03219675552,2.633744855967078,0
-0.03219477152,0.1646090534906814,0
-0.03219278752,-3.8271604938271606,0
-0.03219080352,3.7037037036924003,0
-0.03218881952,-2.5102880658436213,0
-0.03218683552,4.403292181054389,0
-0.03218485152,-4.156378600823046,0
-0.03218286752,4.279835390930633,0
-0.03218088352,-4.444444444444445,0
-0.03217889952,4.320987654305717,0
-0.03217691552,-4.074074074074074,0
-0.03217493152,0.6584362139922186,0
-0.03217294752,0.9053497942386831,0
-0.03217096352,2.716049382714927,0
-0.03216897952,2.0987654320987654,0
-0.03216699552,-4.115226337433289,0
-0.03216501152,4.279835390946502,0
-0.03216302752,-4.032921810684318,0
-0.03216104352,4.362139917695473,0
-0.03215905952,-4.526748971178744,0
-0.03215707552,3.539094650205761,0
-0.03215509152,-4.115226337433289,0
-0.03215310752,4.279835390946502,0
-0.03215112352,-3.251028806582491,0
-0.03214913952,-2.2222222222222223,0
-0.03214715552,4.320987654310508,0
-0.03214517152,-1.440329218106996,0
-0.03214318752,4.279835390932205,0
-0.03214120352,-3.580246913580247,0
-0.03213921952,3.868312757187199,0
-0.03213723552,-4.074074074074074,0
-0.03213525152,4.320987654305717,0
-0.03213326752,-4.074074074074074,0
-0.03213128352,1.6872427983487446,0
-0.03212929952,-1.1522633744855968,0
-0.03212731552,3.7860082304452645,0
-0.03212533152,-0.2880658436213992,0
-0.03212334752,-3.744855967062919,0
-0.03212136352,4.650205761316872,0
-0.03211937952,-3.827160493812339,0
-0.03211739552,4.320987654320987,0
-0.032115411520000005,-4.0329218106843925,0
-0.03211342752,3.0864197530864197,0
-0.032111443520000005,-3.9094650205634056,0
-0.03210945952,4.279835390946502,0
-0.032107475520000005,-4.0740740740588794,0
-0.03210549152,1.1111111111111112,0
-0.032103507520000005,1.8106995884760937,0
-0.03210152352,2.139917695473251,0
-0.032099539520000005,2.1810699588476616,0
-0.03209755552,-4.11522633744856,0
-0.032095571520000005,3.415637860068606,0
-0.03209358752,-3.909465020576132,0
-0.032091603520000005,4.4855967078036585,0
-0.03208961952,-4.11522633744856,0
-0.032087635520000005,3.950617283935946,0
-0.03208565152,-4.032921810699588,0
-0.032083667520000005,4.156378600808149,0
-0.03208168352,-2.1810699588477367,0
-0.032079699520000005,-2.1810699588477367,0
-0.03207771552,3.8271604938271606,0
-0.032075731520000005,-0.3292181069883249,0
-0.03207374752,4.238683127572016,0
-0.032071763520000005,-3.8683127571868985,0
-0.03206977952,4.156378600823046,0
-0.032067795520000004,-4.074074074059102,0
-0.03206581152,4.279835390946502,0
-0.032063827520000004,-4.0740740740588794,0
-0.03206184352,2.4691358024691357,0
-0.032059859520000004,-2.139917695464868,0
-0.03205787552,3.909465020576132,0
-0.032055891520000004,0.041152263381522225,0
-0.03205390752,-4.032921810699588,0
-0.032051923520000004,4.3209876543057915,0
-0.03204993952,-3.292181069958848,0
-0.032047955520000004,4.320987654307139,0
-0.03204597152,-4.074074074074074,0
-0.032043987520000004,3.9506172839360207,0
-0.03204200352,-4.032921810699588,0
-0.032040019520000004,4.279835390931381,0
-0.03203803552,-4.074074074074074,0
-0.032036051520000004,0.2469135802390543,0
-0.03203406752,2.551440329218107,0
-0.032032083520000004,1.5226337448578384,0
-0.03203009952,1.8518518518518519,0
-0.032028115520000004,-4.238683127560938,0
-0.03202613152,4.362139917695473,0
-0.032024147520000004,-4.11522633743314,0
-0.03202216352,4.320987654320987,0
-0.032020179520000004,-4.115226337433214,0
-0.03201819552,3.292181069958848,0
-0.032016211520000004,-3.8683127571886207,0
-0.03201422752,3.909465020576132,0
-0.032012243520000004,-2.181069958836658,0
-0.03201025952,-1.5637860082304527,0
-0.032008275520000004,4.197530864187051,0
-0.03200629152,-1.8518518518518519,0
-0.032004307520000004,4.279835390935348,0
-0.03200232352,-4.11522633744856,0
-0.032000339520000004,2.757201646078034,0
-0.03199835552,-4.074074074074074,0
-0.031996371520000004,4.320987654305716,0
-0.03199438752,-4.11522633744856,0
-0.031992403520000004,3.0864197530733195,0
-0.03199041952,-1.0699588477366255,0
-0.031988435520000004,2.469135802462698,0
-0.03198645152,0.411522633744856,0
-0.031984467520000004,-4.156378600814737,0
-0.03198248352,3.8271604938271606,0
-0.031980499520000004,-3.045267489699433,0
-0.03197851552,4.320987654320987,0
-0.031976531520000004,-4.115226337433214,0
-0.03197454752,4.197530864197531,0
-0.031972563520000004,-4.115226337433438,0
-0.03197057952,4.444444444444445,0
-0.031968595520000004,-4.11522633743299,0
-0.03196661152,0.205761316872428,0
-0.031964627520000004,1.646090534976804,0
-0.03196264352,2.1810699588477367,0
-0.031960659520000004,1.975308641975683,0
-0.03195867552,-4.11522633744856,0
-0.031956691520000004,4.4855967078032855,0
-0.03195470752,-4.238683127572016,0
-0.031952723520000004,4.320987654305418,0
-0.03195073952,-4.074074074074074,0
-0.031948755520000004,3.539094650191913,0
-0.03194677152,-4.074074074074074,0
-0.031944787520000004,4.279835390931307,0
-0.03194280352,-2.5102880658436213,0
-0.031940819520000004,-1.934156378601871,0
-0.03193883552,4.279835390946502,0
-0.031936851520000004,-1.1522633744757158,0
-0.03193486752,4.320987654320987,0
-0.031932883520000004,-4.115226337433214,0
-0.03193089952,3.909465020576132,0
-0.031928915520000004,-1.1934156378507996,0
-0.03192693152,1.1522633744855968,0
-0.031924947520000004,-4.115226337438978,0
-0.03192296352,4.197530864197531,0
-0.031920979520000003,0.04115226338204536,0
-0.03191899552,-0.0823045267489712,0
-0.03191701152,3.9506172839432816,0
-0.03191502752,-4.11522633744856,0
-0.03191304352,1.6872427983433553,0
-0.03191105952,-0.49382716049382713,0
-0.03190907552,0.08230452674792321,0
-0.03190709152,0.411522633744856,0
-0.03190510752,1.563786008228357,0
-0.03190312352,-1.0699588477366255,0
-0.03190113952,3.1275720164532697,0
-0.03189915552,-1.646090534979424,0
-0.03189717152,2.386831275712829,0
-0.03189518752,-1.6049382716049383,0
-0.03189320352,-3.6625514403254753,0
-0.03189121952,3.168724279835391,0
-0.03188923552,-1.234567901226558,0
-0.03188725152,0.12345679012345678,0
-0.03188526752,1.3991769547301898,0
-0.03188328352,-4.279835390946502,0
-0.03188129952,4.567901234551808,0
-0.03187931552,0.0411522633744856,0
-0.03187733152,-1.5637860082275332,0
-0.03187534752,4.279835390946502,0
-0.03187336352,-4.074074074074074,0
-0.03187137952,1.8518518518518519,0
-0.03186939552,1.3580246913580247,0
-0.03186741152,-0.1646090534979424,0
-0.03186542752,-0.7818930041152263,0
-0.03186344352,3.1275720164609053,0
-0.03186145952,-2.2222222222222223,0
-0.03185947552,2.1810699588477367,0
-0.03185749152,-0.411522633744856,0
-0.03185550752,1.522633744855967,0
-0.03185352352,-1.1522633744855968,0
-0.03185153952,-2.7572016460799804,0
-0.03184955552,3.045267489711934,0
-0.03184757152,-1.1111111111081169,0
-0.03184558752,0.5349794238683128,0
-0.03184360352,0.9465020576035872,0
-0.03184161952,-4.320987654320987,0
-0.03183963552,4.156378600813689,0
-0.03183765152,-0.9876543209876543,0
-0.03183566752,-0.5761316872338906,0
-0.03183368352,4.320987654320987,0
-0.03183169952,-4.444444444432094,0
-0.03182971552,2.345679012345679,0
-0.03182773152,1.5226337448515506,0
-0.03182574752,-0.9053497942386831,0
-0.03182376352,-0.041152263369994266,0
-0.03182177952,2.42798353909465,0
-0.03181979552,-1.8930041152166812,0
-0.03181781152,3.4156378600823047,0
-0.03181582752,-0.6172839506150383,0
-0.03181384352,0.6172839506172839,0
-0.03181185952,-0.8230452674945027,0
-0.03180987552,-3.45679012345679,0
-0.03180789152,2.263374485592591,0
-0.03180590752,0,0
-0.03180392352,0.28806584362087523,0
-0.03180193952,0,0
-0.03179995552,-4.115226337433289,0
-0.03179797152,4.279835390946502,0
-0.03179598752,-1.0288065843609422,0
-0.03179400352,-0.37037037037037035,0
-0.03179201952,4.320987654305642,0
-0.03179003552,-4.11522633744856,0
-0.03178805152,2.3868312757176944,0
-0.03178606752,1.02880658436214,0
-0.03178408352,-1.1934156378564142,0
-0.03178209952,0.823045267489712,0
-0.03178011552,2.22222222221556,0
-0.03177813152,-1.440329218106996,0
-0.03177614752,3.662551440319786,0
-0.03177416352,-1.522633744855967,0
-0.03177217952,1.4403292181030287,0
-0.03177019552,-0.7407407407407407,0
-0.03176821152,-3.8271604938149593,0
-0.03176622752,2.880658436213992,0
-0.03176424352,0.32921810699393855,0
-0.03176225952,-0.7407407407407407,0
-0.03176027552,0.6995884773575719,0
-0.03175829152,-4.074074074074074,0
-0.03175630752,4.156378600815186,0
-0.03175432352,-0.1646090534979424,0
-0.03175233952,-0.04115226336700004,0
-0.03175035552,4.074074074074074,0
-0.03174837152,-4.115226337437406,0
-0.03174638752,2.016460905349794,0
-0.03174440352,0.5761316872402533,0
-0.03174241952,-0.823045267489712,0
-0.03174043552,0.8230452674920324,0
-0.03173845152,2.0987654320987654,0
-0.03173646752,-1.687242798344403,0
-0.03173448352,3.539094650205761,0
-0.03173249952,-2.016460905342084,0
-0.03173051552,2.2222222222222223,0
-0.03172853152,-0.7407407407461303,0
-0.03172654752,-3.7037037037037037,0
-0.03172456352,3.703703703696443,0
-0.03172257952,-0.2880658436213992,0
-0.03172059552,-1.1111111111064702,0
-0.03171861152,1.440329218106996,0
-0.03171662752,-4.115226337433739,0
-0.03171464352,4.032921810699588,0
-0.03171265952,0.1234567901224088,0
-0.03171067552,-0.45267489711934156,0
-0.03170869152,3.6625514403151453,0
-0.03170670752,-4.074074074074074,0
-0.03170472352,1.6049382716027676,0
-0.03170273952,0.411522633744856,0
-0.03170075552,0.24691358024623986,0
-0.03169877152,-0.12345679012345678,0
-0.03169678752,2.427983539087539,0
-0.03169480352,-1.4814814814814814,0
-0.03169281952,2.839506172831871,0
-0.03169083552,-1.3580246913580247,0
-0.03168885152,1.975308641969395,0
-0.03168686752,-1.2757201646090535,0
-0.03168488352,-3.4567901234440646,0
-0.03168289952,3.539094650205761,0
-0.03168091552,-0.5349794238670402,0
-0.03167893152,0.1646090534979424,0
-0.03167694752,1.2757201645993221,0
-0.03167496352,-4.074074074074074,0
-0.03167297952,4.2798353909379685,0
-0.03167099552,-0.411522633744856,0
-0.03166901152,-1.6049382715940843,0
-0.03166702752,4.362139917695473,0
-0.03166504352,-4.197530864186977,0
-0.03166305952,1.6049382716049383,0
-0.03166107552,1.6460905349758308,0
-0.03165909152,-0.3292181069958848,0
-0.03165710752,-0.8641975308561879,0
-0.03165512352,3.539094650205761,0
-0.03165313952,-1.9753086419669248,0
-0.03165115552,2.633744855967078,0
-0.03164917152,-0.4938271604903838,0
-0.03164718752,1.3991769547325104,0
-0.03164520352,-1.7283950617312396,0
-0.03164321952,-3.292181069958848,0
-0.03164123552,3.086419753079907,0
-0.03163925152,-0.49382716049382713,0
-0.03163726752,0.4526748971188176,0
-0.03163528352,0.1646090534979424,0
-0.03163329952,-4.115226337433813,0
-0.03163131552,3.9917695473251027,0
-0.03162933152,-0.8230452674897868,0
-0.03162734752,-0.8641975308641975,0
-0.03162536352,4.320987654305118,0
-0.03162337952,-4.403292181069959,0
-0.03162139552,2.633744855965057,0
-0.03161941152,1.522633744855967,0
-0.03161742752,-1.2757201646059095,0
-0.03161544352,0.45267489711934156,0
-0.03161345952,3.3744855966968155,0
-0.03161147552,-2.674897119341564,0
-0.03160949152,3.9917695473162698,0
-0.03160750752,-0.8641975308641975,0
-0.031605523520000005,0.9053497942354644,0
-0.03160353952,-0.823045267489712,0
-0.031601555520000005,-3.7448559670728745,0
-0.03159957152,2.2222222222222223,0
-0.031597587520000005,0.37037037037373866,0
-0.03159560352,-0.37037037037037035,0
-0.031593619520000005,-0.04115226337508443,0
-0.03159163552,-3.292181069958848,0
-0.031589651520000005,4.115226337435086,0
-0.03158766752,-0.6995884773662552,0
-0.031585683520000005,-1.2725376308253544e-12,0
-0.03158369952,4.279835390946502,0
-0.031581715520000005,-4.0740740740588794,0
-0.03157973152,2.263374485596708,0
-0.031577747520000005,0.4938271604970459,0
-0.03157576352,-0.6172839506172839,0
-0.031573779520000005,0.7407407407382703,0
-0.03157179552,2.1810699588477367,0
-0.031569811520000005,-2.05761316871657,0
-0.03156782752,3.7448559670781894,0
-0.031565843520000005,-1.4403292180975642,0
-0.03156385952,1.1522633744855968,0
-0.031561875520000005,-0.781893004111708,0
-0.03155989152,-3.4979423868312756,0
-0.031557907520000004,2.633744855955924,0
-0.03155592352,0.411522633744856,0
-0.031553939520000004,-0.5761316872410018,0
-0.03155195552,0.37037037037037035,0
-0.031549971520000004,-3.9506172839427576,0
-0.03154798752,3.909465020576132,0
-0.031546003520000004,-0.2469135802393536,0
-0.03154401952,0,0
-0.031542035520000004,3.415637860076092,0
-0.03154005152,-4.11522633744856,0
-0.031538067520000004,1.810699588466587,0
-0.03153608352,0.205761316872428,0
-0.031534099520000004,0.1234567901236065,0
-0.03153211552,0.2880658436213992,0
-0.031530131520000004,2.2222222222187042,0
-0.03152814752,-1.6872427983539096,0
-0.031526163520000004,3.127572016452147,0
-0.03152417952,-2.0987654320987654,0
-0.031522195520000004,2.181069958839952,0
-0.03152021152,-1.3991769547325104,0
-0.031518227520000004,-3.7448559670739225,0
-0.03151624352,3.539094650205761,0
-0.031514259520000004,-0.4115226337376696,0
-0.03151227552,-0.8641975308641975,0
-0.031510291520000004,1.2757201646051612,0
-0.03150830752,-4.11522633744856,0
-0.031506323520000004,4.156378600807999,0
-0.03150433952,0.37037037037037035,0
-0.031502355520000004,-0.9053497942363625,0
-0.03150037152,4.11522633744856,0
-0.031498387520000004,-4.1152263374335885,0
-0.03149640352,1.728395061728395,0
-0.031494419520000004,0.5349794238704835,0
-0.03149243552,0,0
-0.031490451520000004,-0.28806584362087523,0
-0.03148846752,3.168724279835391,0
-0.031486483520000004,-1.8106995884683088,0
-0.03148449952,2.5102880658436213,0
-0.031482515520000004,-0.9465020576068808,0
-0.03148053152,2.42798353909465,0
-0.031478547520000004,-1.8930041152184778,0
-0.03147656352,-3.045267489711934,0
-0.031474579520000004,3.497942386819374,0
-0.03147259552,-1.1111111111111112,0
-0.031470611520000004,0.12345679012121114,0
-0.03146862752,0.9876543209876543,0
