log/GE2.csv

#Digilent WaveForms Oscilloscope Acquisition
#Device Name: ADP5250-323F81C
#Serial Number: SN:323F81C
#Date Time: 2023-03-03 13:43:32.916.503.799
#Sample rate: 2.97619e+06Hz
#Samples: 32768
#Trigger: Source: Channel 1 Type: Edge Condition: Rising Level: 0 V Hyst.: Auto
#Channel 1: Range: 1 V/div Offset: 0 V Attenuation: 1 X Coupling: DC Bandwidth: Full Sample Mode: Average
#Channel 2: Range: 200 mV/div Offset: 0 V Attenuation: 1 X Coupling: DC Bandwidth: Full

Time (s),Channel 1 (V),Channel 2 (V)
-0.005504734414,0.12345679012345678,0
-0.005504398414,0.37037037037037035,0
-0.005504062414,0.5761316872427984,0
-0.005503726414,1.0699588477345296,0
-0.0055033904140000004,-0.08230452674687538,0
-0.005503054414,-0.6995884773651323,0
-0.005502718414,-0.7407407407407407,0
-0.005502382414,-0.3292181069958848,0
-0.005502046414,0.12345679012345678,0
-0.005501710414,0.3292181069958848,0
-0.005501374414,0.3292181069958848,0
-0.005501038414,0.411522633744856,0
-0.005500702414,0.1646090534979424,0
-0.005500366414,-0.2057613168731017,0
-0.0055000304140000005,-0.5761316872421247,0
-0.005499694414,-0.3703703703707446,0
-0.005499358414,-0.12345679012345678,0
-0.005499022414,0.1646090534979424,0
-0.005498686414,0.2880658436213992,0
-0.005498350414,0.24691358024691357,0
-0.005498014414,0.205761316872428,0
-0.005497678414,-0.0823045267489712,0
-0.005497342414,-0.5349794238683128,0
-0.005497006414,-0.905349794238234,0
-0.0054966704140000005,-0.6584362139922186,0
-0.005496334414,-0.08230452675001909,0
-0.005495998414,0.411522633744856,0
-0.005495662414,0.6584362139917695,0
-0.005495326414,0.6172839506172839,0
-0.005494990414,0.49382716049382713,0
-0.005494654414,0.24691358024691357,0
-0.005494318414,-0.45267489711934156,0
-0.005493982414,-1.6049382716049383,0
-0.005493646414,-0.7407407407396178,0
-0.0054933104140000005,-0.12345679012457966,0
-0.005492974414,-0.16460905349786753,0
-0.005492638414,0.6995884773662552,0
-0.005492302414,1.1934156378600822,0
-0.005491966414,0.823045267489712,0
-0.005491630414,0.411522633744856,0
-0.005491294414,0,0
-0.005490958414,-1.1934156378600822,0
-0.005490622414,-1.1111111111111112,0
-0.005490286414,-1.111111111109539,0
-0.005489950414,-0.2469135802458656,0
-0.005489614414,0.3292181069948369,0
-0.005489278414,0.6995884773662552,0
-0.005488942414,0.9465020576131687,0
-0.005488606414,0.7818930041152263,0
-0.005488270414,0.411522633744856,0
-0.005487934414,-0.45267489711934156,0
-0.005487598414,-1.0699588477366255,0
-0.005487262414,-1.1934156378600822,0
-0.005486926414,-0.781893004114328,0
-0.005486590414,-0.2880658436205758,0
-0.005486254414,0.16460905349711902,0
-0.005485918414,0.5349794238683128,0
-0.005485582414,0.7818930041152263,0
-0.005485246414,0.8641975308641975,0
-0.005484910414,0.2880658436213992,0
-0.005484574414,-0.49382716049382713,0
-0.005484238414,-0.9465020576131687,0
-0.005483902414,-0.411522633744856,0
-0.005483566414,-0.3703703703700709,0
-0.005483230414,-0.20576131687100574,0
-0.005482894414,0.576131687241376,0
-0.005482558414,0.49382716049382713,0
-0.005482222414,0.5761316872427984,0
-0.005481886414,0.2880658436213992,0
-0.005481550414,-0.37037037037037035,0
-0.005481214414,-0.6584362139917695,0
-0.005480878414,-0.5761316872427984,0
-0.005480542414,-0.205761316872428,0
-0.005480206414,0.12345679012375621,0
-0.005479870414,0.2880658436215489,0
-0.005479534414,0.37037037037022064,0
-0.005479198414,0.2880658436213992,0
-0.005478862414,-0.1646090534979424,0
-0.005478526414,-0.6172839506172839,0
-0.005478190414,-0.6995884773662552,0
-0.005477854414,-0.24691358024691357,0
-0.005477518414,0.1646090534979424,0
-0.005477182414,0.6584362139917695,0
-0.005476846414,0.28806584362177345,0
-0.005476510414,0.4938271604932283,0
-0.005476174414,0.16460905349854127,0
-0.005475838414,0,0
-0.005475502414,-0.7818930041152263,0
-0.005475166414,-1.1934156378600822,0
-0.005474830414,-0.8641975308641975,0
-0.005474494414,-0.205761316872428,0
-0.005474158414,0.45267489711934156,0
-0.005473822414,0.6584362139917695,0
-0.005473486414,0.20576131687197885,0
-0.005473150414,-0.04115226337373704,0
-0.005472814414,0.3703703703696218,0
-0.005472478414,-0.1646090534979424,0
-0.005472142414,-0.9053497942386831,0
-0.005471806414,-1.2345679012345678,0
-0.005471470414,-0.8641975308641975,0
-0.005471134414,-0.12345679012345678,0
-0.005470798414,0.49382716049382713,0
-0.005470462414,0.8641975308641975,0
-0.005470126414,0.8641975308638981,0
-0.005469790414,0.6995884773649078,0
-0.005469454414,-0.041152263373138265,0
-0.005469118414,-0.7818930041152263,0
-0.005468782414,-1.2345679012345678,0
-0.005468446414,-1.02880658436214,0
-0.005468110414,-0.49382716049382713,0
-0.005467774414,0.0823045267489712,0
-0.005467438414,0.5761316872427984,0
-0.005467102414,0.9053497942386831,0
-0.005466766414,0.9465020576122705,0
-0.005466430414,0.4526748971177696,0
-0.005466094414,-0.41152263374328407,0
-0.005465758414,-0.8641975308641975,0
-0.005465422414,-0.8641975308641975,0
-0.005465086414,-0.45267489711934156,0
-0.005464750414,-0.1646090534979424,0
-0.005464414414,0.1646090534979424,0
-0.005464078414,0.3292181069958848,0
-0.005463742414,-0.0411522633744856,0
-0.005463406414,0.205761316872428,0
-0.005463070414,0.04115226337276392,0
-0.005462734414,-0.9053497942369615,0
-0.005462398414,-0.041152263376057596,0
-0.005462062414,-0.205761316872428,0
-0.005461726414,0.3292181069958848,0
-0.005461390414,0.1646090534979424,0
-0.005461054414,0.205761316872428,0
-0.005460718414,0.1646090534979424,0
-0.005460382414,-0.37037037037037035,0
-0.005460046414,-0.7407407407407407,0
-0.005459710414,-0.740740740740067,0
-0.005459374414,-0.37037037037104403,0
-0.005459038414,0.2057613168713801,0
-0.005458702414,0.45267489711934156,0
-0.005458366414,0.5349794238683128,0
-0.005458030414,0.49382716049382713,0
-0.005457694414,0.3292181069958848,0
-0.005457358414,-0.1646090534979424,0
-0.005457022414,-0.823045267489712,0
-0.005456686414,-1.02880658436214,0
-0.005456350414,-0.617283950616161,0
-0.005456014414,-1.1228795671058833e-12,0
-0.005455678414,0.5761316872417505,0
-0.005455342414,0.6172839506172839,0
-0.005455006414,0.5761316872427984,0
-0.005454670414,0.37037037037037035,0
-0.005454334414,0.1646090534979424,0
-0.005453998414,-0.49382716049382713,0
-0.005453662414,-0.5761316872427984,0
-0.005453326414,-0.6995884773662552,0
-0.005452990414,-0.28806584362080034,0
-0.0054526544140000004,0.04115226337388672,0
-0.005452318414,0.6584362139906467,0
-0.005451982414,0.9876543209876543,0
-0.005451646414,0.9876543209876543,0
-0.005451310414,0.6584362139917695,0
-0.005450974414,-0.0411522633744856,0
-0.005450638414,-0.8641975308641975,0
-0.005450302414,-1.1522633744855968,0
-0.005449966414,-0.9876543209876543,0
-0.005449630414,-0.4115226337441074,0
-0.0054492944140000004,-7.485678743535118e-13,0
-0.005448958414,0.45267489711851816,0
-0.005448622414,0.5761316872427984,0
-0.005448286414,1.1522633744855968,0
-0.005447950414,0.205761316872428,0
-0.005447614414,-0.24691358024691357,0
-0.005447278414,-0.9053497942386831,0
-0.005446942414,-0.6584362139917695,0
-0.005446606414,-0.3292181069958848,0
-0.005446270414,-0.04115226337403646,0
-0.0054459344140000004,0.20576131687197885,0
-0.005445598414,0.3703703703700709,0
-0.005445262414,0.45267489711934156,0
-0.005444926414,0.2880658436213992,0
-0.005444590414,-0.3292181069958848,0
-0.005444254414,-0.6172839506172839,0
-0.005443918414,-0.7818930041152263,0
-0.005443582414,0.24691358024691357,0
-0.005443246414,0.3292181069958848,0
-0.005442910414,0.16460905349831667,0
-0.0054425744140000005,0.3703703703699961,0
-0.005442238414,0.2880658436215489,0
-0.005441902414,-0.0411522633744856,0
-0.005441566414,-0.49382716049382713,0
-0.005441230414,-0.6584362139917695,0
-0.005440894414,-0.3292181069958848,0
-0.005440558414,0.12345679012345678,0
-0.005440222414,0.45267489711934156,0
-0.005439886414,0.49382716049382713,0
-0.005439550414,0.3703703703699961,0
-0.0054392144140000005,0.16460905349831667,0
-0.005438878414,-0.4938271604926294,0
-0.005438542414,-1.02880658436214,0
-0.005438206414,-1.1111111111111112,0
-0.005437870414,-0.49382716049382713,0
-0.005437534414,0.24691358024691357,0
-0.005437198414,0.7818930041152263,0
-0.005436862414,0.9053497942386831,0
-0.005436526414,0.7818930041152263,0
-0.005436190414,0.452674897118069,0
-0.0054358544140000005,-0.24691358024564097,0
-0.005435518414,-0.9876543209863069,0
-0.005435182414,-1.2345679012345678,0
-0.005434846414,-0.9465020576131687,0
-0.005434510414,-0.24691358024691357,0
-0.005434174414,0.9053497942386831,0
-0.005433838414,-0.37037037037037035,0
-0.005433502414,0.9465020576131687,0
-0.005433166414,1.1111111111111112,0
-0.005432830414,0.08230452674732437,0
-0.005432494414,-0.8230452674906102,0
-0.005432158414,-1.316872427982641,0
-0.005431822414,-0.9876543209876543,0
-0.005431486414,-0.6172839506172839,0
-0.005431150414,-0.1646090534979424,0
-0.005430814414,0.3292181069958848,0
-0.005430478414,0.6172839506172839,0
-0.005430142414,0.9053497942386831,0
-0.005429806414,0.49382716049382713,0
-0.005429470414,-0.20576131687332624,0
-0.005429134414,-0.6995884773662552,0
-0.005428798414,-0.6995884773662552,0
-0.005428462414,-0.3292181069958848,0
-0.005428126414,-0.0411522633744856,0
-0.005427790414,0.1646090534979424,0
-0.005427454414,0.24691358024691357,0
-0.005427118414,0.37037037037037035,0
-0.005426782414,0.24691358024691357,0
-0.005426446414,-0.2880658436213992,0
-0.005426110414,-0.6172839506172091,0
-0.005425774414,-0.5761316872421247,0
-0.005425438414,-0.20576131687310167,0
-0.005425102414,0.0823045267489712,0
-0.005424766414,0.2880658436213992,0
-0.005424430414,0.3292181069958848,0
-0.005424094414,0.2880658436213992,0
-0.005423758414,-0.1646090534979424,0
-0.005423422414,-0.823045267489712,0
-0.005423086414,-0.0823045267489712,0
-0.005422750414,-0.5349794238676391,0
-0.005422414414,-0.16460905349711896,0
-0.005422078414,0.28806584362057586,0
-0.005421742414,0.411522633744856,0
-0.005421406414,0.411522633744856,0
-0.005421070414,0.2880658436213992,0
-0.005420734414,0.205761316872428,0
-0.005420398414,-0.37037037037037035,0
-0.005420062414,-0.9465020576131687,0
-0.005419726414,-1.3580246913580247,0
-0.005419390414,-0.28806584362080034,0
-0.005419054414,0.041152263375833,0
-0.005418718414,0.781893004113879,0
-0.005418382414,0.823045267489712,0
-0.005418046414,0.7818930041152263,0
-0.005417710414,0.5349794238683128,0
-0.005417374414,0.0411522633744856,0
-0.005417038414,-0.6995884773662552,0
-0.005416702414,-1.2345679012345678,0
-0.005416366414,-1.2757201646090535,0
-0.005416030414,-0.6172839506159365,0
-0.005415694414,0.12345679012465448,0
-0.005415358414,0.7818930041140286,0
-0.005415022414,0.9876543209876543,0
-0.005414686414,0.9053497942386831,0
-0.005414350414,0.5761316872427984,0
-0.005414014414,-0.49382716049382713,0
-0.005413678414,-0.6995884773662552,0
-0.005413342414,-0.8641975308641975,0
-0.005413006414,-1.0699588477366255,0
-0.005412670414,-0.3292181069949865,0
-0.005412334414,0.16460905349884064,0
-0.005411998414,0.6584362139908713,0
-0.005411662414,0.823045267489712,0
-0.005411326414,0.8641975308641975,0
-0.005410990414,0.2880658436213992,0
-0.005410654414,-0.5349794238683128,0
-0.005410318414,-0.9465020576131687,0
-0.005409982414,-0.8641975308641975,0
-0.005409646414,-0.411522633744856,0
-0.005409310414,-0.04115226337403646,0
-0.005408974414,0.205761316872952,0
-0.005408638414,0.49382716049330316,0
-0.005408302414,0.6172839506172839,0
-0.005407966414,0.45267489711934156,0
-0.005407630414,-0.24691358024691357,0
-0.005407294414,-0.6584362139917695,0
-0.005406958414,-0.6995884773662552,0
-0.005406622414,-0.3292181069958848,0
-0.005406286414,0,0
-0.005405950414,0.205761316872428,0
-0.005405614414,0.2469135802480364,0
-0.005405278414,0.8641975308630746,0
-0.005404942414,-0.20576131687048183,0
-0.005404606414,-0.0411522633744856,0
-0.005404270414,-0.411522633744856,0
-0.005403934414,-0.6172839506172839,0
-0.005403598414,0.411522633744856,0
-0.005403262414,0.49382716049382713,0
-0.005402926414,0.0823045267489712,0
-0.005402590414,0.205761316872428,0
-0.005402254414,0.0411522633744856,0
-0.005401918414,0.0411522633744856,0
-0.005401582414,-0.5349794238672648,0
-0.005401246414,-0.8641975308641975,0
-0.005400910414,-0.8641975308641975,0
-0.005400574414,-0.24691358024691357,0
-0.005400238414,0.3292181069958848,0
-0.005399902414,0.6995884773662552,0
-0.005399566414,0.6995884773662552,0
-0.005399230414,0.5761316872427984,0
-0.005398894414,0.37037037036947207,0
-0.005398558414,-0.1234567901225585,0
-0.005398222414,-0.8641975308628501,0
-0.005397886414,-1.1934156378600822,0
-0.005397550414,-0.8641975308641975,0
-0.005397214414,-0.0823045267489712,0
-0.005396878414,0.49382716049382713,0
-0.005396542414,0.9053497942386831,0
-0.005396206414,0.823045267489712,0
-0.005395870414,0.6584362139917695,0
-0.005395534414,0.08230452674754894,0
-0.0053951984140000004,-0.6995884773648329,0
-0.005394862414,-1.2757201646080056,0
-0.005394526414,-1.1522633744855968,0
-0.005394190414,-0.6172839506172839,0
-0.005393854414,0.2880658436213992,0
-0.005393518414,0.45267489711934156,0
-0.005393182414,0.5349794238683128,0
-0.005392846414,1.1111111111111112,0
-0.005392510414,0.411522633744856,0
-0.005392174414,-0.411522633745904,0
-0.0053918384140000004,-0.9876543209866063,0
-0.005391502414,-0.9053497942388329,0
-0.005391166414,-0.45267489711934156,0
-0.005390830414,-0.411522633744856,0
-0.005390494414,0.411522633744856,0
-0.005390158414,0.45267489711934156,0
-0.005389822414,0.6172839506172839,0
-0.005389486414,0.37037037037037035,0
-0.005389150414,-0.2880658436213992,0
-0.005388814414,-0.6172839506172839,0
-0.0053884784140000004,-0.6172839506172839,0
-0.005388142414,-0.28806584362199805,0
-0.005387806414,0.12345679012345678,0
-0.005387470414,0.3292181069958848,0
-0.005387134414,0.37037037037037035,0
-0.005386798414,0.2880658436213992,0
-0.005386462414,-0.1646090534979424,0
-0.005386126414,-0.5761316872427984,0
-0.005385790414,-0.6584362139917695,0
-0.005385454414,-0.2880658436205758,0
-0.0053851184140000005,0.16460905349711902,0
-0.005384782414,0.41152263374440684,0
-0.005384446414,0.49382716049382713,0
-0.005384110414,0.411522633744856,0
-0.005383774414,-0.7818930041152263,0
-0.005383438414,-0.9465020576131687,0
-0.005383102414,-0.9876543209876543,0
-0.005382766414,-1.02880658436214,0
-0.005382430414,-0.45267489711934156,0
-0.005382094414,0.2880658436220729,0
-0.0053817584140000005,0.6584362139910959,0
-0.005381422414,0.740740740740591,0
-0.005381086414,0.5349794238683128,0
-0.005380750414,0.3292181069958848,0
-0.005380414414,-0.0823045267489712,0
-0.005380078414,-0.7818930041152263,0
-0.005379742414,-1.2345679012345678,0
-0.005379406414,-1.1934156378600822,0
-0.005379070414,-0.49382716049382713,0
-0.005378734414,0.2880658436223723,0
-0.0053783984140000005,0.8230452674887389,0
-0.005378062414,0.9876543209873548,0
-0.005377726414,0.8641975308641975,0
-0.005377390414,0.5349794238683128,0
-0.005377054414,0,0
-0.005376718414,-0.7818930041152263,0
-0.005376382414,-0.9465020576131687,0
-0.005376046414,-1.2757201646090535,0
-0.005375710414,-0.5761316872427984,0
-0.005375374414,0.24691358024713814,0
-0.005375038414,0.37037037037119375,0
-0.005374702414,0.8230452674888886,0
-0.005374366414,0.6172839506172839,0
-0.005374030414,0.45267489711934156,0
-0.005373694414,-0.3292181069958848,0
-0.005373358414,-0.8641975308641975,0
-0.005373022414,-0.7407407407407407,0
-0.005372686414,-0.7818930041152263,0
-0.005372350414,-0.1646090534979424,0
-0.005372014414,0.24691358024758728,0
-0.005371678414,0.617283950617733,0
-0.005371342414,0.8641975308637484,0
-0.005371006414,0.7818930041152263,0
-0.005370670414,0.1646090534979424,0
-0.005370334414,-0.5761316872427984,0
-0.005369998414,-0.9053497942386831,0
-0.005369662414,-0.6172839506172839,0
-0.005369326414,-0.2880658436213992,0
-0.005368990414,0.12345679012345678,0
-0.005368654414,0.20576131687272742,0
-0.005368318414,0.37037037037022064,0
-0.005367982414,0.2880658436215489,0
-0.005367646414,0.0411522633744856,0
-0.005367310414,-0.49382716049382713,0
-0.005366974414,-0.5349794238683128,0
-0.005366638414,-0.37037037037037035,0
-0.005366302414,0.0411522633744856,0
-0.005365966414,0.24691358024691357,0
-0.005365630414,0.37037037037037035,0
-0.005365294414,0.32921810699566023,0
-0.005364958414,0.20576131687152974,0
-0.005364622414,-0.2880658436205009,0
-0.005364286414,-0.7818930041152263,0
-0.005363950414,-0.45267489711934156,0
-0.005363614414,0.37037037037037035,0
-0.005363278414,0.7407407407407407,0
-0.005362942414,0.6995884773662552,0
-0.005362606414,0.5761316872427984,0
-0.005362270414,0.6995884773662552,0
-0.005361934414,0.411522633743808,0
-0.005361598414,-0.16460905349928978,0
-0.005361262414,-0.9053497942373357,0
-0.005360926414,-1.3580246913580247,0
-0.005360590414,-0.7407407407407407,0
-0.005360254414,-0.12345679012345678,0
-0.005359918414,0.5761316872427984,0
-0.005359582414,0.823045267489712,0
-0.005359246414,0.6584362139917695,0
-0.005358910414,0.6584362139917695,0
-0.005358574414,-0.1646090534990652,0
-0.005358238414,-0.7818930041159748,0
-0.005357902414,-1.1934156378593337,0
-0.005357566414,-0.9053497942386831,0
-0.005357230414,-0.37037037037037035,0
-0.005356894414,0.2880658436213992,0
-0.005356558414,0.6584362139917695,0
-0.005356222414,0.9465020576131687,0
-0.005355886414,0.8641975308641975,0
-0.005355550414,0.49382716049382713,0
-0.005355214414,-0.45267489712023984,0
-0.005354878414,-0.9465020576133933,0
-0.005354542414,-1.069958847736401,0
-0.005354206414,-0.6584362139917695,0
-0.005353870414,-0.5349794238683128,0
-0.005353534414,0.2880658436213992,0
-0.005353198414,0.37037037037037035,0
-0.005352862414,0.5761316872427984,0
-0.005352526414,0.6995884773662552,0
-0.005352190414,0.12345679012345678,0
-0.005351854414,-0.6172839506178079,0
-0.005351518414,-0.9053497942383837,0
-0.005351182414,-0.7407407407410401,0
-0.005350846414,-0.2880658436213992,0
-0.005350510414,0.0411522633744856,0
-0.005350174414,0.205761316872428,0
-0.005349838414,0.37037037037037035,0
-0.005349502414,0.49382716049382713,0
-0.005349166414,0.2880658436213992,0
-0.005348830414,-0.205761316872428,0
-0.005348494414,-0.6172839506172839,0
-0.005348158414,-0.4938271604932283,0
-0.005347822414,-0.16460905349854127,0
-0.005347486414,0.205761316872428,0
-0.005347150414,0.49382716049382713,0
-0.005346814414,0.0411522633744856,0
-0.005346478414,0.5349794238683128,0
-0.005346142414,-0.37037037037037035,0
-0.005345806414,-0.5349794238683128,0
-0.005345470414,-0.8641975308641975,0
-0.005345134414,-0.411522633744856,0
-0.005344798414,0.20576131687265256,0
-0.005344462414,0.32921810699566023,0
-0.005344126414,0.4938271604935277,0
-0.005343790414,-0.0411522633744856,0
-0.005343454414,-0.2880658436213992,0
-0.005343118414,0,0
-0.005342782414,-0.9053497942386831,0
-0.005342446414,-0.9876543209876543,0
-0.005342110414,-0.6584362139917695,0
-0.005341774414,0.12345679012345678,0
-0.005341438414,0.5761316872433224,0
-0.005341102414,0.8641975308636736,0
-0.005340766414,0.7407407407409653,0
-0.005340430414,0.49382716049382713,0
-0.005340094414,-0.2880658436213992,0
-0.005339758414,-0.9465020576131687,0
-0.005339422414,-1.2345679012345678,0
-0.005339086414,-0.823045267489712,0
-0.005338750414,-0.2880658436213992,0
-0.005338414414,0.45267489711934156,0
-0.005338078414,0.7407407407412647,0
-0.0053377424140000004,1.0288065843616159,0
-0.005337406414,0.6584362139924432,0
-0.005337070414,0,0
-0.005336734414,-0.8641975308641975,0
-0.005336398414,-0.9465020576131687,0
-0.005336062414,-0.7407407407407407,0
-0.005335726414,-0.1646090534979424,0
-0.005335390414,0.0823045267489712,0
-0.005335054414,0.45267489711934156,0
-0.005334718414,0.5761316872427984,0
-0.0053343824140000004,0.5761316872427984,0
-0.005334046414,-0.08230452674777344,0
-0.005333710414,-0.7818930041152263,0
-0.005333374414,-1.0699588477366255,0
-0.005333038414,-0.1646090534979424,0
-0.005332702414,-0.2880658436213992,0
-0.005332366414,0.411522633744856,0
-0.005332030414,-0.0411522633744856,0
-0.005331694414,0.3292181069958848,0
-0.005331358414,0.08230452674852207,0
