log/noise.csv

#Digilent WaveForms Oscilloscope Acquisition,,,,,,
#Device Name: ADP5250-323F81C,,,,,,
#Serial Number: SN:323F81C,,,,,,
#Date Time: 2023-02-10 16:48:01.658.393.199,,,,,,
#Sample rate: 2.97619e+06Hz,,,,,,
#Samples: 32768,,,,,,
#Trigger: Source: Channel 1 Type: Edge Condition: Rising Level: 0 V Hyst.: Auto,,,,,,
#Channel 1: Range: 2 V/div Offset: 0 V Attenuation: 1 X Coupling: DC Bandwidth: Full Sample Mode: Average,,,,,,
#Channel 2: Range: 200 mV/div Offset: 0 V Attenuation: 1 X Coupling: DC Bandwidth: Full,,,,,,
,,,,,,
Time (s),Channel 1 (V),Channel 2 (V),,,,
-0.005504688,-0.24691358,0,,,2.962962963,-3.127572016
-0.005504352,-0.164609053,0,,,,
-0.005504016,0.082304527,0,,,,
-0.00550368,0.164609053,0,,,,
-0.005503344,0.329218107,0,,,,
-0.005503008,0.411522634,0,,,,
-0.005502672,0.082304527,0,,,,
-0.005502336,-0.24691358,0,,,,
-0.005502,-0.576131687,0,,,,
-0.005501664,-0.411522634,0,,,,
-0.005501328,-0.24691358,0,,,,
-0.005500992,-0.082304527,0,,,,
-0.005500656,0.164609053,0,,,,
-0.00550032,0.24691358,0,,,,
-0.005499984,0.411522634,0,,,,
-0.005499648,0.329218107,0,,,,
-0.005499312,0,0,,,,
-0.005498976,-0.411522634,0,,,,
-0.00549864,-0.576131687,0,,,,
-0.005498304,-0.411522634,0,,,,
-0.005497968,-0.164609053,0,,,,
-0.005497632,0,0,,,,
-0.005497296,0.082304527,0,,,,
-0.00549696,-0.164609053,0,,,,
-0.005496624,0.411522634,0,,,,
-0.005496288,1.316872428,0,,,,
-0.005495952,-0.49382716,0,,,,
-0.005495616,-0.49382716,0,,,,
-0.00549528,-0.49382716,0,,,,
-0.005494944,-0.49382716,0,,,,
-0.005494608,0.082304527,0,,,,
-0.005494272,0,0,,,,
-0.005493936,0.411522634,0,,,,
-0.0054936,0.49382716,0,,,,
-0.005493264,0.24691358,0,,,,
-0.005492928,-0.082304527,0,,,,
-0.005492592,-0.576131687,0,,,,
-0.005492256,-0.411522634,0,,,,
-0.00549192,-0.411522634,0,,,,
-0.005491584,-0.082304527,0,,,,
-0.005491248,0.082304527,0,,,,
-0.005490912,0.164609053,0,,,,
-0.005490576,0.49382716,0,,,,
-0.00549024,0.24691358,0,,,,
-0.005489904,-8.98E-13,0,,,,
-0.005489568,-0.49382716,0,,,,
-0.005489232,-0.49382716,0,,,,
-0.005488896,-0.411522634,0,,,,
-0.00548856,-0.164609053,0,,,,
-0.005488224,0.082304527,0,,,,
-0.005487888,0.24691358,0,,,,
-0.005487552,0.411522634,0,,,,
-0.005487216,0.411522634,0,,,,
-0.00548688,-0.49382716,0,,,,
-0.005486544,-0.658436214,0,,,,
-0.005486208,0.411522634,0,,,,
-0.005485872,-0.49382716,0,,,,
-0.005485536,-0.164609053,0,,,,
-0.0054852,0.082304527,0,,,,
-0.005484864,0.24691358,0,,,,
-0.005484528,0.411522634,0,,,,
-0.005484192,0.411522634,0,,,,
-0.005483856,0,0,,,,
-0.00548352,-0.411522634,0,,,,
-0.005483184,-0.576131687,0,,,,
-0.005482848,-0.082304527,0,,,,
-0.005482512,-0.658436214,0,,,,
-0.005482176,0.49382716,0,,,,
-0.00548184,-0.164609053,0,,,,
-0.005481504,0.658436214,0,,,,
-0.005481168,0.411522634,0,,,,
-0.005480832,0,0,,,,
-0.005480496,-0.082304527,0,,,,
-0.00548016,-0.740740741,0,,,,
-0.005479824,-0.24691358,0,,,,
-0.005479488,-0.329218107,0,,,,
-0.005479152,-0.082304527,0,,,,
-0.005478816,0.24691358,0,,,,
-0.00547848,0.24691358,0,,,,
-0.005478144,0.576131687,0,,,,
-0.005477808,0.082304527,0,,,,
-0.005477472,-0.24691358,0,,,,
-0.005477136,-0.49382716,0,,,,
-0.0054768,1.152263374,0,,,,
-0.005476464,1.069958848,0,,,,
-0.005476128,-0.905349794,0,,,,
-0.005475792,0.329218107,0,,,,
-0.005475456,0.24691358,0,,,,
-0.00547512,0.49382716,0,,,,
-0.005474784,0.24691358,0,,,,
-0.005474448,-0.24691358,0,,,,
-0.005474112,-0.49382716,0,,,,
-0.005473776,-0.576131687,0,,,,
-0.00547344,-0.24691358,0,,,,
-0.005473104,-0.082304527,0,,,,
-0.005472768,0.164609053,0,,,,
-0.005472432,0.329218107,0,,,,
-0.005472096,0.411522634,0,,,,
-0.00547176,0.329218107,0,,,,
-0.005471424,-0.164609053,0,,,,
-0.005471088,-0.411522634,0,,,,
-0.005470752,-0.576131687,0,,,,
-0.005470416,-0.411522634,0,,,,
-0.00547008,-0.082304527,0,,,,
-0.005469744,0.082304527,0,,,,
-0.005469408,0.329218107,0,,,,
-0.005469072,0.49382716,0,,,,
-0.005468736,0.329218107,0,,,,
-0.0054684,-0.329218107,0,,,,
-0.005468064,-0.164609053,0,,,,
-0.005467728,-0.740740741,0,,,,
-0.005467392,-0.164609053,0,,,,
-0.005467056,0.24691358,0,,,,
-0.00546672,-0.740740741,0,,,,
-0.005466384,-1.069958848,0,,,,
-0.005466048,0.082304527,0,,,,
-0.005465712,0.411522634,0,,,,
-0.005465376,-0.24691358,0,,,,
-0.00546504,-0.411522634,0,,,,
-0.005464704,-0.411522634,0,,,,
-0.005464368,-0.329218107,0,,,,
-0.005464032,0.082304527,0,,,,
-0.005463696,0,0,,,,
-0.00546336,0.329218107,0,,,,
-0.005463024,0.411522634,0,,,,
-0.005462688,0.24691358,0,,,,
-0.005462352,-0.164609053,0,,,,
-0.005462016,-0.576131687,0,,,,
-0.00546168,-0.49382716,0,,,,
-0.005461344,-0.411522634,0,,,,
-0.005461008,-0.082304527,0,,,,
-0.005460672,0.082304527,0,,,,
-0.005460336,0.329218107,0,,,,
-0.00546,0.411522634,0,,,,
-0.005459664,0.329218107,0,,,,
-0.005459328,-0.082304527,0,,,,
-0.005458992,-0.411522634,0,,,,
-0.005458656,-0.576131687,0,,,,
-0.00545832,-0.411522634,0,,,,
-0.005457984,-0.164609053,0,,,,
-0.005457648,0.082304527,0,,,,
-0.005457312,0.24691358,0,,,,
-0.005456976,-0.082304527,0,,,,
-0.00545664,1.810699588,0,,,,
-0.005456304,1.563786008,0,,,,
-0.005455968,-0.329218107,0,,,,
-0.005455632,-0.49382716,0,,,,
-0.005455296,-0.411522634,0,,,,
-0.00545496,-0.164609053,0,,,,
-0.005454624,0,0,,,,
-0.005454288,0.24691358,0,,,,
-0.005453952,1.069958848,0,,,,
-0.005453616,-0.164609053,0,,,,
-0.00545328,0.411522634,0,,,,
-0.005452944,-0.740740741,0,,,,
-0.005452608,-0.49382716,0,,,,
-0.005452272,-0.24691358,0,,,,
-0.005451936,-0.329218107,0,,,,
-0.0054516,0.329218107,0,,,,
-0.005451264,0.082304527,0,,,,
-0.005450928,0.49382716,0,,,,
-0.005450592,0.411522634,0,,,,
-0.005450256,-0.082304527,0,,,,
-0.00544992,-0.24691358,0,,,,
-0.005449584,-0.740740741,0,,,,
-0.005449248,-0.329218107,0,,,,
-0.005448912,-0.24691358,0,,,,
-0.005448576,0,0,,,,
-0.00544824,0.24691358,0,,,,
-0.005447904,0.329218107,0,,,,
-0.005447568,0.49382716,0,,,,
-0.005447232,0,0,,,,
-0.005446896,-2.798353909,0,,,,
-0.00544656,-2.057613169,0,,,,
-0.005446224,0.823045267,0,,,,
-0.005445888,-0.24691358,0,,,,
-0.005445552,-4.49E-13,0,,,,
-0.005445216,0.24691358,0,,,,
-0.00544488,0.49382716,0,,,,
-0.005444544,0.329218107,0,,,,
-0.005444208,0,0,,,,
-0.005443872,-0.411522634,0,,,,
-0.005443536,-0.49382716,0,,,,
-0.0054432,-0.329218107,0,,,,
-0.005442864,-0.164609053,0,,,,
-0.005442528,0.082304527,0,,,,
-0.005442192,0.24691358,0,,,,
-0.005441856,0.49382716,0,,,,
-0.00544152,0.329218107,0,,,,
-0.005441184,-0.082304527,0,,,,
-0.005440848,-0.411522634,0,,,,
-0.005440512,-0.49382716,0,,,,
-0.005440176,-0.329218107,0,,,,
-0.00543984,-0.164609053,0,,,,
-0.005439504,-0.24691358,0,,,,
-0.005439168,0.576131687,0,,,,
-0.005438832,0.24691358,0,,,,
-0.005438496,0.411522634,0,,,,
-0.00543816,0.082304527,0,,,,
-0.005437824,-0.49382716,0,,,,
-0.005437488,-0.411522634,0,,,,
-0.005437152,-0.576131687,0,,,,
-0.005436816,1.646090535,0,,,,
-0.00543648,0.658436214,0,,,,
-0.005436144,-0.49382716,0,,,,
-0.005435808,0.49382716,0,,,,
-0.005435472,0.411522634,0,,,,
-0.005435136,0.24691358,0,,,,
-0.0054348,-0.329218107,0,,,,
-0.005434464,-0.49382716,0,,,,
-0.005434128,-0.411522634,0,,,,
-0.005433792,-0.329218107,0,,,,
-0.005433456,0,0,,,,
-0.00543312,0.082304527,0,,,,
-0.005432784,0.329218107,0,,,,
-0.005432448,0.411522634,0,,,,
-0.005432112,0.329218107,0,,,,
-0.005431776,-0.082304527,0,,,,
-0.00543144,-0.576131687,0,,,,
-0.005431104,-0.49382716,0,,,,
-0.005430768,-0.329218107,0,,,,
-0.005430432,-0.082304527,0,,,,
-0.005430096,0.082304527,0,,,,
-0.00542976,0.329218107,0,,,,
-0.005429424,0.49382716,0,,,,
-0.005429088,0.24691358,0,,,,
-0.005428752,-0.164609053,0,,,,
-0.005428416,-0.411522634,0,,,,
-0.00542808,-0.576131687,0,,,,
-0.005427744,-0.24691358,0,,,,
-0.005427408,-0.082304527,0,,,,
-0.005427072,0,0,,,,
-0.005426736,-0.905349794,0,,,,
-0.0054264,-0.24691358,0,,,,
-0.005426064,-1.50E-13,0,,,,
-0.005425728,-0.082304527,0,,,,
-0.005425392,-0.411522634,0,,,,
-0.005425056,-0.164609053,0,,,,
-0.00542472,-0.823045267,0,,,,
-0.005424384,0.082304527,0,,,,
-0.005424048,0,0,,,,
-0.005423712,0,0,,,,
-0.005423376,0.658436214,0,,,,
-0.00542304,0.164609053,0,,,,
-0.005422704,0.411522634,0,,,,
-0.005422368,-0.329218107,0,,,,
-0.005422032,-0.576131687,0,,,,
-0.005421696,-0.329218107,0,,,,
-0.00542136,-0.49382716,0,,,,
-0.005421024,0.082304527,0,,,,
-0.005420688,0.082304527,0,,,,
-0.005420352,0.411522634,0,,,,
-0.005420016,0.49382716,0,,,,
-0.00541968,0.082304527,-0.008230453,,,,
-0.005419344,-0.164609053,0,,,,
-0.005419008,-0.576131687,0,,,,
-0.005418672,-0.329218107,0,,,,
-0.005418336,-0.164609053,0,,,,
-0.005418,0,0,,,,
-0.005417664,0.329218107,0,,,,
-0.005417328,0.329218107,0,,,,
-0.005416992,0.49382716,0,,,,
-0.005416656,0.082304527,0,,,,
-0.00541632,-0.905349794,0,,,,
-0.005415984,-0.329218107,0,,,,
-0.005415648,-0.411522634,0,,,,
-0.005415312,-0.082304527,0,,,,
-0.005414976,0.082304527,0,,,,
-0.00541464,0.329218107,0,,,,
-0.005414304,0.49382716,0,,,,
-0.005413968,0.329218107,0,,,,
-0.005413632,-0.082304527,0,,,,
-0.005413296,-0.411522634,0,,,,
-0.00541296,-0.49382716,0,,,,
-0.005412624,-0.329218107,0,,,,
-0.005412288,-0.164609053,0,,,,
-0.005411952,0.082304527,0,,,,
-0.005411616,0.329218107,0,,,,
-0.00541128,0.49382716,0,,,,
-0.005410944,0.24691358,0,,,,
-0.005410608,-0.24691358,0,,,,
-0.005410272,-0.329218107,0,,,,
-0.005409936,-0.49382716,0,,,,
-0.0054096,-0.329218107,0,,,,
-0.005409264,0.164609053,0,,,,
-0.005408928,8.98E-13,0,,,,
-0.005408592,0.49382716,0,,,,
-0.005408256,0.329218107,0,,,,
-0.00540792,0.082304527,0,,,,
-0.005407584,-0.24691358,0,,,,
-0.005407248,-0.658436214,0,,,,
-0.005406912,-0.411522634,0,,,,
-0.005406576,0.576131687,0,,,,
-0.00540624,1.399176955,0,,,,
-0.005405904,0,0,,,,
-0.005405568,0.329218107,0,,,,
-0.005405232,0.49382716,0,,,,
-0.005404896,0.164609053,0,,,,
-0.00540456,-0.24691358,0,,,,
-0.005404224,-0.49382716,0,,,,
-0.005403888,-0.49382716,0,,,,
-0.005403552,-0.24691358,0,,,,
-0.005403216,-0.164609053,0,,,,
-0.00540288,0.164609053,0,,,,
-0.005402544,0.24691358,0,,,,
-0.005402208,0.49382716,0,,,,
-0.005401872,0.24691358,0,,,,
-0.005401536,-0.164609053,0,,,,
-0.0054012,-0.49382716,0,,,,
-0.005400864,-0.49382716,0,,,,
-0.005400528,-0.329218107,0,,,,
-0.005400192,-0.082304527,0,,,,
-0.005399856,0.082304527,0,,,,
-0.00539952,0.24691358,0,,,,
-0.005399184,0.411522634,0,,,,
-0.005398848,0.329218107,0,,,,
-0.005398512,-0.082304527,0,,,,
-0.005398176,-0.411522634,0,,,,
-0.00539784,-0.576131687,0,,,,
-0.005397504,-0.329218107,0,,,,
-0.005397168,-0.164609053,0,,,,
-0.005396832,-0.658436214,0,,,,
-0.005396496,-0.740740741,0,,,,
-0.00539616,1.316872428,0,,,,
-0.005395824,0.164609053,0,,,,
-0.005395488,0.164609053,0,,,,
-0.005395152,2.99E-13,0,,,,
-0.005394816,-0.905349794,0,,,,
-0.00539448,-0.164609053,0,,,,
-0.005394144,-0.49382716,0,,,,
-0.005393808,0.082304527,0,,,,
-0.005393472,0.24691358,0,,,,
-0.005393136,0,0,,,,
-0.0053928,0.49382716,0,,,,
-0.005392464,0.164609053,0,,,,
-0.005392128,0.164609053,0,,,,
-0.005391792,-0.329218107,0,,,,
-0.005391456,-0.576131687,0,,,,
-0.00539112,-0.411522634,0,,,,
-0.005390784,-0.329218107,0,,,,
-0.005390448,0.082304527,0,,,,
-0.005390112,0.082304527,0,,,,
-0.005389776,0.329218107,0,,,,
-0.00538944,0.411522634,0,,,,
-0.005389104,0.329218107,0,,,,
-0.005388768,0.082304527,0,,,,
-0.005388432,-0.411522634,0,,,,
-0.005388096,-0.49382716,0,,,,
-0.00538776,-0.49382716,0,,,,
-0.005387424,-0.24691358,0,,,,
-0.005387088,0,0,,,,
-0.005386752,1.810699588,0,,,,
-0.005386416,1.810699588,0,,,,
-0.00538608,-0.164609053,0,,,,
-0.005385744,0.411522634,0,,,,
-0.005385408,-0.082304527,0,,,,
-0.005385072,-0.411522634,0,,,,
-0.005384736,-0.49382716,0,,,,
-0.0053844,-0.411522634,0,,,,
-0.005384064,-0.164609053,0,,,,
-0.005383728,0,0,,,,
-0.005383392,0.24691358,0,,,,
-0.005383056,0.411522634,0,,,,
-0.00538272,0.411522634,0,,,,
-0.005382384,0,0,,,,
-0.005382048,-0.411522634,0,,,,
-0.005381712,-0.49382716,0,,,,
-0.005381376,-0.411522634,0,,,,
-0.00538104,0,0,,,,
-0.005380704,-0.082304527,0,,,,
-0.005380368,0.49382716,0,,,,
-0.005380032,0.329218107,0,,,,
-0.005379696,0.411522634,0,,,,
-0.00537936,-0.082304527,0,,,,
-0.005379024,-0.49382716,0,,,,
-0.005378688,-0.411522634,0,,,,
-0.005378352,-0.49382716,0,,,,
-0.005378016,-8.98E-13,0,,,,
-0.00537768,0,0,,,,
-0.005377344,0.329218107,0,,,,
-0.005377008,1.069958848,0,,,,
-0.005376672,-1.069958848,0,,,,
-0.005376336,-1.728395062,0,,,,
-0.005376,-0.411522634,0,,,,
-0.005375664,-0.49382716,0,,,,
-0.005375328,-0.329218107,0,,,,
-0.005374992,-0.082304527,0,,,,
-0.005374656,0.164609053,0,,,,
-0.00537432,0.24691358,0,,,,
-0.005373984,0.49382716,0,,,,
-0.005373648,0.24691358,0,,,,
-0.005373312,-0.164609053,0,,,,
-0.005372976,-0.49382716,0,,,,
-0.00537264,-0.49382716,0,,,,
-0.005372304,-0.329218107,0,,,,
-0.005371968,-0.082304527,0,,,,
-0.005371632,0.164609053,0,,,,
-0.005371296,0.411522634,0,,,,
-0.00537096,0.411522634,0,,,,
-0.005370624,0.164609053,0,,,,
-0.005370288,-0.329218107,0,,,,
-0.005369952,-0.49382716,0,,,,
-0.005369616,-0.49382716,0,,,,
-0.00536928,-0.24691358,0,,,,
-0.005368944,0,0,,,,
-0.005368608,0.24691358,0,,,,
-0.005368272,0.49382716,0,,,,
-0.005367936,0.411522634,0,,,,
-0.0053676,0,0,,,,
-0.005367264,-0.411522634,0,,,,
-0.005366928,-0.987654321,0,,,,
-0.005366592,0.740740741,0,,,,
-0.005366256,1.728395062,0,,,,
-0.00536592,-0.411522634,0,,,,
-0.005365584,0.658436214,0,,,,
-0.005365248,0.329218107,0,,,,
-0.005364912,0.24691358,0,,,,
-0.005364576,4.49E-13,0,,,,
-0.00536424,-0.658436214,0,,,,
-0.005363904,-0.24691358,0,,,,
-0.005363568,-0.411522634,0,,,,
-0.005363232,0,0,,,,
-0.005362896,0.164609053,0,,,,
-0.00536256,0.329218107,0,,,,
-0.005362224,0.49382716,0,,,,
-0.005361888,-0.082304527,0,,,,
-0.005361552,-0.24691358,0,,,,
-0.005361216,-0.49382716,0,,,,
-0.00536088,-0.411522634,0,,,,
-0.005360544,-0.082304527,0,,,,
-0.005360208,0,0,,,,
-0.005359872,0.24691358,0,,,,
-0.005359536,0.329218107,0,,,,
-0.0053592,0.411522634,0,,,,
-0.005358864,0,0,,,,
-0.005358528,-0.411522634,0,,,,
-0.005358192,-0.49382716,0,,,,
-0.005357856,-0.411522634,0,,,,
-0.00535752,-0.164609053,0,,,,
-0.005357184,0,0,,,,
-0.005356848,-2.304526749,0,,,,
-0.005356512,-1.152263374,0,,,,
-0.005356176,1.728395062,0,,,,
-0.00535584,0.164609053,0,,,,
-0.005355504,-0.24691358,0,,,,
-0.005355168,-0.49382716,0,,,,
-0.005354832,-0.49382716,0,,,,
-0.005354496,-0.329218107,0,,,,
-0.00535416,0,0,,,,
-0.005353824,0.082304527,0,,,,
-0.005353488,0.24691358,0,,,,
-0.005353152,0.411522634,0,,,,
-0.005352816,0.411522634,0,,,,
-0.00535248,-0.164609053,0,,,,
-0.005352144,-0.082304527,0,,,,
-0.005351808,-0.823045267,0,,,,
-0.005351472,-0.24691358,0,,,,
-0.005351136,-0.329218107,0,,,,
-0.0053508,0,0,,,,
-0.005350464,0.24691358,0,,,,
-0.005350128,0.164609053,0,,,,
-0.005349792,0.658436214,0,,,,
-0.005349456,0,0,,,,
-0.00534912,-0.164609053,0,,,,
-0.005348784,-0.49382716,0,,,,
-0.005348448,-0.49382716,0,,,,
-0.005348112,-0.082304527,0,,,,
-0.005347776,-0.164609053,0,,,,
-0.00534744,0.24691358,0,,,,
-0.005347104,0.24691358,0,,,,
-0.005346768,1.563786008,0,,,,
-0.005346432,0.24691358,0,,,,
-0.005346096,-1.152263374,0,,,,
-0.00534576,-0.329218107,0,,,,
-0.005345424,-0.576131687,0,,,,
-0.005345088,-0.24691358,0,,,,
-0.005344752,-0.082304527,0,,,,
-0.005344416,0.082304527,0,,,,
-0.00534408,0.329218107,0,,,,
-0.005343744,0.411522634,0,,,,
-0.005343408,0.329218107,0,,,,
-0.005343072,-0.082304527,0,,,,
-0.005342736,-0.411522634,0,,,,
-0.0053424,-0.576131687,0,,,,
-0.005342064,-0.329218107,0,,,,
-0.005341728,-0.082304527,0,,,,
-0.005341392,0.082304527,0,,,,
-0.005341056,0.329218107,0,,,,
-0.00534072,0.411522634,0,,,,
-0.005340384,0.329218107,0,,,,
-0.005340048,-0.082304527,0,,,,
-0.005339712,-0.411522634,0,,,,
-0.005339376,-0.49382716,0,,,,
-0.00533904,-0.329218107,0,,,,
-0.005338704,-0.082304527,0,,,,
-0.005338368,0.082304527,0,,,,
-0.005338032,0.740740741,0,,,,
-0.005337696,-0.082304527,0,,,,
-0.00533736,0.740740741,0,,,,
-0.005337024,-0.164609053,0,,,,
-0.005336688,-0.823045267,0,,,,
-0.005336352,-0.329218107,0,,,,
-0.005336016,-0.658436214,0,,,,
-0.00533568,0.164609053,0,,,,
-0.005335344,-0.082304527,0,,,,
-0.005335008,0.329218107,0,,,,
-0.005334672,0.49382716,0,,,,
-0.005334336,0.164609053,0,,,,
-0.005334,2.99E-13,0,,,,
-0.005333664,-0.658436214,0,,,,
-0.005333328,-0.411522634,0,,,,
-0.005332992,-0.411522634,0,,,,
-0.005332656,-0.082304527,0,,,,
-0.00533232,0.164609053,0,,,,
-0.005331984,0.24691358,0,,,,
-0.005331648,0.576131687,0,,,,
-0.005331312,0.164609053,0,,,,
-0.005330976,-0.082304527,0,,,,
-0.00533064,-0.49382716,0,,,,
-0.005330304,-0.49382716,0,,,,
-0.005329968,-0.24691358,0,,,,
-0.005329632,-0.164609053,0,,,,
-0.005329296,0.164609053,0,,,,
-0.00532896,0.24691358,-0.008230453,,,,
-0.005328624,0.49382716,0,,,,
-0.005328288,0.329218107,0,,,,
-0.005327952,-0.164609053,0,,,,
-0.005327616,-0.411522634,0,,,,
-0.00532728,-0.49382716,0,,,,
-0.005326944,-0.658436214,0,,,,
-0.005326608,-0.576131687,0,,,,
-0.005326272,-0.987654321,0,,,,
-0.005325936,0.411522634,0,,,,
-0.0053256,0.49382716,0,,,,
-0.005325264,0.329218107,0,,,,
-0.005324928,-0.082304527,0,,,,
-0.005324592,-0.411522634,0,,,,
-0.005324256,-0.49382716,0,,,,
-0.00532392,-0.329218107,0,,,,
-0.005323584,-0.411522634,0,,,,
-0.005323248,0.411522634,0,,,,
-0.005322912,0.082304527,0,,,,
-0.005322576,0.576131687,0,,,,
-0.00532224,0.411522634,0,,,,
-0.005321904,-0.164609053,0,,,,
-0.005321568,-0.329218107,0,,,,
-0.005321232,-0.740740741,0,,,,
-0.005320896,-0.24691358,0,,,,
-0.00532056,-0.164609053,0,,,,
-0.005320224,0,0,,,,
-0.005319888,0.329218107,0,,,,
-0.005319552,0.24691358,0,,,,
-0.005319216,0.576131687,0,,,,
-0.00531888,0.082304527,0,,,,
-0.005318544,-0.24691358,0,,,,
-0.005318208,-0.49382716,0,,,,
-0.005317872,-0.49382716,0,,,,
-0.005317536,-0.164609053,0,,,,
-0.0053172,-0.082304527,0,,,,
-0.005316864,1.316872428,0,,,,
-0.005316528,1.563786008,0,,,,
-0.005316192,1.152263374,0,,,,
-0.005315856,0.329218107,0,,,,
-0.00531552,-0.082304527,0,,,,
-0.005315184,-0.411522634,0,,,,
-0.005314848,-0.49382716,0,,,,
-0.005314512,-0.329218107,0,,,,
-0.005314176,-0.164609053,0,,,,
-0.00531384,0.082304527,0,,,,
-0.005313504,0.24691358,0,,,,
-0.005313168,0.411522634,0,,,,
-0.005312832,0.411522634,0,,,,
-0.005312496,0.082304527,0,,,,
-0.00531216,-0.329218107,0,,,,
-0.005311824,-0.576131687,0,,,,
-0.005311488,-0.49382716,0,,,,
-0.005311152,-0.24691358,0,,,,
-0.005310816,2.99E-13,0,,,,
-0.00531048,0.164609053,0,,,,
-0.005310144,0.411522634,0,,,,
-0.005309808,0.411522634,0,,,,
-0.005309472,0.164609053,0,,,,
-0.005309136,0.24691358,0,,,,
-0.0053088,-1.069958848,0,,,,
-0.005308464,-0.164609053,0,,,,
-0.005308128,-0.329218107,0,,,,
-0.005307792,-0.164609053,0,,,,
-0.005307456,0.411522634,0,,,,
-0.00530712,0.164609053,0,,,,
-0.005306784,-0.411522634,0,,,,
-0.005306448,-1.481481481,0,,,,
-0.005306112,-0.49382716,0,,,,
-0.005305776,-0.411522634,0,,,,
-0.00530544,-0.658436214,0,,,,
-0.005305104,0,0,,,,
-0.005304768,-0.082304527,0,,,,
-0.005304432,0.24691358,0,,,,
-0.005304096,0.411522634,0,,,,
-0.00530376,0.411522634,0,,,,
-0.005303424,0.24691358,0,,,,
-0.005303088,-0.411522634,0,,,,
-0.005302752,-0.411522634,0,,,,
-0.005302416,-0.49382716,0,,,,
-0.00530208,-0.24691358,0,,,,
-0.005301744,0.082304527,0,,,,
-0.005301408,0.164609053,0,,,,
-0.005301072,0.411522634,0,,,,
-0.005300736,0.411522634,0,,,,
-0.0053004,0.164609053,0,,,,
-0.005300064,-0.329218107,0,,,,
-0.005299728,-0.49382716,0,,,,
-0.005299392,-0.411522634,0,,,,
-0.005299056,-0.24691358,0,,,,
-0.00529872,0,0,,,,
-0.005298384,0.164609053,0,,,,
-0.005298048,0.411522634,0,,,,
-0.005297712,0.411522634,0,,,,
-0.005297376,0.082304527,0,,,,
-0.00529704,-0.329218107,0,,,,
-0.005296704,1.069958848,0,,,,
-0.005296368,1.069958848,0,,,,
-0.005296032,-0.164609053,0,,,,
-0.005295696,0,0,,,,
-0.00529536,0.164609053,0,,,,
-0.005295024,0.411522634,0,,,,
-0.005294688,0.411522634,-0.008230453,,,,
-0.005294352,0.411522634,0,,,,
-0.005294016,-0.329218107,0,,,,
-0.00529368,-0.576131687,0,,,,
-0.005293344,-0.329218107,0,,,,
-0.005293008,-0.411522634,0,,,,
-0.005292672,0.082304527,0,,,,
-0.005292336,0,0,,,,
-0.005292,0.24691358,0,,,,
-0.005291664,0.49382716,0,,,,
-0.005291328,0.164609053,0,,,,
-0.005290992,0.082304527,0,,,,
