log/receive2.csv

#Digilent WaveForms Oscilloscope Acquisition,,,,,,
#Device Name: ADP5250-323F81C,,,,,,
#Serial Number: SN:323F81C,,,,,,
#Date Time: 2023-02-10 16:54:37.530.963.799,,,,,,
#Sample rate: 2.97619e+06Hz,,,,,,
#Samples: 32768,,,,,,
#Trigger: Source: Channel 1 Type: Edge Condition: Rising Level: 0 V Hyst.: Auto,,,,,,
#Channel 1: Range: 2 V/div Offset: 0 V Attenuation: 1 X Coupling: DC Bandwidth: Full Sample Mode: Average,,,,,,
#Channel 2: Range: 200 mV/div Offset: 0 V Attenuation: 1 X Coupling: DC Bandwidth: Full,,,,,,
,,,,,,
Time (s),Channel 1 (V),Channel 2 (V),,,,
-0.005504962,2.551440329,0,,,7.0781893,-6.502057613
-0.005504626,0.905349794,0,,,,
-0.00550429,0.576131687,0,,,,
-0.005503954,0.740740741,0,,,,
-0.005503618,1.069958848,0,,,,
-0.005503282,1.975308642,0,,,,
-0.005502946,2.057613169,0,,,,
-0.00550261,0.740740741,0,,,,
-0.005502274,-1.481481481,0,,,,
-0.005501938,-3.456790123,0,,,,
-0.005501602,-3.868312757,0,,,,
-0.005501266,-3.78600823,0,,,,
-0.00550093,-3.209876543,0,,,,
-0.005500594,-2.057613169,0,,,,
-0.005500258,-0.823045267,0,,,,
-0.005499922,0.082304527,0,,,,
-0.005499586,3.29218107,0,,,,
-0.00549925,4.444444444,0,,,,
-0.005498914,4.526748971,0,,,,
-0.005498578,3.78600823,0,,,,
-0.005498242,0.49382716,0,,,,
-0.005497906,-2.304526749,0,,,,
-0.00549757,-4.197530864,0,,,,
-0.005497234,-3.78600823,0,,,,
-0.005496898,-6.255144033,0,,,,
-0.005496562,-6.090534979,0,,,,
-0.005496226,-2.551440329,0,,,,
-0.00549589,0.164609053,0,,,,
-0.005495554,1.399176955,0,,,,
-0.005495218,1.152263374,0,,,,
-0.005494882,2.304526749,0,,,,
-0.005494546,3.53909465,0,,,,
-0.00549421,3.456790123,0,,,,
-0.005493874,2.222222222,0,,,,
-0.005493538,0.905349794,0,,,,
-0.005493202,1.481481481,0,,,,
-0.005492866,4.362139918,0,,,,
-0.00549253,4.362139918,0,,,,
-0.005492194,4.444444444,0,,,,
-0.005491858,-0.24691358,0,,,,
-0.005491522,-4.032921811,0,,,,
-0.005491186,-4.115226337,0,,,,
-0.00549085,-4.032921811,0,,,,
-0.005490514,-3.950617284,0,,,,
-0.005490178,-1.481481481,0,,,,
-0.005489842,0.740740741,0,,,,
-0.005489506,0.987654321,0,,,,
-0.00548917,1.646090535,0,,,,
-0.005488834,4.444444444,0,,,,
-0.005488498,4.362139918,0,,,,
-0.005488162,4.444444444,0,,,,
-0.005487826,3.950617284,0,,,,
-0.00548749,2.139917695,0,,,,
-0.005487154,0.082304527,0,,,,
-0.005486818,2.716049383,0,,,,
-0.005486482,3.04526749,0,,,,
-0.005486146,1.893004115,0,,,,
-0.00548581,2.633744856,0,,,,
-0.005485474,1.810699588,0,,,,
-0.005485138,-0.411522634,0,,,,
-0.005484802,-2.798353909,0,,,,
-0.005484466,-4.115226337,0,,,,
-0.00548413,-3.950617284,0,,,,
-0.005483794,-3.456790123,0,,,,
-0.005483458,-2.962962963,0,,,,
-0.005483122,-1.152263374,0,,,,
-0.005482786,-0.411522634,0,,,,
-0.00548245,1.069958848,0,,,,
-0.005482114,4.444444444,0,,,,
-0.005481778,4.279835391,0,,,,
-0.005481442,4.526748971,0,,,,
-0.005481106,2.057613169,0,,,,
-0.00548077,-0.49382716,0,,,,
-0.005480434,-4.115226337,0,,,,
-0.005480098,-4.115226337,0,,,,
-0.005479762,-4.032921811,0,,,,
-0.005479426,-4.197530864,0,,,,
-0.00547909,-3.78600823,0,,,,
-0.005478754,-1.069958848,0,,,,
-0.005478418,0.987654321,0,,,,
-0.005478082,1.152263374,0,,,,
-0.005477746,1.152263374,0,,,,
-0.00547741,2.386831276,0,,,,
-0.005477074,5.432098765,0,,,,
-0.005476738,6.008230453,0,,,,
-0.005476402,3.374485597,0,,,,
-0.005476066,1.975308642,0,,,,
-0.00547573,2.386831276,0,,,,
-0.005475394,4.362139918,0,,,,
-0.005475058,4.444444444,0,,,,
-0.005474722,3.53909465,0,,,,
-0.005474386,-3.950617284,0,,,,
-0.00547405,-4.032921811,0,,,,
-0.005473714,-4.032921811,0,,,,
-0.005473378,-4.115226337,0,,,,
-0.005473042,-3.374485597,0,,,,
-0.005472706,-0.49382716,0,,,,
-0.00547237,0.987654321,0,,,,
-0.005472034,1.069958848,0,,,,
-0.005471698,2.304526749,0,,,,
-0.005471362,4.362139918,0,,,,
-0.005471026,4.362139918,0,,,,
-0.00547069,4.362139918,0,,,,
-0.005470354,4.362139918,0,,,,
-0.005470018,2.057613169,0,,,,
-0.005469682,-0.411522634,0,,,,
-0.005469346,-1.646090535,0,,,,
-0.00546901,0.164609053,0,,,,
-0.005468674,2.057613169,0,,,,
-0.005468338,3.127572016,0,,,,
-0.005468002,1.563786008,0,,,,
-0.005467666,-1.152263374,0,,,,
-0.00546733,-3.127572016,0,,,,
-0.005466994,-6.090534979,0,,,,
-0.005466658,-5.596707819,0,,,,
-0.005466322,-3.127572016,0,,,,
-0.005465986,-2.222222222,0,,,,
-0.00546565,-0.987654321,0,,,,
-0.005465314,-0.082304527,0,,,,
-0.005464978,1.893004115,0,,,,
-0.005464642,4.362139918,0,,,,
-0.005464306,4.444444444,0,,,,
-0.00546397,4.362139918,0,,,,
-0.005463634,1.399176955,0,,,,
-0.005463298,-1.399176955,0,,,,
-0.005462962,-4.115226337,0,,,,
-0.005462626,-4.032921811,0,,,,
-0.00546229,-4.115226337,0,,,,
-0.005461954,-4.032921811,0,,,,
-0.005461618,-3.04526749,0,,,,
-0.005461282,-0.164609053,0,,,,
-0.005460946,1.234567901,-0.008230453,,,,
-0.00546061,1.069958848,0,,,,
-0.005460274,1.234567901,0,,,,
-0.005459938,2.304526749,0,,,,
-0.005459602,3.209876543,0,,,,
-0.005459266,3.209876543,0,,,,
-0.00545893,2.798353909,0,,,,
-0.005458594,2.633744856,0,,,,
-0.005458258,4.362139918,0,,,,
-0.005457922,4.279835391,0,,,,
-0.005457586,4.444444444,0,,,,
-0.00545725,-0.082304527,0,,,,
-0.005456914,-4.115226337,0,,,,
-0.005456578,-3.127572016,0,,,,
-0.005456242,-3.950617284,0,,,,
-0.005455906,-4.032921811,0,,,,
-0.00545557,-1.893004115,0,,,,
-0.005455234,0.082304527,0,,,,
-0.005454898,1.399176955,0,,,,
-0.005454562,0.740740741,0,,,,
-0.005454226,3.127572016,0,,,,
-0.00545389,4.279835391,0,,,,
-0.005453554,4.444444444,0,,,,
-0.005453218,4.526748971,0,,,,
-0.005452882,4.197530864,0,,,,
-0.005452546,2.386831276,0,,,,
-0.00545221,-0.905349794,0,,,,
-0.005451874,-2.304526749,0,,,,
-0.005451538,-1.152263374,0,,,,
-0.005451202,1.481481481,0,,,,
-0.005450866,3.04526749,0,,,,
-0.00545053,1.728395062,0,,,,
-0.005450194,-0.658436214,0,,,,
-0.005449858,-2.962962963,0,,,,
-0.005449522,-3.868312757,0,,,,
-0.005449186,-3.78600823,0,,,,
-0.00544885,-3.209876543,0,,,,
-0.005448514,-1.975308642,0,,,,
-0.005448178,-0.987654321,0,,,,
-0.005447842,0,0,,,,
-0.005447506,3.456790123,0,,,,
-0.00544717,4.526748971,0,,,,
-0.005446834,5.102880658,0,,,,
-0.005446498,4.279835391,0,,,,
-0.005446162,0.164609054,0,,,,
-0.005445826,-3.209876543,0,,,,
-0.00544549,-4.115226337,0,,,,
-0.005445154,-4.032921811,0,,,,
-0.005444818,-4.115226337,0,,,,
-0.005444482,-4.032921811,0,,,,
-0.005444146,-1.893004115,0,,,,
-0.00544381,0.658436214,0,,,,
-0.005443474,1.399176955,0,,,,
-0.005443138,1.152263374,0,,,,
-0.005442802,1.646090535,0,,,,
-0.005442466,2.469135802,0,,,,
-0.00544213,2.880658436,0,,,,
-0.005441794,2.798353909,0,,,,
-0.005441458,2.469135802,0,,,,
-0.005441122,2.962962963,0,,,,
-0.005440786,4.691358025,0,,,,
-0.00544045,4.115226337,0,,,,
-0.005440114,4.279835391,0,,,,
-0.005439778,-2.139917695,0,,,,
-0.005439442,-4.032921811,0,,,,
-0.005439106,-4.032921811,0,,,,
-0.00543877,-4.279835391,0,,,,
-0.005438434,-3.703703704,0,,,,
-0.005438098,-1.399176955,0,,,,
-0.005437762,0.823045267,0,,,,
-0.005437426,0.987654321,0,,,,
-0.00543709,0.082304527,0,,,,
-0.005436754,1.893004115,0,,,,
-0.005436418,4.773662551,0,,,,
-0.005436082,4.444444444,0,,,,
-0.005435746,4.362139918,0,,,,
-0.00543541,3.78600823,0,,,,
-0.005435074,1.893004115,0,,,,
-0.005434738,0.164609053,0,,,,
-0.005434402,-0.905349794,0,,,,
-0.005434066,-0.576131687,0,,,,
-0.00543373,1.069958848,0,,,,
-0.005433394,1.646090535,0,,,,
-0.005433058,0.658436214,0,,,,
-0.005432722,-1.481481481,0,,,,
-0.005432386,-3.209876543,0,,,,
-0.00543205,-3.78600823,0,,,,
-0.005431714,-3.621399177,0,,,,
-0.005431378,-2.633744856,0,,,,
-0.005431042,-1.646090535,0,,,,
-0.005430706,-0.576131687,0,,,,
-0.00543037,0.49382716,0,,,,
-0.005430034,4.362139918,0,,,,
-0.005429698,4.444444444,0,,,,
-0.005429362,4.362139918,0,,,,
-0.005429026,2.386831276,0,,,,
-0.00542869,-0.411522634,0,,,,
-0.005428354,-4.032921811,0,,,,
-0.005428018,-4.032921811,0,,,,
-0.005427682,-4.032921811,0,,,,
-0.005427346,-4.032921811,0,,,,
-0.00542701,-2.386831276,0,,,,
-0.005426674,1.399176955,0,,,,
-0.005426338,-0.329218107,0,,,,
-0.005426002,1.728395062,0,,,,
-0.005425666,1.316872428,0,,,,
-0.00542533,2.633744856,0,,,,
-0.005424994,2.962962963,0,,,,
-0.005424658,2.304526749,0,,,,
-0.005424322,1.893004115,0,,,,
-0.005423986,1.316872428,0,,,,
-0.00542365,3.53909465,0,,,,
-0.005423314,4.362139918,0,,,,
-0.005422978,4.362139918,0,,,,
-0.005422642,3.868312757,0,,,,
-0.005422306,-4.115226337,0,,,,
-0.00542197,-3.950617284,0,,,,
-0.005421634,-4.115226337,0,,,,
-0.005421298,-4.115226337,0,,,,
-0.005420962,-3.29218107,0,,,,
-0.005420626,-0.49382716,0,,,,
-0.00542029,1.069958848,0,,,,
-0.005419954,1.152263374,0,,,,
-0.005419618,2.962962963,0,,,,
-0.005419282,4.362139918,0,,,,
-0.005418946,4.362139918,0,,,,
-0.00541861,4.279835391,0,,,,
-0.005418274,3.456790123,0,,,,
-0.005417938,2.469135802,0,,,,
-0.005417602,1.316872428,0,,,,
-0.005417266,0.49382716,0,,,,
-0.00541693,3.53909465,0,,,,
-0.005416594,3.78600823,0,,,,
-0.005416258,1.234567901,0,,,,
-0.005415922,0.823045267,0,,,,
-0.005415586,-1.234567901,0,,,,
-0.00541525,-3.209876543,0,,,,
-0.005414914,-3.950617284,0,,,,
-0.005414578,-3.78600823,0,,,,
-0.005414242,-3.29218107,0,,,,
-0.005413906,-2.057613169,0,,,,
-0.00541357,-0.987654321,0,,,,
-0.005413234,0,0,,,,
-0.005412898,1.810699588,0,,,,
-0.005412562,4.362139918,0,,,,
-0.005412226,4.115226337,0,,,,
-0.00541189,4.691358025,0,,,,
-0.005411554,1.234567901,0,,,,
-0.005411218,-1.069958848,0,,,,
-0.005410882,-4.032921811,0,,,,
-0.005410546,-4.197530864,0,,,,
-0.00541021,-3.950617284,0,,,,
-0.005409874,-4.197530864,0,,,,
-0.005409538,-3.127572016,0,,,,
-0.005409202,-0.329218107,0,,,,
-0.005408866,1.152263374,0,,,,
-0.00540853,1.316872428,0,,,,
-0.005408194,1.893004115,0,,,,
-0.005407858,3.127572016,0,,,,
-0.005407522,2.880658436,0,,,,
-0.005407186,1.069958848,0,,,,
-0.00540685,-1.234567901,0,,,,
-0.005406514,-1.234567901,0,,,,
-0.005406178,4.609053498,0,,,,
-0.005405842,4.362139918,0,,,,
-0.005405506,4.444444444,0,,,,
-0.00540517,2.386831276,0,,,,
-0.005404834,-4.032921811,0,,,,
-0.005404498,-4.115226337,0,,,,
-0.005404162,-4.115226337,0,,,,
-0.005403826,-4.115226337,0,,,,
-0.00540349,-2.633744856,0,,,,
-0.005403154,0.164609053,0,,,,
-0.005402818,0.987654321,0,,,,
-0.005402482,1.481481481,0,,,,
-0.005402146,3.78600823,0,,,,
-0.00540181,4.444444444,0,,,,
-0.005401474,4.444444444,0,,,,
-0.005401138,4.197530864,0,,,,
-0.005400802,2.716049383,-0.008230453,,,,
-0.005400466,0.905349794,0,,,,
-0.00540013,-0.082304527,0,,,,
-0.005399794,0,0,,,,
-0.005399458,1.152263374,0,,,,
-0.005399122,2.633744856,0,,,,
-0.005398786,2.469135802,0,,,,
-0.00539845,0.658436214,0,,,,
-0.005398114,-1.893004115,0,,,,
-0.005397778,-3.29218107,0,,,,
-0.005397442,-4.362139918,0,,,,
-0.005397106,-3.374485597,0,,,,
-0.00539677,-5.102880658,0,,,,
-0.005396434,-3.78600823,0,,,,
-0.005396098,-0.576131687,0,,,,
-0.005395762,8.08E-12,0,,,,
-0.005395426,4.444444444,0,,,,
-0.00539509,4.279835391,-0.008230453,,,,
-0.005394754,4.362139918,0,,,,
-0.005394418,3.621399177,0,,,,
-0.005394082,0.164609053,0,,,,
-0.005393746,-2.880658436,0,,,,
-0.00539341,-4.197530864,0,,,,
-0.005393074,-4.032921811,0,,,,
-0.005392738,-4.115226337,0,,,,
-0.005392402,-4.115226337,0,,,,
-0.005392066,-2.057613169,0,,,,
-0.00539173,0.329218107,0,,,,
-0.005391394,1.234567901,0,,,,
-0.005391058,0.987654321,0,,,,
-0.005390722,1.975308642,0,,,,
-0.005390386,3.29218107,0,,,,
-0.00539005,3.703703704,0,,,,
-0.005389714,2.880658436,0,,,,
-0.005389378,1.481481481,0,,,,
-0.005389042,1.646090535,0,,,,
-0.005388706,4.444444444,0,,,,
-0.00538837,4.362139918,0,,,,
-0.005388034,4.444444444,0,,,,
-0.005387698,-0.658436214,0,,,,
-0.005387362,-4.032921811,0,,,,
-0.005387026,-3.868312757,0,,,,
-0.00538669,-3.04526749,0,,,,
-0.005386354,-2.716049383,0,,,,
-0.005386018,-1.481481481,0,,,,
-0.005385682,0.658436214,0,,,,
-0.005385346,1.069958848,0,,,,
-0.00538501,1.728395062,0,,,,
-0.005384674,4.362139918,0,,,,
-0.005384338,4.362139918,0,,,,
-0.005384002,4.444444444,0,,,,
-0.005383666,4.444444444,0,,,,
-0.00538333,2.798353909,0,,,,
-0.005382994,0,0,,,,
-0.005382658,-1.893004115,0,,,,
-0.005382322,-1.069958848,0,,,,
-0.005381986,1.810699588,0,,,,
-0.00538165,3.53909465,0,,,,
-0.005381314,3.127572016,0,,,,
-0.005380978,0.24691358,0,,,,
-0.005380642,-2.469135802,0,,,,
-0.005380306,-3.868312757,0,,,,
-0.00537997,-4.032921811,0,,,,
-0.005379634,-3.703703704,0,,,,
-0.005379298,-3.04526749,0,,,,
-0.005378962,-1.646090535,0,,,,
-0.005378626,-0.411522634,0,,,,
-0.00537829,0.576131687,0,,,,
-0.005377954,4.444444444,0,,,,
-0.005377618,4.362139918,0,,,,
-0.005377282,4.444444444,0,,,,
-0.005376946,3.621399177,0,,,,
-0.00537661,-0.411522634,0,,,,
-0.005376274,-4.197530864,0,,,,
-0.005375938,-4.032921811,0,,,,
-0.005375602,-4.115226337,0,,,,
-0.005375266,-4.115226337,0,,,,
-0.00537493,-3.950617284,0,,,,
-0.005374594,-1.234567901,0,,,,
-0.005374258,0.905349794,0,,,,
-0.005373922,1.234567901,0,,,,
-0.005373586,1.069958848,0,,,,
-0.00537325,1.975308642,0,,,,
-0.005372914,3.127572016,0,,,,
-0.005372578,3.456790123,0,,,,
-0.005372242,3.04526749,0,,,,
-0.005371906,2.469135802,0,,,,
-0.00537157,3.456790123,0,,,,
-0.005371234,4.444444444,0,,,,
-0.005370898,4.362139918,0,,,,
-0.005370562,2.962962963,0,,,,
-0.005370226,-4.032921811,0,,,,
-0.00536989,-4.032921811,0,,,,
-0.005369554,-4.115226337,0,,,,
-0.005369218,-4.115226337,0,,,,
-0.005368882,-3.127572016,0,,,,
-0.005368546,-0.576131687,0,,,,
-0.00536821,0.987654321,0,,,,
-0.005367874,1.069958848,0,,,,
-0.005367538,1.152263374,0,,,,
-0.005367202,4.691358025,0,,,,
-0.005366866,4.115226337,0,,,,
-0.00536653,5.185185185,0,,,,
-0.005366194,4.444444444,0,,,,
-0.005365858,2.962962963,0,,,,
-0.005365522,0.658436214,0,,,,
-0.005365186,-1.399176955,0,,,,
-0.00536485,-1.152263374,0,,,,
-0.005364514,0.576131687,0,,,,
-0.005364178,2.304526749,0,,,,
-0.005363842,1.893004115,0,,,,
-0.005363506,-0.24691358,0,,,,
-0.00536317,-2.469135802,0,,,,
-0.005362834,-3.950617284,0,,,,
-0.005362498,-3.78600823,0,,,,
-0.005362162,-3.374485597,0,,,,
-0.005361826,-2.222222222,0,,,,
-0.00536149,-1.152263374,0,,,,
-0.005361154,-0.24691358,-0.008230453,,,,
-0.005360818,1.810699588,0,,,,
-0.005360482,4.362139918,0,,,,
-0.005360146,4.444444444,0,,,,
-0.00535981,4.444444444,0,,,,
-0.005359474,1.316872428,0,,,,
-0.005359138,-1.646090535,0,,,,
-0.005358802,-4.115226337,0,,,,
-0.005358466,-4.115226337,0,,,,
-0.00535813,-4.115226337,0,,,,
-0.005357794,-4.115226337,0,,,,
-0.005357458,-2.880658436,0,,,,
-0.005357122,-0.329218107,0,,,,
-0.005356786,3.621399177,0,,,,
-0.00535645,3.868312757,0,,,,
-0.005356114,1.563786008,0,,,,
-0.005355778,2.469135802,0,,,,
-0.005355442,3.374485597,0,,,,
-0.005355106,3.29218107,0,,,,
-0.00535477,2.633744856,0,,,,
-0.005354434,2.386831276,0,,,,
-0.005354098,4.444444444,0,,,,
-0.005353762,4.526748971,0,,,,
-0.005353426,4.279835391,0,,,,
-0.00535309,0.823045267,0,,,,
-0.005352754,-4.197530864,0,,,,
-0.005352418,-4.032921811,0,,,,
-0.005352082,-4.115226337,0,,,,
-0.005351746,-4.197530864,0,,,,
-0.00535141,-2.057613169,0,,,,
-0.005351074,0.24691358,0,,,,
-0.005350738,1.069958848,0,,,,
-0.005350402,0.987654321,0,,,,
-0.005350066,2.880658436,0,,,,
-0.00534973,4.444444444,0,,,,
-0.005349394,4.362139918,0,,,,
-0.005349058,4.444444444,0,,,,
-0.005348722,4.197530864,0,,,,
-0.005348386,2.798353909,0,,,,
-0.00534805,0.658436214,0,,,,
-0.005347714,-1.152263374,0,,,,
-0.005347378,-0.987654321,0,,,,
-0.005347042,0.658436214,0,,,,
-0.005346706,0.823045267,0,,,,
-0.00534637,-1.069958848,0,,,,
-0.005346034,-1.152263374,0,,,,
-0.005345698,-3.04526749,0,,,,
-0.005345362,-3.78600823,0,,,,
-0.005345026,-3.703703704,0,,,,
-0.00534469,-2.962962963,0,,,,
-0.005344354,-1.810699588,0,,,,
-0.005344018,-0.740740741,0,,,,
-0.005343682,0.082304527,0,,,,
-0.005343346,4.032921811,0,,,,
-0.00534301,4.362139918,0,,,,
-0.005342674,4.362139918,0,,,,
-0.005342338,3.53909465,0,,,,
-0.005342002,0.24691358,0,,,,
-0.005341666,-3.04526749,0,,,,
-0.00534133,-4.032921811,0,,,,
-0.005340994,-4.115226337,0,,,,
-0.005340658,-4.115226337,0,,,,
-0.005340322,-4.032921811,0,,,,
-0.005339986,-1.975308642,0,,,,
-0.00533965,0.658436214,0,,,,
-0.005339314,1.069958848,0,,,,
-0.005338978,1.893004115,0,,,,
-0.005338642,1.728395062,0,,,,
-0.005338306,2.798353909,0,,,,
-0.00533797,2.386831276,0,,,,
-0.005337634,2.222222222,0,,,,
-0.005337298,2.139917695,0,,,,
-0.005336962,-0.905349794,0,,,,
-0.005336626,3.53909465,0,,,,
-0.00533629,4.938271605,0,,,,
-0.005335954,4.444444444,0,,,,
-0.005335618,-1.069958848,0,,,,
-0.005335282,-4.115226337,0,,,,
-0.005334946,-4.032921811,0,,,,
-0.00533461,-4.197530864,0,,,,
-0.005334274,-3.868312757,0,,,,
-0.005333938,-1.316872428,0,,,,
-0.005333602,0.740740741,0,,,,
-0.005333266,1.234567901,0,,,,
-0.00533293,2.633744856,0,,,,
-0.005332594,4.444444444,0,,,,
-0.005332258,4.362139918,0,,,,
-0.005331922,4.197530864,0,,,,
-0.005331586,3.127572016,0,,,,
-0.00533125,2.057613169,0,,,,
-0.005330914,1.316872428,0,,,,
-0.005330578,0.49382716,0,,,,
-0.005330242,0.411522634,0,,,,
-0.005329906,1.316872428,0,,,,
-0.00532957,2.304526749,0,,,,
-0.005329234,1.728395062,0,,,,
-0.005328898,-0.329218107,0,,,,
-0.005328562,-2.551440329,0,,,,
-0.005328226,-3.868312757,0,,,,
-0.00532789,-3.868312757,0,,,,
-0.005327554,-3.703703704,0,,,,
-0.005327218,-2.880658436,0,,,,
-0.005326882,-2.716049383,0,,,,
-0.005326546,-0.329218107,0,,,,
-0.00532621,0.740740741,0,,,,
-0.005325874,4.444444444,0,,,,
-0.005325538,4.362139918,0,,,,
-0.005325202,4.197530864,0,,,,
-0.005324866,2.962962963,0,,,,
-0.00532453,-0.576131687,0,,,,
-0.005324194,-3.703703704,0,,,,
-0.005323858,-4.197530864,0,,,,
-0.005323522,-4.115226337,0,,,,
-0.005323186,-4.032921811,0,,,,
-0.00532285,-4.115226337,0,,,,
-0.005322514,-1.234567901,0,,,,
-0.005322178,0.740740741,0,,,,
-0.005321842,1.316872428,0,,,,
-0.005321506,1.316872428,0,,,,
-0.00532117,2.469135802,0,,,,
-0.005320834,3.209876543,0,,,,
-0.005320498,2.469135802,0,,,,
-0.005320162,1.728395062,0,,,,
-0.005319826,1.234567901,0,,,,
-0.00531949,3.209876543,0,,,,
-0.005319154,4.444444444,0,,,,
-0.005318818,4.362139918,0,,,,
-0.005318482,4.115226337,0,,,,
-0.005318146,-2.469135802,0,,,,
-0.00531781,-4.032921811,0,,,,
-0.005317474,-4.115226337,0,,,,
-0.005317138,-4.197530864,0,,,,
-0.005316802,-3.127572016,0,,,,
-0.005316466,-1.069958848,-0.008230453,,,,
-0.00531613,0.823045267,0,,,,
-0.005315794,1.069958848,0,,,,
-0.005315458,2.716049383,0,,,,
-0.005315122,4.444444444,0,,,,
-0.005314786,4.362139918,0,,,,
-0.00531445,4.444444444,0,,,,
-0.005314114,3.53909465,0,,,,
-0.005313778,1.893004115,0,,,,
-0.005313442,0.658436214,0,,,,
-0.005313106,0.082304527,0,,,,
-0.00531277,0.49382716,0,,,,
-0.005312434,1.563786008,0,,,,
-0.005312098,2.222222222,0,,,,
-0.005311762,1.399176955,0,,,,
-0.005311426,-0.658436214,0,,,,
-0.00531109,-2.798353909,0,,,,
-0.005310754,-3.456790123,0,,,,
-0.005310418,-4.362139918,0,,,,
-0.005310082,-3.127572016,0,,,,
-0.005309746,-2.716049383,0,,,,
-0.00530941,-1.234567901,0,,,,
-0.005309074,-0.164609053,0,,,,
-0.005308738,1.399176955,0,,,,
-0.005308402,4.609053498,0,,,,
-0.005308066,4.197530864,0,,,,
-0.00530773,4.526748971,0,,,,
-0.005307394,1.481481481,0,,,,
-0.005307058,-1.975308642,0,,,,
-0.005306722,-4.938271605,0,,,,
-0.005306386,-3.456790123,0,,,,
-0.00530605,-4.032921811,0,,,,
-0.005305714,-4.197530864,0,,,,
-0.005305378,-3.29218107,0,,,,
-0.005305042,-0.411522634,0,,,,
-0.005304706,1.069958848,0,,,,
-0.00530437,1.234567901,0,,,,
-0.005304034,1.728395062,0,,,,
-0.005303698,3.04526749,0,,,,
-0.005303362,3.374485597,0,,,,
-0.005303026,2.633744856,0,,,,
-0.00530269,1.646090535,0,,,,
-0.005302354,1.316872428,0,,,,
-0.005302018,3.950617284,0,,,,
-0.005301682,4.362139918,0,,,,
-0.005301346,4.444444444,0,,,,
-0.00530101,2.304526749,0,,,,
-0.005300674,-4.032921811,0,,,,
-0.005300338,-4.032921811,0,,,,
-0.005300002,-4.115226337,0,,,,
-0.005299666,-4.032921811,0,,,,
-0.00529933,-2.633744856,0,,,,
-0.005298994,0.082304527,0,,,,
-0.005298658,1.069958848,0,,,,
-0.005298322,1.152263374,0,,,,
-0.005297986,3.29218107,0,,,,
-0.00529765,4.362139918,0,,,,
-0.005297314,4.444444444,0,,,,
-0.005296978,5.020576132,0,,,,
-0.005296642,4.279835391,0,,,,
-0.005296306,-0.740740741,0,,,,
-0.00529597,-0.576131687,0,,,,
