log/Receive.csv

#Digilent WaveForms Oscilloscope Acquisition,,,,,,,
#Device Name: ADP5250-323F81C,,,,,,,
#Serial Number: SN:323F81C,,,,,,,
#Date Time: 2023-02-10 16:40:05.542.275.499,,,,,,,
#Sample rate: 2.97619e+06Hz,,,,,,,
#Samples: 32768,,,,,,,
#Trigger: Source: Channel 1 Type: Edge Condition: Rising Level: 0 V Hyst.: Auto,,,,,,,
#Channel 1: Range: 2 V/div Offset: 0 V Attenuation: 1 X Coupling: DC Bandwidth: Full Sample Mode: Average,,,,,,,
#Channel 2: Range: 200 mV/div Offset: 0 V Attenuation: 1 X Coupling: DC Bandwidth: Full,,,,,,,
,,,,,,,
Time (s),Channel 1 (V),Channel 2 (V),,,,,
-0.005504833,-0.411522634,0,,,,3.374485597,-3.868312757
-0.005504497,-0.329218107,0,,,,,
-0.005504161,-0.987654321,0,,,,,
-0.005503825,-0.329218107,0,,,,,
-0.005503489,-5.99E-13,0,,,,,
-0.005503153,-0.082304527,0,,,,,
-0.005502817,0.658436214,0,,,,,
-0.005502481,-0.082304527,0,,,,,
-0.005502145,-0.24691358,0,,,,,
-0.005501809,-0.658436214,0,,,,,
-0.005501473,-0.411522634,0,,,,,
-0.005501137,-0.082304527,0,,,,,
-0.005500801,-0.164609053,0,,,,,
-0.005500465,0.082304527,0,,,,,
-0.005500129,1.50E-13,0,,,,,
-0.005499793,0.411522634,0,,,,,
-0.005499457,0.49382716,0,,,,,
-0.005499121,0.411522634,0,,,,,
-0.005498785,-0.24691358,0,,,,,
-0.005498449,-1.316872428,0,,,,,
-0.005498113,0,0,,,,,
-0.005497777,-0.411522634,0,,,,,
-0.005497441,0.082304527,0,,,,,
-0.005497105,0.49382716,0,,,,,
-0.005496769,0.411522634,0,,,,,
-0.005496433,0.24691358,0,,,,,
-0.005496097,0.082304527,0,,,,,
-0.005495761,-0.24691358,0,,,,,
-0.005495425,-1.069958848,0,,,,,
-0.005495089,-0.987654321,0,,,,,
-0.005494753,-0.576131687,0,,,,,
-0.005494417,0.411522634,0,,,,,
-0.005494081,0.905349794,0,,,,,
-0.005493745,0.823045267,0,,,,,
-0.005493409,0.658436214,0,,,,,
-0.005493073,1.20E-12,0,,,,,
-0.005492737,-0.49382716,0,,,,,
-0.005492401,-1.399176955,0,,,,,
-0.005492065,-0.740740741,0,,,,,
-0.005491729,-0.576131687,-0.008230453,,,,,
-0.005491393,-0.164609053,0,,,,,
-0.005491057,0.576131687,0,,,,,
-0.005490721,0.576131687,0,,,,,
-0.005490385,1.316872428,0,,,,,
-0.005490049,0.411522634,0,,,,,
-0.005489713,-0.24691358,0,,,,,
-0.005489377,-0.987654321,0,,,,,
-0.005489041,-0.987654321,0,,,,,
-0.005488705,0,0,,,,,
-0.005488369,-0.823045267,0,,,,,
-0.005488033,-0.905349794,0,,,,,
-0.005487697,-0.576131687,0,,,,,
-0.005487361,0.329218107,0,,,,,
-0.005487025,0.164609053,0,,,,,
-0.005486689,-0.329218107,0,,,,,
-0.005486353,-0.740740741,0,,,,,
-0.005486017,-0.740740741,0,,,,,
-0.005485681,-0.24691358,0,,,,,
-0.005485345,0.082304527,0,,,,,
-0.005485009,0.49382716,0,,,,,
-0.005484673,0.49382716,0,,,,,
-0.005484337,0.49382716,0,,,,,
-0.005484001,0.49382716,0,,,,,
-0.005483665,0.082304527,0,,,,,
-0.005483329,-0.49382716,0,,,,,
-0.005482993,-0.987654321,0,,,,,
-0.005482657,-0.658436214,0,,,,,
-0.005482321,-0.411522634,0,,,,,
-0.005481985,0.164609053,0,,,,,
-0.005481649,0.329218107,0,,,,,
-0.005481313,0.49382716,0,,,,,
-0.005480977,0.576131687,0,,,,,
-0.005480641,0.082304527,0,,,,,
-0.005480305,-0.411522634,0,,,,,
-0.005479969,-0.740740741,0,,,,,
-0.005479633,-0.411522634,0,,,,,
-0.005479297,0.082304527,0,,,,,
-0.005478961,0.24691358,0,,,,,
-0.005478625,0.49382716,0,,,,,
-0.005478289,1.481481481,0,,,,,
-0.005477953,1.234567901,0,,,,,
-0.005477617,-0.411522634,0,,,,,
-0.005477281,-0.740740741,0,,,,,
-0.005476945,-0.987654321,0,,,,,
-0.005476609,-0.905349794,0,,,,,
-0.005476273,0.576131687,0,,,,,
-0.005475937,0.411522634,0,,,,,
-0.005475601,1.069958848,0,,,,,
-0.005475265,0.576131687,0,,,,,
-0.005474929,0.24691358,0,,,,,
-0.005474593,-0.082304527,0,,,,,
-0.005474257,-0.823045267,0,,,,,
-0.005473921,-0.576131687,0,,,,,
-0.005473585,-0.987654321,0,,,,,
-0.005473249,-0.740740741,0,,,,,
-0.005472913,-0.329218107,0,,,,,
-0.005472577,0.24691358,0,,,,,
-0.005472241,0.576131687,0,,,,,
-0.005471905,0.658436214,0,,,,,
-0.005471569,0.576131687,0,,,,,
-0.005471233,0.24691358,0,,,,,
-0.005470897,-0.329218107,0,,,,,
-0.005470561,-0.987654321,0,,,,,
-0.005470225,-0.740740741,0,,,,,
-0.005469889,-0.329218107,-1.50E-14,,,,,
-0.005469553,0.164609053,-0.008230453,,,,,
-0.005469217,0.576131687,0,,,,,
-0.005468881,0.740740741,0,,,,,
-0.005468545,0.823045267,0,,,,,
-0.005468209,-1.234567901,0,,,,,
-0.005467873,-1.152263374,0,,,,,
-0.005467537,-0.49382716,0,,,,,
-0.005467201,-1.152263374,0,,,,,
-0.005466865,-0.576131687,0,,,,,
-0.005466529,-0.164609053,0,,,,,
-0.005466193,0.411522634,0,,,,,
-0.005465857,0.576131687,0,,,,,
-0.005465521,0.987654321,0,,,,,
-0.005465185,0.658436214,0,,,,,
-0.005464849,0.164609053,0,,,,,
-0.005464513,-0.658436214,0,,,,,
-0.005464177,-0.987654321,0,,,,,
-0.005463841,-0.576131687,0,,,,,
-0.005463505,-0.329218107,0,,,,,
-0.005463169,0.329218107,0,,,,,
-0.005462833,0.411522634,0,,,,,
-0.005462497,0.24691358,0,,,,,
-0.005462161,0.576131687,0,,,,,
-0.005461825,-0.24691358,0,,,,,
-0.005461489,-0.24691358,0,,,,,
-0.005461153,-0.740740741,0,,,,,
-0.005460817,-0.411522634,0,,,,,
-0.005460481,0,0,,,,,
-0.005460145,0.24691358,0,,,,,
-0.005459809,0.576131687,0,,,,,
-0.005459473,0.24691358,0,,,,,
-0.005459137,0.082304527,0,,,,,
-0.005458801,-0.576131687,0,,,,,
-0.005458465,-0.823045267,0,,,,,
-0.005458129,-2.633744856,0,,,,,
-0.005457793,-1.810699588,0,,,,,
-0.005457457,0.658436214,0,,,,,
-0.005457121,0.740740741,0,,,,,
-0.005456785,0.823045267,0,,,,,
-0.005456449,0.49382716,0,,,,,
-0.005456113,0.329218107,0,,,,,
-0.005455777,-0.329218107,0,,,,,
-0.005455441,-0.987654321,0,,,,,
-0.005455105,-1.234567901,0,,,,,
-0.005454769,-0.823045267,0,,,,,
-0.005454433,-0.082304527,0,,,,,
-0.005454097,0.329218107,0,,,,,
-0.005453761,0.905349794,0,,,,,
-0.005453425,0.658436214,0,,,,,
-0.005453089,0.576131687,0,,,,,
-0.005452753,0.164609053,0,,,,,
-0.005452417,-0.658436214,0,,,,,
-0.005452081,-0.987654321,0,,,,,
-0.005451745,-1.234567901,0,,,,,
-0.005451409,-0.49382716,0,,,,,
-0.005451073,0,0,,,,,
-0.005450737,0.658436214,0,,,,,
-0.005450401,0.823045267,0,,,,,
-0.005450065,0.740740741,0,,,,,
-0.005449729,0.740740741,0,,,,,
-0.005449393,-0.164609053,0,,,,,
-0.005449057,-0.740740741,0,,,,,
-0.005448721,-1.316872428,0,,,,,
-0.005448385,-1.152263374,0,,,,,
-0.005448049,1.234567901,0,,,,,
-0.005447713,1.316872428,0,,,,,
-0.005447377,1.234567901,0,,,,,
-0.005447041,0.411522634,0,,,,,
-0.005446705,1.069958848,0,,,,,
-0.005446369,0.905349794,0,,,,,
-0.005446033,-0.49382716,0,,,,,
-0.005445697,-0.987654321,0,,,,,
-0.005445361,-1.316872428,0,,,,,
-0.005445025,-0.658436214,0,,,,,
-0.005444689,-0.49382716,0,,,,,
-0.005444353,-0.411522634,0,,,,,
-0.005444017,0.164609053,0,,,,,
-0.005443681,0.905349794,0,,,,,
-0.005443345,1.152263374,0,,,,,
-0.005443009,0.740740741,0,,,,,
-0.005442673,-0.24691358,0,,,,,
-0.005442337,-0.823045267,0,,,,,
-0.005442001,-0.658436214,0,,,,,
-0.005441665,-0.329218107,0,,,,,
-0.005441329,0.082304527,0,,,,,
-0.005440993,0.164609053,0,,,,,
-0.005440657,0.082304527,0,,,,,
-0.005440321,0.082304527,0,,,,,
-0.005439985,0,0,,,,,
-0.005439649,-0.164609053,0,,,,,
-0.005439313,-0.658436214,0,,,,,
-0.005438977,-0.411522634,0,,,,,
-0.005438641,-0.24691358,0,,,,,
-0.005438305,-0.164609053,0,,,,,
-0.005437969,1.975308642,0,,,,,
-0.005437633,1.152263374,0,,,,,
-0.005437297,0.329218107,0,,,,,
-0.005436961,-0.082304527,0,,,,,
-0.005436625,-0.411522634,0,,,,,
-0.005436289,-0.740740741,0,,,,,
-0.005435953,-0.576131687,0,,,,,
-0.005435617,-0.082304527,0,,,,,
-0.005435281,0.082304527,0,,,,,
-0.005434945,0.49382716,0,,,,,
-0.005434609,0.329218107,0,,,,,
-0.005434273,0.49382716,0,,,,,
-0.005433937,0.329218107,0,,,,,
-0.005433601,-0.905349794,0,,,,,
-0.005433265,-0.740740741,0,,,,,
-0.005432929,-0.905349794,0,,,,,
-0.005432593,7.49E-13,0,,,,,
-0.005432257,0.411522634,0,,,,,
-0.005431921,0.49382716,0,,,,,
-0.005431585,0.576131687,0,,,,,
-0.005431249,0.24691358,0,,,,,
-0.005430913,0.082304527,0,,,,,
-0.005430577,-0.411522634,0,,,,,
-0.005430241,-0.658436214,0,,,,,
-0.005429905,-0.823045267,0,,,,,
-0.005429569,-0.49382716,0,,,,,
-0.005429233,0.164609053,0,,,,,
-0.005428897,0.658436214,0,,,,,
-0.005428561,0.987654321,0,,,,,
-0.005428225,1.316872428,0,,,,,
-0.005427889,-1.069958848,0,,,,,
-0.005427553,-2.222222222,0,,,,,
-0.005427217,-0.987654321,0,,,,,
-0.005426881,-1.069958848,0,,,,,
-0.005426545,-0.658436214,0,,,,,
-0.005426209,7.49E-13,0,,,,,
-0.005425873,0.411522634,0,,,,,
-0.005425537,0.905349794,0,,,,,
-0.005425201,0.905349794,0,,,,,
-0.005424865,0.740740741,0,,,,,
-0.005424529,-0.24691358,0,,,,,
-0.005424193,-0.987654321,0,,,,,
-0.005423857,-0.987654321,0,,,,,
-0.005423521,-0.740740741,0,,,,,
-0.005423185,0,0,,,,,
-0.005422849,0.164609053,0,,,,,
-0.005422513,0.411522634,0,,,,,
-0.005422177,0.49382716,0,,,,,
-0.005421841,0.49382716,0,,,,,
-0.005421505,0.082304527,0,,,,,
-0.005421169,-0.658436214,0,,,,,
-0.005420833,-0.576131687,0,,,,,
-0.005420497,-0.49382716,0,,,,,
-0.005420161,0.082304527,0,,,,,
-0.005419825,0.576131687,0,,,,,
-0.005419489,-0.164609053,0,,,,,
-0.005419153,0.987654321,0,,,,,
-0.005418817,-0.164609053,0,,,,,
-0.005418481,0.164609053,0,,,,,
-0.005418145,-2.139917695,0,,,,,
-0.005417809,-1.069958848,0,,,,,
-0.005417473,0.740740741,0,,,,,
-0.005417137,-0.329218107,0,,,,,
-0.005416801,0.329218107,0,,,,,
-0.005416465,0,0,,,,,
-0.005416129,0.329218107,0,,,,,
-0.005415793,0.411522634,0,,,,,
-0.005415457,0.24691358,0,,,,,
-0.005415121,0.082304527,0,,,,,
-0.005414785,-0.740740741,0,,,,,
-0.005414449,-0.576131687,0,,,,,
-0.005414113,-0.24691358,0,,,,,
-0.005413777,0.082304527,0,,,,,
-0.005413441,0.329218107,0,,,,,
-0.005413105,0.329218107,0,,,,,
-0.005412769,0.329218107,0,,,,,
-0.005412433,-0.164609053,0,,,,,
-0.005412097,-0.658436214,0,,,,,
-0.005411761,-0.987654321,0,,,,,
-0.005411425,-0.411522634,0,,,,,
-0.005411089,0.082304527,0,,,,,
-0.005410753,0.576131687,0,,,,,
-0.005410417,0.823045267,0,,,,,
-0.005410081,0.823045267,0,,,,,
-0.005409745,0.658436214,0,,,,,
-0.005409409,-0.24691358,0,,,,,
-0.005409073,-0.905349794,0,,,,,
-0.005408737,-1.316872428,0,,,,,
-0.005408401,-1.399176955,0,,,,,
-0.005408065,0.987654321,0,,,,,
-0.005407729,1.728395062,0,,,,,
-0.005407393,0.658436214,0,,,,,
-0.005407057,0.823045267,0,,,,,
-0.005406721,0.987654321,0,,,,,
-0.005406385,0.164609053,0,,,,,
-0.005406049,-0.576131687,0,,,,,
-0.005405713,-0.987654321,0,,,,,
-0.005405377,-1.234567901,0,,,,,
-0.005405041,-2.25E-12,0,,,,,
-0.005404705,-0.329218107,0,,,,,
-0.005404369,0.658436214,0,,,,,
-0.005404033,0.49382716,0,,,,,
-0.005403697,0.740740741,0,,,,,
-0.005403361,0.49382716,0,,,,,
-0.005403025,-0.658436214,0,,,,,
-0.005402689,-0.411522634,0,,,,,
-0.005402353,-0.740740741,0,,,,,
-0.005402017,-0.082304527,0,,,,,
-0.005401681,0.24691358,0,,,,,
-0.005401345,0.164609053,0,,,,,
-0.005401009,0.329218107,0,,,,,
-0.005400673,-0.082304527,0,,,,,
-0.005400337,-0.329218107,0,,,,,
-0.005400001,-0.823045267,0,,,,,
-0.005399665,-0.658436214,0,,,,,
-0.005399329,-0.24691358,0,,,,,
-0.005398993,0.164609053,0,,,,,
-0.005398657,0.740740741,0,,,,,
-0.005398321,0.905349794,0,,,,,
-0.005397985,-0.740740741,0,,,,,
-0.005397649,-1.399176955,0,,,,,
-0.005397313,0,0,,,,,
-0.005396977,-0.905349794,0,,,,,
-0.005396641,-1.152263374,0,,,,,
-0.005396305,-0.658436214,0,,,,,
-0.005395969,-0.082304527,0,,,,,
-0.005395633,0.576131687,0,,,,,
-0.005395297,0.658436214,0,,,,,
-0.005394961,0.658436214,0,,,,,
-0.005394625,0.411522634,0,,,,,
-0.005394289,0.082304527,0,,,,,
-0.005393953,-0.411522634,0,,,,,
-0.005393617,-1.152263374,0,,,,,
-0.005393281,-1.069958848,0,,,,,
-0.005392945,-0.658436214,0,,,,,
-0.005392609,0.24691358,-0.008230453,,,,,
-0.005392273,0.658436214,0,,,,,
-0.005391937,0.823045267,0,,,,,
-0.005391601,0.823045267,0,,,,,
-0.005391265,0.49382716,0,,,,,
-0.005390929,0.576131687,0,,,,,
-0.005390593,-1.563786008,0,,,,,
-0.005390257,-0.987654321,0,,,,,
-0.005389921,-1.563786008,0,,,,,
-0.005389585,-0.164609053,0,,,,,
-0.005389249,0.658436214,0,,,,,
-0.005388913,0.987654321,0,,,,,
-0.005388577,1.399176955,0,,,,,
-0.005388241,-1.728395062,0,,,,,
-0.005387905,-0.823045267,0,,,,,
-0.005387569,0.082304527,0,,,,,
-0.005387233,-1.316872428,0,,,,,
-0.005386897,-0.905349794,0,,,,,
-0.005386561,-0.740740741,0,,,,,
-0.005386225,-0.164609053,0,,,,,
-0.005385889,-0.164609053,0,,,,,
-0.005385553,0.164609053,0,,,,,
-0.005385217,0.49382716,0,,,,,
-0.005384881,0.658436214,0,,,,,
-0.005384545,0.082304527,0,,,,,
-0.005384209,-0.329218107,0,,,,,
-0.005383873,-0.411522634,0,,,,,
-0.005383537,-0.411522634,0,,,,,
-0.005383201,0.164609053,0,,,,,
-0.005382865,0.24691358,0,,,,,
-0.005382529,0.411522634,0,,,,,
-0.005382193,0.24691358,0,,,,,
-0.005381857,0.329218107,0,,,,,
-0.005381521,-0.24691358,0,,,,,
-0.005381185,-0.658436214,0,,,,,
-0.005380849,-0.576131687,0,,,,,
-0.005380513,-0.576131687,0,,,,,
-0.005380177,0.082304527,0,,,,,
-0.005379841,0.082304527,0,,,,,
-0.005379505,0.49382716,0,,,,,
-0.005379169,0.658436214,0,,,,,
-0.005378833,0.411522634,0,,,,,
-0.005378497,0.082304527,0,,,,,
-0.005378161,1.728395062,0,,,,,
-0.005377825,1.069958848,0,,,,,
-0.005377489,-1.646090535,0,,,,,
-0.005377153,-0.082304527,0,,,,,
-0.005376817,0.164609053,0,,,,,
-0.005376481,0,0,,,,,
-0.005376145,0.987654321,0,,,,,
-0.005375809,0.24691358,0,,,,,
-0.005375473,0.411522634,0,,,,,
-0.005375137,-0.576131687,0,,,,,
-0.005374801,-1.152263374,0,,,,,
-0.005374465,-0.740740741,0,,,,,
-0.005374129,-0.49382716,0,,,,,
-0.005373793,0.658436214,0,,,,,
-0.005373457,0.49382716,0,,,,,
-0.005373121,0.49382716,0,,,,,
-0.005372785,0.329218107,0,,,,,
-0.005372449,0.164609053,0,,,,,
-0.005372113,-0.24691358,0,,,,,
-0.005371777,-1.234567901,0,,,,,
-0.005371441,-1.316872428,0,,,,,
-0.005371105,-0.823045267,0,,,,,
-0.005370769,0.329218107,0,,,,,
-0.005370433,0.905349794,0,,,,,
-0.005370097,1.069958848,0,,,,,
-0.005369761,0.905349794,0,,,,,
-0.005369425,0.49382716,0,,,,,
-0.005369089,-0.082304527,0,,,,,
-0.005368753,-0.987654321,0,,,,,
-0.005368417,-0.576131687,0,,,,,
-0.005368081,-0.082304527,0,,,,,
-0.005367745,0,0,,,,,
-0.005367409,0.49382716,0,,,,,
-0.005367073,0.658436214,0,,,,,
-0.005366737,1.069958848,0,,,,,
-0.005366401,0.740740741,0,,,,,
-0.005366065,0,0,,,,,
-0.005365729,-0.823045267,0,,,,,
-0.005365393,-0.987654321,0,,,,,
-0.005365057,-0.576131687,0,,,,,
-0.005364721,-0.329218107,0,,,,,
-0.005364385,0,0,,,,,
-0.005364049,0.164609053,0,,,,,
-0.005363713,0.740740741,0,,,,,
-0.005363377,0.658436214,0,,,,,
-0.005363041,0.24691358,0,,,,,
-0.005362705,-0.576131687,0,,,,,
-0.005362369,-0.987654321,0,,,,,
-0.005362033,-0.082304527,0,,,,,
-0.005361697,-0.740740741,0,,,,,
-0.005361361,0.823045267,0,,,,,
-0.005361025,0.49382716,0,,,,,
-0.005360689,0.740740741,0,,,,,
-0.005360353,0.823045267,0,,,,,
-0.005360017,-0.329218107,0,,,,,
-0.005359681,-0.329218107,0,,,,,
-0.005359345,-0.658436214,0,,,,,
-0.005359009,-0.164609053,0,,,,,
-0.005358673,-1.95E-12,0,,,,,
-0.005358337,-1.069958848,0,,,,,
-0.005358001,-1.481481481,0,,,,,
-0.005357665,-0.49382716,0,,,,,
-0.005357329,-0.164609053,0,,,,,
-0.005356993,0.082304527,0,,,,,
-0.005356657,-0.24691358,0,,,,,
-0.005356321,-0.24691358,0,,,,,
-0.005355985,0.329218107,0,,,,,
-0.005355649,0.740740741,0,,,,,
-0.005355313,0.740740741,0,,,,,
-0.005354977,0.576131687,0,,,,,
-0.005354641,0.24691358,0,,,,,
-0.005354305,0.082304527,0,,,,,
-0.005353969,-0.411522634,0,,,,,
-0.005353633,-0.905349794,0,,,,,
-0.005353297,-1.316872428,0,,,,,
-0.005352961,-0.987654321,0,,,,,
-0.005352625,-0.164609053,0,,,,,
-0.005352289,0.49382716,0,,,,,
-0.005351953,0.987654321,0,,,,,
-0.005351617,0.823045267,0,,,,,
-0.005351281,0.823045267,0,,,,,
-0.005350945,0.24691358,0,,,,,
-0.005350609,-0.411522634,0,,,,,
-0.005350273,-0.987654321,0,,,,,
-0.005349937,-1.316872428,0,,,,,
-0.005349601,-0.658436214,0,,,,,
-0.005349265,-0.24691358,0,,,,,
-0.005348929,0.658436214,0,,,,,
-0.005348593,0.905349794,0,,,,,
-0.005348257,1.893004115,0,,,,,
-0.005347921,1.152263374,0,,,,,
-0.005347585,-1.646090535,0,,,,,
-0.005347249,-0.576131687,0,,,,,
-0.005346913,-1.646090535,0,,,,,
-0.005346577,-1.152263374,0,,,,,
-0.005346241,-0.329218107,0,,,,,
-0.005345905,0.082304527,0,,,,,
-0.005345569,0.823045267,0,,,,,
-0.005345233,0.658436214,0,,,,,
-0.005344897,0.905349794,0,,,,,
-0.005344561,0.576131687,0,,,,,
-0.005344225,-0.082304527,0,,,,,
-0.005343889,-0.740740741,0,,,,,
-0.005343553,-1.152263374,0,,,,,
-0.005343217,-0.823045267,0,,,,,
-0.005342881,-0.329218107,0,,,,,
-0.005342545,0.411522634,0,,,,,
-0.005342209,0.576131687,0,,,,,
-0.005341873,0.658436214,0,,,,,
-0.005341537,0.576131687,0,,,,,
-0.005341201,1.05E-12,0,,,,,
-0.005340865,-0.576131687,0,,,,,
-0.005340529,-0.905349794,0,,,,,
-0.005340193,-0.576131687,0,,,,,
-0.005339857,-0.329218107,0,,,,,
-0.005339521,0.164609053,0,,,,,
-0.005339185,0.329218107,0,,,,,
-0.005338849,0.49382716,0,,,,,
-0.005338513,0.49382716,0,,,,,
-0.005338177,-0.658436214,0,,,,,
-0.005337841,-0.905349794,0,,,,,
-0.005337505,0.24691358,0,,,,,
-0.005337169,-0.329218107,0,,,,,
-0.005336833,0.164609053,0,,,,,
-0.005336497,0.24691358,0,,,,,
-0.005336161,0.411522634,0,,,,,
-0.005335825,0.329218107,0,,,,,
-0.005335489,0.329218107,0,,,,,
-0.005335153,-0.576131687,0,,,,,
-0.005334817,-0.905349794,0,,,,,
-0.005334481,-0.987654321,0,,,,,
-0.005334145,-0.329218107,0,,,,,
-0.005333809,0.49382716,0,,,,,
-0.005333473,0.740740741,0,,,,,
-0.005333137,1.234567901,0,,,,,
-0.005332801,0.329218107,0,,,,,
-0.005332465,0,0,,,,,
-0.005332129,-0.905349794,0,,,,,
-0.005331793,-1.646090535,0,,,,,
-0.005331457,-0.576131687,0,,,,,
-0.005331121,-0.658436214,0,,,,,
-0.005330785,0.329218107,0,,,,,
-0.005330449,0.658436214,0,,,,,
-0.005330113,0.740740741,0,,,,,
-0.005329777,0.740740741,0,,,,,
-0.005329441,0,0,,,,,
-0.005329105,-0.576131687,0,,,,,
-0.005328769,-0.905349794,0,,,,,
-0.005328433,-1.481481481,0,,,,,
-0.005328097,-1.646090535,0,,,,,
-0.005327761,-1.646090535,0,,,,,
-0.005327425,-0.082304527,0,,,,,
-0.005327089,0.658436214,0,,,,,
-0.005326753,0.576131687,0,,,,,
-0.005326417,-0.082304527,0,,,,,
-0.005326081,-0.658436214,0,,,,,
-0.005325745,-0.987654321,0,,,,,
-0.005325409,-0.49382716,0,,,,,
-0.005325073,-0.164609053,0,,,,,
-0.005324737,0.329218107,0,,,,,
-0.005324401,0.576131687,0,,,,,
-0.005324065,0.49382716,0,,,,,
-0.005323729,0.411522634,0,,,,,
-0.005323393,-0.24691358,0,,,,,
-0.005323057,-0.49382716,0,,,,,
-0.005322721,-0.740740741,0,,,,,
-0.005322385,-0.411522634,0,,,,,
-0.005322049,-0.082304527,0,,,,,
-0.005321713,0.082304527,0,,,,,
-0.005321377,0.49382716,-0.008230453,,,,,
-0.005321041,0.329218107,-1.50E-14,,,,,
-0.005320705,0.329218107,0,,,,,
-0.005320369,-0.24691358,0,,,,,
-0.005320033,-0.658436214,0,,,,,
-0.005319697,-0.740740741,0,,,,,
-0.005319361,-0.576131687,0,,,,,
-0.005319025,0.082304527,0,,,,,
-0.005318689,0.24691358,0,,,,,
-0.005318353,0.823045267,0,,,,,
-0.005318017,1.481481481,0,,,,,
-0.005317681,1.646090535,0,,,,,
-0.005317345,0.576131687,0,,,,,
-0.005317009,-1.069958848,0,,,,,
-0.005316673,-0.905349794,0,,,,,
-0.005316337,-0.905349794,0,,,,,
-0.005316001,-0.164609053,0,,,,,
-0.005315665,0.49382716,0,,,,,
-0.005315329,0.658436214,0,,,,,
-0.005314993,1.152263374,0,,,,,
-0.005314657,0.576131687,0,,,,,
-0.005314321,0.329218107,0,,,,,
-0.005313985,-0.576131687,0,,,,,
-0.005313649,-1.316872428,0,,,,,
-0.005313313,-1.234567901,0,,,,,
-0.005312977,-0.987654321,0,,,,,
-0.005312641,-0.082304527,0,,,,,
-0.005312305,0.411522634,0,,,,,
-0.005311969,0.905349794,0,,,,,
-0.005311633,0.823045267,0,,,,,
-0.005311297,0.823045267,0,,,,,
-0.005310961,0.411522634,0,,,,,
-0.005310625,-0.49382716,0,,,,,
-0.005310289,-1.069958848,0,,,,,
-0.005309953,-1.234567901,0,,,,,
-0.005309617,-0.658436214,0,,,,,
-0.005309281,-0.164609053,0,,,,,
-0.005308945,0.411522634,0,,,,,
-0.005308609,0.740740741,0,,,,,
-0.005308273,1.316872428,0,,,,,
-0.005307937,2.469135802,0,,,,,
-0.005307601,1.728395062,0,,,,,
-0.005307265,-0.740740741,0,,,,,
-0.005306929,-1.316872428,0,,,,,
-0.005306593,-0.987654321,0,,,,,
-0.005306257,-0.24691358,0,,,,,
-0.005305921,0.164609053,0,,,,,
-0.005305585,0.329218107,0,,,,,
-0.005305249,0.329218107,0,,,,,
-0.005304913,0.740740741,0,,,,,
-0.005304577,0.411522634,0,,,,,
-0.005304241,-0.082304527,0,,,,,
-0.005303905,-0.987654321,0,,,,,
-0.005303569,-1.316872428,0,,,,,
-0.005303233,-0.24691358,0,,,,,
-0.005302897,-0.576131687,0,,,,,
-0.005302561,0.823045267,0,,,,,
