log/TDMA_GE_00.csv

#Digilent WaveForms Oscilloscope Acquisition
#Device Name: ADP5250-323F81C
#Serial Number: SN:323F81C
#Date Time: 2023-03-08 13:10:49.434.161.099
#Sample rate: 515464Hz
#Samples: 32768
#Trigger: Source: Channel 1 Type: Edge Condition: Rising Level: 0 V Hyst.: Auto
#Channel 1: Range: 2 V/div Offset: 0 V Attenuation: 1 X Coupling: DC Bandwidth: Full Sample Mode: Average
#Channel 2: Range: 200 mV/div Offset: 0 V Attenuation: 1 X Coupling: DC Bandwidth: Full

Time (s),Channel 1 (V),Channel 2 (V)
-0.031783428345,0.823045267489712,0
-0.031781488345000004,-1.0699588477366255,0
-0.031779548345000005,-0.24691358024691357,0
-0.03177760834500001,2.7983539094594816,0
-0.031775668345,1.0699588477310862,0
-0.031773728345,-1.975308641966326,0
-0.031771788345,2.962962962962963,0
-0.031769848345000004,1.9753086419753085,0
-0.031767908345000005,-3.6213991769547325,0
-0.031765968345000006,2.880658436202165,0
-0.031764028345,1.3168724279738078,0
-0.031762088345,-4.032921810687163,0
-0.031760148345,2.7983539094650207,0
-0.031758208345000004,-0.0823045267489712,0
-0.031756268345000005,-4.11522633744856,0
-0.031754328345000006,2.8806584362012657,0
-0.03175238834500001,-0.5761316872365105,0
-0.031750448345,-4.032921810687911,0
-0.031748508345,2.3868312757201644,0
-0.031746568345000004,0.24691358024691357,0
-0.031744628345000005,-1.9753086419753085,0
-0.031742688345000006,0.9053497942334432,0
-0.03174074834500001,1.3991769547316122,0
-0.031738808345,1.2345679012279804,0
-0.031736868345,-2.3868312757201644,0
-0.031734928345,2.05761316872428,0
-0.031732988345000004,2.4691358024691357,0
-0.031731048345000006,-2.7983539094650207,0
-0.03172910834500001,1.6460905349713397,0
-0.031727168345,2.3045267489598156,0
-0.031725228345,-3.9506172839404368,0
-0.031723288345,1.646090534979424,0
-0.031721348345000004,0.7407407407407407,0
-0.031719408345000005,-4.032921810699588,0
-0.031717468345000006,3.2098765431967022,0
-0.031715528345,-0.32921810700247206,0
-0.031713588345,-3.9506172839389397,0
-0.031711648345,2.4691358024691357,0
-0.031709708345000004,-0.0823045267489712,0
-0.031707768345000005,-3.045267489711934,0
-0.031705828345000006,1.3168724279756043,0
-0.03170388834500001,1.5637860082300035,0
-0.031701948345,0.41152263374276005,0
-0.031700008345,-0.7407407407407407,0
-0.031698068345000004,2.139917695473251,0
-0.031696128345000005,2.880658436213992,0
-0.031694188345000006,-3.0452674897011547,0
-0.03169224834500001,1.8930041152173542,0
-0.031690308345,3.045267489699059,0
-0.031688368345,-4.032921810699588,0
-0.031686428345,1.3991769547325104,0
-0.031684488345000004,1.316872427983539,0
-0.031682548345000006,-4.032921810699588,0
-0.03168060834500001,1.8106995884667363,0
-0.031678668345,-0.08230452675540877,0
-0.031676728345,-3.621399176944253,0
-0.031674788345,2.139917695473251,0
-0.031672848345000004,-0.1646090534979424,0
-0.031670908345000005,-3.7037037037037037,0
-0.031668968345000006,1.3991769547232278,0
-0.031667028345,1.8930041152212473,0
-0.031665088345,-0.9053497942370363,0
-0.031663148345,0,0
-0.031661208345000004,2.880658436213992,0
-0.031659268345000005,1.3991769547325104,0
-0.031657328345000006,-2.0576131687179924,0
-0.03165538834500001,3.209876543200295,0
-0.031653448345,1.646090534972088,0
-0.031651508345,-2.3868312757201644,0
-0.031649568345000004,1.8106995884773662,0
-0.031647628345000005,1.5637860082304527,0
-0.031645688345000006,-3.9506172839405873,0
-0.03164374834500001,1.563786008220423,0
-0.031641808345,-0.0823045267558579,0
-0.031639868345,-3.8683127572016462,0
-0.031637928345,0.9876543209876543,0
-0.031635988345000005,-0.823045267489712,0
-0.031634048345000006,-2.8806584362102488,0
-0.03163210834500001,0.1646090534924034,0
-0.031630168345,0.7407407407386447,0
-0.031628228345,-0.41152263374575426,0
-0.031626288345,-0.9053497942386831,0
-0.031624348345000004,2.4691358024691357,0
-0.031622408345000005,2.05761316872428,0
-0.031620468345000007,-2.3868312757120806,0
-0.031618528345,3.3744855967076695,0
-0.031616588345,3.2921810699455234,0
-0.031614648345,-4.032921810699588,0
-0.031612708345000004,3.374485596707819,0
-0.031610768345000005,1.646090534979424,0
-0.031608828345000006,-4.032921810689258,0
-0.031606888345,2.4691358024634464,0
-0.031604948345,-0.658436213997758,0
-0.031603008345,-3.950617283950617,0
-0.031601068345000004,2.05761316872428,0
-0.031599128345000005,-1.728395061728395,0
-0.031597188345000006,-3.4567901234536462,0
-0.03159524834500001,0.3292181069889981,0
-0.031593308345,-0.0823045267504683,0
-0.031591368345,-0.9053497942386831,0
-0.031589428345000004,-0.7407407407407407,0
-0.031587488345000005,2.3868312757201644,0
-0.031585548345000006,1.6460905349807713,0
-0.03158360834500001,-1.9753086419687214,0
-0.031581668345,3.3744855967079688,0
-0.031579728345,3.45679012345679,0
-0.031577788345,-3.7037037037037037,0
-0.031575848345000004,3.539094650205761,0
-0.031573908345000005,2.7160493827160495,0
-0.03157196834500001,-3.786008230440848,0
-0.031570028345,2.8806584362098,0
-0.031568088345,0.5761316872344145,0
-0.031566148345,-4.032921810699588,0
-0.031564208345000004,2.3868312757201644,0
-0.031562268345000005,-2.05761316872428,0
-0.031560328345000006,-3.5390946502030665,0
-0.031558388345,1.4814814814751935,0
-0.031556448345,-1.9753086419739612,0
-0.031554508345,-1.2345679012345678,0
-0.031552568345000004,0.0823045267489712,0
-0.031550628345000005,-0.1646090534979424,0
-0.031548688345000006,1.9753086419714163,0
-0.03154674834500001,-1.2345679012287292,0
-0.031544808345,1.7283950617328863,0
-0.031542868345,4.197530864197531,0
-0.031540928345000004,-3.7037037037037037,0
-0.031538988345000005,2.2222222222222223,0
-0.031537048345000006,4.691358024686867,0
-0.03153510834500001,-3.950617283934897,0
-0.031533168345,1.5637860082318,0
-0.031531228345,2.3045267489711936,0
-0.031529288345,-4.197530864197531,0
-0.031527348345000004,1.646090534979424,0
-0.031525408345000006,-0.24691358024691357,0
-0.03152346834500001,-4.032921810692701,0
-0.031521528345,1.2345679012300765,0
-0.031519588345,-1.2345679012372626,0
-0.031517648345,-2.7160493827160495,0
-0.031515708345000004,0.9876543209876543,0
-0.031513768345000005,-0.24691358024691357,0
-0.031511828345000006,0.3292181069948369,0
-0.031509888345,-0.7407407407362494,0
-0.031507948345,1.72839506173094,0
-0.031506008345,3.1275720164609053,0
-0.031504068345000004,-2.4691358024691357,0
-0.031502128345000005,2.4691358024691357,0
-0.031500188345000006,3.9506172839479223,0
-0.03149824834500001,-3.3744855966944947,0
-0.031496308345,1.563786008232848,0
-0.031494368345,2.880658436213992,0
-0.031492428345000004,-3.950617283950617,0
-0.031490488345000005,1.0699588477366255,0
-0.031488548345000006,0.1646090534995892,0
-0.03148660834500001,-4.115226337440775,0
-0.031484668345,0.32921810699319,0
-0.031482728345,-1.1522633744855968,0
-0.031480788345,-2.4691358024691357,0
-0.031478848345000005,-0.3292181069958848,0
-0.031476908345000006,0,0
-0.03147496834500001,0.08230452674882148,0
-0.031473028345,-1.1522633744800574,0
-0.031471088345,1.8930041152276849,0
-0.031469148345,2.633744855967078,0
-0.031467208345000004,-2.7160493827160495,0
-0.031465268345000005,3.045267489711934,0
-0.031463328345000006,3.6213991769536844,0
-0.031461388345,-3.2921810699486675,0
-0.031459448345,2.3045267489722416,0
-0.031457508345,2.880658436213992,0
-0.031455568345000004,-3.7037037037037037,0
-0.031453628345000005,1.4814814814814814,0
-0.031451688345000006,0.16460905350033772,0
-0.03144974834500001,-3.9506172839431315,0
-0.031447808345,1.069958847731685,0
-0.031445868345,-1.646090534979424,0
-0.031443928345000004,-2.7160493827160495,0
-0.031441988345000005,0.24691358024691357,0
-0.031440048345000006,-1.4814814814783375,0
-0.03143810834500001,0.24691358024376964,0
-0.031436168345,-1.4814814814771398,0
-0.031434228345,0.9053497942386831,0
-0.031432288345,3.045267489711934,0
-0.031430348345000005,-3.045267489711934,0
-0.031428408345000006,2.7983539094543914,0
-0.03142646834500001,4.526748971190272,0
-0.031424528345,-3.95061728393879,0
-0.031422588345,2.5514403292074777,0
-0.031420648345,-3.292181069958848,0
-0.031418708345000004,4.362139917695473,0
-0.031416768345000005,-3.45679012345679,0
-0.03141482834500001,1.8106995884677848,0
-0.031412888345,1.5637860082268595,0
-0.031410948345,-0.4115226337460537,0
-0.031409008345,-1.0699588477366255,0
-0.031407068345000004,-0.9053497942386831,0
-0.031405128345000005,1.8930041152263375,0
-0.031403188345000006,-4.032921810688809,0
-0.031401248345,4.362139917680053,0
-0.031399308345,-4.115226337435834,0
-0.031397368345,2.880658436213992,0
-0.031395428345000004,1.8930041152263375,0
-0.031393488345000005,0.1646090534979424,0
-0.031391548345000006,-2.469135802464345,0
-0.03138960834500001,-4.491518268423533e-12,0
-0.031387668345,1.234567901225136,0
-0.031385728345,-3.950617283950617,0
-0.031383788345000004,4.11522633744856,0
-0.031381848345000005,-4.032921810699588,0
-0.031379908345000006,2.6337448559549514,0
-0.03137796834500001,1.5637860082323989,0
-0.031376028345,0.740740740733854,0
-0.031374088345,-3.045267489711934,0
-0.031372148345,0,0
-0.031370208345000004,0.411522633744856,0
-0.031368268345000005,-3.374485596707819,0
-0.03136632834500001,4.197530864183758,0
-0.031364388345,-4.032921810686414,0
-0.031362448345,3.209876543205535,0
-0.031360508345,0.823045267489712,0
-0.031358568345000004,1.2345679012345678,0
-0.031356628345000005,-3.8683127572016462,0
-0.031354688345000006,-7.036593530074242e-12,0
-0.031352748345,0.49382716048738956,0
-0.031350808345,-3.04526748969846,0
-0.031348868345,4.362139917695473,0
-0.031346928345000004,-3.7037037037037037,0
-0.031344988345000005,3.045267489711934,0.00823045267489712
-0.031343048345000006,-0.9876543209803188,1.4970663597679845e-14
-0.03134110834500001,3.950617283941634,0
-0.031339168345,-4.2798353909390165,0
-0.031337228345,-0.1646090534979424,0
-0.031335288345000004,1.728395061728395,0
-0.031333348345000005,-3.292181069958848,0
-0.031331408345000006,4.36213991768155,0
-0.03132946834500001,-4.032921810684317,0
-0.031327528345,2.386831275713128,0
-0.031325588345,-1.4814814814814814,0
-0.031323648345,4.444444444444445,0
-0.031321708345000004,-4.197530864197531,0
-0.031319768345000006,0.9876543209876543,0
-0.03131782834500001,1.810699588475869,0
-0.031315888345,-2.798353909452445,0
-0.031313948345,4.115226337434337,0
-0.031312008345,-3.7037037037037037,0
-0.031310068345000004,1.646090534979424,0
-0.031308128345000005,-1.728395061728395,0
-0.031306188345000006,4.279835390935573,0
-0.031304248345,-4.1975308641852545,0
-0.031302308345,2.55144032921661,0
-0.031300368345,1.728395061728395,0
-0.031298428345000004,-3.292181069958848,0
-0.031296488345000005,4.526748971193416,0
-0.031294548345000006,-4.032921810684019,0
-0.03129260834500001,1.3991769547226296,0
-0.031290668345,-1.6460905349686448,0
-0.031288728345,4.279835390946502,0
-0.031286788345000004,-3.374485596707819,0
-0.031284848345000005,2.7160493827160495,0
-0.031282908345000006,0.9053497942419766,0
-0.03128096834500001,-2.139917695467712,0
-0.031279028345,4.032921810684617,0
-0.031277088345,-4.197530864197531,0
-0.031275148345,1.8930041152263375,0
-0.031273208345000005,-2.3868312757201644,0
-0.031271268345000006,4.362139917683198,0
-0.03126932834500001,-4.11522633743314,0
-0.031267388345,4.1152263374425715,0
-0.031265448345,0.8230452674871669,0
-0.031263508345,-0.5761316872427984,0
-0.031261568345000004,2.4691358024691357,0
-0.031259628345000005,-3.8683127572016462,0
-0.031257688345000006,2.386831275708786,0
-0.031255748345,-2.9629629629502374,0
-0.031253808345,4.032921810685067,0
-0.031251868345,-3.950617283950617,0
-0.031249928345000004,3.045267489711934,0
-0.031247988345000005,0.6584362139917695,0
-0.031246048345000003,0.3292181069958848,0
-0.031244108345000004,0.5761316872427984,0
-0.031242168345000005,-2.962962962962963,0
-0.031240228345000003,2.4691358024691357,0
-0.031238288345000004,-4.032921810699588,0
-0.031236348345000005,4.279835390946502,0
-0.031234408345000002,-4.032921810699588,0
-0.031232468345000004,1.8106995884773662,0
-0.031230528345000005,1.9753086419753085,0
-0.031228588345000002,0.1646090534979424,0
-0.031226648345000003,-0.6584362139917695,0
-0.031224708345000005,-1.728395061728395,0
-0.031222768345000002,1.2345679012345678,0
-0.031220828345000003,-3.8683127572016462,0
-0.031218888345000004,4.362139917695473,0
-0.031216948345000006,-4.197530864197531,0
-0.031215008345000003,3.292181069958848,0
-0.031213068345000004,1.3991769547325104,0
-0.031211128345000005,0,0
-0.031209188345000003,-0.5761316872427984,0
-0.031207248345000004,-1.0699588477366255,0
-0.031205308345000005,0.5761316872427984,0
-0.031203368345000003,-3.045267489711934,0
-0.031201428345000004,4.362139917695473,0
-0.031199488345000005,-4.11522633744856,0
-0.031197548345000003,2.4691358024691357,0
-0.031195608345000004,0.411522633744856,0
-0.031193668345000005,1.2345679012345678,0
-0.031191728345000003,-2.4691358024691357,0
-0.031189788345000004,-1.2345679012345678,0
-0.031187848345000005,1.0699588477366255,0
-0.031185908345000003,-2.962962962962963,0
-0.031183968345000004,4.362139917695473,0
-0.031182028345000005,-4.11522633744856,0
-0.031180088345000002,3.045267489711934,0
-0.031178148345000004,-0.9876543209876543,0
-0.031176208345000005,2.880658436213992,0
-0.031174268345000002,-3.8683127572016462,0
-0.031172328345000003,-0.7407407407407407,0
-0.031170388345000005,2.2222222222222223,0
-0.031168448345000002,-2.962962962962963,0
-0.031166508345000003,4.691358024691358,0
-0.031164568345000004,-4.279835390946502,0
-0.031162628345000006,2.551440329218107,0
-0.031160688345000003,-1.8106995884773662,0
-0.031158748345000004,3.786008230452675,0
-0.031156808345000005,-4.444444444444445,0
-0.031154868345000003,0.6584362139917695,0
-0.031152928345000004,2.139917695473251,0
-0.031150988345000005,-3.292181069958848,0
-0.031149048345000003,4.444444444444445,0
-0.031147108345000004,-4.444444444444445,0
-0.031145168345000005,1.3991769547325104,0
-0.031143228345000003,-1.3991769547325104,0
-0.031141288345000004,4.032921810699588,0
-0.031139348345000005,-4.11522633744856,0
-0.031137408345000003,1.728395061728395,0
-0.031135468345000004,1.4814814814814814,0
-0.031133528345000005,-2.551440329218107,0
-0.031131588345000002,4.362139917695473,0
-0.031129648345000004,-4.11522633744856,0
-0.031127708345000005,1.8106995884773662,0
-0.031125768345000002,-1.9753086419753085,0
-0.031123828345000003,4.032921810699588,0
-0.031121888345000005,-4.032921810699588,0
-0.031119948345000002,2.139917695473251,0
-0.031118008345000003,1.2345679012345678,0
-0.031116068345000004,-0.9876543209876543,0
-0.031114128345000006,4.362139917695473,0
-0.031112188345000003,-4.11522633744856,0
-0.031110248345000004,3.1275720164609053,0
-0.031108308345000005,-3.45679012345679,0
-0.031106368345000003,4.279835390946502,0
-0.031104428345000004,-4.032921810699588,0
-0.031102488345000005,1.8930041152263375,0
-0.031100548345000003,1.0699588477366255,0
-0.031098608345000004,0,0
-0.031096668345000005,3.374485596707819,0
-0.031094728345000003,-4.032921810699588,0
-0.031092788345000004,3.2098765432098766,0
-0.031090848345000005,-3.6213991769547325,0
-0.031088908345000003,4.362139917695473,0
-0.031086968345000004,-4.526748971193416,0
-0.031085028345000005,1.8930041152263375,0
-0.031083088345000003,1.8106995884773662,0
-0.031081148345000004,0.0823045267489712,0
-0.031079208345000005,1.5637860082304527,0
-0.031077268345000002,-2.551440329218107,0
-0.031075328345000004,2.139917695473251,0
-0.031073388345000005,-4.032921810699588,0
-0.031071448345000002,4.362139917695473,0
-0.031069508345000003,-4.11522633744856,0
-0.031067568345000005,2.7160493827160495,0
-0.031065628345000002,1.9753086419753085,0
-0.031063688345000003,-0.411522633744856,0
-0.031061748345000004,2.2222222222222223,0
-0.031059808345000006,-3.374485596707819,0
-0.031057868345000003,0.9876543209876543,0
-0.031055928345000004,-3.2098765432098766,0
-0.031053988345000005,4.362139917695473,0
-0.031052048345000003,-4.11522633744856,0
-0.031050108345000004,3.45679012345679,0
-0.031048168345000005,0.9876543209876543,0
-0.031046228345000003,0.1646090534979424,0
-0.031044288345000004,1.0699588477366255,0
-0.031042348345000005,-3.2098765432098766,0
-0.031040408345000003,0.9876543209876543,0
-0.031038468345000004,-2.880658436213992,0
-0.031036528345000005,4.526748971193416,0
-0.031034588345000003,-4.197530864197531,0
-0.031032648345000004,3.45679012345679,0
-0.031030708345000005,-0.7407407407407407,0
-0.031028768345000002,1.8106995884773662,0
-0.031026828345000004,-2.139917695473251,0
-0.031024888345000005,-2.551440329218107,0
-0.031022948345000002,2.4691358024691357,0
-0.031021008345000003,-2.880658436213992,0
-0.031019068345000005,4.362139917695473,0
-0.031017128345000002,-4.197530864197531,0
-0.031015188345000003,2.633744855967078,0
-0.031013248345000004,-1.2345679012345678,0
-0.031011308345000006,2.633744855967078,0
-0.031009368345000003,-3.45679012345679,0
-0.031007428345000004,-1.1522633744855968,0
-0.031005488345000005,2.2222222222222223,0
-0.031003548345000003,-3.2098765432098766,0
-0.031001608345000004,4.362139917695473,0
-0.030999668345000005,-4.11522633744856,0
-0.030997728345000003,1.728395061728395,0
-0.030995788345000004,-0.9876543209876543,0
-0.030993848345000005,2.7983539094650207,0
-0.030991908345000003,-3.786008230452675,0
-0.030989968345000004,-0.0823045267489712,0
-0.030988028345000005,2.3868312757201644,0
-0.030986088345000003,-3.1275720164609053,0
-0.030984148345000004,4.279835390946502,0
-0.030982208345000005,-4.11522633744856,0
-0.030980268345000003,1.8106995884773662,0
-0.030978328345000004,-1.646090534979424,0
-0.030976388345000005,3.2098765432098766,0
-0.030974448345000002,-4.11522633744856,0
-0.030972508345000004,1.2345679012345678,0
-0.030970568345000005,1.8930041152263375,0
-0.030968628345000002,-2.139917695473251,0
-0.030966688345000003,4.444444444444445,0
-0.030964748345000005,-4.11522633744856,0
-0.030962808345000002,2.7160493827160495,0
-0.030960868345000003,-2.3868312757201644,0
-0.030958928345000004,2.880658436213992,0
-0.030956988345000006,-4.691358024691358,0
-0.030955048345000003,0.9053497942386831,0
-0.030953108345000004,1.2345679012345678,0
-0.030951168345000005,-0.411522633744856,0
-0.030949228345000003,4.279835390946502,0
-0.030947288345000004,-3.539094650205761,0
-0.030945348345000005,3.292181069958848,0
-0.030943408345000003,-3.2098765432098766,0
-0.030941468345000004,3.539094650205761,0
-0.030939528345000005,-4.11522633744856,0
-0.030937588345000003,1.8930041152263375,0
-0.030935648345000004,1.646090534979424,0
-0.030933708345000005,0,0
-0.030931768345000003,3.8683127572016462,0
-0.030929828345000004,-4.032921810699588,0
-0.030927888345000005,2.880658436213992,0
-0.030925948345000003,-3.8683127572016462,0
-0.030924008345000004,4.362139917695473,0
-0.030922068345000005,-4.11522633744856,0
-0.030920128345000002,1.2345679012345678,0
-0.030918188345000003,1.3991769547325104,0
-0.030916248345000005,1.3991769547325104,0
-0.030914308345000002,-1.1522633744855968,0
-0.030912368345000003,2.139917695473251,0
-0.030910428345000004,-0.9876543209876543,0
-0.030908488345000002,2.3045267489711936,0
-0.030906548345000003,-2.7983539094650207,0
-0.030904608345000004,-0.7407407407407407,0
-0.030902668345000005,1.8106995884773662,0
-0.030900728345000003,0,0
-0.030898788345000004,-0.9876543209876543,0
-0.030896848345000005,0.24691358024691357,0
-0.030894908345000003,-2.880658436213992,0
-0.030892968345000004,1.728395061728395,0
-0.030891028345000005,1.2345679012345678,0
-0.030889088345000003,-1.1522633744855968,0
-0.030887148345000004,2.633744855967078,0
-0.030885208345000005,-3.786008230452675,0
-0.030883268345000003,0.7407407407407407,0
-0.030881328345000004,1.1522633744855968,0
-0.030879388345000005,0,0
-0.030877448345000003,-2.3045267489711936,0
-0.030875508345000004,0.9053497942386831,0
-0.030873568345000005,-3.786008230452675,0
-0.030871628345000002,2.139917695473251,0
-0.030869688345000004,0.3292181069958848,0
-0.030867748345000005,-0.823045267489712,0
-0.030865808345000002,1.316872427983539,0
