log/TDMA_GE_01.csv

#Digilent WaveForms Oscilloscope Acquisition
#Device Name: ADP5250-323F81C
#Serial Number: SN:323F81C
#Date Time: 2023-03-08 14:02:46.825.950.299
#Sample rate: 531915Hz
#Samples: 32768
#Trigger: Source: Channel 1 Type: Edge Condition: Rising Level: 0 V Hyst.: Auto
#Channel 1: Range: 2 V/div Offset: 0 V Attenuation: 1 X Coupling: DC Bandwidth: Full Sample Mode: Average
#Channel 2: Range: 200 mV/div Offset: 0 V Attenuation: 1 X Coupling: DC Bandwidth: Full

Time (s),Channel 1 (V),Channel 2 (V)
-0.030545042288,2.3045267489711936,0
-0.030543162288,-0.6584362139917695,0
-0.030541282288000002,-0.49382716049382713,0
-0.030539402288,2.05761316872428,0
-0.030537522288,-3.374485596707819,0
-0.030535642288,1.646090534979424,0
-0.030533762288,0.823045267489712,0
-0.030531882288000002,-3.045267489711934,0
-0.030530002288,2.05761316872428,0
-0.030528122288,-1.0699588477366255,0
-0.030526242288,0.823045267489712,0
-0.030524362288,1.2345679012345678,0
-0.030522482288000002,-2.962962962962963,0
-0.030520602288,1.8106995884773662,0
-0.030518722288,0.5761316872427984,0
-0.030516842288,-1.646090534979424,0
-0.030514962288000002,1.728395061728395,0
-0.030513082288,-1.728395061728395,0
-0.030511202288,0.823045267489712,0
-0.030509322288,0.1646090534979424,0
-0.030507442288,-2.3868312757201644,0
-0.030505562288000002,2.3045267489711936,0
-0.030503682288,0.9876543209876543,0
-0.030501802288,-1.1522633744855968,0
-0.030499922288,1.646090534979424,0
-0.030498042288000002,-1.2345679012345678,0
-0.030496162288,0.0823045267489712,0
-0.030494282288,-0.5761316872427984,0
-0.030492402288,-1.8106995884773662,0
-0.030490522288,1.8106995884773662,0
-0.030488642288000002,0.411522633744856,0
-0.030486762288,0.24691358024691357,0
-0.030484882288,1.1522633744855968,0
-0.030483002288,-0.9053497942386831,0
-0.030481122288,1.0699588477366255,0
-0.030479242288,-2.05761316872428,0
-0.030477362288,-0.1646090534979424,0
-0.030475482288,0.9876543209876543,0
-0.030473602288,-0.1646090534979424,0
-0.030471722288000002,0.9876543209876543,0
-0.030469842288,0.411522633744856,0
-0.030467962288,-0.411522633744856,0
-0.030466082288,1.0699588477366255,0
-0.030464202288,-2.880658436213992,0
-0.030462322288000002,0.49382716049382713,0
-0.030460442288,0.7407407407407407,0
-0.030458562288,-0.49382716049382713,0
-0.030456682288,1.3991769547325104,0
-0.030454802288000002,0.24691358024691357,0
-0.030452922288,-0.0823045267489712,0
-0.030451042288,1.728395061728395,0
-0.030449162288,-3.45679012345679,0
-0.030447282288,0.9053497942386831,0.00823045267489712
-0.030445402288000002,0.823045267489712,0
-0.030443522288,-1.5637860082304527,0
-0.030441642288,1.8930041152263375,0
-0.030439762288,-0.3292181069958848,0
-0.030437882288000002,0.0823045267489712,0
-0.030436002288,2.3045267489711936,0
-0.030434122288,-3.786008230452675,0
-0.030432242288,1.1522633744855968,0
-0.030430362288,0.6584362139917695,0
-0.030428482288000002,-2.551440329218107,0
-0.030426602288,1.646090534979424,0
-0.030424722288,-0.6584362139917695,0
-0.030422842288,0.0823045267489712,0
-0.030420962288,2.3045267489711936,0
-0.030419082288000002,-3.786008230452675,0
-0.030417202288,1.4814814814814814,0
-0.030415322288,0,0
-0.030413442288,-2.7160493827160495,0
-0.030411562288000002,2.4691358024691357,0
-0.030409682288,-0.9876543209876543,0
-0.030407802288,0.3292181069958848,0
-0.030405922288,1.4814814814814814,0
-0.030404042288,-3.292181069958848,0
-0.030402162288000002,1.5637860082304527,0
-0.030400282288,-0.411522633744856,0
-0.030398402288,-2.633744855967078,0
-0.030396522288,1.0699588477366255,0
-0.030394642288000002,-0.0823045267489712,0
-0.030392762288,0.1646090534979424,0
-0.030390882288,1.3991769547325104,0
-0.030389002288,-2.633744855967078,0
-0.030387122288,0.9053497942386831,0
-0.030385242288000002,0.49382716049382713,0
-0.030383362288,-2.7983539094650207,0
-0.030381482288,0.9053497942386831,0
-0.030379602288,0.3292181069958848,0
-0.030377722288,-0.0823045267489712,0
-0.030375842288,1.8930041152185526,0
-0.030373962288,-2.3868312757201644,0
-0.030372082288,0.823045267489712,0
-0.030370202288,0.6584362139917695,0
-0.030368322288000002,-2.7160493827160495,0
-0.030366442288,1.2345679012345678,0
-0.030364562288,0.411522633744856,0
-0.030362682288,-0.1646090534979424,0
-0.030360802288,0.823045267489712,0
-0.030358922288000002,-1.8930041152263375,0
-0.030357042288,0.7407407407407407,0
-0.030355162288,1.0699588477366255,0
-0.030353282288,-2.3045267489711936,0
-0.030351402288000002,0.7407407407407407,0
-0.030349522288,0.24691358024691357,0
-0.030347642288,-0.3292181069958848,0
-0.030345762288,1.4814814814814814,0
-0.030343882288,-1.728395061728395,0
-0.030342002288000002,0.5761316872427984,0
-0.030340122288,1.5637860082304527,0
-0.030338242288,-2.139917695473251,0
-0.030336362288,0.411522633744856,0
-0.030334482288000002,0,0
-0.030332602288,-0.7407407407407407,0
-0.030330722288,0.49382716049382713,0
-0.030328842288,-1.3991769547325104,0
-0.030326962288,0.49382716049382713,0
-0.030325082288000002,1.5637860082304527,0
-0.030323202288,-0.9876543209876543,0
-0.030321322288,0.7407407407407407,0
-0.030319442288,0.0823045267489712,0
-0.030317562288,-0.3292181069958848,0
-0.030315682288000002,-1.316872427983539,0
-0.030313802288,-0.7407407407407407,0
-0.030311922288,0.3292181069958848,0
-0.030310042288,1.4814814814814814,0
-0.030308162288000002,-0.1646090534979424,0.00823045267489712
-0.030306282288,0.3292181069958848,0
-0.030304402288,0.1646090534979424,0
-0.030302522288,-0.24691358024691357,0
-0.030300642288,-0.9876543209876543,0
-0.030298762288000002,-0.49382716049382713,0
-0.030296882288,0.411522633744856,0
-0.030295002288,1.2345679012345678,0
-0.030293122288,0.0823045267489712,0
-0.030291242288000002,0.7407407407407407,0
-0.030289362288,0,0
-0.030287482288,0.24691358024691357,0
-0.030285602288,-1.316872427983539,0
-0.030283722288,-0.5761316872427984,0
-0.030281842288000002,1.316872427983539,0
-0.030279962288,0,0
-0.030278082288,0.411522633744856,0
-0.030276202288,0.9053497942386831,0
-0.030274322288,-0.823045267489712,0
-0.030272442288000002,1.6460905349749326,0
-0.030270562288,-2.3045267489711936,0
-0.030268682288,-0.49382716049382713,0
-0.030266802288,1.4814814814814814,0
-0.030264922288000002,-1.4814814814814814,0
-0.030263042288,1.1522633744855968,0
-0.030261162288,0.823045267489712,0
-0.030259282288,-1.0699588477366255,0
-0.030257402288,2.3045267489711936,0
-0.030255522288000002,-3.45679012345679,0
-0.030253642288,-0.1646090534979424,0
-0.030251762288,1.4814814814814814,0
-0.030249882288,-2.3868312757201644,0
-0.030248002288000002,1.2345679012345678,0.00823045267489712
-0.030246122288,-0.1646090534979424,0
-0.030244242288,-1.0699588477366255,0
-0.030242362288,2.7160493827160495,0
-0.030240482288,-3.1275720164609053,0
-0.030238602288000002,0.3292181069958848,0
-0.030236722288,0.9053497942386831,0
-0.030234842288,-3.1275720164609053,0
-0.030232962288,1.8930041152263375,0
-0.030231082288,0.24691358024691357,0
-0.030229202288,-1.0699588477366255,0
-0.030227322288,2.7983539094650207,0
-0.030225442288,-3.45679012345679,0
-0.030223562288,1.3991769547325104,0
-0.030221682288000002,0.5761316872427984,0
-0.030219802288,-3.8683127572016462,0
-0.030217922288,2.3868312757201644,0
-0.030216042288,0.411522633744856,0
-0.030214162288,-0.7407407407407407,0
-0.030212282288000002,2.7160493827160495,0
-0.030210402288,-3.7037037037037037,0
-0.030208522288,1.646090534979424,0
-0.030206642288,0.49382716049382713,0
-0.030204762288000002,-3.786008230452675,0
-0.030202882288,2.2222222222222223,0
-0.030201002288,-0.411522633744856,0
-0.030199122288,-0.411522633744856,0
-0.030197242288,2.3045267489711936,0
-0.030195362288000002,-3.6213991769547325,0
-0.030193482288,1.4814814814814814,0
-0.030191602288,0.5761316872427984,0
-0.030189722288,-3.045267489711934,0
-0.030187842288000002,2.05761316872428,0
-0.030185962288,-0.3292181069958848,0
-0.030184082288,0.411522633744856,0
-0.030182202288,1.3991769547325104,0
-0.030180322288,-2.962962962962963,0
-0.030178442288000002,1.728395061728395,0
-0.030176562288,0.9876543209876543,0
-0.030174682288,-2.05761316872428,0
-0.030172802288,1.8106995884773662,0
-0.030170922288,-1.2345679012345678,0
-0.030169042288000002,0.49382716049382713,0
-0.030167162288,0.7407407407407407,0
-0.030165282288,-2.962962962962963,0
-0.030163402288,1.8930041152263375,0
-0.030161522288000002,0.6584362139917695,0
-0.030159642288,-1.2345679012345678,0
-0.030157762288,1.5637860082304527,0
-0.030155882288,-1.728395061728395,0
-0.030154002288,0.5761316872427984,0
-0.030152122288000002,-0.24691358024691357,0
-0.030150242288,-1.8106995884773662,0
-0.030148362288,1.728395061728395,0
-0.030146482288,-0.0823045267489712,0
-0.030144602288000002,-0.1646090534979424,0
-0.030142722288,0.9053497942386831,0
-0.030140842288,-0.5761316872427984,0
-0.030138962288,0.7407407407407407,0
-0.030137082288,-1.316872427983539,0
-0.030135202288000002,-0.411522633744856,0
-0.030133322288,1.2345679012345678,0
-0.030131442288,0.3292181069958848,0
-0.030129562288,0.5761316872427984,0
-0.030127682288,0.49382716049382713,0
-0.030125802288,-0.3292181069958848,0
-0.030123922288,1.0699588477366255,0
-0.030122042288,-2.3045267489711936,0
-0.030120162288,0.0823045267489712,0
-0.030118282288000002,0.823045267489712,0
-0.030116402288,1.8106995884773662,0
-0.030114522288,0.9876543209876543,0
-0.030112642288,-0.1646090534979424,0
-0.030110762288,0.3292181069958848,0
-0.030108882288000002,0.7407407407407407,0
-0.030107002288,-2.3045267489711936,0
-0.030105122288,0.6584362139917695,0
-0.030103242288,0.0823045267489712,0
-0.030101362288000002,-0.1646090534979424,0
-0.030099482288,1.3991769547325104,0
-0.030097602288,-0.3292181069958848,0
-0.030095722288,0.1646090534979424,0
-0.030093842288,1.5637860082304527,0
-0.030091962288000002,-3.045267489711934,0
-0.030090082288,0.823045267489712,0
-0.030088202288,0,0
-0.030086322288,-1.4814814814814814,0
-0.030084442288000002,1.646090534979424,0
-0.030082562288,-0.411522633744856,0
-0.030080682288,0.3292181069958848,0
-0.030078802288,1.316872427983539,0
-0.030076922288,-3.1275720164609053,0
-0.030075042288000002,0.9876543209876543,0
-0.030073162288,-0.1646090534979424,0
-0.030071282288,-1.8106995884773662,0
-0.030069402288,1.728395061728395,0
-0.030067522288,-0.5761316872427984,0
-0.030065642288000002,0.7407407407407407,0
-0.030063762288,1.9753086419753085,0
-0.030061882288,-3.374485596707819,0
-0.030060002288,1.3991769547325104,0
-0.030058122288000002,-0.3292181069958848,0
-0.030056242288,-2.4691358024691357,0
-0.030054362288,1.5637860082304527,0
-0.030052482288,0.0823045267489712,0
-0.030050602288,0.0823045267489712,0
-0.030048722288000002,1.5637860082304527,0
-0.030046842288,-3.292181069958848,0
-0.030044962288,1.0699588477366255,0
-0.030043082288,0.3292181069958848,0
-0.030041202288000002,-2.7160493827160495,0
-0.030039322288,0.9053497942386831,0
-0.030037442288,0.411522633744856,0
-0.030035562288,0,0
-0.030033682288,1.5637860082304527,0
-0.030031802288000002,-2.551440329218107,0
-0.030029922288,0.9053497942386831,0
-0.030028042288,0.3292181069958848,0
-0.030026162288,-2.05761316872428,0
-0.030024282288,0.9053497942386831,0
-0.030022402288,0.32921810699438764,0
-0.030020522288,-0.49382716049382713,0
-0.030018642288,2.2222222222222223,0
-0.030016762288,-2.551440329218107,0
-0.030014882288000002,0.6584362139917695,0
-0.030013002288,1.0699588477366255,0
-0.030011122288,-2.962962962962963,0
-0.030009242288,1.4814814814814814,0
-0.030007362288,0.1646090534979424,0
-0.030005482288000002,-0.6584362139917695,0
-0.030003602288,1.728395061728395,0
-0.030001722288,-2.139917695473251,0
-0.029999842288,0.5761316872427984,0
-0.029997962288000002,1.3991769547325104,0
-0.029996082288,-2.7983539094650207,0
-0.029994202288,1.3991769547325104,0
-0.029992322288,0,0
-0.029990442288,-1.1522633744855968,0
-0.029988562288000002,1.316872427983539,0
-0.029986682288,-1.9753086419753085,0
-0.029984802288,0.7407407407407407,0
-0.029982922288,1.646090534979424,0
-0.029981042288,-1.8106995884773662,0
-0.029979162288,1.4814814814814814,0
-0.029977282288,-0.0823045267489712,0
-0.029975402288,-0.7407407407407407,0
-0.029973522288,0.49382716049382713,0
-0.029971642288000002,-1.5637860082304527,0
-0.029969762288,0.9053497942386831,0
-0.029967882288,1.5637860082304527,0
-0.029966002288,-0.9876543209876543,0
-0.029964122288,1.4814814814814814,0
-0.029962242288000002,-0.6584362139917695,0
-0.029960362288,-0.0823045267489712,0
-0.029958482288,-0.6584362139917695,0
-0.029956602288,-1.3991769547325104,0
-0.029954722288000002,1.2345679012345678,0
-0.029952842288,1.1522633744855968,0
-0.029950962288,-0.5761316872427984,0
-0.029949082288,1.2345679012345678,0
-0.029947202288,-0.1646090534979424,0
-0.029945322288000002,0.1646090534979424,0
-0.029943442288,-1.3991769547325104,0
-0.029941562288,-0.7407407407407407,0
-0.029939682288,1.0699588477366255,0
-0.029937802288000002,0.49382716049382713,0
-0.029935922288,0.0823045267489712,0
-0.029934042288,1.2345679012345678,0
-0.029932162288,-0.3292181069958848,0
-0.029930282288,0.9876543209876543,0
-0.029928402288000002,-2.2222222222222223,0
-0.029926522288,-1.4814814814814814,0
-0.029924642288,1.3991769547325104,0
-0.029922762288,-0.823045267489712,0
-0.029920882288,0.7407407407407407,0
-0.029919002288000002,0.9053497942383837,0
-0.029917122288,-1.0699588477366255,0
-0.029915242288,2.05761316872428,0
-0.029913362288,-3.045267489711934,0
-0.029911482288000002,-0.0823045267489712,0
-0.029909602288,1.2345679012345678,0
-0.029907722288,-2.2222222222222223,0
-0.029905842288,1.0699588477366255,0
-0.029903962288,0.9876543209876543,0
-0.029902082288000002,-1.2345679012345678,0
-0.029900202288,2.551440329218107,0
-0.029898322288,-3.7037037037037037,0
-0.029896442288,1.8106995884773662,0
-0.029894562288000002,0.9053497942386831,0
-0.029892682288,-3.374485596707819,0
-0.029890802288,2.3045267489711936,0
-0.029888922288,-0.24691358024691357,0
-0.029887042288,-0.24691358024691357,0
-0.029885162288000002,2.7983539094650207,0
-0.029883282288,-3.950617283950617,0
-0.029881402288,1.646090534979424,0
-0.029879522288,0.1646090534979424,0
-0.029877642288,-3.2098765432098766,0
-0.029875762288,3.1275720164609053,0
-0.029873882288,-1.1522633744855968,0
-0.029872002288,0.3292181069958848,0
-0.029870122288,2.551440329218107,0
-0.029868242288000002,-3.8683127572016462,0
-0.029866362288,1.3991769547325104,0
-0.029864482288,0.24691358024691357,0
-0.029862602288,-3.7037037037037037,0
-0.029860722288,2.4691358024691357,0
-0.029858842288000002,-0.7407407407407407,0
-0.029856962288,-0.1646090534979424,0
-0.029855082288,2.633744855967078,0
-0.029853202288,-3.786008230452675,0
-0.029851322288000002,1.728395061728395,0
-0.029849442288,0.6584362139917695,0
-0.029847562288,-3.786008230452675,0
-0.029845682288,2.3868312757201644,0
-0.029843802288,-0.7407407407407407,0
-0.029841922288000002,-0.0823045267489712,0
-0.029840042288,2.139917695473251,0
-0.029838162288,-3.539094650205761,0
-0.029836282288,1.646090534979424,0
-0.029834402288000002,0.7407407407407407,0
-0.029832522288,-3.045267489711934,0
-0.029830642288,1.9753086419753085,0
-0.029828762288,-0.9876543209876543,0
-0.029826882288,0.411522633744856,0
-0.029825002288000002,1.1522633744855968,0
-0.029823122288,-2.7160493827160495,0
-0.029821242288,1.8106995884773662,0
-0.029819362288,0.24691358024691357,0
-0.029817482288,-1.728395061728395,0
-0.029815602288000002,2.139917695473251,0
-0.029813722288,-1.0699588477366255,0
-0.029811842288,0.49382716049382713,0
-0.029809962288,-0.411522633744856,0
-0.029808082288000002,-1.2345679012345678,0
-0.029806202288,1.5637860082304527,0
-0.029804322288,0.6584362139917695,0
-0.029802442288,-0.823045267489712,0
-0.029800562288,0.9876543209876543,0
-0.029798682288000002,-0.6584362139917695,0
-0.029796802288,0.6584362139917695,0
-0.029794922288,-0.9876543209876543,0
-0.029793042288,-1.0699588477366255,0
-0.029791162288000002,1.4814814814814814,0
-0.029789282288,0.3292181069958848,0
-0.029787402288,0.24691358024691357,0
-0.029785522288,0.9876543209876543,0
-0.029783642288,-0.9876543209876543,0
-0.029781762288000002,0.9876543209876543,0
-0.029779882288,-2.05761316872428,0
-0.029778002288,-0.24691358024691357,0
-0.029776122288,0.823045267489712,0
-0.029774242288,0.411522633744856,0
-0.029772362288,0.7407407407407407,0
-0.029770482288,0,0
-0.029768602288,0.0823045267489712,0
-0.029766722288,0.7407407407407407,0
-0.029764842288000002,-1.8930041152263375,0
-0.029762962288,0.24691358024691357,0
-0.029761082288,0.1646090534979424,0
-0.029759202288,0.6584362139917695,0
-0.029757322288,0.9053497942386831,0
-0.029755442288000002,0.1646090534979424,0
-0.029753562288,0.1646090534979424,0
-0.029751682288,0.7407407407407407,0
-0.029749802288,-2.4691358024691357,0
-0.029747922288000002,0.5761316872427984,0
-0.029746042288,-0.411522633744856,0
-0.029744162288,-0.0823045267489712,0
-0.029742282288,1.2345679012345678,0
-0.029740402288,-0.0823045267489712,0
-0.029738522288000002,0.1646090534979424,0
-0.029736642288,1.1522633744855968,0
-0.029734762288,-2.4691358024691357,0
-0.029732882288,0.49382716049382713,0
-0.029731002288000002,0.3292181069958848,0
-0.029729122288,-1.2345679012345678,0
-0.029727242288,0.823045267489712,0
-0.029725362288,0.7407407407407407,0
-0.029723482288,-0.1646090534979424,0
-0.029721602288000002,1.3991769547325104,0
-0.029719722288,-2.633744855967078,0
-0.029717842288,0.49382716049382713,0
-0.029715962288,1.2345679012345678,0
-0.029714082288,-2.139917695473251,0
-0.029712202288000002,1.0699588477366255,0
-0.029710322288,0.49382716049382713,0
-0.029708442288,-0.24691358024691357,0
-0.029706562288,1.728395061728395,0
-0.029704682288000002,-2.7983539094650207,0
-0.029702802288,0.49382716049382713,0
-0.029700922288,0.7407407407407407,0
-0.029699042288,-2.880658436213992,0
-0.029697162288,1.0699588477366255,0
-0.029695282288000002,0.49382716049382713,0
-0.029693402288,-0.411522633744856,0
-0.029691522288,2.05761316872428,0
-0.029689642288,-2.7983539094650207,0
-0.029687762288000002,0.411522633744856,0
-0.029685882288,0.1646090534979424,0
-0.029684002288,-3.1275720164609053,0
-0.029682122288,1.316872427983539,0
-0.029680242288,0.24691358024691357,0
-0.029678362288000002,-0.9053497942386831,0
-0.029676482288,2.7983539094650207,0
-0.029674602288,-2.880658436213992,0
-0.029672722288,1.2345679012345678,0
-0.029670842288,0.7407407407407407,0
-0.029668962288,-3.6213991769444025,0
-0.029667082288,2.05761316872428,0
-0.029665202288,0.0823045267489712,0
-0.029663322288,-0.9876543209876543,0
-0.029661442288000002,2.05761316872428,0
-0.029659562288,-2.551440329218107,0
-0.029657682288,0.49382716049382713,0
-0.029655802288,1.646090534979424,0
-0.029653922288,-2.880658436213992,0
-0.029652042288000002,1.728395061728395,0
-0.029650162288,-0.0823045267489712,0
-0.029648282288,-0.823045267489712,0
-0.029646402288,1.0699588477366255,0
-0.029644522288000002,-2.7983539094650207,0
-0.029642642288,1.2345679012345678,0
-0.029640762288,1.3991769547325104,0
-0.029638882288,-2.633744855967078,0
-0.029637002288,1.8930041152263375,0
-0.029635122288000002,-0.411522633744856,0
-0.029633242288,-0.49382716049382713,0
-0.029631362288,0.9876543209876543,0
-0.029629482288,-2.7983539094650207,0
-0.029627602288,1.728395061728395,0
-0.029625722288,1.5637860082304527,0
-0.029623842288,-1.9753086419753085,0
-0.029621962288,1.728395061728395,0
-0.029620082288,-0.5761316872427984,0
-0.029618202288000002,0,0
-0.029616322288,0.0823045267489712,0
-0.029614442288,-2.3868312757201644,0
-0.029612562288,1.8930041152263375,0
-0.029610682288,0.9876543209876543,0
-0.029608802288000002,-0.9876543209876543,0
-0.029606922288,1.5637860082304527,0
-0.029605042288,-0.7407407407407407,0
-0.029603162288,0.3292181069958848,0
-0.029601282288000002,-0.823045267489712,0
-0.029599402288,-1.1522633744855968,0
-0.029597522288,1.2345679012345678,0
-0.029595642288,1.8106995884773662,0
-0.029593762288,-0.3292181069958848,0
-0.029591882288000002,1.1522633744855968,0
-0.029590002288,-0.0823045267489712,0
-0.029588122288,0.3292181069958848,0
