log/TDMA_GE_00.csv

#Digilent WaveForms Oscilloscope Acquisition
#Device Name: ADP5250-323F81C
#Serial Number: SN:323F81C
#Date Time: 2023-03-08 13:32:08.399.143.399
#Sample rate: 515464Hz
#Samples: 32768
#Trigger: Source: Channel 1 Type: Edge Condition: Rising Level: 0 V Hyst.: Auto
#Channel 1: Range: 2 V/div Offset: 0 V Attenuation: 1 X Coupling: DC Bandwidth: Full Sample Mode: Average
#Channel 2: Range: 200 mV/div Offset: 0 V Attenuation: 1 X Coupling: DC Bandwidth: Full

Time (s),Channel 1 (V),Channel 2 (V)
-0.031783993107,2.7983539094650207,0
-0.031782053107000004,2.880658436213992,0
-0.031780113107000005,-2.7160493827160495,0
-0.031778173107000006,2.2222222222132397,0
-0.031776233107,-1.3991769547290671,0
-0.031774293107,0.493827160493378,0
-0.031772353107,0.24691358024691357,0
-0.031770413107,-3.292181069958848,0
-0.031768473107000005,2.551440329218107,0
-0.031766533107000006,-0.823045267483574,0
-0.031764593107,1.0699588477382724,0
-0.031762653107,1.9753086419702184,0
-0.031760713107,-0.823045267489712,0
-0.031758773107,1.5637860082304527,0
-0.031756833107000004,-3.786008230452675,0
-0.031754893107000005,0.16460905349075627,0
-0.031752953107000007,0.9876543209861571,0
-0.031751013107,-3.9506172839398377,0
-0.031749073107,1.9753086419753085,0
-0.031747133107,0,0
-0.031745193107000004,0.0823045267489712,0
-0.031743253107000005,3.0452674897065446,0
-0.031741313107000006,-4.032921810686713,0
-0.031739373107,2.4691358024665906,0
-0.031737433107,1.0699588477366255,0
-0.031735493107,-2.05761316872428,0
-0.031733553107000004,2.139917695473251,0
-0.031731613107000005,-1.316872427983539,0
-0.031729673107000006,0.6584362139881763,0
-0.031727733107,-0.329218106999927,0
-0.031725793107,-2.551440329208226,0
-0.031723853107,2.880658436213992,0
-0.031721913107000003,-1.0699588477366255,0
-0.031719973107000005,1.8930041152263375,0
-0.031718033107000006,1.1522633744869442,0
-0.031716093107,-1.563786008222967,0
-0.031714153107,2.551440329207178,0
-0.031712213107,-3.45679012345679,0
-0.031710273107,-0.1646090534979424,0
-0.031708333107000004,1.728395061728395,0
-0.031706393107000005,-3.9506172839402867,0
-0.03170445310700001,3.0452674896992082,0
-0.031702513107,0.8230452674859692,0
-0.031700573107,-1.2345679012345678,0
-0.031698633107,4.362139917695473,0
-0.031696693107000004,-4.032921810699588,0
-0.031694753107000005,2.0576131687132015,0.00823045267488215
-0.031692813107000006,1.4814814814825294,1.4970663597679845e-14
-0.031690873107,-3.7860082304415963,0
-0.031688933107,2.3045267489711936,0
-0.031686993107,-0.1646090534979424,0
-0.031685053107000004,-0.823045267489712,0
-0.031683113107000005,0.7407407407407407,0
-0.031681173107000006,-3.045267489705047,0
-0.031679233107,1.1522633744846986,0
-0.031677293107,0.6584362139929673,0
-0.031675353107,1.316872427983539,0
-0.031673413107000004,-0.0823045267489712,0
-0.031671473107000005,0,0
-0.031669533107000006,1.8106995884740726,0
-0.031667593107,-4.032921810690306,0
-0.031665653107,1.069958847735877,0
-0.031663713107,0.6584362139917695,0
-0.031661773107,-4.032921810699588,0
-0.031659833107000004,3.6213991769547325,0
-0.031657893107000006,-0.9876543209792712,0
-0.03165595310700001,-1.7965628984484283e-12,0
-0.031654013107,4.115226337434187,0
-0.031652073107,-3.786008230452675,0
-0.031650133107,2.4691358024691357,0
-0.031648193107000004,2.3868312757201644,0
-0.031646253107000005,-3.868312757190268,0
-0.031644313107000006,2.3045267489599657,0
-0.031642373107,-0.658436213992069,0
-0.031640433107,-0.823045267489712,0
-0.031638493107,0.823045267489712,0
-0.031636553107000004,-3.45679012345679,0
-0.031634613107000005,0.9876543209795705,0
-0.031632673107000006,0.32921810699708254,0
-0.031630733107,0.7407407407399922,0
-0.031628793107,0.32921810699543563,0
-0.031626853107,0.0823045267489712,0
-0.031624913107000004,1.1522633744855968,0
-0.031622973107000005,-3.7037037037037037,0
-0.031621033107000006,0.7407407407326567,0
-0.031619093107,0.16460905349060653,0
-0.031617153107,-3.8683127571890705,0
-0.031615213107,3.045267489711934,0
-0.031613273107,-0.9053497942386831,0
-0.031611333107000004,0.411522633744856,0
-0.031609393107000006,3.3744855967024296,0
-0.031607453107,-4.362139917682299,0
-0.031605513107,2.880658436210848,0
-0.031603573107,1.1522633744855968,0
-0.031601633107,-3.374485596707819,0
-0.031599693107000004,2.7983539094650207,0
-0.031597753107000005,-1.6460905349713397,0
-0.031595813107000006,0.5761316872387563,0
-0.031593873107,0.9876543209783721,0
-0.031591933107,-4.11522633744856,0
-0.031589993107,2.7983539094650207,0
-0.031588053107000004,0.0823045267489712,0
-0.031586113107000005,1.069958847734829,0
-0.031584173107000006,1.31687242798309,0
-0.031582233107,-1.1522633744800574,0
-0.031580293107,1.8930041152263375,0
-0.031578353107,-3.292181069958848,0
-0.031576413107000004,-0.1646090534979424,0
-0.031574473107000005,1.316872427983539,0
-0.031572533107000006,-3.2098765432016423,0
-0.031570593107,2.304526748966852,0
-0.031568653107,-0.08230452674837235,0
-0.031566713107,0.24691358024691357,0
-0.031564773107,2.7160493827160495,0
-0.031562833107000005,-3.950617283950617,0
-0.031560893107000006,2.3868312757086363,0
-0.031558953107,0.6584362139850326,0
-0.031557013107,-3.0452674897023524,0
-0.031555073107,2.2222222222222223,0
-0.031553133107,-1.1522633744855968,0
-0.031551193107000004,0.5761316872427984,0
-0.031549253107000005,0.4115226337451554,0
-0.031547313107000007,-2.5514403292127175,0
-0.031545373107,2.304526748967002,0
-0.031543433107,0,0
-0.031541493107,1.5637860082304527,0
-0.031539553107000004,0.9053497942386831,0
-0.031537613107000005,-1.3168724279794972,0
-0.031535673107000006,2.304526748964607,0
-0.031533733107,-3.9506172839431315,0
-0.031531793107,0.1646090534979424,0
-0.031529853107,1.728395061728395,0
-0.031527913107000004,-4.032921810699588,0
-0.031525973107000005,3.1275720164609053,0
-0.031524033107000006,0.32921810700097476,0
-0.031522093107,-1.4814814814707022,0
-0.031520153107,4.444444444428875,0
-0.031518213107,-4.11522633744856,0
-0.031516273107000004,1.2345679012345678,0
-0.031514333107000005,2.05761316872428,0
-0.031512393107000006,-3.7037037036932237,0
-0.031510453107,1.7283950617254007,0
-0.031508513107,0.08230452674792321,0
-0.031506573107,-0.49382716049382713,0
-0.031504633107,1.1522633744855968,0
-0.031502693107000004,-3.45679012345679,0
-0.031500753107000005,1.0699588477283908,0
-0.03149881310700001,1.5637860082295543,0
-0.031496873107,0.6584362139907216,0
-0.031494933107,0.0823045267489712,0
-0.031492993107,-0.7407407407407407,0
-0.031491053107000004,1.646090534979424,0
-0.031489113107000005,-4.115226337438079,0
-0.031487173107000006,0.9876543209783719,0
-0.031485233107,1.0699588477271937,0
-0.031483293107,-4.11522633744856,0
-0.031481353107,3.786008230452675,0
-0.031479413107000004,-0.7407407407407407,0
-0.031477473107000005,-0.6584362139917695,0
-0.031475533107000006,4.279835390937519,0
-0.031473593107,-4.115226337436433,0
-0.031471653107,2.55144032921661,0
-0.031469713107,1.728395061728395,0
-0.031467773107000004,-4.032921810699588,0
-0.031465833107000005,3.045267489711934,0
-0.031463893107000006,-0.4938271604873896,0
-0.031461953107,-1.4814814814754929,0
-0.031460013107,1.8106995884673356,0
-0.031458073107,-3.7037037037037037,0
-0.031456133107,0.9876543209876543,0
-0.031454193107000004,1.728395061728395,0
-0.031452253107000006,-0.08230452674567768,0
-0.03145031310700001,-0.0823045267489712,0
-0.031448373107,0.08230452675151628,0
-0.031446433107,1.4814814814814814,0
-0.031444493107,-4.032921810699588,0
-0.031442553107000004,0.6584362139917695,0
-0.031440613107000005,0.8230452674894125,0
-0.031438673107000006,-3.9506172839419342,0
-0.031436733107,3.539094650197527,0
-0.031434793107,-0.9876543209876543,0
-0.031432853107,-0.411522633744856,0
-0.031430913107000004,4.11522633744856,0
-0.031428973107000005,-4.1152263374335885,0
-0.031427033107000006,2.7160493827036234,0
-0.031425093107,0.9876543209788213,0
-0.031423153107,-3.86831275718922,0
-0.031421213107,2.962962962962963,0
-0.031419273107000004,-1.0699588477366255,0
-0.031417333107000005,0.0823045267489712,0
-0.031415393107000006,2.1399176954695083,0
-0.031413453107,-3.9506172839389397,0
-0.031411513107,2.4691358024677883,0
-0.031409573107,1.728395061728395,0
-0.031407633107,-0.411522633744856,0
-0.031405693107000004,1.5637860082304527,0
-0.031403753107000006,-0.49382716049008435,0
-0.031401813107,0.49382716048738956,0
-0.031399873107,-3.0452674897066943,0
-0.031397933107,-0.1646090534979424,0
-0.031395993107,0.411522633744856,0
-0.031394053107000004,-3.45679012345679,0
-0.031392113107000005,3.20987654319775,0
-0.031390173107000006,-0.08230452674298272,0
-0.031388233107,0.16460905350318228,1.497110620202351e-14
-0.031386293107,3.045267489711934,0.00823045267489712
-0.031384353107,-3.950617283950617,0
-0.031382413107000004,2.962962962962963,0
-0.031380473107000005,0.24691358025185428,0
-0.031378533107000006,-3.2921810699524103,0
-0.031376593107,2.469135802462249,0
-0.031374653107,-1.316872427983539,0
-0.031372713107,0.9053497942386831,0
-0.031370773107000004,1.728395061728395,0
-0.031368833107000005,-3.8683127572016462,0
-0.031366893107000006,2.633744855955251,0
-0.031364953107,1.4814814814781878,0
-0.031363013107,-0.32921810699184256,0
-0.031361073107,1.8930041152263375,0
-0.031359133107,-0.9053497942386831,0
-0.031357193107000005,0.9876543209876543,0
-0.031355253107000006,-3.0452674897045986,0
-0.031353313107,-0.9876543209825641,0
-0.031351373107,1.8106995884670363,0
-0.031349433107,-3.8683127572016462,0
-0.031347493107,2.880658436213992,0
-0.031345553107000004,0.823045267489712,0
-0.031343613107000005,-1.4814814814772899,0
-0.031341673107000007,4.279835390936022,0
-0.031339733107,-4.032921810689707,0
-0.031337793107,1.3991769547325104,0
-0.031335853107,1.728395061728395,0
-0.031333913107000004,-3.8683127572016462,0
-0.031331973107000005,1.893004115215858,0
-0.031330033107000006,-0.08230452674537814,0
-0.031328093107,-0.32921810699274084,0
-0.031326153107,1.3991769547325104,0
-0.031324213107,-3.292181069958848,0
-0.031322273107000004,1.1522633744855968,0
-0.031320333107000005,1.5637860082304527,0
-0.031318393107000006,0.3292181069981306,0
-0.031316453107,0.49382716049233,0
-0.031314513107,-0.3292181069934894,0
-0.031312573107,0.9876543209876543,0
-0.031310633107000004,-3.950617283950617,0
-0.031308693107000005,0.6584362139917695,0
-0.031306753107000006,1.3168724279823414,0
-0.031304813107,-3.950617283938191,0
-0.031302873107,2.8806584362083028,0
-0.031300933107,-0.24691358024691357,0
-0.031298993107,-0.49382716049382713,0
-0.031297053107000004,4.197530864197531,0
-0.031295113107000005,-4.032921810684617,0
-0.03129317310700001,2.222222222210844,0
-0.031291233107,1.646090534969094,0
-0.031289293107,-4.032921810699588,0
-0.031287353107,2.880658436213992,0
-0.031285413107000004,-0.24691358024691357,0
-0.031283473107000005,-1.0699588477351285,0
-0.031281533107000006,2.469135802462698,0
-0.031279593107,-3.9506172839408857,0
-0.031277653107,1.3991769547325104,0
-0.031275713107,2.3868312757201644,0
-0.031273773107000004,-1.2345679012345678,0
-0.031271833107000005,1.069958847732434,0
-0.031269893107000006,-0.08230452674687538,0
-0.031267953107,0.8230452674817773,0
-0.031266013107,-3.5390946501988747,0
-0.031264073107,0.24691358024691357,0
-0.031262133107000004,0.5761316872427984,0
-0.031260193107000005,-3.292181069958848,0
-0.031258253107000006,3.374485596695693,0
-0.031256313107,-0.8230452674883646,1.497110620202351e-14
-0.031254373107,-0.0823045267422342,0.00823045267488215
-0.031252433107,3.6213991769547325,0
-0.031250493107,-4.11522633744856,0
-0.031248553107000004,2.4691358024691357,0
-0.031246613107000002,1.3991769547325104,0
-0.031244673107000003,-4.032921810699588,0
-0.031242733107000004,2.880658436213992,0
-0.031240793107000002,-0.3292181069958848,0
-0.031238853107000003,-0.9876543209876543,0
-0.031236913107000004,2.4691358024691357,0
-0.031234973107000002,-3.950617283950617,0
-0.031233033107000003,1.3991769547325104,0
-0.031231093107000004,2.880658436213992,0
-0.031229153107,-1.728395061728395,0
-0.031227213107000003,1.4814814814814814,0
-0.031225273107000004,-0.1646090534979424,0
-0.031223333107,0.0823045267489712,0
-0.031221393107000003,-2.3868312757201644,0
-0.031219453107000004,-0.7407407407407407,0
-0.031217513107000005,0.5761316872427984,0
-0.031215573107000003,-2.3868312757201644,0
-0.031213633107000004,2.633744855967078,0
-0.031211693107000005,-0.3292181069958848,0
-0.031209753107000002,0.1646090534979424,0
-0.031207813107000004,2.880658436213992,0
-0.031205873107000005,-4.032921810699588,0
-0.031203933107000002,2.3045267489711936,0
-0.031201993107000003,-0.24691358024691357,0
-0.031200053107000005,-3.8683127572016462,0
-0.031198113107000002,2.880658436213992,0
-0.031196173107000003,-1.4814814814814814,0
-0.031194233107000004,0.6584362139917695,0
-0.031192293107000002,1.4814814814814814,0
-0.031190353107000003,-3.950617283950617,0
-0.031188413107000004,2.7160493827160495,0
-0.031186473107000002,1.8106995884773662,0
-0.031184533107000003,-0.9876543209876543,0
-0.031182593107000004,2.2222222222222223,0
-0.031180653107000002,-1.316872427983539,0
-0.031178713107000003,1.2345679012345678,0
-0.031176773107000004,-2.3868312757201644,0
-0.031174833107,-1.3991769547325104,0
-0.031172893107000003,1.5637860082304527,0
-0.031170953107000004,-2.7983539094650207,0
-0.031169013107,2.139917695473251,0
-0.031167073107000003,0.823045267489712,0
-0.031165133107000004,-0.9053497942386831,0
-0.031163193107000005,3.374485596707819,0
-0.031161253107000002,-3.950617283950617,0
-0.031159313107000004,0.9053497942386831,0
-0.031157373107000005,1.3991769547325104,0
-0.031155433107000002,-3.950617283950617,0
-0.031153493107000003,1.8930041152263375,0
-0.031151553107000005,-0.0823045267489712,0
-0.031149613107000002,0.1646090534979424,0
-0.031147673107000003,1.2345679012345678,0
-0.031145733107000004,-3.45679012345679,0
-0.031143793107000002,2.139917695473251,0
-0.031141853107000003,0.823045267489712,0
-0.031139913107000004,-0.1646090534979424,0
-0.031137973107000002,1.3991769547325104,0
-0.031136033107000003,-1.316872427983539,0
-0.031134093107000004,1.4814814814814814,0
-0.031132153107000002,-2.3045267489711936,0
-0.031130213107000003,-0.411522633744856,0
-0.031128273107000004,1.8930041152263375,0
-0.031126333107,-3.6213991769547325,0
-0.031124393107000003,3.45679012345679,0
-0.031122453107000004,0.0823045267489712,0
-0.031120513107,-0.24691358024691357,0
-0.031118573107000003,3.8683127572016462,0
-0.031116633107000004,-4.032921810699588,0
-0.031114693107000005,2.3045267489711936,0
-0.031112753107000003,1.4814814814814814,0
-0.031110813107000004,-4.197530864197531,0
-0.031108873107000005,3.45679012345679,0
-0.031106933107000002,-0.411522633744856,0
-0.031104993107000004,-0.9876543209876543,0
-0.031103053107000005,3.45679012345679,0
-0.031101113107000002,-4.032921810699588,0
-0.031099173107000003,1.3991769547325104,0
-0.031097233107000005,2.7983539094650207,0
-0.031095293107000002,-1.9753086419753085,0
-0.031093353107000003,0.823045267489712,0
-0.031091413107000004,0.24691358024691357,0
-0.031089473107000002,0.3292181069958848,0
-0.031087533107000003,-2.7160493827160495,0
-0.031085593107000004,-0.1646090534979424,0
-0.031083653107000002,0.9876543209876543,0
-0.031081713107000003,-2.4691358024691357,0
-0.031079773107000004,3.045267489711934,0
-0.031077833107000002,-0.7407407407407407,0
-0.031075893107000003,0.1646090534979424,0
-0.031073953107000004,3.45679012345679,0
-0.031072013107,-3.8683127572016462,0
-0.031070073107000003,2.551440329218107,0
-0.031068133107000004,0.9053497942386831,0
-0.031066193107,-4.11522633744856,0
-0.031064253107000003,3.539094650205761,0
-0.031062313107000004,-1.9753086419753085,0
-0.031060373107000005,0.1646090534979424,0
-0.031058433107000002,2.880658436213992,0
-0.031056493107000004,-3.7037037037037037,0
-0.031054553107000005,2.633744855967078,0
-0.031052613107000002,2.05761316872428,0
-0.031050673107000003,-2.05761316872428,0
-0.031048733107000005,1.9753086419753085,0
-0.031046793107000002,-0.3292181069958848,0
-0.031044853107000003,-0.1646090534979424,0
-0.031042913107000004,-1.9753086419753085,0
-0.031040973107000002,-1.646090534979424,0
-0.031039033107000003,1.1522633744855968,0
-0.031037093107000004,-1.4814814814814814,0
-0.031035153107000002,1.8930041152263375,0
-0.031033213107000003,0.3292181069958848,0
-0.031031273107000004,0.1646090534979424,0
-0.031029333107000002,2.3045267489711936,0
-0.031027393107000003,-3.8683127572016462,0
-0.031025453107000004,1.8106995884773662,0
-0.031023513107,0.0823045267489712,0
-0.031021573107000003,-3.950617283950617,0
-0.031019633107000004,3.045267489711934,0
-0.031017693107,-1.2345679012345678,0
-0.031015753107000003,0.24691358024691357,0
-0.031013813107000004,2.7983539094650207,0
-0.031011873107000005,-3.786008230452675,0
-0.031009933107000003,2.7160493827160495,0
-0.031007993107000004,1.4814814814814814,0
-0.031006053107000005,-1.2345679012345678,0
-0.031004113107000002,2.139917695473251,0
-0.031002173107000004,-2.139917695473251,0
-0.031000233107000005,0.6584362139917695,0
-0.030998293107000002,-1.728395061728395,0
-0.030996353107000003,-2.139917695473251,0
-0.030994413107000005,2.2222222222222223,0
-0.030992473107000002,-1.316872427983539,0
-0.030990533107000003,1.9753086419753085,0
-0.030988593107000004,0.823045267489712,0
-0.030986653107000002,-1.2345679012345678,0
-0.030984713107000003,3.45679012345679,0
-0.030982773107000004,-4.197530864197531,0
-0.030980833107000002,0.7407407407407407,0
-0.030978893107000003,1.3991769547325104,0
-0.030976953107000004,-4.032921810699588,0
-0.030975013107000002,2.139917695473251,0
-0.030973073107000003,0.24691358024691357,0
-0.030971133107000004,-0.49382716049382713,0
-0.030969193107,2.05761316872428,0
-0.030967253107000003,-3.6213991769547325,0
-0.030965313107000004,1.728395061728395,0
-0.030963373107,1.646090534979424,0
-0.030961433107000003,-0.9053497942386831,0
-0.030959493107000004,0.9876543209876543,0
-0.030957553107000005,-0.7407407407407407,0
-0.030955613107000002,1.0699588477366255,0
-0.030953673107000004,-3.045267489711934,0
-0.030951733107000005,-0.3292181069958848,0
-0.030949793107000002,1.8106995884773662,0
-0.030947853107000003,-2.633744855967078,0
-0.030945913107000005,2.962962962962963,0
-0.030943973107000002,0.3292181069958848,0
-0.030942033107000003,-1.5637860082304527,0
-0.030940093107000004,4.11522633744856,0
-0.030938153107000002,-4.032921810699588,0
-0.030936213107000003,3.374485596707819,0
-0.030934273107000004,1.8930041152263375,0
-0.030932333107000002,0.5761316872427984,0
-0.030930393107000003,0.6584362139917695,0
-0.030928453107000004,-3.292181069958848,0
-0.030926513107000002,-2.633744855967078,0
-0.030924573107000003,2.551440329218107,0
-0.030922633107000004,3.045267489711934,0
-0.030920693107,-4.11522633744856,0
-0.030918753107000003,3.8683127572016462,0
-0.030916813107000004,1.3991769547325104,0
-0.030914873107,-0.1646090534979424,0
-0.030912933107000003,-0.1646090534979424,0
-0.030910993107000004,-3.045267489711934,0
-0.030909053107,-2.139917695473251,0
-0.030907113107000003,2.4691358024691357,0
-0.030905173107000004,3.292181069958848,0
-0.030903233107000005,-4.11522633744856,0
-0.030901293107000002,3.45679012345679,0
-0.030899353107000004,1.3991769547325104,0
-0.030897413107000005,0.0823045267489712,0
-0.030895473107000002,-1.4814814814814814,0
-0.030893533107000003,-2.05761316872428,0
-0.030891593107000005,-1.646090534979424,0
-0.030889653107000002,2.05761316872428,0
-0.030887713107000003,2.962962962962963,0
-0.030885773107000004,-4.11522633744856,0
-0.030883833107000002,2.05761316872428,0
-0.030881893107000003,0.9053497942386831,0
-0.030879953107000004,0.9053497942386831,0
-0.030878013107000002,-2.962962962962963,0
-0.030876073107000003,-0.7407407407407407,0
-0.030874133107000004,-0.823045267489712,0
-0.030872193107000002,1.0699588477366255,0
-0.030870253107000003,3.2098765432098766,0
-0.030868313107000004,-4.11522633744856,0
-0.030866373107,0.823045267489712,0
