log/TDMA_GE_02.csv

#Digilent WaveForms Oscilloscope Acquisition
#Device Name: ADP5250-323F81C
#Serial Number: SN:323F81C
#Date Time: 2023-03-08 13:32:08.559.320.099
#Sample rate: 515464Hz
#Samples: 32768
#Trigger: Source: Channel 1 Type: Edge Condition: Rising Level: 0 V Hyst.: Auto
#Channel 1: Range: 2 V/div Offset: 0 V Attenuation: 1 X Coupling: DC Bandwidth: Full Sample Mode: Average
#Channel 2: Range: 200 mV/div Offset: 0 V Attenuation: 1 X Coupling: DC Bandwidth: Full

Time (s),Channel 1 (V),Channel 2 (V)
-0.03178443608,-0.7407407407407407,0
-0.03178249608,0.3292181069958848,0
-0.03178055608,-0.3292181069958848,0
-0.03177861608,-0.08230452674942035,0
-0.031776676079999996,0.49382716049128206,0
-0.03177473608,-0.905349794237186,0
-0.03177279608,-0.0823045267489712,0
-0.03177085608,-0.24691358024691357,0
-0.03176891608,-0.49382716049382713,0
-0.03176697608,0.5761316872408522,0
-0.031765036079999996,-0.493827160493378,0
-0.03176309608,-0.24691358024571589,0
-0.03176115608,0.411522633744856,0
-0.03175921608,-0.7407407407407407,0
-0.03175727608,0.7407407407407407,0
-0.03175533608,0.24691358024781185,0
-0.03175339608,-0.8230452674877657,0
-0.03175145608,0.8230452674874663,0
-0.03174951608,-0.411522633744856,0
-0.03174757608,-0.3292181069958848,0
-0.03174563608,0.49382716049382713,0
-0.03174369608,-0.3292181069943877,0
-0.03174175608,-0.41152263374470627,0
-0.03173981608,0.7407407407377464,0
-0.03173787608,-0.9053497942386831,0
-0.03173593608,0.5761316872427984,0
-0.03173399608,0.1646090534979424,0
-0.03173205608,-0.9053497942386831,0
-0.03173011608,0.5761316872401036,0
-0.031728176079999997,-0.5761316872413013,0
-0.03172623608,0.246913580247213,0
-0.03172429608,0.411522633744856,0
-0.03172235608,-0.823045267489712,0
-0.03172041608,0.411522633744856,0
-0.03171847608,0.411522633744856,0
-0.031716536079999996,-0.9053497942355392,0
-0.03171459608,0.8230452674873165,0
-0.03171265608,-0.49382716049382713,0
-0.03171071608,0.1646090534979424,0
-0.03170877608,0.3292181069958848,0
-0.03170683608,-0.7407407407387945,0
-0.03170489608,0.4115226337427602,0
-0.03170295608,0.9876543209843606,0
-0.03170101608,-0.823045267489712,0
-0.03169907608,0.5761316872427984,0
-0.03169713608,-0.411522633744856,0
-0.03169519608,-0.3292181069960345,0
-0.03169325608,0.5761316872411517,0
-0.03169131608,-0.4938271604932283,0
-0.03168937608,-0.1646090534979424,0
-0.03168743608,0.411522633744856,0
-0.03168549608,-0.5761316872427984,0
-0.03168355608,0.411522633744856,0
-0.03168161608,0.411522633744856,0
-0.03167967608,-0.9876543209845103,0
-0.03167773608,0.7407407407390939,0
-0.03167579608,-0.1646090534979424,0
-0.03167385608,-0.1646090534979424,0
-0.03167191608,0.3292181069958848,0
-0.03166997608,-0.6584362139899729,0
-0.031668036079999996,0.24691358024751242,0
-0.03166609608,0.5761316872396545,0
-0.03166415608,-1.1522633744855968,0
-0.03166221608,0.7407407407407407,0
-0.03166027608,-0.24691358024691357,0
-0.03165833608,-0.1646090534980921,0
-0.03165639608,0.4938271604926294,0
-0.03165445608,-0.8230452674862686,0
-0.03165251608,1.0699588477366255,0
-0.03165057608,0.1646090534979424,0
-0.03164863608,-0.7407407407407407,0
-0.03164669608,0.576131687240403,0
-0.03164475608,0.08230452674986949,0
-0.03164281608,1.1976884961618808e-12,0
-0.03164087608,0.6584362139917695,0
-0.03163893608,-0.823045267489712,0
-0.03163699608,0.6584362139917695,0
-0.03163505608,0.08230452675001909,0
-0.03163311608,-0.2469135802463147,0
-0.03163117608,0.5761316872413013,0
-0.03162923608,-0.24691358024676385,0
-0.03162729608,-0.1646090534979424,0
-0.03162535608,0.49382716049382713,0
-0.03162341608,-1.1522633744855968,0
-0.03162147608,0.8230452674861188,0
-0.031619536079999996,-1.3473995581821158e-12,0
-0.03161759608,-0.7407407407381956,0
-0.03161565608,0.6584362139917695,0
-0.03161371608,-0.411522633744856,0
-0.03161177608,-0.24691358024691357,0
-0.03160983608,0.49382716049247977,0
-0.031607896079999996,-0.246913580247213,0
-0.03160595608,-0.41152263374276005,0
-0.03160401608,0.7407407407407407,0
-0.03160207608,-0.7407407407407407,0
-0.03160013608,0.7407407407407407,0
-0.03159819608,0.16460905349899035,0
-0.03159625608,-0.08230452674852204,0
-0.03159431608,0.32921810699319,0
-0.03159237608,-1.1522633744855968,0
-0.03159043608,0.3292181069958848,0
-0.03158849608,0.3292181069958848,0
-0.03158655608,-0.9053497942364372,0
-0.03158461608,0.6584362139889249,0
-0.03158267608,-0.49382716049412656,0
-0.03158073608,-0.6584362139917695,0
-0.03157879608,0.5761316872427984,0
-0.03157685608,-0.3292181069958848,0
-0.03157491608,-0.1646090534979424,0
-0.03157297608,-0.08230452674912091,0
-0.031571036079999996,-0.7407407407386447,0
-0.03156909608,0.41152263374470627,0
-0.03156715608,0.3292181069958848,0
-0.03156521608,-0.7407407407407407,0
-0.03156327608,0.823045267489712,0
-0.03156133608,-0.6584362139890747,0
-0.031559396079999996,0.08230452674942032,0
-0.03155745608,0.32921810699438764,0
-0.03155551608,-0.49382716049382713,0
-0.03155357608,0.24691358024691357,0
-0.03155163608,0.5761316872427984,0
-0.03154969608,-1.1522633744824529,0
-0.03154775608,0.7407407407372975,0
-0.03154581608,-0.24691358024691357,0
-0.03154387608,-0.24691358024691357,0
-0.03154193608,0.49382716049382713,0
-0.03153999608,-1.1522633744855968,0
-0.03153805608,0.5761316872396545,0
-0.03153611608,0.24691358024751242,0
-0.03153417608,-0.6584362139896736,0
-0.03153223608,0.49382716049382713,0
-0.03153029608,0,0
-0.03152835608,-0.6584362139917695,0
-0.03152641608,0.823045267489712,0
-0.03152447608,-0.5761316872402533,0
-0.031522536079999997,0.32921810699573506,0
-0.03152059608,0.24691358024541646,0
-0.03151865608,-0.5761316872427984,0
-0.03151671608,0.1646090534979424,0
-0.03151477608,0.5761316872427984,0
-0.03151283608,-0.9876543209848097,0
-0.031510896079999996,0.32921810699573506,0
-0.03150895608,0.24691358024511703,0
-0.03150701608,-0.7407407407407407,0
-0.03150507608,0.49382716049382713,0
-0.03150313608,-0.6584362139917695,0
-0.03150119608,0.32921810699408816,0
-0.03149925608,0.24691358024706328,0
-0.03149731608,-0.49382716049233,0
-0.03149537608,0.3292181069958848,0
-0.03149343608,-0.5761316872427984,0
-0.03149149608,0.3292181069958848,0
-0.03148955608,0.24691358024706328,0
-0.03148761608,-0.7407407407389441,0
-0.03148567608,0.9053497942358386,0
-0.03148373608,-0.6584362139917695,0
-0.03148179608,-0.24691358024691357,0
-0.03147985608,0.5761316872427984,0
-0.03147791608,-0.3292181069958848,0
-0.03147597608,-0.41152263374470627,0
-0.03147403608,0.6584362139887753,0
-0.03147209608,-0.9876543209854086,0
-0.03147015608,0.24691358024691357,0
-0.03146821608,0.3292181069958848,0
-0.03146627608,-1.0699588477366255,0
-0.03146433608,0.7407407407374471,0
-0.031462396079999996,0.24691358024676385,0
-0.03146045608,0.16460905349839153,0
-0.03145851608,0.411522633744856,0
-0.03145657608,-0.7407407407407407,0
-0.03145463608,0.49382716049382713,0
-0.03145269608,0.6584362139914701,0
-0.03145075608,-0.9053497942358385,0
-0.03144881608,0.8230452674874663,0
-0.03144687608,-0.411522633744856,0
-0.03144493608,-0.0823045267489712,0
-0.03144299608,0,0
-0.03144105608,-0.3292181069952859,0
-0.03143911608,-0.08230452674942035,0
-0.03143717608,0.4115226337423109,0
-0.03143523608,-0.9876543209876543,0
-0.03143329608,0.5761316872427984,0
-0.03143135608,0.1646090534979424,0
-0.03142941608,-0.9053497942367369,0
-0.03142747608,0.5761316872401036,0
-0.03142553608,0.08230452674837235,0
-0.03142359608,-0.24691358024571589,0
-0.03142165608,0.411522633744856,0
-0.03141971608,-0.5761316872427984,0
-0.03141777608,0.24691358024691357,0
-0.03141583608,0.5761316872421995,0
-0.031413896079999996,-1.0699588477330324,0
-0.03141195608,0.9053497942362877,0
-0.03141001608,-0.411522633744856,0
-0.03140807608,-0.24691358024691357,0
-0.03140613608,0.49382716049382713,0
-0.03140419608,-0.6584362139896738,0
-0.031402256079999996,0.49382716049382713,0
-0.03140031608,0.4938271604908329,0
-0.03139837608,-1.1522633744855968,0
-0.03139643608,0.7407407407407407,0
-0.03139449608,0,0
-0.03139255608,-1.3991769547299653,0
-0.03139061608,0.6584362139880267,0
-0.03138867608,-0.5761316872411516,0
-0.03138673608,0.3292181069958848,0
-0.03138479608,0.3292181069958848,0
-0.03138285608,-0.9053497942386831,0
-0.03138091608,0.2469135802448178,0
-0.03137897608,0.1646090534980921,0
-0.03137703608,-0.32921810699393855,0
-0.03137509608,0.7407407407407407,0
-0.03137315608,-0.9876543209876543,0
-0.03137121608,0.6584362139917695,0
-0.03136927608,0.0823045267489712,0
-0.03136733608,-0.5761316872416007,0
-0.031365396079999996,0.246913580246165,0
-0.03136345608,-0.16460905349824181,0
-0.03136151608,-0.3292181069958848,0
-0.03135957608,0.49382716049382713,0
-0.03135763608,-0.7407407407407407,0
-0.03135569608,0.246913580245117,0
-0.031353756079999996,0.3292181069933397,0
-0.03135181608,-1.0699588477334816,0
-0.03134987608,0.6584362139917695,0
-0.03134793608,-0.1646090534979424,0
-0.03134599608,-0.3292181069958848,0
-0.03134405608,0.41152263374350856,0
-0.03134211608,0.08230452674957006,0
-0.03134017608,-0.24691358024496732,0
-0.03133823608,0.823045267489712,0
-0.03133629608,-1.2345679012345678,0
-0.03133435608,0.5761316872427984,0
-0.03133241608,0.49382716049397685,0
-0.03133047608,-0.7407407407384949,0
-0.03132853608,0.41152263374455655,0
-0.03132659608,0.24691358024691357,0
-0.03132465608,-0.9876543209876543,0
-0.03132271608,1.5637860082304527,0
-0.03132077608,-0.49382716049382713,0
-0.03131883608,-0.08230452674971978,0
-0.031316896079999997,0.4115226337421612,0
-0.03131495608,-1.0699588477340805,0
-0.03131301608,0.3292181069958848,0
-0.03131107608,-0.411522633744856,0
-0.03130913608,0.1646090534979424,0
-0.03130719608,0.08230452674912091,0
-0.031305256079999996,-0.5761316872410018,0
-0.03130331608,0.4115226337450057,0
-0.03130137608,0.49382716049382713,0
-0.03129943608,-1.0699588477366255,0
-0.03129749608,0.9053497942386831,0
-0.03129555608,-0.08230452674717459,0
-0.03129361608,-0.32921810699543563,0
-0.03129167608,0.3292181069949865,0
-0.03128973608,-0.1646090534979424,0
-0.03128779608,-0.24691358024691357,0
-0.03128585608,0.5761316872427984,0
-0.03128391608,-0.9876543209848097,0
-0.03128197608,0.4938271604911324,0
-0.03128003608,0.16460905349599614,0
-0.03127809608,-0.9053497942386831,0
-0.03127615608,0.7407407407407407,0
-0.03127421608,-0.24691358024691357,0
-0.03127227608,-0.24691358024691357,0
-0.03127033608,0.3292181069948369,0
-0.03126839608,-0.658436213989973,0
-0.03126645608,0.3292181069958848,0
-0.03126451608,0.3292181069958848,0
-0.03126257608,-0.5761316872427984,0
-0.03126063608,0.823045267489712,0
-0.03125869608,-0.8230452674867177,0
-0.031256756079999996,0.41152263374455655,0
-0.03125481608,0.24691358024571589,0
-0.03125287608,-0.411522633744856,0
-0.03125093608,0.3292181069958848,0
-0.03124899608,0.49382716049382713,0
-0.03124705608,-0.9876543209876543,0
-0.03124511608,0.6584362139917695,0
-0.03124317608,-0.6584362139917695,0
-0.03124123608,-0.49382716049382713,0
-0.03123929608,0.6584362139917695,0
-0.03123735608,-0.9053497942386831,0
-0.031235416079999998,0.6584362139917695,0
-0.03123347608,-0.1646090534979424,0
-0.03123153608,-0.24691358024691357,0
-0.031229596079999998,0.411522633744856,0
-0.03122765608,-0.6584362139917695,0
-0.03122571608,-4.11522633744856,0
-0.031223776079999998,1.4814814814814814,0
-0.03122183608,3.45679012345679,0
-0.03121989608,-3.8683127572016462,0
-0.03121795608,0.9876543209876543,0
-0.03121601608,4.362139917695473,0
-0.03121407608,-4.11522633744856,0
-0.03121213608,0.49382716049382713,0
-0.03121019608,4.362139917695473,0
-0.03120825608,-4.11522633744856,0
-0.03120631608,-0.5761316872427984,0
-0.03120437608,4.362139917695473,0
-0.03120243608,-4.032921810699588,0
-0.03120049608,-3.2098765432098766,0
-0.03119855608,4.362139917695473,0
-0.03119661608,-2.551440329218107,0
-0.03119467608,-4.11522633744856,0
-0.03119273608,3.8683127572016462,0
-0.03119079608,-0.1646090534979424,0
-0.03118885608,-4.197530864197531,0
-0.031186916079999998,2.880658436213992,0
-0.03118497608,2.3045267489711936,0
-0.03118303608,-3.950617283950617,0
-0.031181096079999998,1.2345679012345678,0
-0.03117915608,4.362139917695473,0
-0.03117721608,-4.279835390946502,0
-0.031175276079999998,1.2345679012345678,0
-0.03117333608,4.362139917695473,0
-0.03117139608,-4.11522633744856,0
-0.031169456079999998,0.24691358024691357,0
-0.03116751608,4.362139917695473,0
-0.03116557608,-4.11522633744856,0
-0.03116363608,-1.9753086419753085,0
-0.03116169608,4.197530864197531,0
-0.03115975608,-3.1275720164609053,0
-0.03115781608,-3.950617283950617,0
-0.03115587608,4.279835390946502,0
-0.03115393608,-0.7407407407407407,0
-0.03115199608,-4.11522633744856,0
-0.03115005608,3.374485596707819,0
-0.03114811608,1.3991769547325104,0
-0.03114617608,-4.032921810699588,0
-0.03114423608,1.4814814814814814,0
-0.03114229608,4.444444444444445,0
-0.03114035608,-4.11522633744856,0
-0.03113841608,1.2345679012345678,0
-0.03113647608,4.362139917695473,0
-0.03113453608,-3.7037037037037037,0
-0.031132596079999998,0.0823045267489712,0
-0.03113065608,4.362139917695473,0
-0.03112871608,-4.11522633744856,0
-0.031126776079999998,-1.1522633744855968,0
-0.03112483608,4.362139917695473,0
-0.03112289608,-2.880658436213992,0
-0.031120956079999998,-3.7037037037037037,0
-0.03111901608,4.444444444444445,0
-0.03111707608,-1.2345679012345678,0
-0.03111513608,-4.11522633744856,0
-0.03111319608,3.7037037037037037,0
-0.03111125608,0.5761316872427984,0
-0.03110931608,-4.11522633744856,0
-0.03110737608,1.728395061728395,0
-0.03110543608,3.6213991769547325,0
-0.03110349608,-4.197530864197531,0
-0.03110155608,1.316872427983539,0
-0.03109961608,4.279835390946502,0
-0.03109767608,-4.11522633744856,0
-0.03109573608,0.9876543209876543,0
-0.03109379608,4.362139917695473,0
-0.03109185608,-4.11522633744856,0
-0.03108991608,-0.0823045267489712,0
-0.03108797608,4.279835390946502,0
-0.03108603608,-3.950617283950617,0
-0.031084096079999998,-2.880658436213992,0
-0.03108215608,4.444444444444445,0
-0.03108021608,-1.9753086419753085,0
-0.031078276079999998,-4.11522633744856,0
-0.03107633608,3.8683127572016462,0
-0.03107439608,-0.0823045267489712,0
-0.031072456079999998,-3.539094650205761,0
-0.03107051608,2.139917695473251,0
-0.03106857608,2.7983539094650207,0
-0.031066636079999998,-4.11522633744856,0
-0.03106469608,1.1522633744855968,0
-0.03106275608,4.773662551440329,0
-0.03106081608,-4.032921810699588,0
-0.03105887608,0.9876543209876543,0
-0.03105693608,4.362139917695473,0
-0.03105499608,-4.11522633744856,0
-0.03105305608,-0.0823045267489712,0
-0.03105111608,4.362139917695473,0
-0.03104917608,-4.11522633744856,0
-0.03104723608,-2.3868312757201644,0
-0.03104529608,4.444444444444445,0
-0.03104335608,-3.1275720164609053,0
-0.03104141608,-4.032921810699588,0
-0.03103947608,4.362139917695473,0
-0.03103753608,-0.7407407407407407,0
-0.03103559608,-4.11522633744856,0
-0.03103365608,2.551440329218107,0
-0.03103171608,1.5637860082304527,0
-0.031029776079999998,-4.11522633744856,0
-0.03102783608,1.2345679012345678,0
-0.03102589608,4.362139917695473,0
-0.031023956079999998,-4.11522633744856,0
-0.03102201608,0.9876543209876543,0
-0.03102007608,4.362139917695473,0
-0.031018136079999998,-4.279835390946502,0
-0.03101619608,0.823045267489712,0
-0.03101425608,4.279835390946502,0
-0.03101231608,-4.526748971193416,0
-0.03101037608,-1.316872427983539,0
-0.03100843608,4.279835390946502,0
-0.03100649608,-3.8683127572016462,0
-0.03100455608,-3.8683127572016462,0
-0.03100261608,3.950617283950617,0
-0.03100067608,-1.728395061728395,0
-0.03099873608,-4.11522633744856,0
-0.03099679608,3.2098765432098766,0
-0.03099485608,0.6584362139917695,0
-0.03099291608,-4.938271604938271,0
-0.03099097608,1.5637860082304527,0
-0.03098903608,3.7037037037037037,0
-0.03098709608,-4.032921810699588,0
-0.03098515608,0.9876543209876543,0
-0.03098321608,4.444444444444445,0
-0.030981276079999998,-4.11522633744856,0
-0.03097933608,0.823045267489712,0
-0.03097739608,4.362139917695473,0
-0.030975456079999998,-4.11522633744856,0
-0.03097351608,-0.6584362139917695,0
-0.03097157608,4.444444444444445,0
-0.030969636079999998,-4.032921810699588,0
-0.03096769608,-3.45679012345679,0
-0.03096575608,4.362139917695473,0
-0.030963816079999998,-2.7160493827160495,0
-0.03096187608,-4.11522633744856,0
-0.03095993608,4.279835390946502,0
-0.03095799608,-0.1646090534979424,0
-0.03095605608,-4.11522633744856,0
-0.03095411608,2.05761316872428,0
-0.03095217608,2.139917695473251,0
-0.03095023608,-4.11522633744856,0
-0.03094829608,1.0699588477366255,0
-0.03094635608,4.362139917695473,0
-0.03094441608,-4.11522633744856,0
-0.03094247608,0.9876543209876543,0
-0.03094053608,4.362139917695473,0
-0.03093859608,-4.032921810699588,0
-0.03093665608,0,0
-0.03093471608,4.362139917695473,0
-0.03093277608,-3.7037037037037037,0
-0.03093083608,-2.4691358024691357,0
-0.03092889608,4.11522633744856,0
-0.030926956079999998,-3.539094650205761,0
-0.03092501608,-4.11522633744856,0
-0.03092307608,4.609053497942387,0
-0.030921136079999998,-0.7407407407407407,0
-0.03091919608,-4.11522633744856,0
-0.03091725608,2.633744855967078,0
-0.030915316079999998,1.728395061728395,0
-0.03091337608,-4.11522633744856,0
-0.03091143608,1.2345679012345678,0
-0.030909496079999998,4.362139917695473,0
-0.03090755608,-4.11522633744856,0
-0.03090561608,1.1522633744855968,0
-0.03090367608,4.362139917695473,0
-0.03090173608,-4.11522633744856,0
-0.03089979608,0.3292181069958848,0
-0.03089785608,4.444444444444445,0
-0.03089591608,-4.11522633744856,0
-0.03089397608,-1.8106995884773662,0
-0.03089203608,4.362139917695473,0
-0.03089009608,-3.950617283950617,0
-0.03088815608,-4.11522633744856,0
-0.03088621608,4.444444444444445,0
-0.03088427608,-1.4814814814814814,0
-0.03088233608,-4.032921810699588,0
-0.03088039608,3.786008230452675,0
-0.030878456079999998,0.7407407407407407,0
-0.03087651608,-4.11522633744856,0
-0.03087457608,1.5637860082304527,0
-0.030872636079999998,3.8683127572016462,0
-0.03087069608,-4.11522633744856,0
-0.03086875608,1.1522633744855968,0
-0.030866816079999998,4.362139917695473,0
-0.03086487608,-4.032921810699588,0
-0.03086293608,1.316872427983539,0
-0.030860996079999998,4.362139917695473,0
-0.03085905608,-4.032921810699588,0
-0.03085711608,-0.9053497942386831,0
-0.03085517608,4.279835390946502,0
-0.03085323608,-3.950617283950617,0
-0.03085129608,-3.539094650205761,0
-0.03084935608,4.362139917695473,0
-0.03084741608,-2.05761316872428,0
-0.03084547608,-4.11522633744856,0
-0.03084353608,4.032921810699588,0
-0.03084159608,0.1646090534979424,0
-0.03083965608,-4.11522633744856,0
-0.03083771608,2.2222222222222223,0
-0.03083577608,2.962962962962963,0
-0.03083383608,-4.11522633744856,0
-0.03083189608,1.316872427983539,0
-0.03082995608,4.609053497942387,0
-0.03082801608,-4.197530864197531,0
-0.03082607608,1.0699588477366255,0
-0.030824136079999998,4.444444444444445,0
-0.03082219608,-3.539094650205761,0
-0.03082025608,0,0
-0.030818316079999998,4.362139917695473,0
-0.03081637608,-4.032921810699588,0
-0.03081443608,-2.551440329218107,0
-0.030812496079999998,4.197530864197531,0
-0.03081055608,-2.551440329218107,0
-0.03080861608,-4.11522633744856,0
-0.030806676079999998,4.362139917695473,0
-0.03080473608,-0.411522633744856,0
-0.03080279608,-4.691358024691358,0
-0.03080085608,3.292181069958848,0
-0.03079891608,1.9753086419753085,0
-0.03079697608,-4.032921810699588,0
-0.03079503608,1.3991769547325104,0
-0.03079309608,4.11522633744856,0
-0.03079115608,-4.11522633744856,0
-0.03078921608,1.1522633744855968,0
-0.03078727608,4.362139917695473,0
-0.03078533608,-3.950617283950617,0
-0.03078339608,0.5761316872427984,0
-0.03078145608,4.279835390946502,0
-0.03077951608,-4.032921810699588,0
-0.03077757608,-1.5637860082304527,0
-0.030775636079999998,4.279835390946502,0
-0.03077369608,-3.1275720164609053,0
-0.03077175608,-3.8683127572016462,0
-0.030769816079999998,4.197530864197531,0
-0.03076787608,-0.823045267489712,0
-0.03076593608,-4.11522633744856,0
-0.030763996079999998,3.2098765432098766,0
-0.03076205608,0.823045267489712,0
-0.03076011608,-4.11522633744856,0
-0.030758176079999998,1.5637860082304527,0
