log/TDMA_GE_02.csv

#Digilent WaveForms Oscilloscope Acquisition
#Device Name: ADP5250-323F81C
#Serial Number: SN:323F81C
#Date Time: 2023-03-08 13:42:16.982.274.499
#Sample rate: 492126Hz
#Samples: 32768
#Trigger: Source: Channel 1 Type: Edge Condition: Rising Level: 0 V Hyst.: Auto
#Channel 1: Range: 2 V/div Offset: 0 V Attenuation: 1 X Coupling: DC Bandwidth: Full Sample Mode: Average
#Channel 2: Range: 200 mV/div Offset: 0 V Attenuation: 1 X Coupling: DC Bandwidth: Full

Time (s),Channel 1 (V),Channel 2 (V)
-0.033292973907,0,0
-0.03329094190699999,-0.7407407407380459,0
-0.033288909906999994,0.7407407407407407,0
-0.033286877906999995,-0.3292181069958848,0
-0.033284845906999996,-0.3292181069958848,0
-0.033282813907,0.3292181069958848,0
-0.033280781907,5.988542994828094e-13,0
-0.033278749907,-0.7407407407393933,0
-0.03327671790699999,0.5761316872421995,0
-0.033274685906999994,0.2469135802448176,0
-0.033272653906999995,-0.9053497942386831,0
-0.033270621906999996,1.1522633744855968,0
-0.033268589907,-0.49382716049382713,0
-0.033266557907,-0.08230452674971978,0
-0.033264525907,0.4115226337439577,0
-0.03326249390699999,-0.49382716049307857,0
-0.033260461906999994,-0.08230452674792321,0
-0.033258429906999995,0.49382716049382713,0
-0.033256397906999996,-0.5761316872427984,0
-0.033254365907,-0.0823045267489712,0
-0.033252333907,0.7407407407407407,0
-0.033250301907,-0.740740740738046,0
-0.03324826990699999,0.24691358024691357,0
-0.033246237906999994,0.24691358024541646,0
-0.033244205906999995,-0.5761316872427984,0
-0.033242173906999996,0.0823045267489712,0
-0.033240141907,0.6584362139917695,0
-0.033238109907,-0.9876543209876543,0
-0.033236077907,0.6584362139887754,0
-0.03323404590699999,0.49382716049113234,0
-0.033232013906999994,-0.98765432098466,0
-0.033229981906999995,0.6584362139917695,0
-0.033227949906999996,0.1646090534979424,0
-0.033225917907,-0.9053497942386831,0
-0.033223885907,0.411522633744856,0
-0.033221853907,0.08230452674957006,0
-0.033219821907,-0.9053497942368866,0
-0.033217789906999994,0.5761316872408522,0
-0.033215757906999994,-0.49382716049382713,0
-0.033213725906999995,-0.823045267489712,0
-0.033211693906999996,0.9053497942386831,0
-0.033209661907,-0.3292181069958848,0
-0.033207629907,-0.3292181069958848,0
-0.033205597907,-0.16460905349824181,0
-0.03320356590699999,-0.08230452675031859,0
-0.033201533906999994,-0.8230452674870171,0
-0.033199501906999995,0.6584362139917695,0
-0.033197469906999996,-0.3292181069958848,0
-0.033195437907,-0.24691358024691357,0
-0.033193405907,0.5761316872413013,0
-0.033191373907,-0.5761316872407025,0
-0.03318934190699999,0.08230452674957003,0
-0.033187309906999994,0.4115226337420115,0
-0.033185277906999995,-1.1522633744855968,0
-0.033183245906999996,-0.49382716049382713,0
-0.033181213907,0.7407407407407407,0
-0.033179181907,-1.0699588477366255,0
-0.033177149907,0.41152263374216114,0
-0.03317511790699999,0.2469135802446679,0
-0.033173085906999994,-0.9876543209849594,0
-0.033171053906999995,0.49382716049382713,0
-0.033169021906999996,0.1646090534979424,0
-0.033166989907,-0.49382716049382713,0
-0.033164957907,0.0823045267489712,0
-0.033162925907,0.49382716049307857,0
-0.03316089390699999,-0.9876543209848098,0
-0.033158861906999994,0.5761316872419001,0
-0.033156829906999995,0.0823045267489712,0
-0.033154797906999996,-0.823045267489712,0
-0.033152765907,0.49382716049382713,0
-0.033150733907,0,0
-0.033148701907,-0.6584362139905718,0
-0.033146669907,0.41152263374290976,0
-0.033144637906999994,0.4115226337421612,0
-0.033142605906999995,-1.0699588477366255,0
-0.033140573906999996,0.6584362139917695,0
-0.033138541906999996,-0.3292181069958848,0
-0.033136509907,-0.411522633744856,0
-0.033134477907,0.5761316872410018,0
-0.033132445907,-0.4115226337430594,0
-0.03313041390699999,-0.16460905349689442,0
-0.033128381906999994,0.411522633744856,0
-0.033126349906999995,-0.1646090534979424,0
-0.033124317906999996,-0.24691358024691357,0
-0.033122285907,0.6584362139917695,0
-0.033120253907,-0.6584362139893741,0
-0.033118221907,0.16460905349644528,0
-0.03311618990699999,1.1522633744823032,0
-0.033114157906999994,-0.6584362139901228,0
-0.033112125906999995,0.24691358024691357,0
-0.033110093906999996,0.49382716049382713,0
-0.033108061907,-0.49382716049382713,0
-0.033106029907,-0.4115226337450057,0
-0.033103997907,0.7407407407386449,0
-0.03310196590699999,-0.4115226337442571,0
-0.033099933906999994,-0.08230452674807293,0
-0.033097901906999995,0.411522633744856,0
-0.033095869906999996,-0.823045267489712,0
-0.033093837907,-0.0823045267489712,0
-0.033091805907,0.49382716049382713,0
-0.033089773907,-0.5761316872408522,0
-0.03308774190699999,-0.08230452674837235,0
-0.033085709906999994,0.24691358024511703,0
-0.033083677906999995,-0.7407407407407407,0
-0.033081645906999996,0.1646090534979424,0
-0.033079613907,0.3292181069958848,0
-0.033077581907,-0.6584362139917695,0
-0.033075549907,-0.576131687242948,0
-0.033073517907,0.24691358024541643,0
-0.033071485906999994,-0.8230452674871669,0
-0.033069453906999995,0.5761316872427984,0
-0.033067421906999996,-0.1646090534979424,0
-0.033065389906999997,-0.6584362139917695,0
-0.033063357907,0.6584362139917695,0
-0.033061325907,0.08230452675001909,0
-0.033059293907,-0.7407407407392436,0
-0.03305726190699999,0.4115226337442571,0
-0.033055229906999994,0.0823045267489712,0
-0.033053197906999995,-0.9876543209876543,0
-0.033051165906999996,0.5761316872427984,0
-0.033049133907,-0.3292181069958848,0
-0.033047101907,-5.988542994828094e-13,0
-0.033045069907,0.8230452674882148,0
-0.03304303790699999,-1.0699588477336313,0
-0.033041005906999994,0.5761316872421995,0
-0.033038973906999995,0.24691358024691357,0
-0.033036941906999996,-0.7407407407407407,0
-0.033034909907,0.1646090534979424,0
-0.033032877907,0.4938271604932283,0
-0.033030845907,-0.5761316872408522,0
-0.03302881390699999,-0.16460905349629557,0
-0.033026781906999994,0.7407407407378962,0
-0.033024749906999995,-0.823045267489712,0
-0.033022717906999996,0.411522633744856,0
-0.033020685907,0.411522633744856,0
-0.033018653907,-0.823045267489712,0
-0.033016621907,0.41152263374261033,0
-0.03301458990699999,0.2469135802448176,0
-0.033012557906999994,-0.905349794236138,0
-0.033010525906999995,0.49382716049382713,0
-0.033008493906999996,-0.3292181069958848,0
-0.033006461907,-0.6584362139917695,0
-0.033004429907,0.9053497942386831,0
-0.033002397907,-0.49382716049128195,0
-0.03300036590699999,-0.41152263374320913,0
-0.032998333906999994,0.4938271604924797,0
-0.032996301906999995,-0.24691358024691357,0
-0.032994269906999996,-0.9053497942386831,0
-0.032992237907,0.5761316872427984,0
-0.032990205907,0,0
-0.032988173907,-0.7407407407393933,0
-0.032986141907,0.576131687240403,0
-0.032984109906999994,-0.24691358024676385,0
-0.032982077906999994,-0.1646090534979424,0
-0.032980045906999995,0.7407407407407407,0
-0.032978013906999996,-0.3292181069958848,0
-0.032975981907,-0.0823045267489712,0
-0.032973949907,0.5761316872416007,0
-0.032971917907,-0.4115226337430594,0
-0.03296988590699999,-0.576131687240403,0
-0.032967853906999994,0.7407407407402916,0
-0.032965821906999995,0.49382716049382713,0
-0.032963789906999996,-0.5761316872427984,0
-0.032961757907,0.411522633744856,0
-0.032959725907,0.08230452674957006,0
-0.032957693907,-0.8230452674880652,0
-0.03295566190699999,1.2345679012320228,0
-0.032953629906999994,-0.16460905349854124,0
-0.032951597906999995,-0.49382716049382713,0
-0.032949565906999996,0.5761316872427984,0
-0.032947533907,-0.411522633744856,0
-0.032945501907,0.1646090534979424,0
-0.032943469907,0.41152263374440684,0
-0.03294143790699999,-0.16460905349839153,0
-0.032939405906999994,-0.41152263374290976,0
-0.032937373906999995,0.6584362139917695,0
-0.032935341906999996,0.0823045267489712,0
-0.032933309907,0.0823045267489712,0
-0.032931277907,0.411522633744856,0
-0.032929245907,-0.9053497942362877,0
-0.03292721390699999,0.4938271604935277,0
-0.032925181906999994,0.32921810699393855,0
-0.032923149906999995,-0.7407407407407407,0
-0.032921117906999996,0.411522633744856,0
-0.032919085907,0.49382716049382713,0
-0.032917053907,-0.9876543209876543,0
-0.032915021907,0.5761316872399538,0
-0.032912989907,0.24691358024751242,0
-0.032910957906999994,-0.7407407407386447,0
-0.032908925906999995,0.411522633744856,0
-0.032906893906999996,0.24691358024691357,0
-0.032904861906999996,-0.5761316872427984,0
-0.032902829907,0.3292181069958848,0
-0.032900797907,5.988542994828094e-13,0
-0.032898765907,-0.49382716049292885,0
-0.03289673390699999,0.6584362139893741,0
-0.032894701906999994,-0.6584362139917695,0
-0.032892669906999995,-0.1646090534979424,0
-0.032890637906999996,0.49382716049382713,0
-0.032888605907,-0.9053497942386831,0
-0.032886573907,0.32921810699363896,0
-0.032884541907,0.41152263374470627,0
-0.03288250990699999,-0.493827160493378,0
-0.032880477906999994,-0.24691358024541646,0
-0.032878445906999995,0.5761316872427984,0
-0.032876413906999996,-0.49382716049382713,0
-0.032874381907,-0.1646090534979424,0
-0.032872349907,0.41152263374380804,0
-0.032870317907,-0.32921810699453735,0
-0.03286828590699999,-0.4938271604932283,0
-0.032866253906999994,-0.16460905349779267,0
-0.032864221906999995,-0.0823045267489712,0
-0.032862189906999996,-0.49382716049382713,0
-0.032860157907,0.823045267489712,0
-0.032858125907,-0.7407407407407407,0
-0.032856093907,-0.8230452674895623,0
-0.03285406190699999,0.41152263374276005,0
-0.032852029906999994,-0.740740740738495,0
-0.032849997906999995,0.49382716049382713,0
-0.032847965906999996,0.24691358024691357,0
-0.032845933907,-1.316872427983539,0
-0.032843901907,0.411522633744856,0
-0.032841869907,0.4938271604936774,0
-0.032839837907,-1.069958847733781,0
-0.032837805906999994,0.7407407407392436,0
-0.032835773906999995,-0.0823045267489712,0
-0.032833741906999996,-0.823045267489712,0
-0.032831709906999997,0.411522633744856,0
-0.032829677907,0.0823045267489712,0
-0.032827645907,-0.6584362139904222,0
-0.032825613907,0.08230452674762379,0
-0.03282358190699999,-0.16460905349884064,0
-0.032821549906999994,-0.6584362139917695,0
-0.032819517906999995,0.823045267489712,0
-0.032817485906999996,-0.411522633744856,0
-0.032815453907,0,0
-0.032813421907,0.4115226337441074,0
-0.032811389907,-0.16460905349689448,0
-0.03280935790699999,-0.4115226337430595,0
-0.032807325906999994,0.5761316872402533,0
-0.032805293906999995,-0.823045267489712,0
-0.032803261906999996,-0.24691358024691357,0
-0.032801229907,0.823045267489712,0
-0.032799197907,-0.8230452674867177,0
-0.032797165907,0.24691358024496735,0
-0.03279513390699999,0.16460905349689442,0
-0.032793101906999994,-0.41152263374455655,0
-0.032791069906999995,-0.24691358024691357,0
-0.032789037906999996,0.6584362139917695,0
-0.032787005907,-0.411522633744856,0
-0.032784973907,-0.5761316872427984,0
-0.032782941907,0.5761316872407025,0
-0.03278090990699999,-0.41152263374440684,0
-0.032778877906999994,-0.16460905349704413,0
-0.032776845906999995,0.3292181069958848,0
-0.032774813906999996,0,0
-0.032772781907,-0.7407407407407407,0
-0.032770749907,0.7407407407407407,0
-0.032768717907,-0.576131687240403,0
-0.03276668590699999,1.0479774341416458e-12,0
-0.032764653906999994,0.5761316872399539,0
-0.032762621906999995,-0.9876543209876543,0
-0.032760589906999996,0.411522633744856,0
-0.032758557907,0.24691358024691357,0
-0.032756525907,-0.49382716049382713,0
-0.032754493907,0.1646090534967447,0
-0.032752461907,0.4938271604932283,0
-0.032750429906999994,-0.9053497942367369,0
-0.032748397906999994,0.1646090534979424,0
-0.032746365906999995,0.411522633744856,0
-0.032744333906999996,-0.823045267489712,0
-0.032742301907,0.411522633744856,0
-0.032740269907,0.3292181069960345,0
-0.032738237907,-0.7407407407387945,0
-0.03273620590699999,0.9876543209870554,0
-0.032734173906999994,0.6584362139886256,0
-0.032732141906999995,-1.0699588477366255,0
-0.032730109906999996,0.7407407407407407,0
-0.032728077907,0.0823045267489712,0
-0.032726045907,-1.0699588477345296,0
-0.032724013907,0.5761316872398041,0
-0.03272198190699999,0.08230452674852207,0
-0.032719949906999994,-0.16460905349704413,0
-0.032717917906999995,0.3292181069958848,0
-0.032715885906999996,0.6584362139917695,0
-0.032713853907,-0.5761316872427984,0
-0.032711821907,0.823045267489712,0
-0.032709789907,-0.4938271604914317,0
-0.03270775790699999,-0.41152263374261033,0
-0.032705725906999994,0.8230452674877657,0
-0.032703693906999995,-0.24691358024691357,0
-0.032701661906999996,-0.3292181069958848,0
-0.032699629907,0.49382716049382713,0
-0.032697597907,-0.24691358024691357,0
-0.032695565907,0.08230452674837235,0
-0.03269353390699999,0.7407407407377464,0
-0.032691501906999994,-0.9053497942358386,0
-0.032689469906999995,0.6584362139917695,0
-0.032687437906999996,0.0823045267489712,0
-0.032685405907,-1.5637860082304527,0
-0.032683373907,0.411522633744856,0
-0.032681341907,0.246913580247213,0
-0.032679309907,-0.7407407407389441,0
-0.032677277906999994,0.411522633744856,0
-0.032675245906999995,0.411522633744856,0
-0.032673213906999996,-1.2345679012345678,0
-0.032671181906999996,0.7407407407407407,0
-0.032669149907,0.1646090534979424,0
-0.032667117907,-0.7407407407390939,0
-0.032665085907,0.246913580245117,0
-0.03266305390699999,0.32921810699438764,0
-0.032661021906999994,-0.49382716049382713,0
-0.032658989906999995,0.1646090534979424,0
-0.032656957906999996,0.5761316872427984,0
-0.032654925907,-0.9053497942386831,0
-0.032652893907,0.6584362139889249,0
-0.032650861907,1.1977085989656189e-12,0
-0.03264882990699999,-0.658436213989973,0
-0.032646797906999994,0.3292181069952859,0
-0.032644765906999995,0,0
-0.032642733906999996,-0.411522633744856,0
-0.032640701907,0.49382716049382713,0
-0.032638669907,-0.4115226337432092,0
-0.032636637907,-0.08230452674957006,0
-0.03263460590699999,0.7407407407369979,0
-0.032632573906999994,-1.3168724279797963,0
-0.032630541906999995,0.7407407407407407,0
-0.032628509906999996,0.24691358024691357,0
-0.032626477907,-0.6584362139917695,0
-0.032624445907,0.3292181069958848,0
-0.032622413907,0.41152263374470627,0
-0.03262038190699999,-0.7407407407393933,0
-0.032618349906999994,8.982663721214106e-13,0
-0.032616317906999995,0.49382716049382713,0
-0.032614285906999996,-0.7407407407407407,0
-0.032612253907,0.1646090534979424,0
-0.032610221907,0.3292181069958848,0
-0.032608189907,-0.49382716049233005,0
-0.032606157907,0.4115226337432092,0
-0.032604125906999994,0.658436213988925,0
-0.032602093906999995,-0.9053497942386831,0
-0.032600061906999996,0.0823045267489712,0
-0.032598029906999997,0.49382716049382713,0
-0.032595997907,-0.3292181069958848,0
-0.032593965907,0.24691358024586568,0
-0.032591933907,0.32921810699573506,0
-0.03258990190699999,-0.6584362139901228,0
-0.032587869906999994,0.24691358024691357,0
-0.032585837906999995,0.9053497942386831,0
-0.032583805906999996,-0.9876543209876543,0
-0.032581773907,0.5761316872427984,0
-0.032579741907,1.0479395129436853e-12,0
-0.032577709907,-0.7407407407393933,0
-0.03257567790699999,1.3168724279805448,0
-0.032573645906999994,-0.3292181069961842,0
-0.032571613906999995,-0.49382716049382713,0
-0.032569581906999996,0.49382716049382713,0
-0.032567549907,0.24691358024691357,0
-0.032565517907,-0.5761316872413013,0
-0.032563485907,0.5761316872407025,0
-0.03256145390699999,-1.0479774341416458e-12,0
-0.032559421906999994,-0.5761316872407024,0
-0.032557389906999995,0.5761316872427984,0
-0.032555357906999996,0.411522633744856,0
-0.032553325907,-0.3292181069958848,0
-0.032551293907,0.411522633744856,0
-0.032549261907,-0.16460905349689448,0
-0.03254722990699999,-0.4938271604903838,0
-0.032545197906999994,1.3991769547281687,0
-0.032543165906999995,-0.9876543209876543,0
-0.032541133906999996,0.24691358024691357,0
-0.032539101907,0.411522633744856,0
-0.032537069907,-0.7407407407407407,0
-0.032535037907,0.3292181069939386,0
-0.03253300590699999,0.32921810699453735,0
-0.032530973906999994,-0.4115226337442571,0
-0.032528941906999995,-0.0823045267489712,0
-0.032526909906999996,0.6584362139917695,0
-0.032524877907,-0.9053497942386831,0
-0.032522845907,0.3292181069958848,0
-0.032520813907,0.3292181069958848,0
-0.032518781907,-0.9053497942364372,0
-0.032516749906999994,0.2469135802473627,0
-0.032514717906999994,0.49382716049382713,0
-0.032512685906999995,-0.823045267489712,0
-0.032510653906999996,0.411522633744856,0
-0.032508621907,0.411522633744856,0
-0.032506589907,-1.0699588477339308,0
-0.032504557907,0.7407407407374471,0
-0.03250252590699999,-0.08230452675016889,0
-0.032500493906999994,-0.7407407407387945,0
-0.032498461906999995,0.3292181069958848,0
-0.032496429906999996,0.3292181069958848,0
-0.032494397907,-0.6584362139917695,0
-0.032492365907,0.24691358024526677,0
-0.032490333907,0.5761316872421995,0
-0.03248830190699999,-1.0699588477346793,0
-0.032486269906999994,0,0
-0.032484237906999995,0,0
-0.032482205906999996,-0.7407407407407407,0
-0.032480173907,0.49382716049382713,0
-0.032478141907,-0.3292181069958848,0
-0.032476109907,-1.3168724279817425,0
-0.03247407790699999,0.5761316872405527,0
-0.032472045906999994,-0.6584362139904222,0
-0.032470013906999995,0.0823045267489712,0
-0.032467981906999996,0.6584362139917695,0
-0.032465949907,-1.1522633744855968,0
-0.032463917907,0.24691358024691357,0
-0.032461885907,0.41152263374455655,0
-0.03245985390699999,-0.5761316872421995,0
-0.032457821906999994,-0.2469135802460153,0
-0.032455789906999995,0.24691358024691357,0
-0.032453757906999996,-0.7407407407407407,0
-0.032451725907,0.3292181069958848,0
-0.032449693907,0.5761316872427984,0
-0.032447661907,-1.0699588477336313,0
-0.032445629907,0.24691358024451815,0
-0.032443597906999994,0.08230452674747409,0
-0.032441565906999995,-0.7407407407407407,0
-0.032439533906999996,0.411522633744856,0
-0.032437501906999996,0.3292181069958848,0
-0.032435469907,-0.1646090534979424,0
-0.032433437907,0.41152263374380804,0
-0.032431405907,0.411522633744856,0
-0.03242937390699999,-0.7407407407380459,0
-0.032427341906999994,0.7407407407407407,0
-0.032425309906999995,-0.411522633744856,0
-0.032423277906999996,-0.5761316872427984,0
-0.032421245907,0.411522633744856,0
-0.032419213907,-0.16460905349689448,0
-0.032417181907,-0.41152263374440684,0
-0.03241514990699999,0.6584362139898233,0
-0.032413117906999994,-0.411522633744856,0
-0.032411085906999995,-0.411522633744856,0
-0.032409053906999996,0.7407407407407407,0
-0.032407021907,-0.411522633744856,0
-0.032404989907,-0.3292181069960345,0
-0.032402957907,0.32921810699468707,0
-0.03240092590699999,0.0823045267476238,0
-0.032398893906999994,-0.6584362139896736,0
-0.032396861906999995,0.49382716049382713,0
-0.032394829906999996,-0.1646090534979424,0
-0.032392797907,-0.6584362139917695,0
-0.032390765907,0.7407407407407407,0
-0.032388733907,-0.4115226337427602,0
-0.03238670190699999,-0.1646090534967447,0
-0.032384669906999994,0.4938271604921803,0
-0.032382637906999995,-0.411522633744856,0
-0.032380605906999996,-0.1646090534979424,0
-0.032378573907,0.49382716049382713,0
-0.032376541907,-0.6584362139917695,0
-0.032374509907,0.08230452674762379,0
-0.032372477907,0.49382716049307857,0
-0.032370445906999994,-0.4115226337441074,0
-0.032368413906999995,0,0
-0.032366381906999996,0.411522633744856,0
-0.032364349907,-0.49382716049382713,0
-0.032362317907,0.1646090534979424,0
-0.032360285907,0.5761316872420498,0
-0.032358253907,-0.9053497942359883,0
-0.03235622190699999,0.6584362139913205,0
-0.032354189906999994,0.411522633744856,0
-0.032352157906999995,-0.9876543209876543,0
-0.032350125906999996,0.7407407407407407,0
-0.032348093907,-0.1646090534979424,0
-0.032346061907,0.4938271604926294,0
-0.032344029907,0.49382716049382713,0
-0.03234199790699999,-0.5761316872423493,0
-0.032339965906999994,-0.32921810699408827,0
-0.032337933906999995,0.6584362139917695,0
-0.032335901906999996,-0.1646090534979424,0
-0.032333869907,-0.0823045267489712,0
-0.032331837907,0.5761316872416007,0
-0.032329805907,-0.5761316872407025,0
-0.03232777390699999,-0.16460905349644528,0
-0.032325741906999994,0.6584362139898233,0
-0.032323709906999995,-0.411522633744856,0
-0.032321677906999996,0,0
-0.032319645907,0.6584362139917695,0
-0.032317613907,-1.0699588477366255,0
