log/TDMA_GE_01.csv

#Digilent WaveForms Oscilloscope Acquisition
#Device Name: ADP5250-323F81C
#Serial Number: SN:323F81C
#Date Time: 2023-03-08 13:10:49.525.921.199
#Sample rate: 515464Hz
#Samples: 32768
#Trigger: Source: Channel 1 Type: Edge Condition: Rising Level: 0 V Hyst.: Auto
#Channel 1: Range: 2 V/div Offset: 0 V Attenuation: 1 X Coupling: DC Bandwidth: Full Sample Mode: Average
#Channel 2: Range: 200 mV/div Offset: 0 V Attenuation: 1 X Coupling: DC Bandwidth: Full

Time (s),Channel 1 (V),Channel 2 (V)
-0.031784782887,1.9753086419753085,0
-0.031782842887,-0.6584362139917695,0
-0.031780902887,-0.0823045267489712,0
-0.031778962887,-0.16460905349779267,0
-0.031777022886999996,-4.115226337433139,0
-0.031775082887,4.3621399176866404,0
-0.031773142887,-0.49382716049382713,0
-0.031771202887,-0.5761316872427984,0
-0.031769262887,1.316872427983539,0
-0.031767322887,-4.197530864187501,0
-0.031765382886999996,-0.32921810699304027,0
-0.031763442887,1.234567901231873,0
-0.031761502887,-0.24691358024691357,0
-0.031759562887,-0.0823045267489712,0
-0.031757622887,0.7407407407407407,0
-0.031755682887,-1.9753086419703678,0
-0.031753742887,4.362139917683946,0
-0.031751802887,-1.152263374483501,0
-0.031749862887,0,0
-0.031747922887,4.362139917695473,0
-0.031745982887,-4.11522633744856,0
-0.031744042887,0.8230452674807287,0
-0.031742102887,0.9876543209873548,0
-0.031740162887,0.24691358024496732,0
-0.031738222887,-0.823045267489712,0
-0.031736282887,0.5761316872427984,0
-0.031734342887,1.646090534979424,0
-0.031732402887,2.139917695473251,0
-0.031730462887,-0.987654320981965,0
-0.031728522886999996,-0.4938271604857427,0
-0.031726582887,3.9506172839363947,0
-0.031724642887,-3.8683127572016462,0
-0.031722702887,0.6584362139917695,0
-0.031720762887,0.49382716049382713,0
-0.031718822887,-0.1646090534967447,0
-0.031716882886999996,-0.6584362139976083,0
-0.031714942887,-3.868312757186226,0
-0.031713002887,4.609053497942387,0
-0.031711062887,-0.5761316872427984,0
-0.031709122887,-0.9053497942386831,0
-0.031707182887,-1.1522633744851476,0
-0.031705242887,-1.9753086419738115,0
-0.031703302887,-1.7283950617249517,0
-0.031701362887,0.1646090534979424,0
-0.031699422887,0.0823045267489712,0
-0.031697482887,0,0
-0.031695542887,-0.24691358024646443,0
-0.031693602887,-4.1152263374415226,0
-0.031691662887,4.362139917683496,0
-0.031689722887,-2.2222222222222223,0
-0.031687782887,1.1522633744855968,0
-0.031685842887,0.7407407407407407,0
-0.031683902887,-3.950617283950617,0
-0.031681962887,0.5761316872345636,0
-0.031680022886999996,7.485553101011755e-13,0
-0.031678082887,0.41152263374455655,0
-0.031676142887,0.24691358024691357,0
-0.031674202887,-0.7407407407407407,0
-0.031672262887,-0.1646090534979424,0
-0.031670322887,4.032921810691953,0
-0.031668382886999996,-2.222222222216084,0
-0.031666442887,1.1522633744912858,0
-0.031664502887,4.279835390946502,0
-0.031662562887,-4.11522633744856,0
-0.031660622887,1.728395061728395,0
-0.031658682887,-0.08230452674567768,0
-0.031656742887,0.16460905349749322,0
-0.031654802887,0.41152263374081377,0
-0.031652862887,-1.8106995884773662,0
-0.031650922887,2.633744855967078,0
-0.031648982887,0.3292181069958848,0
-0.031647042887,-1.5637860082270094,0
-0.031645102887,-0.16460905350048738,0
-0.031643162887,3.0452674896992087,0
-0.031641222887,-3.950617283950617,0
-0.031639282887,2.4691358024691357,0
-0.031637342887,-0.9053497942386831,0
-0.031635402887,0.41152263374246056,0
-0.031633462887,0.411522633744856,0
-0.031631522886999996,-4.115226337433289,0
-0.031629582887,4.279835390936621,0
-0.031627642887,-1.1522633744855968,0
-0.031625702887,-1.0699588477366255,0
-0.031623762887,-0.9053497942386831,0
-0.031621822887,-3.2921810699545064,0
-0.031619882886999996,-1.4814814814753432,0
-0.031617942887,1.8930041152210977,0
-0.031616002887,-0.9876543209876543,0
-0.031614062887,0.24691358024691357,0
-0.031612122887,0.5761316872427984,0
-0.031610182887,-3.9506172839423823,0
-0.031608242886999996,4.27983539093737,0
-0.031606302887,-0.7407407407393933,0
-0.031604362887,0,0
-0.031602422887,2.139917695473251,0
-0.031600482887,-4.11522633744856,0
-0.031598542887,0.16460905349015764,0
-0.031596602887,1.2345679012326216,0
-0.031594662887,-0.8230452674871669,0
-0.031592722887,0.5761316872427984,0
-0.031590782887,0.24691358024691357,0
-0.031588842887,0.1646090534979424,0
-0.031586902887,4.2798353909390165,0
-0.031584962887,-1.2345679012245379,0
-0.031583022887,0.49382716050071385,0
-0.031581082887,4.279835390946502,0
-0.031579142887,-4.197530864197531,0
-0.031577202887,1.316872427983539,0
-0.031575262887,0.6584362139917695,0
-0.031573322887,-0.41152263374290976,0
-0.031571382886999996,-0.08230452675181571,0
-0.031569442887,-1.6460905349717887,0
-0.031567502887,2.551440329218107,0
-0.031565562887,1.9753086419753085,0
-0.031563622887,-1.0699588477366255,0
-0.031561682887,-0.9876543209878039,0
-0.031559742886999996,3.3744855966944947,0
-0.031557802887,-3.950617283941934,0
-0.031555862887,0.823045267489712,0
-0.031553922887,0.49382716049382713,0
-0.031551982887,-0.1646090534979424,0
-0.031550042887,-0.24691358024676385,0
-0.031548102887,-4.1152263374415226,0
-0.031546162887,4.36213991768694,0
-0.031544222887,-0.3292181069958848,0
-0.031542282887,-0.24691358024691357,0
-0.031540342887,-1.316872427983539,0
-0.031538402887,-3.127572016457612,0
-0.031536462887,-1.5637860082332973,0
-0.031534522887,0.3292181069963339,0
-0.031532582887,0.5761316872427984,0
-0.031530642887,-0.411522633744856,0
-0.031528702887,0.0823045267489712,0
-0.031526762887,-2.7983539094650207,0
-0.031524822887,4.197530864184804,0
-0.031522882886999996,-0.9053497942364375,0
-0.031520942887,0.32921810699977727,0
-0.031519002887,2.4691358024691357,0
-0.031517062887,-4.11522633744856,0
-0.031515122887,1.0699588477366255,0
-0.031513182887,0.1646090534995892,0
-0.031511242886999996,0.6584362139907216,0
-0.031509302887,0.08230452674957003,0
-0.031507362887,0.411522633744856,0
-0.031505422887,0.9053497942386831,0
-0.031503482887,3.2098765432098766,0
-0.031501542887,-1.1522633744776618,0
-0.031499602887,0.41152263374201126,0
-0.031497662887,4.362139917679904,0
-0.031495722887,-4.197530864197531,0
-0.031493782887,1.2345679012345678,0
-0.031491842887,-0.0823045267489712,0
-0.031489902887,0.4115226337439577,0
-0.031487962887,-0.41152263374335885,0
-0.031486022887,-2.551440329206729,0
-0.031484082887,3.7037037037037037,0
-0.031482142887,0.0823045267489712,0
-0.031480202887,-1.1522633744855968,0
-0.031478262887,-0.49382716049382713,0
-0.031476322887,1.5637860082267099,0
-0.031474382886999996,-3.04526748970385,0
-0.031472442887,1.3991769547289172,0
-0.031470502887,-0.5761316872427984,0
-0.031468562887,0.49382716049382713,0
-0.031466622887,0.1646090534979424,0
-0.031464682887,-4.032921810691953,0
-0.031462742886999996,4.279835390935424,0
-0.031460802887,-1.8106995884736234,0
-0.031458862887,0.24691358024691357,0
-0.031456922887,-0.9876543209876543,0
-0.031454982887,-4.032921810699588,0
-0.031453042887,-0.32921810700262144,0
-0.031451102887,1.2345679012317232,0
-0.031449162887,-1.0699588477334816,0
-0.031447222887,0.6584362139917695,0
-0.031445282887,-0.0823045267489712,0
-0.031443342887,-2.633744855967078,0
-0.031441402887,4.362139917682747,0
-0.031439462887,-3.2098765431961036,0
-0.031437522887,1.234567901239658,0
-0.031435582887,4.032921810699588,0
-0.031433642887,-4.11522633744856,0
-0.031431702887,1.728395061728395,0
-0.031429762887,0.6584362139937157,0
-0.031427822887,-0.7407407407381955,0
-0.031425882886999996,0.823045267486568,0
-0.031423942887,-0.9053497942344912,0
-0.031422002887,1.3991769547325104,0
-0.031420062887,3.045267489711934,0
-0.031418122887,-2.139917695473251,0
-0.031416182887,0.24691358024257237,0
-0.031414242886999996,4.362139917680053,0
-0.031412302887,-4.115226337437481,0
-0.031410362887,1.9753086419753085,0
-0.031408422887,0.5761316872427984,0
-0.031406482887,-4.032921810699588,0
-0.031404542887,3.70370370368963,0
-0.031402602886999996,4.362139917680053,0
-0.031400662887,-4.115226337438679,0
-0.031398722887,1.316872427983539,0
-0.031396782887,-0.7407407407407407,0
-0.031394842887,4.032921810699588,0
-0.031392902887,-1.0699588477273432,0
-0.031390962887,-3.9506172839453773,0
-0.031389022887,-3.209876543196552,0
-0.031387082887,4.11522633744856,0
-0.031385142887,4.11522633744856,0
-0.031383202887,-4.11522633744856,0
-0.031381262887,1.728395061717765,0
-0.031379322887,0.16460905350078692,0
-0.031377382887,4.279835390935723,0
-0.031375442887,-1.646090534979424,0
-0.031373502887,-3.539094650205761,0
-0.031371562887,-3.45679012345679,0
-0.031369622887,4.032921810699588,0
-0.031367682887,3.292181069960195,0
-0.031365742886999996,-4.362139917685892,0
-0.031363802887,0.9053497942385335,0
-0.031361862887,0.823045267489712,0
-0.031359922887,3.8683127572016462,0
-0.031357982887,-1.8930041152263375,0
-0.031356042887,-1.9753086419751589,0
-0.031354102886999996,-4.115226337433139,0
-0.031352162887,4.3621399176926285,0
-0.031350222887,2.7983539094650207,0
-0.031348282887,-4.11522633744856,0
-0.031346342887,1.2345679012345678,0
-0.031344402887,1.2345679012345678,0
-0.031342462887,3.2098765432062835,0
-0.031340522887,-2.2222222222216237,0
-0.031338582887,-1.8930041152263375,0
-0.031336642887,-3.950617283950617,0
-0.031334702887,4.444444444444445,0
-0.031332762887,1.7283950617333352,0
-0.031330822887,-4.032921810689109,0
-0.031328882887,2.2222222222207253,0
-0.031326942887,1.3991769547325104,0
-0.031325002887,3.7037037037037037,0
-0.031323062887,-3.045267489711934,0
-0.031321122887,-2.05761316872428,0
-0.031319182887,-3.9506172839471736,0
-0.031317242886999996,4.362139917688586,0
-0.031315302887,0.5761316872342649,1.497110620202351e-14
-0.031313362887,-4.11522633744856,0.00823045267489712
-0.031311422887,1.8106995884773662,0
-0.031309482887,2.139917695473251,0
-0.031307542887,4.691358024686718,0
-0.031305602886999996,-4.0329218106938995,0
-0.031303662887,-0.905349794242875,0
-0.031301722887,-3.2098765432098766,0
-0.031299782887,4.279835390946502,0
-0.031297842887,0,0
-0.031295902887,-4.032921810692253,0
-0.031293962887,0.0823045267414857,0
-0.031292022887,2.139917695477443,0
-0.031290082887,4.444444444444445,0
-0.031288142887,-4.11522633744856,0
-0.031286202887,0.5761316872427984,0
-0.031284262887,-2.7983539094588825,0
-0.031282322887,4.362139917682448,0
-0.031280382887,-0.4938271604999653,0
-0.031278442887,-3.8683127572016462,0
-0.031276502887,-0.9876543209876543,0
-0.031274562887,2.880658436213992,0
-0.031272622887,4.362139917692779,0
-0.031270682887,-4.11522633743314,0
-0.031268742886999996,0.329218106991094,0
-0.031266802887,-2.3045267489593666,0
-0.031264862887,4.197530864197531,0
-0.031262922887,-0.7407407407407407,0
-0.031260982887,-4.11522633744856,0
-0.031259042887,0.32921810698780085,0
-0.031257102886999996,2.962962962965508,0
-0.031255162887,4.362139917680053,0
-0.031253222887,-4.11522633744856,0
-0.031251282887,0.7407407407407407,0
-0.031249342887,-2.633744855967078,0
-0.031247402887,4.279835390946502,0
-0.031245462887,-0.9876543209876543,0
-0.031243522887,-4.032921810699588,0
-0.031241582886999998,-0.9053497942386831,0
-0.031239642887,2.633744855967078,0
-0.031237702887,4.362139917695473,0
-0.031235762886999998,-4.197530864197531,0
-0.031233822887,0.5761316872427984,0
-0.031231882887,-0.49382716049382713,0
-0.031229942886999998,4.362139917695473,0
-0.031228002887,-1.316872427983539,0
-0.031226062887,-3.292181069958848,0
-0.031224122886999998,-2.551440329218107,0
-0.031222182887,3.8683127572016462,0
-0.031220242887,4.11522633744856,0
-0.031218302887,-4.032921810699588,0
-0.031216362887,0.7407407407407407,0
-0.031214422887,0.411522633744856,0
-0.031212482887,3.6213991769547325,0
-0.031210542887,-1.1522633744855968,0
-0.031208602887,-3.374485596707819,0
-0.031206662887,-3.950617283950617,0
-0.031204722887,4.362139917695473,0
-0.031202782887,3.950617283950617,0
-0.031200842887,-4.032921810699588,0
-0.031198902887,1.9753086419753085,0
-0.031196962887,0.49382716049382713,0
-0.031195022887,3.950617283950617,0
-0.031193082886999998,-1.5637860082304527,0
-0.031191142887,-3.786008230452675,0
-0.031189202887,-3.786008230452675,0
-0.031187262886999998,4.279835390946502,0
-0.031185322887,2.2222222222222223,0
-0.031183382887,-4.032921810699588,0
-0.031181442886999998,1.4814814814814814,0
-0.031179502887,2.3045267489711936,0
-0.031177562887,4.526748971193416,0
-0.031175622886999998,-2.633744855967078,0
-0.031173682887,-2.7160493827160495,0
-0.031171742887,-4.032921810699588,0
-0.031169802886999998,4.279835390946502,0
-0.031167862887,1.646090534979424,0
-0.031165922887,-4.11522633744856,0
-0.031163982887,1.2345679012345678,0
-0.031162042887,1.316872427983539,0
-0.031160102887,4.444444444444445,0
-0.031158162887,-3.45679012345679,0
-0.031156222887,-0.6584362139917695,0
-0.031154282887,-3.8683127572016462,0
-0.031152342887,4.279835390946502,0
-0.031150402887,1.5637860082304527,0
-0.031148462887,-4.032921810699588,0
-0.031146522887,1.0699588477366255,0
-0.031144582887,1.646090534979424,0
-0.031142642887,3.6213991769547325,0
-0.031140702887,-3.45679012345679,0
-0.031138762886999998,-1.1522633744855968,0
-0.031136822887,-3.950617283950617,0
-0.031134882887,4.362139917695473,0
-0.031132942886999998,0.411522633744856,0
-0.031131002887,-4.197530864197531,0
-0.031129062887,1.9753086419753085,0
-0.031127122886999998,1.9753086419753085,0
-0.031125182887,3.8683127572016462,0
-0.031123242887,-3.8683127572016462,0
-0.031121302886999998,-0.9053497942386831,0
-0.031119362887,-4.032921810699588,0
-0.031117422887,4.362139917695473,0
-0.031115482887,-0.5761316872427984,0
-0.031113542887,-4.11522633744856,0
-0.031111602887,0.823045267489712,0
-0.031109662887,1.5637860082304527,0
-0.031107722887,4.362139917695473,0
-0.031105782887,-4.032921810699588,0
-0.031103842887,-0.49382716049382713,0
-0.031101902887,-1.9753086419753085,0
-0.031099962887,4.362139917695473,0
-0.031098022887,-0.9053497942386831,0
-0.031096082887,-4.032921810699588,0
-0.031094142887,-0.5761316872427984,0
-0.031092202887,3.045267489711934,0
-0.031090262886999998,4.197530864197531,0
-0.031088322887,-4.032921810699588,0
-0.031086382887,1.3991769547325104,0
-0.031084442886999998,-1.2345679012345678,0
-0.031082502887,4.279835390946502,0
-0.031080562887,-0.9876543209876543,0
-0.031078622886999998,-3.950617283950617,0
-0.031076682887,-2.2222222222222223,0
-0.031074742887,3.786008230452675,0
-0.031072802886999998,4.279835390946502,0
-0.031070862887,-4.032921810699588,0
-0.031068922887,1.0699588477366255,0
-0.031066982886999998,-0.9876543209876543,0
-0.031065042887,4.362139917695473,0
-0.031063102887,-1.1522633744855968,0
-0.031061162887,-4.032921810699588,0
-0.031059222887,-2.962962962962963,0
-0.031057282887,4.11522633744856,0
-0.031055342887,4.362139917695473,0
-0.031053402887,-4.11522633744856,0
-0.031051462887,1.2345679012345678,0
-0.031049522887,0.823045267489712,0
-0.031047582887,4.609053497942387,0
-0.031045642887,-1.3991769547325104,0
-0.031043702887,-3.8683127572016462,0
-0.031041762887,-3.1275720164609053,0
-0.031039822887,4.11522633744856,0
-0.031037882887,3.6213991769547325,0
-0.031035942886999998,-4.11522633744856,0
-0.031034002887,0.5761316872427984,0
-0.031032062887,0.9053497942386831,0
-0.031030122886999998,4.032921810699588,0
-0.031028182887,-1.8930041152263375,0
-0.031026242887,-2.3868312757201644,0
-0.031024302886999998,-4.032921810699588,0
-0.031022362887,4.279835390946502,0
-0.031020422887,3.6213991769547325,0
-0.031018482886999998,-4.279835390946502,0
-0.031016542887,0.9053497942386831,0
-0.031014602887,1.2345679012345678,0
-0.031012662887,3.539094650205761,0
-0.031010722887,-2.139917695473251,0
-0.031008782887,-1.3991769547325104,0
-0.031006842887,-4.032921810699588,0
-0.031004902887,4.362139917695473,0
-0.031002962887,3.1275720164609053,0
-0.031001022887,-4.197530864197531,0
-0.030999082887,2.3868312757201644,0
-0.030997142887,1.316872427983539,0
-0.030995202887,3.2098765432098766,0
-0.030993262887,-2.3045267489711936,0
-0.030991322887,-2.3045267489711936,0
-0.030989382887,-4.279835390946502,0
-0.030987442886999998,4.444444444444445,0
-0.030985502887,0.9876543209876543,0.00823045267489712
-0.030983562887,-4.197530864197531,0
-0.030981622886999998,1.5637860082304527,0
-0.030979682887,1.1522633744855968,0
-0.030977742887,4.362139917695473,0
-0.030975802886999998,-3.6213991769547325,0
-0.030973862887,-1.646090534979424,0
-0.030971922887,-3.786008230452675,0
-0.030969982886999998,4.362139917695473,0
-0.030968042887,0.1646090534979424,0
-0.030966102887,-4.11522633744856,0
-0.030964162886999998,0.411522633744856,0
-0.030962222887,1.8106995884773662,0
-0.030960282887,4.11522633744856,0
-0.030958342887,-3.8683127572016462,0
-0.030956402887,0,0
-0.030954462887,-2.551440329218107,0
-0.030952522887,4.362139917695473,0
-0.030950582887,0.24691358024691357,0
-0.030948642887,-4.032921810699588,0
-0.030946702887,0.49382716049382713,0
-0.030944762887,2.139917695473251,0
-0.030942822887,4.362139917695473,0
-0.030940882887,-3.950617283950617,0
-0.030938942887,0.6584362139917695,0
-0.030937002887,-2.880658436213992,0
-0.030935062887,4.362139917695473,0
-0.030933122886999998,-0.5761316872427984,0
-0.030931182887,-4.032921810699588,0
-0.030929242887,-0.49382716049382713,0
-0.030927302886999998,2.7160493827160495,0
-0.030925362887,4.362139917695473,0
-0.030923422887,-4.032921810699588,0
-0.030921482886999998,0.24691358024691357,0
-0.030919542887,-1.728395061728395,0
-0.030917602887,4.362139917695473,0
-0.030915662886999998,-1.1522633744855968,0
-0.030913722887,-3.950617283950617,0
-0.030911782887,-0.9053497942386831,0
-0.030909842886999998,2.962962962962963,0.00823045267489712
-0.030907902887,4.362139917695473,0
-0.030905962887,-4.11522633744856,0
-0.030904022887,0,0
-0.030902082887,-0.49382716049382713,0
-0.030900142887,4.279835390946502,0
-0.030898202887,-1.2345679012345678,0
-0.030896262887,-3.786008230452675,0
-0.030894322887,-2.2222222222222223,0
-0.030892382887,3.374485596707819,0
-0.030890442887,4.362139917695473,0
-0.030888502887,-4.11522633744856,0
-0.030886562887,0.411522633744856,0
-0.030884622886999998,0.5761316872427984,0
-0.030882682887,3.786008230452675,0
-0.030880742887,-1.2345679012345678,0
-0.030878802886999998,-2.962962962962963,0
-0.030876862887,-3.8683127572016462,0
-0.030874922887,4.362139917695473,0
-0.030872982886999998,4.526748971193416,0
-0.030871042887,-4.279835390946502,0
-0.030869102887,1.8930041152263375,0
-0.030867162886999998,0.6584362139917695,0
-0.030865222887,3.7037037037037037,0
-0.030863282887,-1.316872427983539,0
-0.030861342886999998,-3.539094650205761,0
-0.030859402887,-3.950617283950617,0
-0.030857462887,4.444444444444445,0
-0.030855522887,3.539094650205761,0
-0.030853582887,-4.11522633744856,0
-0.030851642887,1.646090534979424,0
-0.030849702887,0.823045267489712,0
-0.030847762887,4.279835390946502,0
-0.030845822887,-1.9753086419753085,0
-0.030843882887,-2.7983539094650207,0
-0.030841942887,-4.11522633744856,0
-0.030840002887,4.444444444444445,0
-0.030838062887,2.139917695473251,0
-0.030836122887,-4.11522633744856,0
-0.030834182887,0.411522633744856,0
-0.030832242887,1.316872427983539,0
-0.030830302886999998,3.539094650205761,0
-0.030828362887,-2.633744855967078,0
-0.030826422887,-1.5637860082304527,0
-0.030824482886999998,-3.950617283950617,0
-0.030822542887,4.362139917695473,0
-0.030820602887,1.9753086419753085,0
-0.030818662886999998,-4.197530864197531,0
-0.030816722887,0.9053497942386831,0
-0.030814782887,1.1522633744855968,0
-0.030812842886999998,3.45679012345679,0
-0.030810902887,-3.2098765432098766,0
-0.030808962887,-0.411522633744856,0
-0.030807022886999998,-3.786008230452675,0
-0.030805082887,4.362139917695473,0
-0.030803142887,1.5637860082304527,0
-0.030801202887,-3.950617283950617,0
-0.030799262887,1.2345679012345678,0
-0.030797322887,1.646090534979424,0
-0.030795382887,3.7037037037037037,0
-0.030793442887,-3.539094650205761,0
-0.030791502887,-0.823045267489712,0
-0.030789562887,-3.8683127572016462,0
-0.030787622887,4.362139917695473,0
-0.030785682887,-0.49382716049382713,0
-0.030783742887,-3.950617283950617,0
