log/TDMA_GE_01.csv

#Digilent WaveForms Oscilloscope Acquisition
#Device Name: ADP5250-323F81C
#Serial Number: SN:323F81C
#Date Time: 2023-03-08 13:42:16.900.321.799
#Sample rate: 492126Hz
#Samples: 32768
#Trigger: Source: Channel 1 Type: Edge Condition: Rising Level: 0 V Hyst.: Auto
#Channel 1: Range: 2 V/div Offset: 0 V Attenuation: 1 X Coupling: DC Bandwidth: Full Sample Mode: Average
#Channel 2: Range: 200 mV/div Offset: 0 V Attenuation: 1 X Coupling: DC Bandwidth: Full

Time (s),Channel 1 (V),Channel 2 (V)
-0.03329357367,-0.6584362139917695,0
-0.033291541669999994,-1.563786008228656,0
-0.033289509669999995,-0.5761316872427984,0
-0.033287477669999996,-2.2222222222222223,0
-0.03328544567,2.633744855967078,0
-0.03328341367,-0.823045267489712,0
-0.03328138167,-0.823045267489712,0
-0.03327934967,0.6584362139890747,0
-0.033277317669999994,2.139917695463969,0
-0.033275285669999995,-2.9629629629611665,0
-0.033273253669999996,-1.9753086419753085,0
-0.03327122167,3.6213991769547325,0
-0.03326918967,-1.4814814814814814,0
-0.03326715767,0.24691358024376964,0
-0.03326512567,0.41152263374455655,0
-0.033263093669999994,2.0576131687140995,0
-0.033261061669999994,-3.5390946501982756,0
-0.033259029669999995,0.5761316872427984,0
-0.033256997669999996,2.2222222222222223,0
-0.03325496567,0.6584362139917695,0
-0.03325293367,-0.24691358024691357,0
-0.03325090167,-1.15226337448395,0
-0.03324886966999999,0.41152263374051434,0
-0.033246837669999994,-1.9753086419741108,0
-0.033244805669999995,-1.316872427983539,0
-0.033242773669999996,-0.7407407407407407,0
-0.03324074167,1.8106995884773662,0
-0.03323870967,-1.646090534979424,0
-0.03323667767,0.5761316872387563,0
-0.03323464566999999,2.545088054343997e-12,0
-0.033232613669999994,1.3991769547271207,0
-0.033230581669999995,-1.5637860082304527,0
-0.033228549669999996,-3.045267489711934,0
-0.03322651767,2.962962962962963,0
-0.03322448567,0,0
-0.03322245367,-0.24691358024646443,0
-0.03322042167,-0.08230452674927063,0
-0.033218389669999994,-3.2098765432058345,0
-0.033216357669999995,-0.9876543209876543,0
-0.033214325669999996,1.646090534979424,0
-0.03321229367,-0.3292181069958848,0
-0.03321026167,0.411522633744856,0
-0.03320822967,-4.115226337440325,0
-0.03320619767,4.362139917680054,0
-0.033204165669999994,-0.9053497942317964,0
-0.033202133669999995,2.8806584362014163,0
-0.033200101669999996,-4.032921810699588,0
-0.03319806967,4.197530864197531,0
-0.03319603767,-1.2345679012345678,0
-0.03319400567,2.4691358024623984,0
-0.03319197367,-3.37448559669719,0
-0.033189941669999994,1.234567901235017,0
-0.033187909669999995,1.4814814814780382,0
-0.033185877669999995,-0.411522633744856,0
-0.033183845669999996,-2.962962962962963,0
-0.03318181367,-2.139917695473251,0
-0.03317978167,3.374485596707819,0
-0.03317774967,-1.8106995884679344,0
-0.03317571766999999,1.7283950617177655,0
-0.033173685669999994,-4.115226337432391,0
-0.033171653669999995,4.773662551440329,0
-0.033169621669999996,-0.9053497942386831,0
-0.03316758967,3.950617283950617,0
-0.03316555767,-3.950617283950617,0
-0.03316352567,3.456790123443316,0
-0.03316149366999999,0.9053497942376352,0
-0.033159461669999994,0.3292181069885489,0
-0.033157429669999995,-3.7037037037037037,0
-0.033155397669999996,0.6584362139917695,0
-0.03315336567,0.9876543209876543,0
-0.03315133367,-0.0823045267489712,0
-0.03314930167,-0.9876543209860075,0
-0.03314726967,-3.9506172839452276,0
-0.033145237669999994,3.3744855967015313,0
-0.033143205669999995,-0.0823045267489712,0
-0.033141173669999996,2.633744855967078,0
-0.03313914167,-4.11522633744856,0
-0.03313710967,4.362139917695473,0
-0.03313507767,-0.49382716048499375,0
-0.03313304567,2.3868312757149246,0
-0.033131013669999994,-3.621399176943504,0
-0.033128981669999995,2.551440329218107,0
-0.033126949669999996,-0.3292181069958848,0
-0.03312491767,0.9053497942386831,0
-0.03312288567,-3.292181069958848,0
-0.03312085367,-0.9053497942430244,0
-0.03311882167,2.7160493827094623,0
-0.033116789669999994,-0.49382716049487513,0
-0.033114757669999995,-1.0699588477418653,0
-0.033112725669999996,-3.950617283950617,0
-0.033110693669999997,4.362139917695473,0
-0.03310866167,-1.8930041152263375,0
-0.03310662967,3.9506172839399873,0
-0.03310459767,-4.032921810685067,0
-0.03310256566999999,3.8683127571946097,0
-0.033100533669999994,4.790753984647523e-12,0
-0.033098501669999995,2.633744855967078,0
-0.033096469669999996,-3.950617283950617,0
-0.03309443767,2.139917695473251,0
-0.03309240567,1.3991769547325104,0
-0.03309037367,-1.234567901229777,0
-0.03308834166999999,-2.3868312757197154,0
-0.033086309669999994,-2.1399176954647174,0
-0.033084277669999995,2.551440329218107,0
-0.033082245669999996,-1.646090534979424,0
-0.03308021367,2.139917695473251,0
-0.03307818167,-4.11522633744856,0
-0.03307614967,3.621399176940659,0
-0.03307411767,-0.32921810698869836,0
-0.033072085669999994,3.9506172839359452,0
-0.033070053669999995,-4.11522633744856,0
-0.033068021669999996,4.11522633744856,0
-0.03306598967,0.5761316872427984,0
-0.03306395767,0.24691358024691357,0
-0.03306192567,-3.8683127571941602,0
-0.03305989367,0.5761316872347142,0
-0.033057861669999994,0.9053497942359883,0
-0.033055829669999995,-0.5761316872427984,0
-0.033053797669999996,-1.0699588477366255,0
-0.03305176567,-4.609053497942387,0
-0.03304973367,3.786008230452675,0
-0.03304770167,-0.32921810698839904,0
-0.03304566967,1.6460905349758308,0
-0.033043637669999994,-4.362139917679305,0
-0.033041605669999995,4.526748971182637,0
-0.033039573669999996,-1.3991769547325104,0
-0.03303754167,3.786008230452675,0
-0.03303550967,-3.6213991769547325,0
-0.03303347767,2.3868312757092354,0
-0.03303144567,0.9053497942413777,0
-0.033029413669999994,0.411522633737071,0
-0.033027381669999994,-3.8683127571953584,0
-0.033025349669999995,-0.411522633744856,0
-0.033023317669999996,2.3045267489711936,0
-0.03302128567,-1.3991769547325104,0
-0.03301925367,0,0
-0.03301722167,-4.032921810692253,0
-0.03301518966999999,3.2098765432026903,0
-0.033013157669999994,-0.7407407407323569,0
-0.033011125669999995,3.8683127572016462,0
-0.033009093669999996,-4.11522633744856,0
-0.03300706167,4.279835390946502,0
-0.03300502967,0,0
-0.03300299767,1.9753086419717154,0
-0.03300096566999999,-4.279835390935124,0
-0.032998933669999994,1.975308641972464,0
-0.032996901669999995,0.411522633744856,0
-0.032994869669999996,-0.7407407407407407,0
-0.03299283767,-2.139917695473251,0
-0.03299080567,-2.880658436213992,0
-0.03298877367,2.8806584362035124,0
-0.03298674167,-0.1646090534924034,0
-0.032984709669999994,0.9053497942297004,0
-0.032982677669999995,-4.032921810699588,0
-0.032980645669999996,4.279835390946502,0
-0.03297861367,-1.316872427983539,0
-0.03297658167,3.2098765432098766,0
-0.03297454967,-3.7037037036911284,0
-0.03297251767,3.539094650192587,0
-0.032970485669999994,-0.6584362139874279,0
-0.032968453669999995,1.7283950617188135,0
-0.032966421669999996,-3.539094650205761,0
-0.03296438967,0.24691358024691357,0
-0.03296235767,2.139917695473251,0
-0.03296032567,-0.6584362139866795,0
-0.03295829367,-2.304526748968199,0
-0.032956261669999994,-3.5390946501925864,0
-0.032954229669999995,3.703703703694122,0
-0.032952197669999995,-1.5637860082304527,0
-0.032950165669999996,2.4691358024691357,0
-0.03294813367,-4.032921810699588,0
-0.03294610167,3.950617283950617,0
-0.03294406967,-0.6584362139833857,0
-0.03294203766999999,3.7860082304386022,0
-0.032940005669999994,-3.9506172839383407,0
-0.032937973669999995,2.7983539094650207,0
-0.032935941669999996,0.9876543209876543,0
-0.03293390967,-0.24691358024691357,0
-0.03293187767,-3.6213991769547325,0
-0.03292984567,-0.24691358025305155,0
-0.03292781366999999,1.481481481476541,0
-0.032925781669999994,-1.2345679012320228,0
-0.032923749669999995,0.1646090534979424,0
-0.032921717669999996,-3.539094650205761,0
-0.03291968567,3.1275720164609053,0
-0.03291765367,-0.24691358024691357,0
-0.03291562167,3.209876543203589,0
-0.03291358967,-4.279835390932878,0
-0.032911557669999994,4.444444444435612,0
-0.032909525669999995,-0.411522633744856,0
-0.032907493669999996,1.8930041152263375,0
-0.03290546167,-3.374485596707819,0
-0.03290342967,1.8106995884773662,0
-0.03290139767,-0.5761316872384572,0
-0.03289936567,0.08230452674777344,0
-0.032897333669999994,-2.7983539094647214,0
-0.032895301669999995,-2.633744855967078,0
-0.032893269669999996,3.292181069958848,0
-0.03289123767,-1.4814814814814814,0
-0.03288920567,0.3292181069958848,0
-0.03288717367,-4.032921810691653,0
-0.03288514167,4.362139917680202,0
-0.032883109669999994,-1.8106995884673356,0
-0.032881077669999995,3.703703703689631,0
-0.032879045669999996,-4.032921810699588,0
-0.032877013669999997,3.45679012345679,0
-0.03287498167,0.3292181069958848,0
-0.03287294967,1.6460905349770285,0
-0.03287091767,-3.4567901234475076,0
-0.03286888566999999,1.069958847737973,0
-0.032866853669999994,1.8106995884707788,0
-0.032864821669999995,-1.8106995884773662,0
-0.032862789669999996,-1.0699588477366255,0
-0.03286075767,-3.45679012345679,0
-0.03285872567,2.633744855967078,0.00823045267489712
-0.03285669367,-0.8230452674834243,1.4970663597679845e-14
-0.03285466166999999,2.7160493827036234,0
-0.032852629669999994,-4.115226337433438,0
-0.032850597669999995,4.197530864197531,0
-0.032848565669999996,0,0
-0.03284653367,3.045267489711934,0
-0.03284450167,-3.950617283950617,0
-0.03284246967,3.2098765431968515,0
-0.03284043767,0.24691358025230326,0
-0.032838405669999994,0.0823045267435816,0
-0.032836373669999995,-2.880658436213992,0
-0.032834341669999996,-1.0699588477366255,0
-0.03283230967,2.4691358024691357,0
-0.03283027767,-0.411522633744856,0
-0.03282824567,-1.2345679012330706,0
-0.03282621367,-3.868312757196856,0
-0.032824181669999994,4.032921810690157,0
-0.032822149669999995,-1.1522633744855968,0
-0.032820117669999996,2.880658436213992,0
-0.03281808567,-3.950617283950617,0
-0.03281605367,3.950617283950617,0
-0.03281402167,-0.4938271604857434,0.00823045267488215
-0.03281198967,3.2098765432031398,1.4970663597679845e-14
-0.032809957669999994,-3.9506172839398377,0
-0.032807925669999995,1.9753086419741108,0
-0.032805893669999996,1.316872427983539,0
-0.03280386167,-0.6584362139917695,0
-0.03280182967,-3.6213991769547325,0
-0.03279979767,-1.4814814814853738,0
-0.03279776567,1.810699588471378,0
-0.032795733669999994,-0.9053497942347907,0
-0.032793701669999994,1.2345679012245372,0
-0.032791669669999995,-4.279835390946502,0
-0.032789637669999996,4.032921810699588,0
-0.03278760567,-0.3292181069958848,0
-0.03278557367,3.1275720164609053,0
-0.03278354167,-4.36213991768185,0
-0.03278150966999999,4.526748971183834,0
-0.032779477669999994,-0.7407407407366985,0
-0.032777445669999995,1.4814814814814814,0
-0.032775413669999996,-3.374485596707819,0
-0.03277338167,0.7407407407407407,0
-0.03277134967,1.2345679012345678,0
-0.03276931767,-0.3292181069930402,0
-0.03276728566999999,-1.728395061732437,0
-0.032765253669999994,-3.950617283936245,0
-0.032763221669999995,3.950617283950617,0
-0.032761189669999996,-0.1646090534979424,0
-0.03275915767,1.646090534979424,0
-0.03275712567,-4.11522633744856,0
-0.03275509367,4.279835390931231,0
-0.03275306167,-1.8106995884662878,0
-0.032751029669999994,4.362139917680652,0
-0.032748997669999995,-3.786008230452675,0
-0.032746965669999996,2.7160493827160495,0
-0.03274493367,0.9053497942386831,0
-0.03274290167,0.6584362139917695,0
-0.03274086967,-3.4567901234493044,0
-0.03273883767,-0.4938271604992166,0
-0.032736805669999994,2.7160493827084142,0
-0.032734773669999995,-1.4814814814807329,0
-0.032732741669999996,-1.0699588477366255,0
-0.03273070967,-3.950617283950617,0
-0.03272867767,3.6213991769547325,0.00823045267489712
-0.03272664567,-1.481481481472199,1.4970663597679845e-14
-0.03272461367,3.539094650196629,0
-0.032722581669999994,-4.032921810685216,1.497110620202351e-14
-0.032720549669999995,3.8683127571952087,0.00823045267488215
-0.032718517669999996,0.3292181069958848,0
-0.032716485669999996,2.4691358024691357,0
-0.03271445367,-3.950617283950617,0
-0.03271242167,2.3868312757201644,0
-0.03271038967,0.8230452674925566,0
-0.03270835766999999,-1.0699588477388713,0
-0.032706325669999994,-2.304526748970445,0
-0.032704293669999995,-1.8930041152263375,0
-0.032702261669999996,1.9753086419753085,0
-0.03270022967,-0.0823045267489712,0
-0.03269819767,0.49382716049382713,0
-0.03269616567,-3.78600823044489,0
-0.03269413366999999,4.279835390937519,0
-0.032692101669999994,-0.6584362139854817,0
-0.032690069669999995,2.7983539094650207,0
-0.032688037669999996,-3.786008230452675,0
-0.03268600567,3.8683127572016462,0
-0.03268397367,-0.9876543209876543,0
-0.03268194167,2.2222222222163834,0
-0.03267990967,-3.539094650195281,0
-0.032677877669999994,0.7407407407419384,0
-0.032675845669999995,1.3991769547325104,0
-0.032673813669999996,-0.1646090534979424,0
-0.03267178167,-3.2098765432098766,0
-0.03266974967,-3.292181069958848,0
-0.03266771767,3.2098765431980496,0
-0.03266568567,-1.7283950617194117,0
-0.032663653669999994,2.3868312757087864,0
-0.032661621669999995,-3.8683127572016462,0
-0.032659589669999996,4.032921810699588,0
-0.03265755767,-0.6584362139917695,0
-0.03265552567,4.11522633744856,0
-0.03265349367,-4.19753086418241,0
-0.03265146167,4.115226337433438,0
-0.032649429669999994,0.6584362139907216,0
-0.032647397669999995,0.08230452674193478,0
-0.032645365669999996,-3.786008230452675,0
-0.032643333669999997,0.0823045267489712,0
-0.03264130167,1.2345679012345678,0
-0.03263926967,-1.7283950617230055,0
-0.03263723767,-3.1439295611335183e-12,0
-0.03263520566999999,-4.032921810686563,0
-0.032633173669999994,3.1275720164534198,0
-0.032631141669999995,-0.9876543209876543,0
-0.032629109669999996,3.045267489711934,0
-0.03262707767,-4.11522633744856,0
-0.03262504567,4.362139917695473,0
-0.03262301367,-0.4115226337361735,0
-0.03262098166999999,2.386831275709984,0
-0.032618949669999994,-3.2098765432004446,0
-0.032616917669999995,1.9753086419753085,0
-0.032614885669999996,0,0
-0.03261285367,0.1646090534979424,0
-0.03261082167,-3.292181069958848,0
-0.03260878967,-2.5514403292194543,0
-0.03260675767,3.2098765431993965,0
-0.032604725669999994,-0.8230452674888137,0
-0.032602693669999995,-0.3292181069958848,0
-0.032600661669999996,-4.032921810699588,0
-0.03259862967,4.197530864197531,0
-0.03259659767,-1.3991769547325104,0
-0.03259456567,3.6213991769455998,0
-0.03259253367,-3.7860082304392013,0
-0.032590501669999994,3.621399176947247,0
-0.032588469669999995,-0.49382716049382713,0
-0.032586437669999996,2.2222222222222223,0
-0.03258440567,-3.8683127572016462,0
-0.03258237367,1.1522633744855968,0
-0.03258034167,1.8930041152249901,0
-0.03257830967,-1.2345679012288786,0
-0.032576277669999994,-2.4691358024697343,0
-0.032574245669999995,-2.7983539094551397,0
-0.032572213669999996,2.633744855967078,0
-0.03257018167,-1.2345679012345678,0
-0.03256814967,2.3045267489711936,0
-0.03256611767,-3.8683127571904183,0
-0.03256408567,3.868312757187573,0
-0.032562053669999994,-0.1646090534913551,0
-0.032560021669999994,3.456790123443166,0
-0.032557989669999995,-4.032921810699588,0
-0.032555957669999996,3.786008230452675,0
-0.03255392567,-0.0823045267489712,0
-0.03255189367,0.3292181069958848,0
-0.03254986167,-3.045267489705796,0
-0.03254782966999999,-0.24691358024421878,0
-0.032545797669999994,1.234567901231873,1.497110620202351e-14
-0.032543765669999995,-0.24691358024691357,0.00823045267489712
-0.032541733669999996,-0.3292181069958848,0
-0.03253970167,-4.11522633744856,0
-0.03253766967,4.279835390946502,0
-0.03253563767,-0.7407407407316082,0
-0.03253360566999999,2.2222222222102452,0
-0.032531573669999994,-4.3621399176797535,0
-0.032529541669999995,4.279835390946502,0
-0.032527509669999996,-1.316872427983539,0
-0.03252547767,3.292181069958848,0
-0.03252344567,-3.45679012345679,0
-0.03252141367,1.4814814814724984,0
-0.03251938167,1.234567901235017,0
-0.032517349669999994,0.16460905349105567,0
-0.032515317669999995,-3.6213991769547325,0
-0.032513285669999996,-1.4814814814814814,0
-0.03251125367,2.2222222222222223,0
-0.03250922167,-1.8106995884773662,0
-0.03250718967,0.7407407407360995,0
-0.03250515767,-4.0329218106909055,0
-0.032503125669999994,3.456790123447957,0
-0.032501093669999995,-1.3991769547230786,0
-0.032499061669999996,3.786008230452675,0
-0.03249702967,-4.032921810699588,0
-0.03249499767,4.197530864197531,0
-0.03249296567,0.08230452675645683,0
-0.03249093367,1.1522633744836506,0
-0.032488901669999994,-3.8683127571920646,0
-0.032486869669999995,1.399176954731163,0
-0.032484837669999996,0.6584362139917695,0
-0.032482805669999996,-0.9053497942386831,0
-0.03248077367,-1.728395061728395,0
-0.03247874167,-3.292181069958848,0
-0.03247670967,2.4691358024586556,0
-0.03247467766999999,-0.16460905349479846,0
-0.032472645669999994,1.5637860082201227,0
-0.032470613669999995,-4.11522633744856,0
-0.032468581669999996,4.362139917695473,0
-0.03246654967,-0.6584362139917695,0
-0.03246451767,3.045267489711934,0
-0.03246248567,-3.4567901234449625,0
-0.03246045366999999,3.2098765432025407,0
-0.032458421669999994,-0.8230452674852207,0
-0.032456389669999995,1.646090534979424,0
-0.032454357669999996,-3.8683127572016462,0
-0.03245232567,-0.0823045267489712,0
-0.03245029367,2.3868312757201644,0
-0.03244826167,-1.0699588477303377,0
-0.03244622967,-1.8106995884760189,0
-0.032444197669999994,-3.8683127571880225,0
-0.032442165669999995,3.6213991769547325,0
-0.032440133669999996,-1.646090534979424,0
-0.03243810167,3.539094650205761,0
-0.03243606967,-3.786008230452675,0
-0.03243403767,3.868312757187723,0
-0.03243200567,-0.24691358023942778,0
-0.032429973669999994,3.5390946501921374,0
-0.032427941669999995,-3.950617283950617,0
-0.032425909669999996,2.7983539094650207,0
-0.03242387767,0.9876543209876543,0
-0.03242184567,-0.9053497942386831,0
-0.03241981367,-2.880658436210399,0
-0.03241778167,-1.1522633744887407,0
-0.032415749669999994,1.8930041152212473,0
-0.032413717669999995,-0.9053497942347907,0
-0.032411685669999996,1.2345679012345678,0
-0.032409653669999997,-4.11522633744856,0
-0.03240762167,4.032921810699588,0
-0.03240558967,-0.0823045267414857,0
-0.03240355767,3.045267489706245,0
-0.03240152566999999,-3.539094650191539,0
-0.032399493669999994,4.2798353909388664,0
-0.032397461669999995,0.0823045267489712,0
-0.032395429669999996,1.1522633744855968,0
-0.03239339767,-3.1275720164609053,0
-0.03239136567,1.728395061728395,0
-0.03238933367,0.3292181069984299,0
-0.03238730166999999,-0.16460905350168517,0
-0.032385269669999994,-2.2222222222243184,0
-0.032383237669999995,-3.374485596707819,0
-0.032381205669999996,4.197530864197531,0
-0.03237917367,-0.7407407407407407,0
-0.03237714167,0.5761316872427984,0
-0.03237510967,-3.9506172839423823,0
-0.03237307767,4.279835390931531,0
-0.032371045669999994,-1.1522633744763147,0
-0.032369013669999995,3.950617283950617,0
-0.032366981669999996,-3.6213991769547325,0
-0.03236494967,2.962962962962963,0
-0.03236291767,0.1646090534979424,0
-0.03236088567,2.2222222222184795,0
-0.03235885367,-4.03292181068821,0
-0.032356821669999994,0.4938271604965219,0
-0.032354789669999995,1.9753086419753085,0
-0.032352757669999996,-1.316872427983539,0
-0.03235072567,-1.1522633744855968,0
-0.03234869367,-4.11522633744856,0
-0.03234666167,3.127572016447731,0
-0.03234462967,-0.9876543209801687,0
-0.032342597669999994,3.0452674896989094,0
-0.032340565669999995,-4.115226337433289,0
-0.032338533669999996,4.279835390946502,0
-0.03233650167,-0.24691358024691357,0
-0.03233446967,2.551440329218107,0
-0.03233243767,-3.7860082304411473,0
-0.03233040567,2.7983539094530436,0
-0.032328373669999994,-0.3292181069949865,0
-0.032326341669999994,0.16460905349240307,0
-0.032324309669999995,-2.880658436213992,0
-0.032322277669999996,-1.5637860082304527,0
-0.03232024567,2.7160493827160495,0
-0.03231821367,-0.6584362139917695,0
-0.03231618167,-0.1646090534988407,0
-0.03231414966999999,-4.115226337433289,0
-0.032312117669999994,4.2798353909369204,0
-0.032310085669999995,-0.9876543209876543,0
-0.032308053669999996,2.7983539094650207,0
-0.03230602167,-3.8683127572016462,0
-0.03230398967,4.032921810699588,0
-0.03230195767,-1.0699588477273432,0.00823045267488215
