log/TDMA_GE_02.csv

#Digilent WaveForms Oscilloscope Acquisition
#Device Name: ADP5250-323F81C
#Serial Number: SN:323F81C
#Date Time: 2023-03-08 14:15:59.518.668.599
#Sample rate: 528541Hz
#Samples: 32768
#Trigger: Source: Channel 1 Type: Edge Condition: Rising Level: 0 V Hyst.: Auto
#Channel 1: Range: 2 V/div Offset: 0 V Attenuation: 1 X Coupling: DC Bandwidth: Full Sample Mode: Average
#Channel 2: Range: 200 mV/div Offset: 0 V Attenuation: 1 X Coupling: DC Bandwidth: Full

Time (s),Channel 1 (V),Channel 2 (V)
-0.023628232455,-0.1646090534979424,0
-0.023626340455,2.633744855967078,0
-0.023624448455,-3.045267489711934,0
-0.023622556455,0.411522633744856,0
-0.023620664455,1.9753086419753085,0
-0.023618772455,1.1522633744855968,0
-0.023616880455,-1.1522633744855968,0
-0.023614988455,2.7160493827160495,0
-0.023613096455,-3.292181069958848,0
-0.023611204455,-0.49382716049382713,0
-0.023609312455,2.05761316872428,0
-0.023607420455,1.1522633744855968,0
-0.023605528455,-1.0699588477366255,0
-0.023603636455,2.2222222222222223,0
-0.023601744455,-3.539094650205761,0
-0.023599852455,-0.24691358024691357,0
-0.023597960455,0.49382716049382713,0
-0.023596068454999997,1.2345679012345678,0
-0.023594176454999997,-0.9053497942386831,0
-0.023592284454999998,0.823045267489712,0
-0.023590392454999998,-3.045267489711934,0
-0.023588500454999998,0,0
-0.023586608454999998,-1.3991769547325104,0
-0.023584716454999998,2.3045267489711936,0
-0.023582824454999998,-0.5761316872427984,0
-0.023580932455,-0.411522633744856,0
-0.023579040455,-1.1522633744855968,0
-0.023577148455,-0.7407407407407407,0
-0.023575256455,-3.8683127572016462,0
-0.023573364455,3.292181069958848,0
-0.023571472455,-1.646090534979424,0
-0.023569580455,0.411522633744856,0
-0.023567688455,0.6584362139917695,0
-0.023565796455,-2.3868312757201644,0
-0.023563904455,-2.2222222222222223,0
-0.023562012455,3.2098765432098766,0
-0.023560120455,-1.1522633744855968,0
-0.023558228455,0.3292181069958848,0
-0.023556336455,1.728395061728395,0
-0.023554444455,-2.4691358024691357,0
-0.023552552455,-1.9753086419753085,0
-0.023550660455,3.045267489711934,0
-0.023548768455,0.0823045267489712,0
-0.023546876454999997,-0.3292181069958848,0
-0.023544984454999997,3.045267489711934,0
-0.023543092454999998,-2.3868312757201644,0
-0.023541200454999998,-1.4814814814814814,0
-0.023539308454999998,3.45679012345679,0
-0.023537416454999998,0.411522633744856,0
-0.023535524454999998,-1.3991769547325104,0
-0.023533632454999998,4.11522633744856,0
-0.023531740455,-3.6213991769547325,0
-0.023529848455,-0.49382716049382713,0
-0.023527956455,3.539094650205761,0
-0.023526064455,-0.24691358024691357,0
-0.023524172455,-0.411522633744856,0
-0.023522280455,3.292181069958848,0
-0.023520388455,-4.197530864197531,0
-0.023518496455,0.823045267489712,0
-0.023516604455,2.05761316872428,0
-0.023514712455,0.9876543209876543,0
-0.023512820455,-0.49382716049382713,0
-0.023510928455,1.5637860082304527,0
-0.023509036455,-3.2098765432098766,0
-0.023507144455,0.411522633744856,0
-0.023505252455,0.411522633744856,0
-0.023503360455,2.05761316872428,0
-0.023501468455,-1.1522633744855968,0
-0.023499576455,0.5761316872427984,0
-0.023497684454999997,-2.3868312757201644,0
-0.023495792454999997,-0.9876543209876543,0
-0.023493900454999998,-0.1646090534979424,0
-0.023492008454999998,1.728395061728395,0
-0.023490116454999998,-1.4814814814814814,0
-0.023488224454999998,0.7407407407407407,0
-0.023486332454999998,-1.728395061728395,0
-0.023484440455,-1.5637860082304527,0
-0.023482548455,-1.5637860082304527,0
-0.023480656455,1.8930041152263375,0
-0.023478764455,-0.411522633744856,0
-0.023476872455,0.24691358024691357,0
-0.023474980455,-1.5637860082304527,0
-0.023473088455,-0.9053497942386831,0
-0.023471196455,-3.045267489711934,0
-0.023469304455,2.962962962962963,0
-0.023467412455,-0.24691358024691357,0
-0.023465520455,-0.9876543209876543,0
-0.023463628455,2.05761316872428,0
-0.023461736455,-2.3868312757201644,0
-0.023459844455,-3.2098765432098766,0
-0.023457952455,3.950617283950617,0
-0.023456060455,-0.9876543209876543,0
-0.023454168455,-0.3292181069958848,0
-0.023452276455,3.1275720164609053,0
-0.023450384455,-3.45679012345679,0
-0.023448492454999997,-1.2345679012345678,0
-0.023446600454999997,3.6213991769547325,0
-0.023444708454999998,-0.49382716049382713,0
-0.023442816454999998,-0.0823045267489712,0
-0.023440924454999998,3.045267489711934,0
-0.023439032454999998,-3.045267489711934,0
-0.023437140454999998,-0.49382716049382713,0
-0.023435248455,2.7160493827160495,0
-0.023433356455,0.411522633744856,0
-0.023431464455,-0.6584362139917695,0
-0.023429572455,2.880658436213992,0
-0.023427680455,-3.045267489711934,0
-0.023425788455,-0.3292181069958848,0
-0.023423896455,2.633744855967078,0
-0.023422004455,0.9053497942386831,0
-0.023420112455,-1.316872427983539,0
-0.023418220455,2.7983539094650207,0
-0.023416328455,-3.1275720164609053,0
-0.023414436455,-0.823045267489712,0
-0.023412544455,2.3045267489711936,0
-0.023410652455,0.7407407407407407,0
-0.023408760455,-0.9876543209876543,0
-0.023406868455,1.8930041152263375,0
-0.023404976455,-4.197530864197531,0
-0.023403084455,0.49382716049382713,0
-0.023401192455,0.3292181069958848,0
-0.023399300454999997,0.9876543209876543,0
-0.023397408454999997,-0.24691358024691357,0
-0.023395516454999998,0.9053497942386831,0
-0.023393624454999998,-1.8930041152263375,0
-0.023391732454999998,-0.411522633744856,0
-0.023389840454999998,-1.728395061728395,0
-0.023387948454999998,2.551440329218107,0
-0.023386056455,-0.9876543209876543,0
-0.023384164455,-0.24691358024691357,0
-0.023382272455,-0.49382716049382713,0
-0.023380380455,-1.728395061728395,0
-0.023378488455,-2.139917695473251,0
-0.023376596455,3.2098765432098766,0
-0.023374704455,-1.3991769547325104,0
-0.023372812455,0.1646090534979424,0
-0.023370920455,0.411522633744856,0
-0.023369028455,-1.9753086419753085,0
-0.023367136455,-2.3868312757201644,0
-0.023365244455,1.728395061728395,0
-0.023363352455,-0.24691358024691357,0
-0.023361460455,-0.0823045267489712,0
-0.023359568455,1.2345679012345678,0
-0.023357676455,-1.8106995884773662,0
-0.023355784455,-2.633744855967078,0
-0.023353892455,3.292181069958848,0
-0.023352000455,0,0
-0.023350108454999997,-1.0699588477366255,0
-0.023348216454999998,3.6213991769547325,0
-0.023346324454999998,-3.045267489711934,0
-0.023344432454999998,-2.2222222222222223,0
-0.023342540454999998,4.11522633744856,0
-0.023340648454999998,-0.49382716049382713,0
-0.023338756454999998,-0.5761316872427984,0
-0.023336864455,3.8683127572016462,0
-0.023334972455,-3.2098765432098766,0
-0.023333080455,-0.3292181069958848,0
-0.023331188455,3.6213991769547325,0
-0.023329296455,-0.49382716049382713,0
-0.023327404455,-0.0823045267489712,0
-0.023325512455,3.292181069958848,0
-0.023323620455,-3.374485596707819,0
-0.023321728455,0.3292181069958848,0
-0.023319836455,1.8106995884773662,0
-0.023317944455,1.2345679012345678,0
-0.023316052455,-0.411522633744856,0
-0.023314160455,1.316872427983539,0
-0.023312268455,-2.7160493827160495,0
-0.023310376455,-0.3292181069958848,0
-0.023308484455,0.9053497942386831,0
-0.023306592455,1.5637860082304527,0
-0.023304700455,-1.9753086419753085,0
-0.023302808455,1.3991769547325104,0
-0.023300916454999997,-2.7160493827160495,0
-0.023299024454999998,-0.9053497942386831,0
-0.023297132454999998,0.0823045267489712,0
-0.023295240454999998,1.2345679012345678,0
-0.023293348454999998,-0.0823045267489712,0
-0.023291456454999998,0.1646090534979424,0
-0.023289564454999998,-1.8930041152263375,0
-0.023287672455,-0.5761316872427984,0
-0.023285780455,-2.3045267489711936,0
-0.023283888455,2.4691358024691357,0
-0.023281996455,-0.411522633744856,0
-0.023280104455,-0.9876543209876543,0
-0.023278212455,0.24691358024691357,0
-0.023276320455,-1.3991769547325104,0
-0.023274428455,-3.6213991769547325,0
-0.023272536455,3.539094650205761,0
-0.023270644455,-0.823045267489712,0
-0.023268752455,-0.7407407407407407,0
-0.023266860455,1.8106995884773662,0
-0.023264968455,-2.7983539094650207,0
-0.023263076455,-2.7983539094650207,0
-0.023261184455,3.950617283950617,0
-0.023259292455,-1.646090534979424,0
-0.023257400455,0.411522633744856,0
-0.023255508455,1.2345679012345678,0
-0.023253616455,-3.045267489704149,0
-0.023251724454999997,-1.728395061728395,0
-0.023249832454999998,3.2098765432098766,0
-0.023247940454999998,-0.0823045267489712,0
-0.023246048454999998,-0.411522633744856,0
-0.023244156454999998,2.7160493827160495,0
-0.023242264454999998,-2.4691358024691357,0
-0.023240372454999998,-1.316872427983539,0
-0.023238480455,3.6213991769547325,0
-0.023236588455,0.24691358024691357,0
-0.023234696455,-1.8930041152263375,0
-0.023232804455,3.786008230452675,0
-0.023230912455,-3.1275720164609053,0
-0.023229020455,-0.5761316872427984,0
-0.023227128455,3.45679012345679,0
-0.023225236455,0.3292181069958848,0
-0.023223344455,-0.1646090534979424,0
-0.023221452455,2.7160493827160495,0
-0.023219560455,-3.950617283950617,0
-0.023217668455,0.5761316872427984,0
-0.023215776455,1.728395061728395,0
-0.023213884455,0.823045267489712,0
-0.023211992455,-0.24691358024691357,0
-0.023210100455,0.5761316872427984,0
-0.023208208455,-2.633744855967078,0
-0.023206316455,-0.0823045267489712,0
-0.023204424454999997,-0.24691358024227253,0
-0.023202532454999997,2.3045267489711936,0
-0.023200640454999998,-0.823045267489712,0
-0.023198748454999998,-0.3292181069958848,0
-0.023196856454999998,-1.8106995884773662,0
-0.023194964454999998,-1.1522633744855968,0
-0.023193072454999998,-1.9753086419753085,0
-0.023191180454999998,2.7160493827160495,0
-0.023189288455,-0.9053497942386831,0
-0.023187396455,-0.5761316872427984,0
-0.023185504455,-1.3991769547325104,0
-0.023183612455,-1.646090534979424,0
-0.023181720455,-2.2222222222222223,0
-0.023179828455,3.2098765432098766,0
-0.023177936455,-1.646090534979424,0
-0.023176044455,0.49382716049382713,0
-0.023174152455,0.3292181069958848,0
-0.023172260455,-1.9753086419753085,0
-0.023170368455,-2.4691358024691357,0
-0.023168476455,2.7160493827160495,0
-0.023166584455,-0.3292181069958848,0
-0.023164692455,0.0823045267489712,0
-0.023162800455,1.3991769547325104,0
-0.023160908455,-1.646090534979424,0
-0.023159016455,-3.45679012345679,0
-0.023157124455,4.279835390946502,0
-0.023155232454999997,-0.9876543209876543,0
-0.023153340454999997,-0.9053497942386831,0
-0.023151448454999998,3.539094650205761,0
-0.023149556454999998,-3.045267489711934,0
-0.023147664454999998,-1.8106995884773662,0
-0.023145772454999998,4.197530864197531,0
-0.023143880454999998,-0.823045267489712,0
-0.023141988454999998,0.1646090534979424,0
-0.023140096455,3.45679012345679,0
-0.023138204455,-3.786008230452675,0
-0.023136312455,-0.0823045267489712,0
-0.023134420455,3.1275720164609053,0
-0.023132528455,0.1646090534979424,0
-0.023130636455,-0.1646090534979424,0
-0.023128744455,2.139917695473251,0
-0.023126852455,-2.962962962962963,0
-0.023124960455,0.24691358024691357,0
-0.023123068455,2.139917695473251,0
-0.023121176455,1.0699588477366255,0
-0.023119284455,-1.2345679012345678,0
-0.023117392455,2.3868312757201644,0
-0.023115500455,-3.045267489711934,0
-0.023113608455,-0.7407407407407407,0
-0.023111716455,1.728395061728395,0
-0.023109824455,1.0699588477366255,0
-0.023107932455,-1.1522633744855968,0
-0.023106040454999997,1.4814814814814814,0
-0.023104148454999997,-3.539094650205761,0
-0.023102256454999998,0.1646090534979424,0
-0.023100364454999998,-0.5761316872427984,0
-0.023098472454999998,1.4814814814814814,0
-0.023096580454999998,-0.3292181069958848,0
-0.023094688454999998,0.24691358024691357,0
-0.023092796454999998,-1.9753086419753085,0
-0.023090904455,-0.24691358024691357,0
-0.023089012455,-2.7160493827160495,0
-0.023087120455,3.1275720164609053,0
-0.023085228455,-0.6584362139917695,0
-0.023083336455,-0.6584362139917695,0
-0.023081444455,0.0823045267489712,0
-0.023079552455,-1.316872427983539,0
-0.023077660455,-3.45679012345679,0
-0.023075768455,3.8683127572016462,0
-0.023073876455,-1.2345679012345678,0
-0.023071984455,-0.1646090534979424,0
-0.023070092455,1.5637860082304527,0
-0.023068200455,-2.7160493827160495,0
-0.023066308455,-2.3868312757201644,0
-0.023064416455,3.6213991769547325,0
-0.023062524455,-1.1522633744855968,0
-0.023060632455,0.24691358024691357,0
-0.023058740455,1.646090534979424,0
-0.023056848454999997,-1.728395061728395,0
-0.023054956454999997,-1.8106995884773662,0
-0.023053064454999998,3.1275720164609053,0
-0.023051172454999998,0.411522633744856,0
-0.023049280454999998,-0.49382716049382713,0
-0.023047388454999998,3.292181069958848,0
-0.023045496454999998,-3.45679012345679,0
-0.023043604455,-1.4814814814814814,0
-0.023041712455,2.7983539094650207,0
-0.023039820455,-0.7407407407407407,0
-0.023037928455,-1.2345679012345678,0
-0.023036036455,-1.8106995884773662,0
-0.023034144455,3.6213991769547325,0
-0.023032252455,-0.1646090534979424,0
-0.023030360455,2.4691358024691357,0
-0.023028468455,-3.8683127572016462,0
-0.023026576455,-3.2098765432098766,0
-0.023024684455,4.362139917695473,0
-0.023022792455,-1.8106995884773662,0
-0.023020900455,2.3868312757201644,0
-0.023019008455,-2.633744855967078,0
-0.023017116455,2.139917695473251,0
-0.023015224455,1.9753086419753085,0
-0.023013332455,-0.411522633744856,0
-0.023011440455,-2.7160493827160495,0
-0.023009548455,-3.1275720164609053,0
-0.023007656454999997,3.2098765432098766,0
-0.023005764454999997,0.1646090534979424,0
-0.023003872454999998,3.045267489711934,0
-0.023001980454999998,-3.539094650205761,0
-0.023000088454999998,0.24691358024691357,0
-0.022998196454999998,1.8106995884773662,0
-0.022996304454999998,-0.7407407407407407,0
-0.022994412455,-0.9053497942386831,0
-0.022992520455,-3.7037037037037037,0
-0.022990628455,4.279835390946502,0
-0.022988736455,-0.49382716049382713,0
-0.022986844455,2.633744855967078,0
-0.022984952455,-3.786008230452675,0
-0.022983060455,-3.292181069958848,0
-0.022981168455,3.539094650205761,0
-0.022979276455,-0.823045267489712,0
-0.022977384455,0.24691358024691357,0
-0.022975492455,-0.49382716049382713,0
-0.022973600455,2.7160493827160495,0
-0.022971708455,0.1646090534979424,0
-0.022969816455,1.5637860082304527,0
-0.022967924455,-3.539094650205761,0
-0.022966032455,-3.950617283950617,0
-0.022964140455,4.279835390946502,0
-0.022962248455,-1.1522633744855968,0
-0.022960356455,2.633744855967078,0
-0.022958464454999997,-2.2222222222222223,0
-0.022956572454999997,-0.0823045267489712,0
-0.022954680454999998,2.7160493827160495,0
-0.022952788454999998,-0.823045267489712,0
-0.022950896454999998,-2.139917695473251,0
-0.022949004454999998,-2.7160493827160495,0
-0.022947112454999998,3.6213991769547325,0
-0.022945220455,-0.1646090534979424,0
-0.022943328455,3.2098765432098766,0
-0.022941436455,-4.197530864197531,0
-0.022939544455,-1.0699588477366255,0
-0.022937652455,2.551440329218107,0
-0.022935760455,-1.2345679012345678,0
-0.022933868455,0.7407407407407407,0
-0.022931976455,-2.4691358024691357,0
-0.022930084455,3.1275720164609053,0
-0.022928192455,1.0699588477366255,0
-0.022926300455,0.6584362139917695,0
-0.022924408455,-2.962962962962963,0
-0.022922516455,-3.45679012345679,0
-0.022920624455,3.1275720164609053,0
-0.022918732455,-0.3292181069958848,0
-0.022916840455,1.8106995884773662,0
-0.022914948455,-2.3045267489711936,0
-0.022913056455,1.728395061728395,0
-0.022911164455,0.6584362139917695,0
-0.022909272454999997,0.3292181069958848,0
-0.022907380454999998,-2.633744855967078,0
-0.022905488454999998,-2.551440329218107,0
-0.022903596454999998,4.362139917695473,0
-0.022901704454999998,-1.1522633744855968,0
-0.022899812454999998,3.292181069958848,0
-0.022897920454999998,-2.7160493827160495,0
-0.022896028455,-1.728395061728395,0
-0.022894136455,2.962962962962963,0
-0.022892244455,-0.823045267489712,0
-0.022890352455,-1.316872427983539,0
-0.022888460455,-1.8930041152263375,0
-0.022886568455,3.7037037037037037,0
-0.022884676455,-0.49382716049382713,0
-0.022882784455,2.4691358024691357,0
-0.022880892455,-3.950617283950617,0
-0.022879000455,-2.962962962962963,0
-0.022877108455,3.786008230452675,0
-0.022875216455,-2.633744855967078,0
-0.022873324455,2.3045267489711936,0
-0.022871432455,-2.7983539094650207,0
-0.022869540455,2.3045267489711936,0
-0.022867648455,1.2345679012345678,0
-0.022865756455,-0.24691358024691357,0
-0.022863864455,-2.551440329218107,0
-0.022861972455,-3.292181069958848,0
-0.022860080454999997,3.2098765432098766,0
-0.022858188454999998,0.1646090534979424,0
-0.022856296454999998,2.7983539094650207,0
-0.022854404454999998,-3.786008230452675,0
-0.022852512454999998,0.3292181069958848,0
-0.022850620454999998,1.5637860082304527,0
-0.022848728454999998,-0.823045267489712,0
-0.022846836455,-0.823045267489712,0
-0.022844944455,-3.1275720164609053,0
-0.022843052455,4.362139917695473,0
-0.022841160455,-0.411522633744856,0
-0.022839268455,2.3868312757201644,0
-0.022837376455,-3.045267489711934,0
-0.022835484455,-2.3045267489711936,0
-0.022833592455,3.539094650205761,0
-0.022831700455,-0.6584362139917695,0
-0.022829808455,0.0823045267489712,0
-0.022827916455,-1.646090534979424,0
-0.022826024455,2.633744855967078,0.00823045267489712
-0.022824132455,0.823045267489712,0
-0.022822240455,1.0699588477366255,0
-0.022820348455,-3.8683127572016462,0
-0.022818456455,-3.045267489711934,0
-0.022816564455,3.6213991769547325,0
-0.022814672455,-1.5637860082304527,0
-0.022812780455,3.1275720164609053,0
-0.022810888454999997,-2.880658436213992,0
-0.022808996454999998,0.411522633744856,0
-0.022807104454999998,2.139917695473251,0
-0.022805212454999998,-0.6584362139917695,0
-0.022803320454999998,-1.8106995884773662,0
-0.022801428454999998,-2.880658436213992,0
-0.022799536454999998,3.6213991769547325,0
-0.022797644455,0.1646090534979424,0
-0.022795752455,2.7983539094650207,0
-0.022793860455,-3.7037037037037037,0
-0.022791968455,-1.0699588477366255,0
-0.022790076455,1.8106995884773662,0
-0.022788184455,-0.24691358024691357,0
-0.022786292455,0.1646090534979424,0
-0.022784400455,-2.7160493827160495,0
-0.022782508455,3.7037037037037037,0
-0.022780616455,-0.1646090534979424,0
-0.022778724455,1.8106995884773662,0
-0.022776832455,-3.045267489711934,0
-0.022774940455,-4.279835390946502,0
-0.022773048455,4.279835390946502,0
-0.022771156455,-1.0699588477366255,0
-0.022769264455,1.8930041152263375,0
-0.022767372455,-2.4691358024691357,0
-0.022765480455,0.411522633744856,0
-0.022763588455,1.1522633744855968,0
-0.022761696454999997,0.24691358024691357,0
-0.022759804454999998,-3.292181069958848,0
-0.022757912454999998,-2.962962962962963,0
-0.022756020454999998,4.279835390946502,0
-0.022754128454999998,-1.2345679012345678,0
-0.022752236454999998,3.539094650205761,0
-0.022750344454999998,-3.045267489711934,0
-0.022748452455,-1.646090534979424,0
-0.022746560455,2.880658436213992,0
-0.022744668455,-2.05761316872428,0
-0.022742776455,-0.7407407407407407,0
-0.022740884455,-2.139917695473251,0
-0.022738992455,3.1275720164609053,0
-0.022737100455,0.7407407407407407,0
-0.022735208455,2.3045267489711936,0
-0.022733316455,-3.7037037037037037,0
-0.022731424455,-2.7160493827160495,0
-0.022729532455,2.7160493827160495,0
-0.022727640455,-0.411522633744856,0
-0.022725748455,1.728395061728395,0
-0.022723856455,-2.7160493827160495,0
-0.022721964455,2.880658436213992,0
-0.022720072455,0.7407407407407407,0
-0.022718180455,0,0
-0.022716288455,-2.551440329218107,0
-0.022714396455,-3.786008230452675,0
-0.022712504454999997,3.950617283950617,0
-0.022710612454999998,-0.0823045267489712,0
-0.022708720454999998,1.8106995884773662,0
-0.022706828454999998,-2.3045267489711936,0
-0.022704936454999998,0.5761316872427984,0
-0.022703044454999998,1.728395061728395,0
-0.022701152454999998,-0.3292181069958848,0
-0.022699260455,-1.646090534979424,0
-0.022697368455,-2.880658436213992,0
-0.022695476455,3.786008230452675,0
-0.022693584455,-1.0699588477366255,0
-0.022691692455,3.292181069958848,0
-0.022689800455,-3.539094650205761,0
-0.022687908455,-3.045267489711934,0
-0.022686016455,3.45679012345679,0
-0.022684124455,-1.4814814814814814,0
-0.022682232455,1.1522633744855968,0
-0.022680340455,-2.3045267489711936,0
