log/TDMA_GE_02.csv

#Digilent WaveForms Oscilloscope Acquisition
#Device Name: ADP5250-323F81C
#Serial Number: SN:323F81C
#Date Time: 2023-03-08 14:02:46.904.337.099
#Sample rate: 531915Hz
#Samples: 32768
#Trigger: Source: Channel 1 Type: Edge Condition: Rising Level: 0 V Hyst.: Auto
#Channel 1: Range: 2 V/div Offset: 0 V Attenuation: 1 X Coupling: DC Bandwidth: Full Sample Mode: Average
#Channel 2: Range: 200 mV/div Offset: 0 V Attenuation: 1 X Coupling: DC Bandwidth: Full

Time (s),Channel 1 (V),Channel 2 (V)
-0.030545233966,-1.4814814814814814,0
-0.030543353966,-3.786008230452675,0
-0.030541473966000002,3.2098765432098766,0
-0.030539593966,-0.1646090534979424,0
-0.030537713966,3.292181069958848,0
-0.030535833966,-3.7037037037037037,0
-0.030533953966,0.7407407407407407,0
-0.030532073966000002,1.0699588477366255,0
-0.030530193966,-0.3292181069958848,0
-0.030528313966,0.9876543209876543,0
-0.030526433966,-3.950617283950617,0
-0.030524553966,4.197530864197531,0
-0.030522673966000002,-0.6584362139917695,0
-0.030520793966,1.0699588477366255,0
-0.030518913966,-2.2222222222222223,0
-0.030517033966,-3.7037037037037037,0
-0.030515153966000002,3.6213991769547325,0
-0.030513273966,-1.4814814814814814,0
-0.030511393966,3.2098765432098766,0
-0.030509513966,-2.7160493827160495,0
-0.030507633966,1.0699588477366255,0
-0.030505753966000002,1.316872427983539,0
-0.030503873966,-0.411522633744856,0
-0.030501993966,-1.8106995884773662,0
-0.030500113966,-3.45679012345679,0
-0.030498233966000002,3.539094650205761,0
-0.030496353966,-0.24691358024691357,0
-0.030494473966,2.3868312757201644,0
-0.030492593966,-3.8683127572016462,0
-0.030490713966,-0.49382716049382713,0
-0.030488833966000002,2.05761316872428,0
-0.030486953966,-1.646090534979424,0
-0.030485073966,2.551440329218107,0
-0.030483193966,-3.8683127572016462,0
-0.030481313966,3.7037037037037037,0
-0.030479433966,0.5761316872427984,0
-0.030477553966,-0.1646090534979424,0
-0.030475673966,-1.8106995884773662,0
-0.030473793966,-3.7037037037037037,0
-0.030471913966000002,2.880658436213992,0
-0.030470033966,-0.1646090534979424,0
-0.030468153966,2.3045267489711936,0
-0.030466273966,-3.292181069958848,0
-0.030464393966,1.316872427983539,0
-0.030462513966000002,0.9053497942386831,0
-0.030460633966,-0.9876543209876543,0
-0.030458753966,0.49382716049382713,0
-0.030456873966,-3.950617283950617,0
-0.030454993966000002,4.279835390946502,0
-0.030453113966,-0.9053497942386831,0
-0.030451233966,1.728395061728395,0
-0.030449353966,-2.880658436213992,0
-0.030447473966,-2.880658436213992,0
-0.030445593966000002,3.2098765432098766,0
-0.030443713966,-1.0699588477366255,0
-0.030441833966,2.4691358024691357,0
-0.030439953966,-2.633744855967078,0
-0.030438073966,2.4691358024691357,0
-0.030436193966,1.0699588477366255,0
-0.030434313966,-0.24691358024691357,0
-0.030432433966,-2.3045267489711936,0
-0.030430553966,-3.374485596707819,0
-0.030428673966000002,3.6213991769547325,0
-0.030426793966,-0.6584362139917695,0
-0.030424913966,2.880658436213992,0
-0.030423033966,-3.786008230452675,0
-0.030421153966,0.3292181069958848,0
-0.030419273966000002,2.139917695473251,0
-0.030417393966,-2.633744855967078,0
-0.030415513966,1.9753086419753085,0
-0.030413633966,-3.8683127572016462,0
-0.030411753966000002,3.786008230452675,0
-0.030409873966,0.411522633744856,0
-0.030407993966,-0.7407407407407407,0
-0.030406113966,-2.3868312757201644,0
-0.030404233966,-3.1275720164609053,0
-0.030402353966000002,2.551440329218107,0
-0.030400473966,0.0823045267489712,0
-0.030398593966,2.633744855967078,0
-0.030396713966,-3.1275720164609053,0
-0.030394833966000002,2.3045267489711936,0
-0.030392953966,0.823045267489712,0
-0.030391073966,-0.9876543209876543,0
-0.030389193966,0,0
-0.030387313966,-4.197530864197531,0
-0.030385433966000002,4.197530864197531,0
-0.030383553966,-0.24691358024691357,0
-0.030381673966,1.316872427983539,0
-0.030379793966,-2.7160493827160495,0
-0.030377913966,-1.1522633744855968,0
-0.030376033966,1.8106995884734738,0
-0.030374153966,-0.3292181069958848,0
-0.030372273966,1.2345679012345678,0
-0.030370393966,-2.7160493827160495,0
-0.030368513966000002,3.2098765432098766,0
-0.030366633966,0.411522633744856,0
-0.030364753966,0,0
-0.030362873966,-2.7983539094650207,0
-0.030360993966,-3.45679012345679,0
-0.030359113966000002,3.786008230452675,0
-0.030357233966,-1.4814814814814814,0
-0.030355353966,3.374485596707819,0
-0.030353473966,-3.7037037037037037,0
-0.030351593966000002,1.1522633744855968,0
-0.030349713966,1.728395061728395,0
-0.030347833966,-2.4691358024691357,0
-0.030345953966,1.0699588477366255,0
-0.030344073966,-3.7037037037037037,0
-0.030342193966000002,3.374485596707819,0
-0.030340313966,0.411522633744856,0
-0.030338433966,0.7407407407407407,0
-0.030336553966,-2.962962962962963,0
-0.030334673966,-2.3868312757201644,0
-0.030332793966,2.05761316872428,0
-0.030330913966,-0.24691358024691357,0
-0.030329033966,2.3868312757201644,0
-0.030327153966,-3.045267489711934,0
-0.030325273966000002,2.962962962962963,0
-0.030323393966,0.24691358024691357,0
-0.030321513966,-0.1646090534979424,0
-0.030319633966,-1.1522633744855968,0
-0.030317753966,-3.374485596707819,0
-0.030315873966000002,4.444444444444445,0
-0.030313993966,-1.316872427983539,0
-0.030312113966,2.7983539094650207,0
-0.030310233966,-2.962962962962963,0
-0.030308353966000002,-1.1522633744855968,0
-0.030306473966,2.551440329218107,0
-0.030304593966,-0.823045267489712,0
-0.030302713966,0.9053497942386831,0
-0.030300833966,-2.7983539094650207,0
-0.030298953966000002,3.2098765432098766,0
-0.030297073966,0,0
-0.030295193966,0.5761316872427984,0
-0.030293313966,-2.962962962962963,0
-0.030291433966000002,-3.45679012345679,0
-0.030289553966,3.8683127572016462,0
-0.030287673966,-1.8930041152263375,0
-0.030285793966,3.374485596707819,0
-0.030283913966,-3.2098765432098766,0
-0.030282033966000002,1.5637860082304527,0
-0.030280153966,1.4814814814814814,0
-0.030278273966,-1.316872427983539,0
-0.030276393966,-0.0823045267489712,0
-0.030274513966,-3.7037037037037037,0
-0.030272633966000002,3.2921810699461216,0
-0.030270753966,0.3292181069958848,0
-0.030268873966,1.646090534979424,0
-0.030266993966,-3.292181069958848,0
-0.030265113966000002,-1.646090534979424,0
-0.030263233966,1.8106995884773662,0
-0.030261353966,-0.49382716049382713,0
-0.030259473966,1.9753086419753085,0
-0.030257593966,-3.292181069958848,0
-0.030255713966000002,3.786008230452675,0
-0.030253833966,-0.411522633744856,0
-0.030251953966,0.24691358024691357,0
-0.030250073966,-1.9753086419753085,0
-0.030248193966000002,-4.444444444444445,0
-0.030246313966,4.197530864197531,0
-0.030244433966,-1.1522633744855968,0
-0.030242553966,2.7983539094650207,0
-0.030240673966,-2.633744855967078,0
-0.030238793966000002,-0.3292181069958848,0
-0.030236913966,1.9753086419753085,0
-0.030235033966,-0.6584362139917695,0
-0.030233153966,0,0
-0.030231273966,-3.1275720164609053,0
-0.030229393966,3.539094650205761,0
-0.030227513966,0.6584362139917695,0
-0.030225633966,1.2345679012345678,0
-0.030223753966,-3.45679012345679,0
-0.030221873966000002,-2.633744855967078,0
-0.030219993966,3.45679012345679,0
-0.030218113966,-1.316872427983539,0
-0.030216233966,3.539094650205761,0
-0.030214353966,-3.374485596707819,0
-0.030212473966000002,2.7983539094650207,0
-0.030210593966,1.0699588477366255,0
-0.030208713966,-1.316872427983539,0
-0.030206833966,-0.49382716049382713,0
-0.030204953966000002,-3.950617283950617,0
-0.030203073966,3.539094650205761,0
-0.030201193966,0.1646090534979424,0
-0.030199313966,2.05761316872428,0
-0.030197433966,-3.539094650205761,0
-0.030195553966000002,-0.9053497942386831,0
-0.030193673966,1.5637860082304527,0
-0.030191793966,-0.411522633744856,0
-0.030189913966,1.8106995884773662,0
-0.030188033966000002,-5.102880658436214,0
-0.030186153966,4.279835390946502,0
-0.030184273966,-0.49382716049382713,0
-0.030182393966,0.6584362139917695,0
-0.030180513966,-2.3868312757201644,0
-0.030178633966000002,-3.8683127572016462,0
-0.030176753966,3.8683127572016462,0
-0.030174873966,-1.316872427983539,0
-0.030172993966,3.045267489711934,0
-0.030171113966,-2.139917695473251,0
-0.030169233966000002,0.3292181069958848,0
-0.030167353966,1.728395061728395,0
-0.030165473966,-0.6584362139917695,0
-0.030163593966,-0.7407407407407407,0
-0.030161713966000002,-3.45679012345679,0
-0.030159833966,4.11522633744856,0
-0.030157953966,0.24691358024691357,0
-0.030156073966,2.3045267489711936,0
-0.030154193966,-3.786008230452675,0
-0.030152313966000002,-1.9753086419753085,0
-0.030150433966,3.045267489711934,0
-0.030148553966,-1.646090534979424,0
-0.030146673966,2.880658436213992,0
-0.030144793966000002,-2.962962962962963,0
-0.030142913966,2.551440329218107,0
-0.030141033966,0.823045267489712,0
-0.030139153966,-1.2345679012345678,0
-0.030137273966,-0.7407407407407407,0
-0.030135393966000002,-3.950617283950617,0
-0.030133513966,3.292181069958848,0
-0.030131633966,-0.0823045267489712,0
-0.030129753966,2.2222222222222223,0
-0.030127873966,-3.6213991769547325,0
-0.030125993966,0.1646090534979424,0
-0.030124113966,1.316872427983539,0
-0.030122233966,-0.411522633744856,0
-0.030120353966,1.2345679012345678,0
-0.030118473966000002,-3.950617283950617,0
-0.030116593966,4.362139917695473,0
-0.030114713966,-0.3292181069958848,0
-0.030112833966,0.24691358024691357,0
-0.030110953966,-2.3868312757201644,0
-0.030109073966000002,-3.7037037037037037,0
-0.030107193966,3.45679012345679,0
-0.030105313966,-0.7407407407407407,0
-0.030103433966,2.2222222222222223,0
-0.030101553966000002,-2.2222222222222223,0
-0.030099673966,1.646090534979424,0
-0.030097793966,1.1522633744855968,0
-0.030095913966,-0.24691358024691357,0
-0.030094033966,-1.316872427983539,0
-0.030092153966000002,-3.8683127572016462,0
-0.030090273966,4.279835390946502,0
-0.030088393966,-1.316872427983539,0
-0.030086513966,2.880658436213992,0
-0.030084633966,-3.786008230452675,0
-0.030082753966,-0.7407407407407407,0
-0.030080873966,2.633744855967078,0
-0.030078993966,-1.4814814814814814,0
-0.030077113966,2.2222222222222223,0
-0.030075233966000002,-3.1275720164609053,0
-0.030073353966,2.962962962962963,0
-0.030071473966,0.9876543209876543,0
-0.030069593966,-0.9053497942386831,0
-0.030067713966,-1.8106995884773662,0
-0.030065833966000002,-3.539094650205761,0
-0.030063953966,2.880658436213992,0
-0.030062073966,-0.24691358024691357,0
-0.030060193966,3.2098765432098766,0
-0.030058313966000002,-3.786008230452675,0
-0.030056433966,1.646090534979424,0
-0.030054553966,1.1522633744855968,0
-0.030052673966,-0.7407407407407407,0
-0.030050793966,0.49382716049382713,0
-0.030048913966000002,-3.950617283950617,0
-0.030047033966,4.279835390946502,0
-0.030045153966,0,0
-0.030043273966,0.411522633744856,0
-0.030041393966000002,-2.4691358024691357,0
-0.030039513966,-2.962962962962963,0
-0.030037633966,3.374485596707819,0
-0.030035753966,-0.6584362139917695,0
-0.030033873966,1.8930041152263375,0
-0.030031993966000002,-2.3868312757201644,0
-0.030030113966,2.3868312757201644,0
-0.030028233966,0.5761316872427984,0
-0.030026353966,-0.0823045267489712,0
-0.030024473966,-2.05761316872428,0
-0.030022593966,-3.9506172839357956,0
-0.030020713966,4.197530864197531,0
-0.030018833966,-1.3991769547325104,0
-0.030016953966,3.2098765432098766,0
-0.030015073966000002,-3.45679012345679,0
-0.030013193966,-0.5761316872427984,0
-0.030011313966,2.7160493827160495,0
-0.030009433966,-1.3991769547325104,0
-0.030007553966,0.5761316872427984,0
-0.030005673966000002,-2.962962962962963,0
-0.030003793966,3.045267489711934,0
-0.030001913966,0.5761316872427984,0
-0.030000033966,0.5761316872427984,0
-0.029998153966000002,-3.292181069958848,0
-0.029996273966,-2.7160493827160495,0
-0.029994393966,2.880658436213992,0
-0.029992513966,-0.49382716049382713,0
-0.029990633966,3.374485596707819,0
-0.029988753966000002,-3.786008230452675,0
-0.029986873966,2.4691358024691357,0
-0.029984993966,0.7407407407407407,0
-0.029983113966,-0.823045267489712,0
-0.029981233966,-0.1646090534979424,0
-0.029979353966,-4.032921810699588,0
-0.029977473966,5.020576131687243,0
-0.029975593966,0,0
-0.029973713966,1.0699588477366255,0
-0.029971833966000002,-2.4691358024691357,0
-0.029969953966,-2.139917695473251,0
-0.029968073966,2.4691358024691357,0
-0.029966193966,-0.7407407407407407,0
-0.029964313966,1.646090534979424,0
-0.029962433966000002,-2.7160493827160495,0
-0.029960553966,3.45679012345679,0
-0.029958673966,-0.1646090534979424,0
-0.029956793966,0.411522633744856,0
-0.029954913966000002,-2.880658436213992,0
-0.029953033966,-3.6213991769547325,0
-0.029951153966,3.786008230452675,0
-0.029949273966,-1.316872427983539,0
-0.029947393966,2.7983539094650207,0
-0.029945513966000002,-3.045267489711934,0
-0.029943633966,0.0823045267489712,0
-0.029941753966,2.2222222222222223,0
-0.029939873966,-1.646090534979424,0
-0.029937993966000002,0,0
-0.029936113966,-3.539094650205761,0
-0.029934233966,3.292181069958848,0
-0.029932353966,0.411522633744856,0
-0.029930473966,0.9053497942386831,0
-0.029928593966000002,-3.292181069958848,0
-0.029926713966,-2.2222222222222223,0
-0.029924833966,2.139917695473251,0
-0.029922953966,-0.411522633744856,0
-0.029921073966,2.7983539094650207,0
-0.029919193966000002,-3.127572016450126,0
-0.029917313966,3.374485596707819,0
-0.029915433966,0.1646090534979424,0
-0.029913553966,-0.24691358024691357,0
-0.029911673966000002,-0.9876543209876543,0
-0.029909793966,-4.444444444444445,0
-0.029907913966,4.773662551440329,0
-0.029906033966,-0.49382716049382713,0
-0.029904153966,1.8930041152263375,0
-0.029902273966000002,-2.551440329218107,0
-0.029900393966,-1.4814814814814814,0
-0.029898513966,2.4691358024691357,0
-0.029896633966,-0.6584362139917695,0
-0.029894753966000002,0.823045267489712,0
-0.029892873966,-2.7160493827160495,0
-0.029890993966,3.7037037037037037,0
-0.029889113966,-0.24691358024691357,0
-0.029887233966,0.24691358024691357,0
-0.029885353966000002,-3.1275720164609053,0
-0.029883473966,-3.374485596707819,0
-0.029881593966,3.7037037037037037,0
-0.029879713966,-1.1522633744855968,0
-0.029877833966,3.292181069958848,0
-0.029875953966,-2.7983539094650207,0
-0.029874073966,0.9876543209876543,0
-0.029872193966,1.9753086419753085,0
-0.029870313966,-1.646090534979424,0
-0.029868433966000002,0.411522633744856,0
-0.029866553966,-3.8683127572016462,0
-0.029864673966,3.539094650205761,0
-0.029862793966,0.1646090534979424,0
-0.029860913966,1.5637860082304527,0
-0.029859033966000002,-3.45679012345679,0
-0.029857153966,-1.1522633744855968,0
-0.029855273966,1.8930041152263375,0
-0.029853393966,-0.49382716049382713,0
-0.029851513966000002,2.880658436213992,0
-0.029849633966,-3.6213991769547325,0
-0.029847753966,2.962962962962963,0
-0.029845873966,0.5761316872427984,0
-0.029843993966,-0.6584362139917695,0
-0.029842113966000002,-1.316872427983539,0
-0.029840233966,-4.032921810699588,0
-0.029838353966,4.279835390946502,0
-0.029836473966,-0.7407407407407407,0
-0.029834593966000002,2.3868312757201644,0
-0.029832713966,-2.7160493827160495,0
-0.029830833966,-0.3292181069958848,0
-0.029828953966,1.8106995884773662,0
-0.029827073966,-0.6584362139917695,0
-0.029825193966000002,0,0
-0.029823313966,-2.962962962962963,0
-0.029821433966,3.786008230452675,0
-0.029819553966,-0.5761316872427984,0
-0.029817673966,1.8106995884773662,0
-0.029815793966000002,-3.45679012345679,0
-0.029813913966,-2.7983539094650207,0
-0.029812033966,3.374485596707819,0
-0.029810153966,-1.646090534979424,0
-0.029808273966000002,3.6213991769547325,0
-0.029806393966,-2.880658436213992,0
-0.029804513966,1.5637860082304527,0
-0.029802633966,1.5637860082304527,0
-0.029800753966,-1.3991769547325104,0
-0.029798873966000002,-0.5761316872427984,0
-0.029796993966,-3.786008230452675,0
-0.029795113966,3.2098765432098766,0
-0.029793233966,-0.0823045267489712,0
-0.029791353966000002,1.9753086419753085,0
-0.029789473966,-3.374485596707819,0
-0.029787593966,-1.3991769547325104,0
-0.029785713966,1.646090534979424,0
-0.029783833966,-0.5761316872427984,0
-0.029781953966000002,2.05761316872428,0
-0.029780073966,-3.786008230452675,0
-0.029778193966,3.374485596707819,0
-0.029776313966,0.6584362139917695,0
-0.029774433966,-0.6584362139917695,0
-0.029772553966,-1.728395061728395,0
-0.029770673966,-3.950617283950617,0
-0.029768793966,4.032921810699588,0
-0.029766913966,-0.6584362139917695,0
-0.029765033966000002,2.2222222222222223,0
-0.029763153966,-2.551440329218107,0
-0.029761273966,0.9053497942386831,0
-0.029759393966,1.1522633744855968,0
-0.029757513966,0.0823045267489712,0
-0.029755633966000002,-0.5761316872427984,0
-0.029753753966,-3.6213991769547325,0
-0.029751873966,4.279835390946502,0
-0.029749993966,-0.9876543209876543,0
-0.029748113966000002,1.646090534979424,0
-0.029746233966,-2.7983539094650207,0
-0.029744353966,-2.880658436213992,0
-0.029742473966,3.374485596707819,0
-0.029740593966,-1.5637860082304527,0
-0.029738713966000002,3.045267489711934,0
-0.029736833966,-2.7983539094650207,0
-0.029734953966,2.139917695473251,0
-0.029733073966,1.2345679012345678,0
-0.029731193966,-0.9053497942386831,0
-0.029729313966,-1.4814814814814814,0
-0.029727433966,-3.7037037037037037,0
-0.029725553966,2.962962962962963,0
-0.029723673966,0.0823045267489712,0
-0.029721793966000002,2.3045267489711936,0
-0.029719913966,-3.45679012345679,0
-0.029718033966,-0.7407407407407407,0
-0.029716153966,1.316872427983539,0
-0.029714273966,-0.5761316872427984,0
-0.029712393966000002,1.316872427983539,0
-0.029710513966,-3.950617283950617,0
-0.029708633966,4.279835390946502,0
-0.029706753966,-0.0823045267489712,0
-0.029704873966000002,0.1646090534979424,0
-0.029702993966,-2.3045267489711936,0
-0.029701113966,-3.7037037037037037,0
-0.029699233966,3.6213991769547325,0
-0.029697353966,-0.1646090534979424,0
-0.029695473966000002,2.3045267489711936,0
-0.029693593966,-2.3868312757201644,0
-0.029691713966,1.646090534979424,0
-0.029689833966,1.1522633744855968,0
-0.029687953966000002,-0.823045267489712,0
-0.029686073966,-1.3991769547325104,0
-0.029684193966,-3.539094650205761,0
-0.029682313966,4.032921810699588,0
-0.029680433966,-0.9876543209876543,0
-0.029678553966000002,2.4691358024691357,0
-0.029676673966,-3.292181069958848,0
-0.029674793966,-1.728395061728395,0
-0.029672913966,2.880658436213992,0
-0.029671033966,-1.728395061728395,0
-0.029669153966,2.633744855956149,0
-0.029667273966,-3.374485596707819,0
-0.029665393966,2.880658436213992,0
-0.029663513966,1.0699588477366255,0
-0.029661633966000002,-0.49382716049382713,0
-0.029659753966,-2.139917695473251,0
-0.029657873966,-3.045267489711934,0
-0.029655993966,2.7983539094650207,0
-0.029654113966,0,0
-0.029652233966000002,2.880658436213992,0
-0.029650353966,-3.45679012345679,0
-0.029648473966,1.316872427983539,0
-0.029646593966,1.0699588477366255,0
-0.029644713966000002,-0.6584362139917695,0
-0.029642833966,0.823045267489712,0
-0.029640953966,-4.032921810699588,0
-0.029639073966,4.362139917695473,0
-0.029637193966,-0.0823045267489712,0
-0.029635313966000002,0.9876543209876543,0
-0.029633433966,-2.633744855967078,0
-0.029631553966,-3.292181069958848,0
-0.029629673966,3.2098765432098766,0
-0.029627793966,-1.316872427983539,0
-0.029625913966,1.8930041152263375,0
-0.029624033966,-2.3045267489711936,0
-0.029622153966,2.05761316872428,0
-0.029620273966,1.316872427983539,0
-0.029618393966000002,-0.5761316872427984,0
-0.029616513966,-2.05761316872428,0
-0.029614633966,-3.7037037037037037,0
-0.029612753966,3.950617283950617,0
-0.029610873966,-1.1522633744855968,0
-0.029608993966000002,3.045267489711934,0
-0.029607113966,-4.032921810699588,0
-0.029605233966,-0.1646090534979424,0
-0.029603353966,2.05761316872428,0
-0.029601473966000002,-1.4814814814814814,0
-0.029599593966,1.8106995884773662,0
-0.029597713966,-3.2098765432098766,0
-0.029595833966,3.7037037037037037,0
-0.029593953966,0.49382716049382713,0
-0.029592073966000002,-0.3292181069958848,0
-0.029590193966,-2.551440329218107,0
-0.029588313966,-3.292181069958848,0
-0.029586433966,2.633744855967078,0
-0.029584553966000002,-0.24691358024691357,0
-0.029582673966,2.7983539094650207,0
-0.029580793966,-3.2098765432098766,0
