log/TDMA_GE_00.csv

#Digilent WaveForms Oscilloscope Acquisition
#Device Name: ADP5250-323F81C
#Serial Number: SN:323F81C
#Date Time: 2023-03-08 14:02:46.748.112.799
#Sample rate: 531915Hz
#Samples: 32768
#Trigger: Source: Channel 1 Type: Edge Condition: Rising Level: 0 V Hyst.: Auto
#Channel 1: Range: 2 V/div Offset: 0 V Attenuation: 1 X Coupling: DC Bandwidth: Full Sample Mode: Average
#Channel 2: Range: 200 mV/div Offset: 0 V Attenuation: 1 X Coupling: DC Bandwidth: Full

Time (s),Channel 1 (V),Channel 2 (V)
-0.03054556896,2.962962962962963,0
-0.03054368896,0.7407407407407407,0
-0.03054180896,-2.139917695473251,0
-0.030539928959999997,0.7407407407407407,0
-0.030538048959999998,0.823045267489712,0
-0.03053616896,2.4691358024691357,0
-0.03053428896,-3.950617283950617,0
-0.03053240896,0.24691358024691357,0
-0.030530528959999997,-1.8930041152263375,0
-0.030528648959999998,2.7983539094650207,0
-0.03052676896,3.45679012345679,0
-0.03052488896,-3.786008230452675,0
-0.03052300896,0.7407407407407407,0
-0.030521128959999998,-1.4814814814814814,0
-0.03051924896,1.316872427983539,0
-0.03051736896,-0.3292181069958848,0
-0.03051548896,-1.8930041152263375,0
-0.030513608959999997,-0.411522633744856,0
-0.030511728959999998,3.045267489711934,0
-0.03050984896,2.139917695473251,0
-0.03050796896,-3.8683127572016462,0
-0.03050608896,0.5761316872427984,0
-0.030504208959999998,-3.8683127572016462,0
-0.03050232896,4.279835390946502,0
-0.03050044896,1.728395061728395,0
-0.03049856896,-4.197530864197531,0
-0.030496688959999997,1.316872427983539,0
-0.030494808959999998,-0.5761316872427984,0
-0.03049292896,2.139917695473251,0
-0.03049104896,-2.551440329218107,0
-0.03048916896,-0.7407407407407407,0
-0.030487288959999997,-0.7407407407407407,0
-0.030485408959999998,3.1275720164609053,0
-0.03048352896,2.880658436213992,0
-0.03048164896,-3.6213991769547325,0
-0.030479768959999997,-0.0823045267489712,0
-0.030477888959999998,-2.2222222222222223,0
-0.03047600896,2.7160493827160495,0
-0.03047412896,-0.24691358024691357,0
-0.03047224896,-1.8930041152263375,0
-0.030470368959999997,0.24691358024691357,0
-0.030468488959999998,2.633744855967078,0
-0.03046660896,2.4691358024691357,0
-0.03046472896,-4.032921810699588,0
-0.03046284896,0.6584362139917695,0
-0.030460968959999998,-2.880658436213992,0
-0.03045908896,3.539094650205761,0
-0.03045720896,3.2098765432098766,0
-0.03045532896,-3.7037037037037037,0
-0.030453448959999997,0.49382716049382713,0
-0.030451568959999998,-0.5761316872427984,0
-0.03044968896,1.2345679012345678,0
-0.03044780896,-1.1522633744855968,0
-0.03044592896,-1.4814814814814814,0.00823045267489712
-0.030444048959999997,-1.316872427983539,0
-0.030442168959999998,3.45679012345679,0
-0.03044028896,2.4691358024691357,0
-0.03043840896,-4.362139917695473,0
-0.030436528959999997,0.823045267489712,0
-0.030434648959999998,-3.8683127572016462,0
-0.03043276896,3.7037037037037037,0
-0.03043088896,1.316872427983539,0
-0.03042900896,-3.539094650205761,0
-0.030427128959999997,1.3991769547325104,0
-0.030425248959999998,0.6584362139917695,0
-0.03042336896,1.728395061728395,0
-0.03042148896,-2.7983539094650207,0
-0.03041960896,-1.316872427983539,0
-0.030417728959999998,-1.4814814814814814,0
-0.03041584896,3.292181069958848,0
-0.03041396896,2.880658436213992,0
-0.03041208896,-3.374485596707819,0
-0.030410208959999997,0.1646090534979424,0
-0.030408328959999998,-1.0699588477366255,0
-0.03040644896,2.633744855967078,0
-0.03040456896,-1.3991769547325104,0
-0.03040268896,-1.1522633744855968,0
-0.030400808959999998,-0.3292181069958848,0
-0.03039892896,2.7983539094650207,0
-0.03039704896,2.7160493827160495,0
-0.03039516896,-4.032921810699588,0
-0.030393288959999997,0.6584362139917695,0
-0.030391408959999998,-3.045267489711934,0
-0.03038952896,2.7160493827160495,0
-0.03038764896,2.880658436213992,0
-0.03038576896,-3.786008230452675,0
-0.030383888959999997,1.3991769547325104,0
-0.030382008959999998,-0.1646090534979424,0
-0.03038012896,1.1522633744855968,0
-0.03037824896,-2.139917695473251,0
-0.030376368959999997,-1.152263374486495,0
-0.030374488959999998,-1.646090534979424,0
-0.03037260896,3.786008230452675,0
-0.03037072896,2.7983539094650207,0
-0.03036884896,-4.197530864197531,0
-0.030366968959999997,0.9876543209876543,0
-0.030365088959999998,-3.6213991769547325,0
-0.03036320896,3.374485596707819,0
-0.03036132896,0.5761316872427984,0
-0.03035944896,-2.4691358024691357,0
-0.030357568959999998,1.1522633744855968,0
-0.03035568896,1.316872427983539,0
-0.03035380896,1.8106995884773662,0
-0.03035192896,-3.1275720164609053,0
-0.030350048959999997,-0.9053497942386831,0
-0.030348168959999998,-2.2222222222222223,0
-0.03034628896,3.6213991769547325,0
-0.03034440896,2.4691358024691357,0
-0.03034252896,-2.962962962962963,0
-0.030340648959999997,0.823045267489712,0
-0.030338768959999998,-1.8930041152263375,0
-0.03033688896,2.633744855967078,0
-0.03033500896,-2.3868312757201644,0
-0.030333128959999997,-0.5761316872427984,0
-0.030331248959999998,-0.5761316872427984,0
-0.03032936896,2.05761316872428,0
-0.03032748896,3.292181069958848,0
-0.03032560896,-4.11522633744856,0
-0.030323728959999997,0.49382716049382713,0
-0.030321848959999998,-2.7160493827160495,0
-0.03031996896,2.2222222222222223,0
-0.03031808896,2.3045267489711936,0
-0.03031620896,-3.292181069958848,0
-0.030314328959999998,0.411522633744856,0
-0.03031244896,1.0699588477366255,0
-0.03031056896,1.3991769547325104,0
-0.03030868896,-3.1275720164609053,0
-0.030306808959999997,-0.24691358024691357,0
-0.030304928959999998,-2.7160493827160495,0
-0.03030304896,3.950617283950617,0
-0.03030116896,2.962962962962963,0
-0.03029928896,-3.2098765432098766,0
-0.030297408959999998,0.823045267489712,0
-0.03029552896,-3.045267489711934,0
-0.03029364896,2.962962962962963,0
-0.03029176896,-0.1646090534979424,0
-0.030289888959999997,-2.3868312757201644,0
-0.030288008959999998,0.9876543209876543,0
-0.03028612896,1.646090534979424,0
-0.03028424896,2.4691358024691357,0
-0.03028236896,-3.8683127572016462,0
-0.030280488959999997,-0.5761316872427984,0
-0.030278608959999998,-2.05761316872428,0
-0.03027672896,3.045267489711934,0
-0.03027484896,2.3868312757201644,0
-0.03027296896,-2.8806584362044103,0
-0.030271088959999998,0.3292181069958848,0
-0.03026920896,-1.3991769547325104,0
-0.03026732896,2.2222222222222223,0
-0.03026544896,-2.880658436213992,0
-0.030263568959999997,-0.411522633744856,0
-0.030261688959999998,-1.0699588477366255,0
-0.03025980896,2.7160493827160495,0
-0.03025792896,3.45679012345679,0
-0.03025604896,-3.8683127572016462,0
-0.030254168959999998,0.0823045267489712,0
-0.03025228896,-2.2222222222222223,0
-0.03025040896,2.2222222222222223,0
-0.03024852896,1.316872427983539,0
-0.030246648959999997,-2.4691358024691357,0
-0.030244768959999998,0.1646090534979424,0
-0.03024288896,1.9753086419753085,0
-0.03024100896,1.316872427983539,0
-0.03023912896,-3.7037037037037037,0
-0.030237248959999997,0.24691358024691357,0
-0.030235368959999998,-3.45679012345679,0
-0.03023348896,4.11522633744856,0
-0.03023160896,2.880658436213992,0
-0.030229728959999997,-3.7037037037037037,0
-0.030227848959999998,1.1522633744855968,0
-0.03022596896,-2.05761316872428,0
-0.03022408896,2.4691358024691357,0
-0.03022220896,-0.7407407407407407,0
-0.030220328959999997,-2.3045267489711936,0
-0.030218448959999998,-0.1646090534979424,0
-0.03021656896,2.3045267489711936,0
-0.03021468896,2.551440329218107,0
-0.03021280896,-3.786008230452675,0
-0.030210928959999998,0,0
-0.03020904896,-2.880658436213992,0
-0.03020716896,3.539094650205761,0
-0.03020528896,1.316872427983539,0
-0.030203408959999997,-2.3045267489711936,0
-0.030201528959999998,0.5761316872427984,0
-0.03019964896,0.411522633744856,0
-0.03019776896,1.8930041152263375,0
-0.03019588896,-3.374485596707819,0
-0.030194008959999998,-0.3292181069958848,0
-0.03019212896,-1.646090534979424,0
-0.03019024896,2.880658436213992,0
-0.03018836896,3.374485596707819,0
-0.030186488959999997,-3.950617283950617,0
-0.030184608959999998,0.9876543209876543,0
-0.03018272896,-1.8930041152263375,0
-0.03018084896,1.728395061728395,0
-0.03017896896,0.3292181069958848,0
-0.030177088959999997,-2.3868312757201644,0
-0.030175208959999998,0,0
-0.03017332896,2.633744855967078,0
-0.03017144896,1.5637860082304527,0
-0.03016956896,-3.786008230452675,0
-0.030167688959999998,0.5761316872427984,0
-0.03016580896,-3.786008230452675,0
-0.03016392896,3.8683127572016462,0
-0.03016204896,2.962962962962963,0
-0.030160168959999997,-3.8683127572016462,0
-0.030158288959999998,0.9876543209876543,0
-0.03015640896,-0.6584362139917695,0
-0.03015452896,1.646090534979424,0
-0.03015264896,-1.316872427983539,0
-0.030150768959999998,-2.05761316872428,0
-0.03014888896,-0.3292181069958848,0
-0.03014700896,3.292181069958848,0
-0.03014512896,2.139917695473251,0
-0.030143248959999997,-3.7037037037037037,0
-0.030141368959999998,0.1646090534979424,0
-0.03013948896,-2.7983539094650207,0
-0.03013760896,3.2098765432098766,0
-0.03013572896,0.6584362139917695,0
-0.030133848959999997,-1.8930041152263375,0
-0.030131968959999998,0.7407407407407407,0
-0.03013008896,0.9053497942386831,0
-0.03012820896,1.9753086419753085,0
-0.030126328959999997,-3.539094650205761,0
-0.030124448959999998,-0.5761316872427984,0
-0.03012256896,-2.05761316872428,0
-0.03012068896,2.7160493827160495,0
-0.03011880896,4.032921810699588,0
-0.030116928959999997,-3.8683127572016462,0
-0.030115048959999998,0.5761316872427984,0
-0.03011316896,-1.3991769547325104,0
-0.03011128896,1.728395061728395,0
-0.03010940896,-0.411522633744856,0
-0.030107528959999998,-1.4814814814814814,0
-0.03010564896,-0.9053497942386831,0
-0.03010376896,3.292181069958848,0
-0.03010188896,2.05761316872428,0
-0.030100008959999997,-3.950617283950617,0
-0.030098128959999998,0.411522633744856,0
-0.03009624896,-4.032921810699588,0
-0.03009436896,3.6213991769547325,0
-0.03009248896,2.3868312757201644,0
-0.030090608959999997,-3.374485596707819,0
-0.030088728959999998,0.6584362139917695,0
-0.03008684896,-0.411522633744856,0
-0.03008496896,1.8930041152263375,0
-0.030083088959999997,-2.2222222222222223,0
-0.030081208959999998,-1.728395061728395,0
-0.03007932896,-0.9876543209876543,0
-0.03007744896,3.45679012345679,0
-0.03007556896,2.3045267489711936,0
-0.030073688959999997,-3.45679012345679,0
-0.030071808959999998,0.1646090534979424,0
-0.03006992896,-2.7160493827160495,0
-0.03006804896,3.045267489711934,0
-0.03006616896,-0.0823045267489712,0
-0.030064288959999998,-1.646090534979424,0
-0.03006240896,0.5761316872427984,0
-0.03006052896,1.646090534979424,0
-0.03005864896,2.7983539094650207,0.00823045267489712
-0.030056768959999997,-3.8683127572016462,0
-0.030054888959999998,0,0
-0.03005300896,-2.7983539094650207,0
-0.03005112896,2.7983539094650207,0
-0.03004924896,3.2098765432098766,0
-0.030047368959999998,-3.8683127572016462,0
-0.03004548896,0.6584362139917695,0
-0.03004360896,-0.49382716049382713,0
-0.03004172896,1.3991769547325104,0
-0.030039848959999997,-1.0699588477366255,0
-0.030037968959999998,-1.3991769547325104,0
-0.03003608896,-1.316872427983539,0
-0.03003420896,3.786008230452675,0
-0.03003232896,2.2222222222222223,0
-0.030030448959999997,-3.950617283950617,0
-0.030028568959999998,0.24691358024691357,0
-0.03002668896,-3.539094650205761,0
-0.03002480896,3.292181069958848,0
-0.030022928959999997,2.2222222222117427,0
-0.030021048959999998,-3.539094650205761,0
-0.03001916896,1.728395061728395,0
-0.03001728896,0.7407407407407407,0
-0.03001540896,1.4814814814814814,0
-0.030013528959999997,-2.633744855967078,0
-0.030011648959999998,-1.1522633744855968,0
-0.03000976896,-2.05761316872428,0
-0.03000788896,4.11522633744856,0
-0.03000600896,2.05761316872428,0
-0.030004128959999998,-3.2098765432098766,0
-0.03000224896,0.5761316872427984,0
-0.03000036896,-2.2222222222222223,0
-0.02999848896,1.8930041152263375,0
-0.029996608959999997,-0.5761316872427984,0
-0.029994728959999998,-1.4814814814814814,0
-0.02999284896,0.411522633744856,0
-0.02999096896,1.8930041152263375,0
-0.02998908896,2.3045267489711936,0
-0.029987208959999997,-3.950617283950617,0
-0.029985328959999998,0.49382716049382713,0
-0.02998344896,-3.1275720164609053,0
-0.02998156896,2.7160493827160495,0
-0.029979688959999997,3.292181069958848,0
-0.029977808959999998,-3.8683127572016462,0
-0.02997592896,0.9053497942386831,0
-0.02997404896,0.3292181069958848,0
-0.02997216896,0.823045267489712,0
-0.029970288959999997,-1.5637860082304527,0
-0.029968408959999998,-1.8106995884773662,0
-0.02996652896,-1.9753086419753085,0
-0.02996464896,3.950617283950617,0
-0.02996276896,2.139917695473251,0
-0.029960888959999998,-3.786008230452675,0
-0.02995900896,1.0699588477366255,0
-0.02995712896,-3.292181069958848,0
-0.02995524896,3.1275720164609053,0
-0.029953368959999997,1.0699588477366255,0
-0.029951488959999998,-2.633744855967078,0
-0.02994960896,1.0699588477366255,0
-0.02994772896,1.5637860082304527,0
-0.02994584896,1.3991769547325104,0
-0.029943968959999998,-3.045267489711934,0
-0.02994208896,-0.6584362139917695,0
-0.02994020896,-2.551440329218107,0
-0.02993832896,3.8683127572016462,0
-0.029936448959999997,2.139917695473251,0
-0.029934568959999998,-3.1275720164609053,0
-0.02993268896,0.24691358024691357,0
-0.02993080896,-0.823045267489712,0
-0.02992892896,1.4814814814814814,0
-0.029927048959999997,-1.4814814814814814,0
-0.029925168959999998,-1.1522633744855968,0
-0.02992328896,-0.411522633744856,0
-0.02992140896,2.3868312757201644,0
-0.02991952896,2.8806584362130936,0
-0.029917648959999998,-3.950617283950617,0
-0.02991576896,0.6584362139917695,0
-0.02991388896,-2.880658436213992,0
-0.02991200896,2.4691358024691357,0
-0.029910128959999997,2.4691358024691357,0
-0.029908248959999998,-3.1275720164609053,0
-0.02990636896,0.0823045267489712,0
-0.02990448896,1.5637860082304527,0
-0.02990260896,0.7407407407407407,0
-0.029900728959999998,-2.3045267489711936,0
-0.02989884896,0.1646090534979424,0
-0.02989696896,-2.7160493827160495,0
-0.02989508896,3.950617283950617,0
-0.029893208959999997,2.2222222222222223,0
-0.029891328959999998,-3.7037037037037037,0
-0.02988944896,0.9053497942386831,0
-0.02988756896,-2.7983539094650207,0
-0.02988568896,2.880658436213992,0
-0.029883808959999997,-0.24691358024691357,0
-0.029881928959999998,-1.8930041152263375,0
-0.02988004896,0.6584362139917695,0
-0.02987816896,1.4814814814814814,0
-0.029876288959999997,2.139917695473251,0
-0.029874408959999998,-3.539094650205761,0
-0.02987252896,-0.9053497942386831,0
-0.02987064896,-2.4691358024691357,0
-0.02986876896,2.7160493827160495,0
-0.029866888959999997,2.05761316872428,0
-0.029865008959999998,-2.880658436213992,0
-0.02986312896,0.6584362139917695,0
-0.02986124896,-0.3292181069958848,0
-0.02985936896,1.9753086419753085,0
-0.029857488959999998,-2.139917695473251,0
-0.02985560896,-0.823045267489712,0
-0.02985372896,-0.9876543209876543,0
-0.02985184896,2.880658436213992,0
-0.029849968959999997,2.962962962962963,0
-0.029848088959999998,-3.8683127572016462,0
-0.02984620896,0.9053497942386831,0
-0.02984432896,-2.7160493827160495,0
-0.02984244896,2.4691358024691357,0
-0.029840568959999998,1.728395061728395,0
-0.029838688959999998,-3.1275720164609053,0
-0.02983680896,1.1522633744855968,0
-0.02983492896,1.9753086419753085,0
-0.029833048959999997,0.9876543209876543,0
-0.029831168959999998,-2.633744855967078,0
-0.02982928896,-1.4814814814814814,0
-0.02982740896,-2.2222222222222223,0
-0.02982552896,3.6213991769547325,0
-0.029823648959999997,2.3868312757201644,0
-0.029821768959999998,-3.374485596707819,0
-0.02981988896,0.9053497942386831,0
-0.02981800896,-2.05761316872428,0
-0.02981612896,2.7160493827160495,0
-0.029814248959999998,-0.9053497942386831,0
-0.02981236896,-1.8930041152263375,0
-0.02981048896,0.1646090534979424,0
-0.02980860896,2.880658436213992,0
-0.029806728959999997,1.8930041152263375,0
-0.029804848959999998,-3.539094650205761,0
-0.02980296896,-0.9053497942386831,0
-0.02980108896,-2.4691358024691357,0
-0.02979920896,3.45679012345679,0
-0.029797328959999998,2.05761316872428,0
-0.02979544896,-2.7983539094650207,0
-0.02979356896,0.49382716049382713,0
-0.02979168896,1.0699588477366255,0
-0.029789808959999997,1.646090534979424,0
-0.029787928959999998,-3.1275720164609053,0
-0.02978604896,-0.3292181069958848,0
-0.02978416896,-1.9753086419753085,0
-0.02978228896,3.2098765432098766,0
-0.029780408959999997,3.1275720164609053,0
-0.029778528959999998,-4.444444444444445,0
-0.02977664896,0.9053497942386831,0
-0.02977476896,-2.2222222222222223,0
-0.029772888959999997,1.8930041152263375,0
-0.029771008959999998,1.2345679012345678,0
-0.02976912896,-3.6213991769547325,0
-0.02976724896,0.3292181069958848,0
-0.02976536896,2.633744855967078,0
-0.029763488959999997,0.9053497942386831,0
-0.029761608959999998,-3.2098765432098766,0
-0.02975972896,-0.0823045267489712,0
-0.02975784896,-3.45679012345679,0
-0.02975596896,3.786008230452675,0
-0.029754088959999998,2.3868312757201644,0
-0.02975220896,-3.2098765432098766,0
-0.02975032896,1.0699588477366255,0
-0.02974844896,-1.646090534979424,0
-0.029746568959999997,2.3045267489711936,0
-0.029744688959999998,-1.3991769547325104,0
-0.02974280896,-1.8106995884773662,0
-0.02974092896,-0.49382716049382713,0
-0.02973904896,4.279835390946502,0
-0.029737168959999997,2.3868312757201644,0
-0.029735288959999998,-3.6213991769547325,0
-0.02973340896,-0.6584362139917695,0
-0.02973152896,-2.2222222222222223,0
-0.029729648959999997,2.7983539094650207,0
-0.029727768959999998,1.4814814814814814,0
-0.02972588896,-2.4691358024691357,0
-0.02972400896,0.411522633744856,0
-0.02972212896,1.5637860082304527,0
-0.029720248959999997,1.8106995884773662,0
-0.029718368959999998,-3.45679012345679,0
-0.02971648896,0.24691358024691357,0
-0.02971460896,-2.7160493827160495,0
-0.02971272896,3.292181069958848,0
-0.029710848959999998,3.292181069958848,0
-0.02970896896,-4.609053497942387,0
-0.02970708896,1.0699588477366255,0
-0.02970520896,-1.646090534979424,0
-0.029703328959999997,1.728395061728395,0
-0.029701448959999998,0.5761316872427984,0
-0.02969956896,-2.880658436213992,0
-0.02969768896,0.49382716049382713,0
-0.02969580896,2.7983539094650207,0
-0.029693928959999998,1.3991769547325104,0
-0.02969204896,-3.45679012345679,0
-0.02969016896,-0.6584362139917695,0
-0.02968828896,-3.374485596707819,0
-0.029686408959999997,3.539094650205761,0
-0.029684528959999998,1.8106995884773662,0
-0.02968264896,-2.880658436213992,0
-0.02968076896,1.0699588477366255,0
-0.02967888896,0.411522633744856,0
-0.029677008959999997,1.8106995884773662,0
-0.029675128959999998,-1.728395061728395,0
-0.02967324896,-1.728395061728395,0
-0.02967136896,-1.1522633744855968,0
-0.029669488959999997,3.045267489711485,0
-0.029667608959999998,2.7983539094650207,0
-0.02966572896,-3.786008230452675,0
-0.02966384896,-0.3292181069958848,0
-0.02966196896,-1.8106995884773662,0
-0.029660088959999997,2.7160493827160495,0
-0.029658208959999998,0.3292181069958848,0
-0.02965632896,-1.8930041152263375,0
-0.02965444896,0.24691358024691357,0
-0.02965256896,2.139917695473251,0
-0.029650688959999998,1.8106995884773662,0
-0.02964880896,-4.11522633744856,0
-0.02964692896,0.411522633744856,0
-0.02964504896,-3.2098765432098766,0
-0.029643168959999997,3.6213991769547325,0
-0.029641288959999998,3.045267489711934,0
-0.02963940896,-3.8683127572016462,0
-0.02963752896,1.316872427983539,0
-0.02963564896,-0.7407407407407407,0
-0.029633768959999997,1.5637860082304527,0
-0.029631888959999998,0.0823045267489712,0
-0.02963000896,-2.3868312757201644,0
-0.02962812896,-0.3292181069958848,0
-0.029626248959999997,3.374485596707819,0
-0.029624368959999998,1.5637860082304527,0
-0.02962248896,-3.539094650205761,0
-0.02962060896,0.1646090534979424,0
-0.02961872896,-3.6213991769547325,0
-0.029616848959999997,3.6213991769547325,0
-0.029614968959999998,1.316872427983539,0
-0.02961308896,-2.4691358024691357,0
-0.02961120896,0.9876543209876543,0
-0.02960932896,0.5761316872427984,0
-0.029607448959999998,1.8106995884773662,0
-0.02960556896,-2.7160493827160495,0
-0.02960368896,-0.5761316872427984,0
-0.02960180896,-1.8930041152263375,0
-0.029599928959999997,2.7160493827160495,0
