log/TDMA02.csv

#Digilent WaveForms Oscilloscope Acquisition
#Device Name: ADP5250-323F81C
#Serial Number: SN:323F81C
#Date Time: 2023-03-01 15:17:07.490.194.799
#Sample rate: 506073Hz
#Samples: 32768
#Trigger: Source: Channel 1 Type: Edge Condition: Rising Level: 0 V Hyst.: Auto
#Channel 1: Range: 2 V/div Offset: 0 V Attenuation: 1 X Coupling: DC Bandwidth: Full Sample Mode: Average
#Channel 2: Range: 200 mV/div Offset: 0 V Attenuation: 1 X Coupling: DC Bandwidth: Full

Time (s),Channel 1 (V),Channel 2 (V)
-0.032375844036,0.411522633744856,0
-0.032373868036,-0.5761316872410018,0
-0.032371892036,0.411522633744856,0
-0.032369916036,0.411522633744856,0
-0.032367940036,-0.7407407407407407,0
-0.032365964036,0.1646090534979424,0
-0.032363988036,0.1646090534979424,0
-0.032362012036,-0.740740740738495,0
-0.032360036035999996,0.49382716049307857,0
-0.032358060036,0.08230452674971978,0
-0.032356084036,-0.6584362139904222,0
-0.032354108036,0.49382716049382713,0
-0.032352132036,0.1646090534979424,0
-0.032350156036,-0.6584362139917695,0
-0.032348180036,0.5761316872427984,0
-0.032346204036,-0.3292181069958848,0
-0.032344228036,-0.2469135802458656,0
-0.032342252036,0.32921810699408827,0
-0.032340276036,-0.6584362139899729,0
-0.032338300036,0.32921810699408816,0
-0.032336324036,0.0823045267489712,0
-0.032334348036,-0.5761316872427984,0
-0.032332372036,0.49382716049382713,0
-0.032330396036,-0.3292181069958848,0
-0.032328420036,0.24691358024691357,0
-0.032326444036,0.08230452674747409,0
-0.032324468036,-0.7407407407381956,0
-0.032322492036,0.6584362139892244,0
-0.032320516036,-0.32921810699408816,0
-0.032318540036,-0.5761316872427984,0
-0.032316564036,0.411522633744856,0
-0.032314588036,-0.411522633744856,0
-0.032312612036,0.3292181069958848,0
-0.032310636036,0.3292181069958848,0
-0.032308660036,-0.9876543209837618,0
-0.032306684036,1.1522633744832014,0
-0.032304708036,-0.1646090534955469,0
-0.032302732036,-0.41152263374440684,0
-0.032300756036,0.41152263374335885,0
-0.032298780036,0,0
-0.032296804036,-0.823045267489712,0
-0.032294828036,0.24691358024691357,0
-0.032292852036,-0.5761316872427984,0
-0.032290876036,7.485553101011755e-13,0
-0.032288900036,0.41152263374261033,0
-0.032286924035999996,-0.8230452674873165,0
-0.032284948036,0.4938271604914317,0
-0.032282972036,0.3292181069961842,0
-0.032280996036,-0.7407407407407407,0
-0.032279020036,0.24691358024691357,0
-0.032277044036,-0.6584362139917695,0
-0.032275068036,-0.411522633744856,0
-0.032273092036,0.411522633744856,0
-0.032271116036,-0.411522633743808,0
-0.032269140035999996,0.16460905349704413,0
-0.032267164036,-0.32921810699498644,0
-0.032265188036,-0.4938271604935277,0
-0.032263212036,0.411522633744856,0
-0.032261236036,0,0
-0.032259260036,-0.5761316872427984,0
-0.032257284036,0.1646090534979424,0
-0.032255308036,-0.0823045267489712,0
-0.032253332036,-0.4938271604924797,0
-0.032251356035999997,0.2469135802458656,0
-0.032249380036,-0.3292181069948369,0
-0.032247404036,-1.6460905349770285,0
-0.032245428036,0.49382716049382713,0
-0.032243452036,-0.5761316872427984,0
-0.032241476036,0.5761316872427984,0
-0.032239500036,0,0
-0.032237524036,-0.3292181069958848,0
-0.032235548036,0.7407407407377464,0
-0.032233572036,-0.9053497942376352,0
-0.032231596036,-0.32921810699693266,0
-0.032229620036,0.32921810699468707,0
-0.032227644036,-0.0823045267489712,0
-0.032225668036,0.1646090534979424,0
-0.032223692036,0.3292181069958848,0
-0.032221716036,-1.0699588477366255,0
-0.032219740036,0.5761316872427984,0
-0.032217764036,0.0823045267477735,0
-0.032215788036,-0.5761316872411516,0
-0.032213812036,0.32921810699423804,0
-0.032211836036,0.3292181069958848,0
-0.032209860036,-0.7407407407387945,0
-0.032207884036,0.24691358024691357,0
-0.032205908036,0,0
-0.032203932036,-0.411522633744856,0
-0.032201956036,0.5761316872427984,0
-0.032199980036,-0.8230452674868675,0
-0.032198004036,0.7407407407398424,0
-0.032196028035999996,0.24691358024541646,0
-0.032194052036,-0.5761316872413013,0
-0.032192076036,0.24691358024541643,0
-0.032190100036,-0.3292181069958848,0
-0.032188124036,-0.24691358024691357,0
-0.032186148036,0.411522633744856,0
-0.032184172036,-0.411522633744856,0
-0.032182196036,0,0
-0.032180220036,0.32921810699438764,0
-0.032178244035999996,-0.4938271604921803,0
-0.032176268036,0.4115226337432092,0
-0.032174292036,0.08230452674957006,0
-0.032172316036,0,0
-0.032170340036,-0.1646090534979424,0
-0.032168364036,-0.49382716049382713,0
-0.032166388036,0.411522633744856,0
-0.032164412036,0.9876543209876543,0
-0.032162436036,-1.8930041152201993,0
-0.032160460035999996,1.4814814814789363,0
-0.032158484036,0.08230452675151634,0
-0.032156508036,-0.8230452674880652,0
-0.032154532036,0.411522633744856,0
-0.032152556036,0.1646090534979424,0
-0.032150580036,0.5761316872427984,0
-0.032148604036,-2.3045267489711936,0
-0.032146628036,1.728395061728395,0
-0.032144652036,-0.4115226337453051,0
-0.032142676036,-0.658436213989973,0
-0.032140700036,0.32921810699408816,0
-0.032138724036,0.3292181069958848,0
-0.032136748036,-0.3292181069958848,0
-0.032134772036,-0.823045267489712,0
-0.032132796036,0.3292181069958848,0
-0.032130820036,0.5761316872427984,0
-0.032128844036,-0.823045267489712,0
-0.032126868036,0.3292181069972322,0
-0.032124892036,1.0699588477351285,0
-0.032122916036,0.2469135802484107,0
-0.032120940036,-1.3168724279806945,0
-0.032118964036,1.3168724279787483,0
-0.032116988036,0.0823045267489712,0
-0.032115012036,0.3292181069958848,0
-0.032113036036,-0.411522633744856,0
-0.032111060036,0.1646090534979424,0
-0.032109084036,1.5637860082232666,0
-0.032107108036,-2.3868312757138765,0
-0.032105132035999996,1.0699588477355775,0
-0.032103156036,0.4938271604948751,0
-0.032101180036,-1.234567901231424,0
-0.032099204036,0.411522633744856,0
-0.032097228036,1.728395061728395,0
-0.032095252036,-0.7407407407407407,0
-0.032093276036,0.411522633744856,0
-0.032091300036,-0.3292181069958848,0
-0.032089324036,0.1646090534980921,0
-0.032087348035999996,0.2469135802434702,0
-0.032085372036,-1.6460905349759807,0
-0.032083396036,1.2345679012293278,0
-0.032081420036,0.9053497942386831,0
-0.032079444036,-2.962962962962963,0
-0.032077468036,2.3868312757201644,0
-0.032075492036,0.1646090534979424,0
-0.032073516036,-0.823045267489712,0
-0.032071540036,0.5761316872411516,0
-0.032069564035999996,-0.32921810699274084,0
-0.032067588036,1.3991769547293664,0
-0.032065612036,-2.2222222222156356,0
-0.032063636036,0.3292181069958848,0
-0.032061660036,0.49382716049382713,0
-0.032059684036,0.3292181069958848,0
-0.032057708036,-1.8930041152263375,0
-0.032055732036,1.646090534979424,0
-0.032053756036,-0.411522633744856,0
-0.032051780036,-0.41152263374320913,0
-0.032049804036,0.49382716049218034,0
-0.032047828036,-0.5761316872408522,0
-0.032045852036,0.0823045267489712,0
-0.032043876036,-1.1522633744855968,0
-0.032041900036,0.9053497942386831,0
-0.032039924036,-0.0823045267489712,0
-0.032037948036,-1.728395061728395,0
-0.032035972036,0.9053497942376352,0
-0.032033996036,0.3292181069951362,0
-0.032032020036,-0.08230452674822264,0
-0.032030044036,-0.5761316872419001,0
-0.032028068036,0.4115226337430594,0
-0.032026092036,1.316872427983539,0
-0.032024116036,-2.880658436213992,0
-0.032022140036,0.9053497942386831,0
-0.032020164036,0.1646090534979424,0
-0.032018188036,0.7407407407381956,0
-0.032016212036,-0.6584362139898233,0
-0.032014236035999996,0.41152263374455655,0
-0.032012260036,0.246913580247213,0
-0.032010284036,4.491407246121071e-13,0
-0.032008308036,-0.5761316872427984,0
-0.032006332036,0.411522633744856,0
-0.032004356036,1.0699588477366255,0
-0.032002380036,-2.4691358024691357,0
-0.032000404036,1.5637860082304527,0
-0.031998428036,-0.08230452675271396,0
-0.031996452035999996,-2.139917695466963,0
-0.031994476036,1.3168724279772515,0
-0.031992500036,-0.32921810699289056,0
-0.031990524036,-0.3292181069958848,0
-0.031988548036,0.411522633744856,0
-0.031986572036,-0.411522633744856,0
-0.031984596036,1.5637860082304527,0
-0.031982620036,-1.8930041152263375,0
-0.031980644036,-0.24691358024451818,0
-0.031978668035999996,1.0699588477361763,0
-0.031976692036,0.8230452674901612,0
-0.031974716036,-1.8106995884725754,0
-0.031972740036,1.8106995884773662,0
-0.031970764036,-0.823045267489712,0
-0.031968788036,0,0
-0.031966812036,0.3292181069958848,0
-0.031964836036,-0.6584362139917695,0
-0.031962860036,1.399176954725474,0
-0.031960884036,-2.4691358024634464,0
-0.031958908036,0.6584362139860804,0
-0.031956932036,0.6584362139917695,0
-0.031954956036,-1.8106995884773662,0
-0.031952980036,0.5761316872427984,0
-0.031951004036,0.823045267489712,0
-0.031949028036,-0.9053497942386831,0
-0.031947052036,0.3292181069958848,0
-0.031945076036,0.16460905349824181,0
-0.031943100036,0.3292181069934894,0
-0.031941124036,-0.9876543209852588,0
-0.031939148036,-1.7965628984484283e-12,0
-0.031937172036,0.3292181069952859,0
-0.031935196036,1.316872427983539,0
-0.031933220036,-2.633744855967078,0
-0.031931244036,1.5637860082304527,0
-0.031929268036,0.0823045267489712,0
-0.031927292036,-0.8230452674883646,0
-0.031925316036,-0.08230452674822264,0
-0.031923340036,0.3292181069951362,0
-0.031921364036,0.9053497942376352,0
-0.031919388036,-2.962962962955926,0
-0.031917412036,0.6584362139917695,0
-0.031915436036,-0.5761316872427984,0
-0.031913460036,-0.49382716049382713,0
-0.031911484036,0.49382716049382713,0
-0.031909508036,1.497110620202351e-12,0
-0.031907532036,0.8230452674882148,0
-0.031905556035999996,-1.497110620202351e-12,1.497110620202351e-14
-0.031903580036,-0.8230452674882148,0.00823045267488215
-0.031901604036,1.3168724279796467,1.4970663597679845e-14
-0.031899628036,-1.4814814814814814,0
-0.031897652036,-1.0699588477366255,0
-0.031895676036,1.2345679012345678,0
-0.031893700036,0.1646090534979424,0
-0.031891724036,-1.8930041152263375,0
-0.031889748036,1.6460905349749326,0
-0.031887772035999996,-0.8230452674874663,0
-0.031885796036,0.41152263374261033,0
-0.031883820036,0.08230452674957006,0
-0.031881844036,-0.7407407407407407,0
-0.031879868036,1.728395061728395,0
-0.031877892036,-2.880658436213992,0
-0.031875916036,0.9053497942386831,0
-0.031873940036,0.3292181069958848,0
-0.031871964036,-0.49382716049277914,0
-0.031869988035999997,0.08230452675076773,0
-0.031868012036,1.069958847734829,0
-0.031866036036,-0.9876543209839115,0
-0.031864060036,0.3292181069958848,0
-0.031862084036,0.24691358024691357,0
-0.031860108036,-0.1646090534979424,0
-0.031858132036,0.0823045267489712,0
-0.031856156036,-0.6584362139917695,0
-0.031854180036,0.5761316872433973,0
-0.031852204036,0.9053497942322455,0
-0.031850228036,-2.6337448559606407,0
-0.031848252036,1.646090534971639,0
-0.031846276036,0.24691358024691357,0
-0.031844300036,-0.823045267489712,0
-0.031842324036,0.411522633744856,0
-0.031840348036,0.0823045267489712,0
-0.031838372036,0.5761316872427984,0
-0.031836396036,-1.7283950617240533,0
-0.031834420036,0.6584362139902724,0
-0.031832444036,-0.16460905349644528,0
-0.031830468036,1.0699588477343798,0
-0.031828492036,-1.399176954728019,0
-0.031826516036,1.728395061728395,0
-0.031824540036,-0.24691358024691357,0
-0.031822564036,-0.6584362139917695,0
-0.031820588036,0.49382716049382713,0
-0.031818612036,0.2469135802443685,0
-0.031816636036,-1.152263374484399,0
-0.031814660035999996,-0.4938271604915815,0
-0.031812684036,0.7407407407384949,0
-0.031810708036,-0.3292181069939386,0
-0.031808732036,-1.728395061728395,0
-0.031806756036,0.3292181069958848,0
-0.031804780036,-0.1646090534979424,0.00823045267489712
-0.031802804036,0.1646090534979424,0
-0.031800828036,-0.411522633744856,0
-0.031798852036,0.16460905350183488,0
-0.031796876035999996,2.3045267489614623,0
-0.031794900036,-3.045267489702203,0
-0.031792924036,0.9876543209803188,0
-0.031790948036,0.5761316872427984,0
-0.031788972036,0.3292181069958848,0
-0.031786996036,-0.6584362139917695,0
-0.031785020036,1.2345679012345678,0
-0.031783044036,-0.823045267489712,0
-0.031781068036,0.41152263374350856,0
-0.031779092035999996,-0.3292181069942379,0
-0.031777116036,0.5761316872411517,0
-0.031775140036,0.8230452674892628,0
-0.031773164036,-1.8106995884773662,0
-0.031771188036,1.316872427983539,0
-0.031769212036,0.24691358024691357,0
-0.031767236036,-1.728395061728395,0
-0.031765260036,1.5637860082304527,0
-0.031763284036,0.24691358024496732,0
-0.031761308036,-0.8230452674871669,0
-0.031759332036,0.5761316872402533,0
-0.031757356036,0.16460905349869098,0
-0.031755380036,0.9053497942386831,0
-0.031753404036,-1.728395061728395,0
-0.031751428036,0,0
-0.031749452036,0.6584362139917695,0
-0.031747476036,2.880658436213992,0
-0.031745500036,-2.4691358024610515,0
-0.031743524036,1.9753086419715657,0
-0.031741548036,-0.08230452674522848,0
-0.031739572036,-0.740740740739543,0
-0.031737596036,0.16460905349629562,0
-0.031735620036,0.1646090534979424,0
-0.031733644036,0.24691358024691357,0
-0.031731668036,-1.5637860082304527,0
-0.031729692036,0.5761316872427984,0
-0.031727716036,0.16460905349599614,0
-0.031725740036,-0.9053497942370363,0
-0.031723764035999996,1.646821682222586e-12,0
-0.031721788036,0.9053497942370363,0
-0.031719812036,-0.08230452674717459,0
-0.031717836036,-0.6584362139917695,0
-0.031715860036,0.5761316872427984,0
-0.031713884036,0.823045267489712,0
-0.031711908036,-2.139917695473251,0
-0.031709932036,0.7407407407407407,0
-0.031707956036,0.16460905349973892,0
-0.031705980035999996,1.1522633744799078,0
-0.031704004036,-1.9753086419696193,0
-0.031702028036,0.9053497942334432,0
-0.031700052036,0.24691358024691357,0
-0.031698076036,-0.0823045267489712,0
-0.031696100036,-0.5761316872427984,0
-0.031694124036,0.411522633744856,0
-0.031692148036,0.823045267489712,0
-0.031690172036,-2.3045267489644568,0
-0.031688196035999996,1.3991769547292168,0
-0.031686220036,-0.4115226337415625,0
-0.031684244036,-0.246913580247213,0
-0.031682268036,0.3292181069958848,0
-0.031680292036,0.0823045267489712,0
-0.031678316036,0.1646090534979424,0
-0.031676340036,0,0
-0.031674364036,-0.7407407407407407,0
-0.031672388036,1.3991769547277195,0
-0.031670412036,-1.2345679012336697,0
-0.031668436036,-0.740740740741639,0
-0.031666460036,1.4814814814774395,0
-0.031664484036,0.24691358024691357,0
-0.031662508036,-2.7160493827160495,0
-0.031660532036,1.8930041152263375,0
-0.031658556036,-0.7407407407407407,0
-0.031656580036,0.24691358024691357,0
-0.031654604036,0.24691358024511703,0
-0.031652628036,-0.7407407407362494,0
-0.031650652036,1.7283950617239034,0
-0.031648676036,-2.7160493827079657,0
-0.031646700036,0.7407407407344531,0
-0.031644724036,0.411522633744856,0
-0.031642748036,-0.49382716049382713,0
-0.031640772036,0.0823045267489712,0
-0.031638796036,1.0699588477366255,0
-0.031636820036,-0.41152263374335885,0
-0.031634844036,0.41152263374455655,0
-0.031632868035999996,0.2469135802463147,0
-0.031630892036,-0.08230452674837235,0
-0.031628916036,-0.32921810699543563,0
-0.031626940036,-1.2345679012345678,0
-0.031624964036,0.24691358024691357,0
-0.031622988036,0.5761316872427984,0
-0.031621012036,-2.4691358024691357,0
-0.031619036036,0.9876543209876543,0
-0.031617060036,-0.3292181069961842,0
-0.031615084035999996,-0.4938271604926294,0
-0.031613108036,0.1646090534967447,0
-0.031611132036,0.24691358024676385,0
-0.031609156036,0.49382716049382713,0
-0.031607180036,-2.2222222222222223,0.00823045267489712
-0.031605204036,0.9876543209876543,0
-0.031603228036,-0.411522633744856,0
-0.031601252036,1.5637860082304527,0
-0.031599276036,-0.9876543209863069,0
-0.031597300035999996,-0.246913580246165,0
-0.031595324036,0.16460905349719385,0
-0.031593348036,-0.576131687241451,0
-0.031591372036,0.1646090534979424,0
-0.031589396036,0.6584362139917695,0
-0.031587420036,-0.823045267489712,0
-0.031585444036,-0.49382716049382713,0
-0.031583468036,1.316872427983539,0
-0.031581492036,-0.9053497942400305,0
-0.031579516036,-1.6460905349743338,0
-0.031577540036,1.1522633744805066,0
-0.031575564036,-0.3292181069931901,0
-0.031573588036,0.1646090534979424,0
-0.031571612036,-0.1646090534979424,0
-0.031569636036,-0.3292181069958848,0
-0.031567660036,0.9876543209876543,0
-0.031565684036,-3.292181069958848,0
-0.031563708036,1.2345679012332205,0
-0.031561732036,0.49382716049382713,0
-0.031559756036,0.49382716049382713,0
-0.031557780036,-1.069958847733781,0
-0.031555804036,1.2345679012303763,0
-0.031553828036,-0.7407407407407407,0
-0.031551852036,0.3292181069958848,0
-0.031549876036,-0.24691358024691357,0
-0.031547900036,-0.1646090534979424,0
-0.031545924036,0.576131687238906,0
-0.031543948036,-1.5637860082262607,0
-0.031541972035999996,0.7407407407396928,0
-0.031539996036,0.16460905349899035,0
-0.031538020036,-1.8930041152225947,0
-0.031536044036,0.823045267489712,0
-0.031534068036,0.6584362139917695,0
-0.031532092036,-0.9053497942386831,0
-0.031530116036,0.411522633744856,0
-0.031528140036,0.16460905349914007,0
-0.031526164036,0.8230452674843224,0
-0.031524188035999996,-2.139917695468161,0
-0.031522212036,0.6584362139866795,0
-0.031520236036,0.08230452675001909,0
-0.031518260036,1.316872427983539,0
-0.031516284036,-2.551440329218107,0
-0.031514308036,1.728395061728395,0
-0.031512332036,0,0
-0.031510356036,-0.823045267489712,0
-0.031508380036,0.576131687241451,0
-0.031506404035999996,-0.1646090534967447,0
-0.031504428036,0.4938271604926294,0
-0.031502452036,-1.3991769547290671,0
-0.031500476036,0.6584362139917695,0
-0.031498500036,0.24691358024691357,0
-0.031496524036,0,0
-0.031494548036,-0.3292181069958848,0
-0.031492572036,1.0699588477366255,0
-0.031490596036,-0.16460905349884064,0
-0.031488620036,-0.6584362139911707,0
-0.031486644036,-0.32921810699648363,0
-0.031484668036,1.3168724279805448,0
-0.031482692036,-3.045267489711934,0
-0.031480716036,1.0699588477366255,0
-0.031478740036,0.24691358024691357,0
-0.031476764036,1.3991769547325104,0
-0.031474788036,-2.05761316872428,0
-0.031472812036,0.905349794237186,0
-0.031470836036,0.08230452674882148,0
-0.031468860036,1.4971357487070236e-13,0
-0.031466884036,-0.5761316872417505,0
-0.031464908036,0.32921810699423804,0
-0.031462932036,1.0699588477366255,0
-0.031460956036,-2.633744855967078,0
-0.031458980036,1.646090534979424,0
-0.031457004036,-0.24691358024691357,0
-0.031455028036,-0.08230452674852207,0
-0.031453052036,0.16460905349824181,0
-0.031451076036,0.32921810699558535,0
-0.031449100036,-0.16460905349704408,0
-0.031447124036,0.6584362139902724,0
-0.031445148036,-0.6584362139917695,0
-0.031443172036,1.3991769547325104,0
-0.031441196036,-1.5637860082304527,0
-0.031439220036,-0.24691358024691357,0
-0.031437244036,0.6584362139913205,0
-0.031435268036,0.411522633738119,0
-0.031433292035999996,-3.292181069949566,0
-0.031431316036,1.8106995884680837,0
-0.031429340036,0.08230452675211519,0
-0.031427364036,-0.9876543209876543,0
-0.031425388036,0.5761316872427984,0
-0.031423412036,-0.3292181069958848,0
-0.031421436036,1.0699588477366255,0
-0.031419460036,-2.139917695473251,0
-0.031417484036,0.6584362139914701,0
-0.031415508035999996,0.4938271604945757,0
-0.031413532036,0.9053497942379345,0
-0.031411556036,-1.0699588477330324,0
-0.031409580036,1.646090534979424,0
-0.031407604036,-1.646090534979424,0
-0.031405628036,0.411522633744856,0
-0.031403652036,0.1646090534979424,0
-0.031401676036,0.1646090534979424,0
-0.031399700036,-0.246913580247213,0
-0.031397724035999997,-0.4115226337439577,0
-0.031395748036,0.08230452674807293,0
-0.031393772036,0.4115226337442571,0
-0.031391796036,-2.4691358024691357,0
-0.031389820036,0.7407407407407407,0
-0.031387844036,0.5761316872427984,0
-0.031385868036,-0.3292181069958848,0
-0.031383892036,-0.411522633744856,0
-0.031381916036,0.411522633745904,0
-0.031379940036,0.9876543209809173,0
-0.031377964036,-2.7160493827093126,0
-0.031375988036,1.5637860082226678,0
-0.031374012036,-0.411522633744856,0
-0.031372036036,1.3991769547325104,0
-0.031370060036,-0.9053497942386831,0
-0.031368084036,0.49382716049382713,0
-0.031366108036,0,0
-0.031364132036,0.0823045267476238,0
-0.031362156036,-0.6584362139887753,0
-0.031360180036,0.9876543209846601,0
-0.031358204036,-0.9876543209840611,0
-0.031356228036,-0.7407407407411899,0
-0.031354252036,1.1522633744855968,0
